#House Adiur#
10032901 = {
	name="Sumalika"	# a lord
	dynasty=32901

	religion="shadowbinders"
	culture="asshai"

	2955.1.1 = {birth="2955.1.1"}
	2971.1.1 = {add_trait=trained_warrior}
	2973.1.1 = {add_spouse=40032901}
	3028.1.1 = {death="3028.1.1"}
}
40032901 = {
	name="Quaithe"
	female=yes

	religion="shadowbinders"
	culture="asshai"

	2955.1.1 = {birth="2955.1.1"}
	3028.1.1 = {death="3028.1.1"}
}
10132901 = {
	name="Urnammu"	# not a lord
	dynasty=32901

	religion="shadowbinders"
	culture="asshai"

	father=10032901
	mother=40032901

	2976.1.1 = {birth="2976.1.1"}
	2992.1.1 = {add_trait=trained_warrior}
	2994.1.1 = {add_spouse=40132901}
	3017.1.1 = {death="3017.1.1"}
}
40132901 = {
	name="Belessa"
	female=yes

	religion="shadowbinders"
	culture="asshai"

	2976.1.1 = {birth="2976.1.1"}
	3017.1.1 = {death="3017.1.1"}
}
10232901 = {
	name="Quazur"	# not a lord
	dynasty=32901

	religion="shadowbinders"
	culture="asshai"

	father=10032901
	mother=40032901

	2978.1.1 = {birth="2978.1.1"}
	2994.1.1 = {add_trait=poor_warrior}
	3030.1.1 = {death="3030.1.1"}
}
10332901 = {
	name="Taram"	# not a lord
	female=yes
	dynasty=32901

	religion="shadowbinders"
	culture="asshai"

	father=10032901
	mother=40032901

	2979.1.1 = {birth="2979.1.1"}
	3011.1.1 = {death="3011.1.1"}
}
10432901 = {
	name="Sapurtum"	# not a lord
	female=yes
	dynasty=32901

	religion="shadowbinders"
	culture="asshai"

	father=10132901
	mother=40132901

	2995.1.1 = {birth="2995.1.1"}
	3078.1.1 = {death="3078.1.1"}
}
10532901 = {
	name="Awil"	# a lord
	dynasty=32901

	religion="shadowbinders"
	culture="asshai"

	father=10132901
	mother=40132901

	2997.1.1 = {birth="2997.1.1"}
	3013.1.1 = {add_trait=poor_warrior}
	3015.1.1 = {add_spouse=40532901}
	3043.1.1 = {death="3043.1.1"}
}
40532901 = {
	name="Aya"
	female=yes

	religion="shadowbinders"
	culture="asshai"

	2997.1.1 = {birth="2997.1.1"}
	3043.1.1 = {death="3043.1.1"}
}
10632901 = {
	name="Munawirtum"	# not a lord
	dynasty=32901

	religion="shadowbinders"
	culture="asshai"

	father=10132901
	mother=40132901

	2998.1.1 = {birth="2998.1.1"}
	3014.1.1 = {add_trait=poor_warrior}
	3062.1.1 = {death="3062.1.1"}
}
10732901 = {
	name="Dadanum"	# a lord
	dynasty=32901

	religion="shadowbinders"
	culture="asshai"

	father=10532901
	mother=40532901

	3021.1.1 = {birth="3021.1.1"}
	3037.1.1 = {add_trait=trained_warrior}
	3039.1.1 = {add_spouse=40732901}
	3054.1.1 = {death = {death_reason = death_murder}}
}
40732901 = {
	name="Aya"
	female=yes

	religion="shadowbinders"
	culture="asshai"

	3021.1.1 = {birth="3021.1.1"}
	3054.1.1 = {death="3054.1.1"}
}
10832901 = {
	name="Ishtup"	# not a lord
	dynasty=32901

	religion="shadowbinders"
	culture="asshai"

	father=10532901
	mother=40532901

	3022.1.1 = {birth="3022.1.1"}
	3038.1.1 = {add_trait=skilled_warrior}
	3040.1.1 = {add_spouse=40832901}
	3071.1.1 = {death="3071.1.1"}
}
40832901 = {
	name="Gemethega"
	female=yes

	religion="shadowbinders"
	culture="asshai"

	3022.1.1 = {birth="3022.1.1"}
	3071.1.1 = {death="3071.1.1"}
}
10932901 = {
	name="Bikku"	# not a lord
	female=yes
	dynasty=32901

	religion="shadowbinders"
	culture="asshai"

	father=10532901
	mother=40532901

	3025.1.1 = {birth="3025.1.1"}
	3061.1.1 = {death="3061.1.1"}
}
11032901 = {
	name="Enheduana"	# not a lord
	female=yes
	dynasty=32901

	religion="shadowbinders"
	culture="asshai"

	father=10532901
	mother=40532901

	3028.1.1 = {birth="3028.1.1"}
	3070.1.1 = {death="3070.1.1"}
}
11132901 = {
	name="Mamagal"	# a lord
	dynasty=32901

	religion="shadowbinders"
	culture="asshai"

	father=10732901
	mother=40732901

	3048.1.1 = {birth="3048.1.1"}
	3064.1.1 = {add_trait=poor_warrior}
	3066.1.1 = {add_spouse=41132901}
	3114.1.1 = {death="3114.1.1"}
}
41132901 = {
	name="Ishtare"
	female=yes

	religion="shadowbinders"
	culture="asshai"

	3048.1.1 = {birth="3048.1.1"}
	3114.1.1 = {death="3114.1.1"}
}
11232901 = {
	name="Nammu"	# not a lord
	female=yes
	dynasty=32901

	religion="shadowbinders"
	culture="asshai"

	father=10832901
	mother=40832901

	3047.1.1 = {birth="3047.1.1"}
	3089.1.1 = {death = {death_reason = death_accident}}
}
11332901 = {
	name="Bunuth"	# not a lord
	dynasty=32901

	religion="shadowbinders"
	culture="asshai"

	father=10832901
	mother=40832901

	3050.1.1 = {birth="3050.1.1"}
	3066.1.1 = {add_trait=trained_warrior}
	3102.1.1 = {death="3102.1.1"}
}
11432901 = {
	name="Tehuth"	# not a lord
	dynasty=32901

	religion="shadowbinders"
	culture="asshai"

	father=10832901
	mother=40832901

	3053.1.1 = {birth="3053.1.1"}
	3069.1.1 = {add_trait=trained_warrior}
	3106.1.1 = {death="3106.1.1"}
}
11532901 = {
	name="Damuzi"	# a lord
	dynasty=32901

	religion="shadowbinders"
	culture="asshai"

	father=11132901
	mother=41132901

	3079.1.1 = {birth="3079.1.1"}
	3095.1.1 = {add_trait=trained_warrior}
	3097.1.1 = {add_spouse=41532901}
	3133.1.1 = {death="3133.1.1"}
}
41532901 = {
	name="Daqqartum"
	female=yes

	religion="shadowbinders"
	culture="asshai"

	3079.1.1 = {birth="3079.1.1"}
	3133.1.1 = {death="3133.1.1"}
}
11632901 = {
	name="Ubaruth"	# not a lord
	dynasty=32901

	religion="shadowbinders"
	culture="asshai"

	father=11132901
	mother=41132901

	3081.1.1 = {birth="3081.1.1"}
	3097.1.1 = {add_trait=trained_warrior}
	3151.1.1 = {death="3151.1.1"}
}
11732901 = {
	name="Dadazig"	# not a lord
	dynasty=32901

	religion="shadowbinders"
	culture="asshai"

	father=11132901
	mother=41132901

	3082.1.1 = {birth="3082.1.1"}
	3098.1.1 = {add_trait=poor_warrior}
	3147.1.1 = {death="3147.1.1"}
}
11832901 = {
	name="Quaithe"	# not a lord
	female=yes
	dynasty=32901

	religion="shadowbinders"
	culture="asshai"

	father=11532901
	mother=41532901

	3102.1.1 = {birth="3102.1.1"}
	3151.1.1 = {death="3151.1.1"}
}
11932901 = {
	name="Qasmath"	# a lord
	dynasty=32901

	religion="shadowbinders"
	culture="asshai"

	father=11532901
	mother=41532901

	3104.1.1 = {birth="3104.1.1"}
	3120.1.1 = {add_trait=skilled_warrior}
	3122.1.1 = {add_spouse=41932901}
	3147.1.1 = {death="3147.1.1"}
}
41932901 = {
	name="Aya"
	female=yes

	religion="shadowbinders"
	culture="asshai"

	3104.1.1 = {birth="3104.1.1"}
	3147.1.1 = {death="3147.1.1"}
}
12032901 = {
	name="Shepsin"	# not a lord
	dynasty=32901

	religion="shadowbinders"
	culture="asshai"

	father=11532901
	mother=41532901

	3107.1.1 = {birth="3107.1.1"}
	3123.1.1 = {add_trait=trained_warrior}
	3125.1.1 = {add_spouse=42032901}
	3148.1.1 = {death="3148.1.1"}
}
42032901 = {
	name="Daqqartum"
	female=yes

	religion="shadowbinders"
	culture="asshai"

	3107.1.1 = {birth="3107.1.1"}
	3148.1.1 = {death="3148.1.1"}
}
12132901 = {
	name="Samuqan"	# a lord
	dynasty=32901

	religion="shadowbinders"
	culture="asshai"

	father=11932901
	mother=41932901

	3131.1.1 = {birth="3131.1.1"}
	3147.1.1 = {add_trait=poor_warrior}
	3149.1.1 = {add_spouse=42132901}
	3176.1.1 = {death="3176.1.1"}
}
42132901 = {
	name="Ahassuth"
	female=yes

	religion="shadowbinders"
	culture="asshai"

	3131.1.1 = {birth="3131.1.1"}
	3176.1.1 = {death="3176.1.1"}
}
12232901 = {
	name="Kithar"	# not a lord
	female=yes
	dynasty=32901

	religion="shadowbinders"
	culture="asshai"

	father=11932901
	mother=41932901

	3132.1.1 = {birth="3132.1.1"}
	3189.1.1 = {death="3189.1.1"}
}
12332901 = {
	name="Bau"	# not a lord
	female=yes
	dynasty=32901

	religion="shadowbinders"
	culture="asshai"

	father=12032901
	mother=42032901

	3135.1.1 = {birth="3135.1.1"}
	3169.1.1 = {death="3169.1.1"}
}
12432901 = {
	name="Erethkiga"	# not a lord
	female=yes
	dynasty=32901

	religion="shadowbinders"
	culture="asshai"

	father=12032901
	mother=42032901

	3137.1.1 = {birth="3137.1.1"}
	3165.1.1 = {death="3165.1.1"}
}
12532901 = {
	name="Utu"	# a lord
	dynasty=32901

	religion="shadowbinders"
	culture="asshai"

	father=12032901
	mother=42032901

	3139.1.1 = {birth="3139.1.1"}
	3155.1.1 = {add_trait=poor_warrior}
	3157.1.1 = {add_spouse=42532901}
	3215.1.1 = {death = {death_reason = death_accident}}
}
42532901 = {
	name="Gemithe"
	female=yes

	religion="shadowbinders"
	culture="asshai"

	3139.1.1 = {birth="3139.1.1"}
	3215.1.1 = {death="3215.1.1"}
}
12632901 = {
	name="Hunhal"	# not a lord
	dynasty=32901

	religion="shadowbinders"
	culture="asshai"

	father=12032901
	mother=42032901

	3141.1.1 = {birth="3141.1.1"}
	3157.1.1 = {add_trait=poor_warrior}
	3198.1.1 = {death="3198.1.1"}
}
12732901 = {
	name="Humbab"	# not a lord
	dynasty=32901

	religion="shadowbinders"
	culture="asshai"

	father=12532901
	mother=42532901

	3164.1.1 = {birth="3164.1.1"}
	3180.1.1 = {add_trait=skilled_warrior}
	3182.1.1 = {add_spouse=42732901}
	3205.1.1 = {death = {death_reason = death_accident}}
}
42732901 = {
	name="Nindukugga"
	female=yes

	religion="shadowbinders"
	culture="asshai"

	3164.1.1 = {birth="3164.1.1"}
	3205.1.1 = {death="3205.1.1"}
}
12832901 = {
	name="Ninsun"	# not a lord
	female=yes
	dynasty=32901

	religion="shadowbinders"
	culture="asshai"

	father=12532901
	mother=42532901

	3167.1.1 = {birth="3167.1.1"}
	3221.1.1 = {death="3221.1.1"}
}
12932901 = {
	name="Ibnatum"	# a lord
	dynasty=32901

	religion="shadowbinders"
	culture="asshai"

	father=12732901
	mother=42732901

	3184.1.1 = {birth="3184.1.1"}
	3200.1.1 = {add_trait=trained_warrior}
	3202.1.1 = {add_spouse=42932901}
	3240.1.1 = {death="3240.1.1"}
}
42932901 = {
	name="Erethe"
	female=yes

	religion="shadowbinders"
	culture="asshai"

	3184.1.1 = {birth="3184.1.1"}
	3240.1.1 = {death="3240.1.1"}
}
13032901 = {
	name="Quazur"	# not a lord
	dynasty=32901

	religion="shadowbinders"
	culture="asshai"

	father=12732901
	mother=42732901

	3187.1.1 = {birth="3187.1.1"}
	3203.1.1 = {add_trait=skilled_warrior}
	3238.1.1 = {death="3238.1.1"}
}
13132901 = {
	name="Ishtup"	# not a lord
	dynasty=32901

	religion="shadowbinders"
	culture="asshai"

	father=12732901
	mother=42732901

	3189.1.1 = {birth="3189.1.1"}
	3205.1.1 = {add_trait=poor_warrior}
	3232.1.1 = {death="3232.1.1"}
}
13232901 = {
	name="Ahassuth"	# not a lord
	female=yes
	dynasty=32901

	religion="shadowbinders"
	culture="asshai"

	father=12732901
	mother=42732901

	3190.1.1 = {birth="3190.1.1"}
	3226.1.1 = {death="3226.1.1"}
}
13332901 = {
	name="Qasmath"	# a lord
	dynasty=32901

	religion="shadowbinders"
	culture="asshai"

	father=12932901
	mother=42932901

	3212.1.1 = {birth="3212.1.1"}
	3228.1.1 = {add_trait=poor_warrior}
	3230.1.1 = {add_spouse=43332901}
	3273.1.1 = {death="3273.1.1"}
}
43332901 = {
	name="Ninsun"
	female=yes

	religion="shadowbinders"
	culture="asshai"

	3212.1.1 = {birth="3212.1.1"}
	3273.1.1 = {death="3273.1.1"}
}
13432901 = {
	name="Murrim"	# not a lord
	female=yes
	dynasty=32901

	religion="shadowbinders"
	culture="asshai"

	father=12932901
	mother=42932901

	3214.1.1 = {birth="3214.1.1"}
	3255.1.1 = {death="3255.1.1"}
}
13532901 = {
	name="Nammu"	# not a lord
	female=yes
	dynasty=32901

	religion="shadowbinders"
	culture="asshai"

	father=13332901
	mother=43332901

	3230.1.1 = {birth="3230.1.1"}
	3269.1.1 = {death="3269.1.1"}
}
13632901 = {
	name="Bunuth"	# a lord
	dynasty=32901

	religion="shadowbinders"
	culture="asshai"

	father=13332901
	mother=43332901

	3233.1.1 = {birth="3233.1.1"}
	3249.1.1 = {add_trait=skilled_warrior}
	3251.1.1 = {add_spouse=43632901}
	3274.1.1 = {death="3274.1.1"}
}
43632901 = {
	name="Erethkiga"
	female=yes

	religion="shadowbinders"
	culture="asshai"

	3233.1.1 = {birth="3233.1.1"}
	3274.1.1 = {death="3274.1.1"}
}
13732901 = {
	name="Enlil"	# not a lord
	dynasty=32901

	religion="shadowbinders"
	culture="asshai"

	father=13332901
	mother=43332901

	3234.1.1 = {birth="3234.1.1"}
	3250.1.1 = {add_trait=poor_warrior}
	3291.1.1 = {death="3291.1.1"}
}
13832901 = {
	name="Nanna"	# not a lord
	female=yes
	dynasty=32901

	religion="shadowbinders"
	culture="asshai"

	father=13332901
	mother=43332901

	3235.1.1 = {birth="3235.1.1"}
	3288.1.1 = {death="3288.1.1"}
}
13932901 = {
	name="Yatum"	# a lord
	dynasty=32901

	religion="shadowbinders"
	culture="asshai"

	father=13632901
	mother=43632901

	3258.1.1 = {birth="3258.1.1"}
	3274.1.1 = {add_trait=poor_warrior}
	3276.1.1 = {add_spouse=43932901}
}
43932901 = {
	name="Erethe"
	female=yes

	religion="shadowbinders"
	culture="asshai"

	3258.1.1 = {birth="3258.1.1"}
}
14032901 = {
	name="Quaithe"	# not a lord
	female=yes
	dynasty=32901
	
	martial = 2
	stewardship = 3
	intrigue = 7
	learning = 8
	diplomacy = 7

	religion="shadowbinders"
	culture="asshai"

	father=13632901
	mother=43632901
	
	add_trait = elusive_shadow
	
	3259.1.1 = {birth="3259.1.1"}
	3279.1.1 = {
		add_trait = shadowbinder
		add_trait = mystic
		effect = {
			k_asshai = { holder_scope = { ROOT = { move_character = PREV } } }
		}
	}
}
14132901 = {
	name="Bunuth"	# not a lord
	dynasty=32901

	religion="shadowbinders"
	culture="asshai"

	father=13632901
	mother=43632901

	3262.1.1 = {birth="3262.1.1"}
	3278.1.1 = {add_trait=trained_warrior}
	3280.1.1 = {add_spouse=44132901}
}
44132901 = {
	name="Nammu"
	female=yes

	religion="shadowbinders"
	culture="asshai"

	3262.1.1 = {birth="3262.1.1"}
}
14232901 = {
	name="Mushtal"	# not a lord
	dynasty=32901

	religion="shadowbinders"
	culture="asshai"

	father=13932901
	mother=43932901

	3279.1.1 = {birth="3279.1.1"}
	3295.1.1 = {add_trait=trained_warrior}
}
14332901 = {
	name="Gemethega"	# not a lord
	female=yes
	dynasty=32901

	religion="shadowbinders"
	culture="asshai"

	father=14132901
	mother=44132901

	3294.1.1 = {birth="3294.1.1"}
}
14432901 = {
	name="Nintuda"	# not a lord
	female=yes
	dynasty=32901

	religion="shadowbinders"
	culture="asshai"

	father=14132901
	mother=44132901

	3296.1.1 = {birth="3296.1.1"}
}
14532901 = {
	name="Munawirtum"	# not a lord
	dynasty=32901

	religion="shadowbinders"
	culture="asshai"

	father=14132901
	mother=44132901

	3299.1.1 = {birth="3299.1.1"}
	3315.1.1 = {add_trait=trained_warrior}
}
##Manpos
10033911 = {
	name="Kurum"	# a lord
	dynasty=33911

	religion="shadowbinders"
	culture="shadowlander"

	2972.1.1 = {birth="2972.1.1"}
	2988.1.1 = {add_trait=trained_warrior}
	2990.1.1 = {add_spouse=40033911}
	3034.1.1 = {death="3034.1.1"}
}
40033911 = {
	name="Urbau"
	female=yes

	religion="shadowbinders"
	culture="shadowlander"

	2972.1.1 = {birth="2972.1.1"}
	3034.1.1 = {death="3034.1.1"}
}
10133911 = {
	name="Belessa"	# not a lord
	female=yes
	dynasty=33911

	religion="shadowbinders"
	culture="shadowlander"

	father=10033911
	mother=40033911

	2992.1.1 = {birth="2992.1.1"}
	3060.1.1 = {death="3060.1.1"}
}
10233911 = {
	name="Yasmath"	# a lord
	dynasty=33911

	religion="shadowbinders"
	culture="shadowlander"

	father=10033911
	mother=40033911

	2994.1.1 = {birth="2994.1.1"}
	3010.1.1 = {add_trait=poor_warrior}
	3012.1.1 = {add_spouse=40233911}
	3043.1.1 = {death="3043.1.1"}
}
40233911 = {
	name="Quaithe"
	female=yes

	religion="shadowbinders"
	culture="shadowlander"

	2994.1.1 = {birth="2994.1.1"}
	3043.1.1 = {death="3043.1.1"}
}
10333911 = {
	name="Sapurtum"	# not a lord
	female=yes
	dynasty=33911

	religion="shadowbinders"
	culture="shadowlander"

	father=10033911
	mother=40033911

	2996.1.1 = {birth="2996.1.1"}
	3058.1.1 = {death="3058.1.1"}
}
10433911 = {
	name="Wusum"	# not a lord
	dynasty=33911

	religion="shadowbinders"
	culture="shadowlander"

	father=10033911
	mother=40033911

	2997.1.1 = {birth="2997.1.1"}
	3013.1.1 = {add_trait=skilled_warrior}
	3052.1.1 = {death="3052.1.1"}
}
10533911 = {
	name="Mushtal"	# a lord
	dynasty=33911

	religion="shadowbinders"
	culture="shadowlander"

	father=10233911
	mother=40233911

	3017.1.1 = {birth="3017.1.1"}
	3033.1.1 = {add_trait=poor_warrior}
	3035.1.1 = {add_spouse=40533911}
	3072.1.1 = {death="3072.1.1"}
}
40533911 = {
	name="Urbau"
	female=yes

	religion="shadowbinders"
	culture="shadowlander"

	3017.1.1 = {birth="3017.1.1"}
	3072.1.1 = {death="3072.1.1"}
}
10633911 = {
	name="Qasmath"	# not a lord
	dynasty=33911

	religion="shadowbinders"
	culture="shadowlander"

	father=10233911
	mother=40233911

	3019.1.1 = {birth="3019.1.1"}
	3035.1.1 = {add_trait=poor_warrior}
	3044.1.1 = {death="3044.1.1"}
}
10733911 = {
	name="Zimu"	# not a lord
	female=yes
	dynasty=33911

	religion="shadowbinders"
	culture="shadowlander"

	father=10233911
	mother=40233911

	3021.1.1 = {birth="3021.1.1"}
	3052.1.1 = {death="3052.1.1"}
}
10833911 = {
	name="Erethe"	# not a lord
	female=yes
	dynasty=33911

	religion="shadowbinders"
	culture="shadowlander"

	father=10233911
	mother=40233911

	3023.1.1 = {birth="3023.1.1"}
	3075.1.1 = {death="3075.1.1"}
}
10933911 = {
	name="Erethkiga"	# not a lord
	female=yes
	dynasty=33911

	religion="shadowbinders"
	culture="shadowlander"

	father=10533911
	mother=40533911

	3040.1.1 = {birth="3040.1.1"}
	3098.1.1 = {death="3098.1.1"}
}
11033911 = {
	name="Arganth"	# a lord
	dynasty=33911

	religion="shadowbinders"
	culture="shadowlander"

	father=10533911
	mother=40533911

	3043.1.1 = {birth="3043.1.1"}
	3059.1.1 = {add_trait=trained_warrior}
	3061.1.1 = {add_spouse=41033911}
	3090.1.1 = {death="3090.1.1"}
}
41033911 = {
	name="Ninsun"
	female=yes

	religion="shadowbinders"
	culture="shadowlander"

	3043.1.1 = {birth="3043.1.1"}
	3090.1.1 = {death="3090.1.1"}
}
11133911 = {
	name="Murrim"	# not a lord
	female=yes
	dynasty=33911

	religion="shadowbinders"
	culture="shadowlander"

	father=10533911
	mother=40533911

	3045.1.1 = {birth="3045.1.1"}
	3108.1.1 = {death="3108.1.1"}
}
11233911 = {
	name="Urbau"	# not a lord
	female=yes
	dynasty=33911

	religion="shadowbinders"
	culture="shadowlander"

	father=11033911
	mother=41033911

	3078.1.1 = {birth="3078.1.1"}
	3138.1.1 = {death="3138.1.1"}
}
11333911 = {
	name="Belshun"	# a lord
	dynasty=33911

	religion="shadowbinders"
	culture="shadowlander"

	father=11033911
	mother=41033911

	3081.1.1 = {birth="3081.1.1"}
	3097.1.1 = {add_trait=trained_warrior}
	3099.1.1 = {add_spouse=41333911}
	3154.1.1 = {death="3154.1.1"}
}
41333911 = {
	name="Ilutha"
	female=yes

	religion="shadowbinders"
	culture="shadowlander"

	3081.1.1 = {birth="3081.1.1"}
	3154.1.1 = {death="3154.1.1"}
}
11433911 = {
	name="Ilutha"	# not a lord
	female=yes
	dynasty=33911

	religion="shadowbinders"
	culture="shadowlander"

	father=11033911
	mother=41033911

	3083.1.1 = {birth="3083.1.1"}
	3123.1.1 = {death="3123.1.1"}
}
11533911 = {
	name="Shullat"	# not a lord
	dynasty=33911

	religion="shadowbinders"
	culture="shadowlander"

	father=11033911
	mother=41033911

	3085.1.1 = {birth="3085.1.1"}
	3101.1.1 = {add_trait=trained_warrior}
	3103.1.1 = {add_spouse=41533911}
	3139.1.1 = {death="3139.1.1"}
}
41533911 = {
	name="Enheduana"
	female=yes

	religion="shadowbinders"
	culture="shadowlander"

	3085.1.1 = {birth="3085.1.1"}
	3139.1.1 = {death="3139.1.1"}
}
11633911 = {
	name="Belessa"	# not a lord
	female=yes
	dynasty=33911

	religion="shadowbinders"
	culture="shadowlander"

	father=11333911
	mother=41333911

	3115.1.1 = {birth="3115.1.1"}
	3147.1.1 = {death="3147.1.1"}
}
11733911 = {
	name="Ninhursag"	# not a lord
	female=yes
	dynasty=33911

	religion="shadowbinders"
	culture="shadowlander"

	father=11333911
	mother=41333911

	3117.1.1 = {birth="3117.1.1"}
	3164.1.1 = {death = {death_reason = death_accident}}
}
11833911 = {
	name="Erethkiga"	# not a lord
	female=yes
	dynasty=33911

	religion="shadowbinders"
	culture="shadowlander"

	father=11333911
	mother=41333911

	3120.1.1 = {birth="3120.1.1"}
	3186.1.1 = {death="3186.1.1"}
}
11933911 = {
	name="Lugatum"	# a lord
	dynasty=33911

	religion="shadowbinders"
	culture="shadowlander"

	father=11333911
	mother=41333911

	3122.1.1 = {birth="3122.1.1"}
	3138.1.1 = {add_trait=poor_warrior}
	3140.1.1 = {add_spouse=41933911}
	3164.1.1 = {death="3164.1.1"}
}
41933911 = {
	name="Nanna"
	female=yes

	religion="shadowbinders"
	culture="shadowlander"

	3122.1.1 = {birth="3122.1.1"}
	3164.1.1 = {death="3164.1.1"}
}
12033911 = {
	name="Gemithe"	# not a lord
	female=yes
	dynasty=33911

	religion="shadowbinders"
	culture="shadowlander"

	father=11933911
	mother=41933911

	3156.1.1 = {birth="3156.1.1"}
	3189.1.1 = {death="3189.1.1"}
}
12133911 = {
	name="Ninsun"	# not a lord
	female=yes
	dynasty=33911

	religion="shadowbinders"
	culture="shadowlander"

	father=11533911
	mother=41533911

	3108.1.1 = {birth="3108.1.1"}
	3163.1.1 = {death="3163.1.1"}
}
12233911 = {
	name="Kugbau"	# a lord
	dynasty=33911

	religion="shadowbinders"
	culture="shadowlander"

	father=11533911
	mother=41533911

	3111.1.1 = {birth="3111.1.1"}
	3127.1.1 = {add_trait=poor_warrior}
	3129.1.1 = {add_spouse=42233911}
	3188.1.1 = {death="3188.1.1"}
}
42233911 = {
	name="Eala"
	female=yes

	religion="shadowbinders"
	culture="shadowlander"

	3111.1.1 = {birth="3111.1.1"}
	3188.1.1 = {death="3188.1.1"}
}
12333911 = {
	name="Irrara"	# not a lord
	dynasty=33911

	religion="shadowbinders"
	culture="shadowlander"

	father=11533911
	mother=41533911

	3113.1.1 = {birth="3113.1.1"}
	3129.1.1 = {add_trait=trained_warrior}
	3131.1.1 = {add_spouse=42333911}
	3155.1.1 = {death="3155.1.1"}
}
42333911 = {
	name="Zimu"
	female=yes

	religion="shadowbinders"
	culture="shadowlander"

	3113.1.1 = {birth="3113.1.1"}
	3155.1.1 = {death="3155.1.1"}
}
12433911 = {
	name="Erethkiga"	# not a lord
	female=yes
	dynasty=33911

	religion="shadowbinders"
	culture="shadowlander"

	father=12233911
	mother=42233911

	3136.1.1 = {birth="3136.1.1"}
	3212.1.1 = {death="3212.1.1"}
}
12533911 = {
	name="Nammu"	# not a lord
	female=yes
	dynasty=33911

	religion="shadowbinders"
	culture="shadowlander"

	father=12333911
	mother=42333911

	3136.1.1 = {birth="3136.1.1"}
	3189.1.1 = {death="3189.1.1"}
}
12633911 = {
	name="Munawirtum"	# a lord
	dynasty=33911

	religion="shadowbinders"
	culture="shadowlander"

	father=12333911
	mother=42333911

	3137.1.1 = {birth="3137.1.1"}
	3153.1.1 = {add_trait=trained_warrior}
	3155.1.1 = {add_spouse=42633911}
	3200.1.1 = {death="3200.1.1"}
}
42633911 = {
	name="Nindukugga"
	female=yes

	religion="shadowbinders"
	culture="shadowlander"

	3137.1.1 = {birth="3137.1.1"}
	3200.1.1 = {death="3200.1.1"}
}
12733911 = {
	name="Zimu"	# not a lord
	female=yes
	dynasty=33911

	religion="shadowbinders"
	culture="shadowlander"

	father=12633911
	mother=42633911

	3157.1.1 = {birth="3157.1.1"}
	3189.1.1 = {death="3189.1.1"}
}
12833911 = {
	name="Ibnatum"	# a lord
	dynasty=33911

	religion="shadowbinders"
	culture="shadowlander"

	father=12633911
	mother=42633911

	3159.1.1 = {birth="3159.1.1"}
	3175.1.1 = {add_trait=skilled_warrior}
	3177.1.1 = {add_spouse=42833911}
	3215.1.1 = {death="3215.1.1"}
}
42833911 = {
	name="Ahassuth"
	female=yes

	religion="shadowbinders"
	culture="shadowlander"

	3159.1.1 = {birth="3159.1.1"}
	3215.1.1 = {death="3215.1.1"}
}
12933911 = {
	name="Ninsun"	# not a lord
	female=yes
	dynasty=33911

	religion="shadowbinders"
	culture="shadowlander"

	father=12633911
	mother=42633911

	3162.1.1 = {birth="3162.1.1"}
	3216.1.1 = {death="3216.1.1"}
}
13033911 = {
	name="Sumalika"	# a lord
	dynasty=33911

	religion="shadowbinders"
	culture="shadowlander"

	father=12633911
	mother=42633911

	3165.1.1 = {birth="3165.1.1"}
	3181.1.1 = {add_trait=trained_warrior}
	3183.1.1 = {add_spouse=43033911}
	3223.1.1 = {death="3223.1.1"}
}
43033911 = {
	name="Irkalla"
	female=yes

	religion="shadowbinders"
	culture="shadowlander"

	3165.1.1 = {birth="3165.1.1"}
	3223.1.1 = {death="3223.1.1"}
}
13133911 = {
	name="Puabi"	# not a lord
	female=yes
	dynasty=33911

	religion="shadowbinders"
	culture="shadowlander"

	father=12833911
	mother=42833911

	3193.1.1 = {birth="3193.1.1"}
	3256.1.1 = {death="3256.1.1"}
}
13233911 = {
	name="Iluath"	# a lord
	dynasty=33911

	religion="shadowbinders"
	culture="shadowlander"

	father=13033911
	mother=43033911

	3197.1.1 = {birth="3197.1.1"}
	3213.1.1 = {add_trait=poor_warrior}
	3215.1.1 = {add_spouse=43233911}
	3272.1.1 = {death="3272.1.1"}
}
43233911 = {
	name="Zimu"
	female=yes

	religion="shadowbinders"
	culture="shadowlander"

	3197.1.1 = {birth="3197.1.1"}
	3272.1.1 = {death="3272.1.1"}
}
13333911 = {
	name="Lugatum"	# not a lord
	dynasty=33911

	religion="shadowbinders"
	culture="shadowlander"

	father=13033911
	mother=43033911

	3199.1.1 = {birth="3199.1.1"}
	3215.1.1 = {add_trait=skilled_warrior}
	3251.1.1 = {death = {death_reason = death_murder}}
}
13433911 = {
	name="Bikku"	# not a lord
	female=yes
	dynasty=33911

	religion="shadowbinders"
	culture="shadowlander"

	father=13033911
	mother=43033911

	3201.1.1 = {birth="3201.1.1"}
	3240.1.1 = {death="3240.1.1"}
}
13533911 = {
	name="Ubaruth"	# not a lord
	dynasty=33911

	religion="shadowbinders"
	culture="shadowlander"

	father=13033911
	mother=43033911

	3202.1.1 = {birth="3202.1.1"}
	3218.1.1 = {add_trait=poor_warrior}
	3237.1.1 = {death="3237.1.1"}
}
13633911 = {
	name="Daqqartum"	# not a lord
	female=yes
	dynasty=33911

	religion="shadowbinders"
	culture="shadowlander"

	father=13033911
	mother=43033911

	3203.1.1 = {birth="3203.1.1"}
	3255.1.1 = {death="3255.1.1"}
}
13733911 = {
	name="Shepsin"	# a lord
	dynasty=33911

	religion="shadowbinders"
	culture="shadowlander"

	father=13233911
	mother=43233911

	3217.1.1 = {birth="3217.1.1"}
	3233.1.1 = {add_trait=skilled_warrior}
	3235.1.1 = {add_spouse=43733911}
	3297.1.1 = {death="3297.1.1"}
}
43733911 = {
	name="Ilutha"
	female=yes

	religion="shadowbinders"
	culture="shadowlander"

	3217.1.1 = {birth="3217.1.1"}
	3297.1.1 = {death="3297.1.1"}
}
13833911 = {
	name="Aya"	# not a lord
	female=yes
	dynasty=33911

	religion="shadowbinders"
	culture="shadowlander"

	father=13233911
	mother=43233911

	3218.1.1 = {birth="3218.1.1"}
	3285.1.1 = {death="3285.1.1"}
}
13933911 = {
	name="Urbau"	# not a lord
	female=yes
	dynasty=33911

	religion="shadowbinders"
	culture="shadowlander"

	father=13233911
	mother=43233911

	3221.1.1 = {birth="3221.1.1"}
	3262.1.1 = {death="3262.1.1"}
}
14033911 = {
	name="Gudeath"	# not a lord
	dynasty=33911

	religion="shadowbinders"
	culture="shadowlander"

	father=13233911
	mother=43233911

	3222.1.1 = {birth="3222.1.1"}
	3238.1.1 = {add_trait=trained_warrior}
	3281.1.1 = {death="3281.1.1"}
}
14133911 = {
	name="Eala"	# not a lord
	female=yes
	dynasty=33911

	religion="shadowbinders"
	culture="shadowlander"

	father=13733911
	mother=43733911

	3242.1.1 = {birth="3242.1.1"}
	3289.1.1 = {death="3289.1.1"}
}
14233911 = {
	name="Shusuen"	# a lord
	dynasty=33911

	religion="shadowbinders"
	culture="shadowlander"

	father=13733911
	mother=43733911

	3244.1.1 = {birth="3244.1.1"}
	3260.1.1 = {add_trait=trained_warrior}
	3262.1.1 = {add_spouse=44233911}
}
44233911 = {
	name="Anu"
	female=yes

	religion="shadowbinders"
	culture="shadowlander"

	3244.1.1 = {birth="3244.1.1"}
}
14333911 = {
	name="Lipith"	# not a lord
	dynasty=33911

	religion="shadowbinders"
	culture="shadowlander"

	father=13733911
	mother=43733911

	3245.1.1 = {birth="3245.1.1"}
	3261.1.1 = {add_trait=trained_warrior}
	3263.1.1 = {add_spouse=44333911}
	3295.1.1 = {death="3295.1.1"}
}
44333911 = {
	name="Ahassuth"
	female=yes

	religion="shadowbinders"
	culture="shadowlander"

	3245.1.1 = {birth="3245.1.1"}
	3295.1.1 = {death="3295.1.1"}
}
14433911 = {
	name="Lugatum"	# not a lord
	dynasty=33911

	religion="shadowbinders"
	culture="shadowlander"

	father=14233911
	mother=44233911

	3269.1.1 = {birth="3269.1.1"}
	3285.1.1 = {add_trait=trained_warrior}
}
14533911 = {
	name="Utu"	# not a lord
	dynasty=33911

	religion="shadowbinders"
	culture="shadowlander"

	father=14333911
	mother=44333911

	3273.1.1 = {birth="3273.1.1"}
	3289.1.1 = {add_trait=trained_warrior}
}
##Kumirai
10033914 = {
	name="Samuqan"	# a lord
	dynasty=33914

	religion="shadowbinders"
	culture="shadowlander"

	2944.1.1 = {birth="2944.1.1"}
	2960.1.1 = {add_trait=trained_warrior}
	2962.1.1 = {add_spouse=40033914}
	3009.1.1 = {death="3009.1.1"}
}
40033914 = {
	name="Bau"
	female=yes

	religion="shadowbinders"
	culture="shadowlander"

	2944.1.1 = {birth="2944.1.1"}
	3009.1.1 = {death="3009.1.1"}
}
10133914 = {
	name="La'um"	# a lord
	dynasty=33914

	religion="shadowbinders"
	culture="shadowlander"

	father=10033914
	mother=40033914

	2976.1.1 = {birth="2976.1.1"}
	2992.1.1 = {add_trait=trained_warrior}
	2994.1.1 = {add_spouse=40133914}
	3036.1.1 = {death="3036.1.1"}
}
40133914 = {
	name="Delondra"
	female=yes

	religion="shadowbinders"
	culture="shadowlander"

	2976.1.1 = {birth="2976.1.1"}
	3036.1.1 = {death="3036.1.1"}
}
10233914 = {
	name="Taram"	# not a lord
	female=yes
	dynasty=33914

	religion="shadowbinders"
	culture="shadowlander"

	father=10033914
	mother=40033914

	2978.1.1 = {birth="2978.1.1"}
	3056.1.1 = {death="3056.1.1"}
}
10333914 = {
	name="Humbab"	# a lord
	dynasty=33914

	religion="shadowbinders"
	culture="shadowlander"

	father=10033914
	mother=40033914

	2981.1.1 = {birth="2981.1.1"}
	2997.1.1 = {add_trait=trained_warrior}
	2999.1.1 = {add_spouse=40333914}
	3054.1.1 = {death="3054.1.1"}
}
40333914 = {
	name="Waqrat"
	female=yes

	religion="shadowbinders"
	culture="shadowlander"

	2981.1.1 = {birth="2981.1.1"}
	3054.1.1 = {death="3054.1.1"}
}
10433914 = {
	name="Wusum"	# not a lord
	dynasty=33914

	religion="shadowbinders"
	culture="shadowlander"

	father=10033914
	mother=40033914

	2984.1.1 = {birth="2984.1.1"}
	3000.1.1 = {add_trait=skilled_warrior}
	3026.1.1 = {death="3026.1.1"}
}
10533914 = {
	name="Urbau"	# not a lord
	female=yes
	dynasty=33914

	religion="shadowbinders"
	culture="shadowlander"

	father=10133914
	mother=40133914

	2998.1.1 = {birth="2998.1.1"}
	3066.1.1 = {death="3066.1.1"}
}
10633914 = {
	name="Ninhursag"	# not a lord
	female=yes
	dynasty=33914

	religion="shadowbinders"
	culture="shadowlander"

	father=10133914
	mother=40133914

	3000.1.1 = {birth="3000.1.1"}
	3052.1.1 = {death="3052.1.1"}
}
10733914 = {
	name="Urbau"	# not a lord
	female=yes
	dynasty=33914

	religion="shadowbinders"
	culture="shadowlander"

	father=10333914
	mother=40333914

	3005.1.1 = {birth="3005.1.1"}
	3045.1.1 = {death="3045.1.1"}
}
10833914 = {
	name="Ammith"	# not a lord
	dynasty=33914

	religion="shadowbinders"
	culture="shadowlander"

	father=10333914
	mother=40333914

	3007.1.1 = {birth="3007.1.1"}
	3023.1.1 = {add_trait=trained_warrior}
	3025.1.1 = {add_spouse=40833914}
	3042.1.1 = {death="3042.1.1"}
}
40833914 = {
	name="Aya"
	female=yes

	religion="shadowbinders"
	culture="shadowlander"

	3007.1.1 = {birth="3007.1.1"}
	3042.1.1 = {death="3042.1.1"}
}
10933914 = {
	name="La'um"	# not a lord
	dynasty=33914

	religion="shadowbinders"
	culture="shadowlander"

	father=10333914
	mother=40333914

	3009.1.1 = {birth="3009.1.1"}
	3025.1.1 = {add_trait=trained_warrior}
	3058.1.1 = {death="3058.1.1"}
}
11033914 = {
	name="Enheduana"	# not a lord
	female=yes
	dynasty=33914

	religion="shadowbinders"
	culture="shadowlander"

	father=10333914
	mother=40333914

	3010.1.1 = {birth="3010.1.1"}
	3071.1.1 = {death="3071.1.1"}
}
11133914 = {
	name="Eala"	# not a lord
	female=yes
	dynasty=33914

	religion="shadowbinders"
	culture="shadowlander"

	father=10333914
	mother=40333914

	3012.1.1 = {birth="3012.1.1"}
	3056.1.1 = {death="3056.1.1"}
}
11233914 = {
	name="Taram"	# not a lord
	female=yes
	dynasty=33914

	religion="shadowbinders"
	culture="shadowlander"

	father=10833914
	mother=40833914

	3035.1.1 = {birth="3035.1.1"}
	3092.1.1 = {death="3092.1.1"}
}
11333914 = {
	name="Naqir"	# a lord
	dynasty=33914

	religion="shadowbinders"
	culture="shadowlander"

	father=10833914
	mother=40833914

	3037.1.1 = {birth="3037.1.1"}
	3053.1.1 = {add_trait=trained_warrior}
	3055.1.1 = {add_spouse=41333914}
	3113.1.1 = {death="3113.1.1"}
}
41333914 = {
	name="Summirathe"
	female=yes

	religion="shadowbinders"
	culture="shadowlander"

	3037.1.1 = {birth="3037.1.1"}
	3113.1.1 = {death="3113.1.1"}
}
11433914 = {
	name="Murrithe"	# not a lord
	female=yes
	dynasty=33914

	religion="shadowbinders"
	culture="shadowlander"

	father=10833914
	mother=40833914

	3038.1.1 = {birth="3038.1.1"}
	3089.1.1 = {death="3089.1.1"}
}
11533914 = {
	name="Utu"	# not a lord
	dynasty=33914

	religion="shadowbinders"
	culture="shadowlander"

	father=10833914
	mother=40833914

	3041.1.1 = {birth="3041.1.1"}
	3057.1.1 = {add_trait=skilled_warrior}
	3087.1.1 = {death="3087.1.1"}
}
11633914 = {
	name="Kuda"	# not a lord
	dynasty=33914

	religion="shadowbinders"
	culture="shadowlander"

	father=11333914
	mother=41333914

	3056.1.1 = {birth="3056.1.1"}
	3072.1.1 = {add_trait=skilled_warrior}
	3074.1.1 = {add_spouse=41633914}
	3108.1.1 = {death="3108.1.1"}
}
41633914 = {
	name="Summirathe"
	female=yes

	religion="shadowbinders"
	culture="shadowlander"

	3056.1.1 = {birth="3056.1.1"}
	3108.1.1 = {death="3108.1.1"}
}
11733914 = {
	name="Shulpae"	# a lord
	dynasty=33914

	religion="shadowbinders"
	culture="shadowlander"

	father=11633914
	mother=41633914

	3074.1.1 = {birth="3074.1.1"}
	3090.1.1 = {add_trait=trained_warrior}
	3092.1.1 = {add_spouse=41733914}
	3132.1.1 = {death="3132.1.1"}
}
41733914 = {
	name="Nanna"
	female=yes

	religion="shadowbinders"
	culture="shadowlander"

	3074.1.1 = {birth="3074.1.1"}
	3132.1.1 = {death="3132.1.1"}
}
11833914 = {
	name="Sapurtum"	# not a lord
	female=yes
	dynasty=33914

	religion="shadowbinders"
	culture="shadowlander"

	father=11633914
	mother=41633914

	3077.1.1 = {birth="3077.1.1"}
	3122.1.1 = {death="3122.1.1"}
}
11933914 = {
	name="Ibnatum"	# not a lord
	dynasty=33914

	religion="shadowbinders"
	culture="shadowlander"

	father=11633914
	mother=41633914

	3078.1.1 = {birth="3078.1.1"}
	3094.1.1 = {add_trait=skilled_warrior}
	3132.1.1 = {death="3132.1.1"}
}
12033914 = {
	name="Urbau"	# not a lord
	female=yes
	dynasty=33914

	religion="shadowbinders"
	culture="shadowlander"

	father=11633914
	mother=41633914

	3080.1.1 = {birth="3080.1.1"}
	3104.1.1 = {death="3104.1.1"}
}
12133914 = {
	name="Sidu"	# a lord
	dynasty=33914

	religion="shadowbinders"
	culture="shadowlander"

	father=11733914
	mother=41733914

	3103.1.1 = {birth="3103.1.1"}
	3119.1.1 = {add_trait=trained_warrior}
	3121.1.1 = {add_spouse=42133914}
	3139.1.1 = {death="3139.1.1"}
}
42133914 = {
	name="Ninhursag"
	female=yes

	religion="shadowbinders"
	culture="shadowlander"

	3103.1.1 = {birth="3103.1.1"}
	3139.1.1 = {death="3139.1.1"}
}
12233914 = {
	name="Quaiduri"	# not a lord
	female=yes
	dynasty=33914

	religion="shadowbinders"
	culture="shadowlander"

	father=11733914
	mother=41733914

	3104.1.1 = {birth="3104.1.1"}
	3182.1.1 = {death="3182.1.1"}
}
12333914 = {
	name="Warad"	# a lord
	dynasty=33914

	religion="shadowbinders"
	culture="shadowlander"

	father=12133914
	mother=42133914

	3135.1.1 = {birth="3135.1.1"}
	3151.1.1 = {add_trait=trained_warrior}
	3153.1.1 = {add_spouse=42333914}
	3171.1.1 = {death="3171.1.1"}
}
42333914 = {
	name="Bau"
	female=yes

	religion="shadowbinders"
	culture="shadowlander"

	3135.1.1 = {birth="3135.1.1"}
	3171.1.1 = {death="3171.1.1"}
}
12433914 = {
	name="Naqir"	# not a lord
	dynasty=33914

	religion="shadowbinders"
	culture="shadowlander"

	father=12133914
	mother=42133914

	3138.1.1 = {birth="3138.1.1"}
	3154.1.1 = {add_trait=skilled_warrior}
	3181.1.1 = {death="3181.1.1"}
}
12533914 = {
	name="Palusum"	# a lord
	dynasty=33914

	religion="shadowbinders"
	culture="shadowlander"

	father=12333914
	mother=42333914

	3168.1.1 = {birth="3168.1.1"}
	3184.1.1 = {add_trait=skilled_warrior}
	3186.1.1 = {add_spouse=42533914}
	3216.1.1 = {death="3216.1.1"}
}
42533914 = {
	name="Silili"
	female=yes

	religion="shadowbinders"
	culture="shadowlander"

	3168.1.1 = {birth="3168.1.1"}
	3216.1.1 = {death="3216.1.1"}
}
12633914 = {
	name="Enlil"	# a lord
	dynasty=33914

	religion="shadowbinders"
	culture="shadowlander"

	father=12333914
	mother=42333914

	3169.1.1 = {birth="3169.1.1"}
	3185.1.1 = {add_trait=trained_warrior}
	3187.1.1 = {add_spouse=42633914}
	3227.1.1 = {death="3227.1.1"}
}
42633914 = {
	name="Gemethega"
	female=yes

	religion="shadowbinders"
	culture="shadowlander"

	3169.1.1 = {birth="3169.1.1"}
	3227.1.1 = {death="3227.1.1"}
}
12733914 = {
	name="Gemithe"	# not a lord
	female=yes
	dynasty=33914

	religion="shadowbinders"
	culture="shadowlander"

	father=12533914
	mother=42533914

	3193.1.1 = {birth="3193.1.1"}
	3252.1.1 = {death="3252.1.1"}
}
12833914 = {
	name="Ahassuth"	# not a lord
	female=yes
	dynasty=33914

	religion="shadowbinders"
	culture="shadowlander"

	father=12533914
	mother=42533914

	3196.1.1 = {birth="3196.1.1"}
	3244.1.1 = {death="3244.1.1"}
}
12933914 = {
	name="Damuzi"	# a lord
	dynasty=33914

	religion="shadowbinders"
	culture="shadowlander"

	father=12633914
	mother=42633914

	3194.1.1 = {birth="3194.1.1"}
	3210.1.1 = {add_trait=trained_warrior}
	3212.1.1 = {add_spouse=42933914}
	3261.1.1 = {death="3261.1.1"}
}
42933914 = {
	name="Gemithe"
	female=yes

	religion="shadowbinders"
	culture="shadowlander"

	3194.1.1 = {birth="3194.1.1"}
	3261.1.1 = {death="3261.1.1"}
}
13033914 = {
	name="Puzur"	# not a lord
	dynasty=33914

	religion="shadowbinders"
	culture="shadowlander"

	father=12633914
	mother=42633914

	3196.1.1 = {birth="3196.1.1"}
	3212.1.1 = {add_trait=skilled_warrior}
	3246.1.1 = {death="3246.1.1"}
}
13133914 = {
	name="Dadanum"	# a lord
	dynasty=33914

	religion="shadowbinders"
	culture="shadowlander"

	father=12933914
	mother=42933914

	3228.1.1 = {birth="3228.1.1"}
	3244.1.1 = {add_trait=trained_warrior}
	3246.1.1 = {add_spouse=43133914}
	3262.1.1 = {death="3262.1.1"}
}
43133914 = {
	name="Eala"
	female=yes

	religion="shadowbinders"
	culture="shadowlander"

	3228.1.1 = {birth="3228.1.1"}
	3262.1.1 = {death="3262.1.1"}
}
13233914 = {
	name="Limer"	# a lord
	dynasty=33914

	religion="shadowbinders"
	culture="shadowlander"

	father=13133914
	mother=43133914

	3247.1.1 = {birth="3247.1.1"}
	3263.1.1 = {add_trait=trained_warrior}
	3265.1.1 = {add_spouse=43233914}
}
43233914 = {
	name="Shub-ad"
	female=yes

	religion="shadowbinders"
	culture="shadowlander"

	3247.1.1 = {birth="3247.1.1"}
}
13333914 = {
	name="Naqir"	# not a lord
	dynasty=33914

	religion="shadowbinders"
	culture="shadowlander"

	father=13133914
	mother=43133914

	3250.1.1 = {birth="3250.1.1"}
	3266.1.1 = {add_trait=skilled_warrior}
	3268.1.1 = {add_spouse=43333914}
}
43333914 = {
	name="Shub-ad"
	female=yes

	religion="shadowbinders"
	culture="shadowlander"

	3250.1.1 = {birth="3250.1.1"}
}
13433914 = {
	name="Shulpae"	# not a lord
	dynasty=33914

	religion="shadowbinders"
	culture="shadowlander"

	father=13133914
	mother=43133914

	3251.1.1 = {birth="3251.1.1"}
	3267.1.1 = {add_trait=trained_warrior}
}
13533914 = {
	name="Waqrat"	# not a lord
	female=yes
	dynasty=33914

	religion="shadowbinders"
	culture="shadowlander"

	father=13133914
	mother=43133914

	3253.1.1 = {birth="3253.1.1"}
}
13633914 = {
	name="Ninsun"	# not a lord
	female=yes
	dynasty=33914

	religion="shadowbinders"
	culture="shadowlander"

	father=13233914
	mother=43233914

	3276.1.1 = {birth="3276.1.1"}
}
13733914 = {
	name="Quaithe"	# not a lord
	female=yes
	dynasty=33914

	religion="shadowbinders"
	culture="shadowlander"

	father=13233914
	mother=43233914

	3277.1.1 = {birth="3277.1.1"}
}
13833914 = {
	name="Ninbanda"	# not a lord
	female=yes
	dynasty=33914

	religion="shadowbinders"
	culture="shadowlander"

	father=13233914
	mother=43233914

	3279.1.1 = {birth="3279.1.1"}
}
13933914 = {
	name="Ishtare"	# not a lord
	female=yes
	dynasty=33914

	religion="shadowbinders"
	culture="shadowlander"

	father=13233914
	mother=43233914

	3280.1.1 = {birth="3280.1.1"}
}
14033914 = {
	name="Nin"	# not a lord
	female=yes
	dynasty=33914

	religion="shadowbinders"
	culture="shadowlander"

	father=13333914
	mother=43333914

	3278.1.1 = {birth="3278.1.1"}
}
14133914 = {
	name="Qasmath"	# not a lord
	dynasty=33914

	religion="shadowbinders"
	culture="shadowlander"

	father=13333914
	mother=43333914

	3280.1.1 = {birth="3280.1.1"}
	3296.1.1 = {add_trait=skilled_warrior}
}
14233914 = {
	name="Gudeath"	# not a lord
	dynasty=33914

	religion="shadowbinders"
	culture="shadowlander"

	father=13333914
	mother=43333914

	3283.1.1 = {birth="3283.1.1"}
	3299.1.1 = {add_trait=skilled_warrior}
}
#The Shadow Mountains
10033901 = {
	name="Munawirtum"	# a lord
	dynasty=33901

	religion="shadowbinders"
	culture="shadowlander"

	2965.1.1 = {birth="2965.1.1"}
	2981.1.1 = {add_trait=skilled_warrior}
	2983.1.1 = {add_spouse=40033901}
	3037.1.1 = {death="3037.1.1"}
}
40033901 = {
	name="Ishtare"
	female=yes

	religion="shadowbinders"
	culture="shadowlander"

	2965.1.1 = {birth="2965.1.1"}
	3037.1.1 = {death="3037.1.1"}
}
10133901 = {
	name="Murrim"	# not a lord
	female=yes
	dynasty=33901

	religion="shadowbinders"
	culture="shadowlander"

	father=10033901
	mother=40033901

	2990.1.1 = {birth="2990.1.1"}
	3071.1.1 = {death="3071.1.1"}
}
10233901 = {
	name="Shub-ad"	# not a lord
	female=yes
	dynasty=33901

	religion="shadowbinders"
	culture="shadowlander"

	father=10033901
	mother=40033901

	2992.1.1 = {birth="2992.1.1"}
	3055.1.1 = {death="3055.1.1"}
}
10333901 = {
	name="Ishtup"	# a lord
	dynasty=33901

	religion="shadowbinders"
	culture="shadowlander"

	father=10033901
	mother=40033901

	2995.1.1 = {birth="2995.1.1"}
	3011.1.1 = {add_trait=poor_warrior}
	3013.1.1 = {add_spouse=40333901}
	3064.1.1 = {death="3064.1.1"}
}
40333901 = {
	name="Erethkiga"
	female=yes

	religion="shadowbinders"
	culture="shadowlander"

	2995.1.1 = {birth="2995.1.1"}
	3064.1.1 = {death="3064.1.1"}
}
10433901 = {
	name="Mushtal"	# not a lord
	dynasty=33901

	religion="shadowbinders"
	culture="shadowlander"

	father=10033901
	mother=40033901

	2996.1.1 = {birth="2996.1.1"}
	3012.1.1 = {add_trait=trained_warrior}
	3045.1.1 = {death="3045.1.1"}
}
10533901 = {
	name="Puzur"	# a lord
	dynasty=33901

	religion="shadowbinders"
	culture="shadowlander"

	father=10333901
	mother=40333901

	3013.1.1 = {birth="3013.1.1"}
	3029.1.1 = {add_trait=poor_warrior}
	3031.1.1 = {add_spouse=40533901}
	3080.1.1 = {death="3080.1.1"}
}
40533901 = {
	name="Bau"
	female=yes

	religion="shadowbinders"
	culture="shadowlander"

	3013.1.1 = {birth="3013.1.1"}
	3080.1.1 = {death="3080.1.1"}
}
10633901 = {
	name="Ubaruth"	# not a lord
	dynasty=33901

	religion="shadowbinders"
	culture="shadowlander"

	father=10333901
	mother=40333901

	3014.1.1 = {birth="3014.1.1"}
	3030.1.1 = {add_trait=skilled_warrior}
	3083.1.1 = {death="3083.1.1"}
}
10733901 = {
	name="Wusum"	# not a lord
	dynasty=33901

	religion="shadowbinders"
	culture="shadowlander"

	father=10333901
	mother=40333901

	3015.1.1 = {birth="3015.1.1"}
	3031.1.1 = {add_trait=skilled_warrior}
	3054.1.1 = {death="3054.1.1"}
}
10833901 = {
	name="Nammu"	# not a lord
	female=yes
	dynasty=33901

	religion="shadowbinders"
	culture="shadowlander"

	father=10333901
	mother=40333901

	3017.1.1 = {birth="3017.1.1"}
	3077.1.1 = {death="3077.1.1"}
}
10933901 = {
	name="Gemethega"	# not a lord
	female=yes
	dynasty=33901

	religion="shadowbinders"
	culture="shadowlander"

	father=10533901
	mother=40533901

	3031.1.1 = {birth="3031.1.1"}
	3105.1.1 = {death="3105.1.1"}
}
11033901 = {
	name="Quaithe"	# not a lord
	female=yes
	dynasty=33901

	religion="shadowbinders"
	culture="shadowlander"

	father=10533901
	mother=40533901

	3032.1.1 = {birth="3032.1.1"}
	3085.1.1 = {death="3085.1.1"}
}
11133901 = {
	name="Awil"	# not a lord
	dynasty=33901

	religion="shadowbinders"
	culture="shadowlander"

	father=10533901
	mother=40533901

	3033.1.1 = {birth="3033.1.1"}
	3049.1.1 = {add_trait=trained_warrior}
	3066.1.1 = {death="3066.1.1"}
}
11233901 = {
	name="Hunhal"	# a lord
	dynasty=33901

	religion="shadowbinders"
	culture="shadowlander"

	father=10533901
	mother=40533901

	3034.1.1 = {birth="3034.1.1"}
	3050.1.1 = {add_trait=trained_warrior}
	3052.1.1 = {add_spouse=41233901}
	3090.1.1 = {death="3090.1.1"}
}
41233901 = {
	name="Gemethega"
	female=yes

	religion="shadowbinders"
	culture="shadowlander"

	3034.1.1 = {birth="3034.1.1"}
	3090.1.1 = {death="3090.1.1"}
}
11333901 = {
	name="Wusum"	# not a lord
	dynasty=33901

	religion="shadowbinders"
	culture="shadowlander"

	father=10533901
	mother=40533901

	3037.1.1 = {birth="3037.1.1"}
	3053.1.1 = {add_trait=skilled_warrior}
	3080.1.1 = {death="3080.1.1"}
}
11433901 = {
	name="Quaithe"	# not a lord
	female=yes
	dynasty=33901

	religion="shadowbinders"
	culture="shadowlander"

	father=11233901
	mother=41233901

	3053.1.1 = {birth="3053.1.1"}
	3106.1.1 = {death="3106.1.1"}
}
11533901 = {
	name="Dadanum"	# a lord
	dynasty=33901

	religion="shadowbinders"
	culture="shadowlander"

	father=11233901
	mother=41233901

	3055.1.1 = {birth="3055.1.1"}
	3071.1.1 = {add_trait=trained_warrior}
	3073.1.1 = {add_spouse=41533901}
	3131.1.1 = {death="3131.1.1"}
}
41533901 = {
	name="Quaiduri"
	female=yes

	religion="shadowbinders"
	culture="shadowlander"

	3055.1.1 = {birth="3055.1.1"}
	3131.1.1 = {death="3131.1.1"}
}
11633901 = {
	name="Lugatum"	# a lord
	dynasty=33901

	religion="shadowbinders"
	culture="shadowlander"

	father=11533901
	mother=41533901

	3086.1.1 = {birth="3086.1.1"}
	3102.1.1 = {add_trait=skilled_warrior}
	3104.1.1 = {add_spouse=41633901}
	3153.1.1 = {death="3153.1.1"}
}
41633901 = {
	name="Taram"
	female=yes

	religion="shadowbinders"
	culture="shadowlander"

	3086.1.1 = {birth="3086.1.1"}
	3153.1.1 = {death="3153.1.1"}
}
11733901 = {
	name="Puzur"	# not a lord
	dynasty=33901

	religion="shadowbinders"
	culture="shadowlander"

	father=11533901
	mother=41533901

	3089.1.1 = {birth="3089.1.1"}
	3105.1.1 = {add_trait=poor_warrior}
	3131.1.1 = {death="3131.1.1"}
}
11833901 = {
	name="Yasmath"	# a lord
	dynasty=33901

	religion="shadowbinders"
	culture="shadowlander"

	father=11633901
	mother=41633901

	3115.1.1 = {birth="3115.1.1"}
	3131.1.1 = {add_trait=poor_warrior}
	3133.1.1 = {add_spouse=41833901}
	3167.1.1 = {death="3167.1.1"}
}
41833901 = {
	name="Silili"
	female=yes

	religion="shadowbinders"
	culture="shadowlander"

	3115.1.1 = {birth="3115.1.1"}
	3167.1.1 = {death="3167.1.1"}
}
11933901 = {
	name="Bikku"	# not a lord
	female=yes
	dynasty=33901

	religion="shadowbinders"
	culture="shadowlander"

	father=11633901
	mother=41633901

	3116.1.1 = {birth="3116.1.1"}
	3172.1.1 = {death="3172.1.1"}
}
12033901 = {
	name="Awil"	# a lord
	dynasty=33901

	religion="shadowbinders"
	culture="shadowlander"

	father=11633901
	mother=41633901

	3119.1.1 = {birth="3119.1.1"}
	3135.1.1 = {add_trait=trained_warrior}
	3137.1.1 = {add_spouse=42033901}
	3177.1.1 = {death = {death_reason = death_murder}}
}
42033901 = {
	name="Silili"
	female=yes

	religion="shadowbinders"
	culture="shadowlander"

	3119.1.1 = {birth="3119.1.1"}
	3177.1.1 = {death="3177.1.1"}
}
12133901 = {
	name="Eala"	# not a lord
	female=yes
	dynasty=33901

	religion="shadowbinders"
	culture="shadowlander"

	father=11833901
	mother=41833901

	3139.1.1 = {birth="3139.1.1"}
	3207.1.1 = {death="3207.1.1"}
}
12233901 = {
	name="Nawirum"	# a lord
	dynasty=33901

	religion="shadowbinders"
	culture="shadowlander"

	father=12033901
	mother=42033901

	3151.1.1 = {birth="3151.1.1"}
	3167.1.1 = {add_trait=poor_warrior}
	3169.1.1 = {add_spouse=42233901}
	3183.1.1 = {death="3183.1.1"}
}
42233901 = {
	name="Erethe"
	female=yes

	religion="shadowbinders"
	culture="shadowlander"

	3151.1.1 = {birth="3151.1.1"}
	3183.1.1 = {death="3183.1.1"}
}
12333901 = {
	name="Ninhursag"	# not a lord
	female=yes
	dynasty=33901

	religion="shadowbinders"
	culture="shadowlander"

	father=12033901
	mother=42033901

	3152.1.1 = {birth="3152.1.1"}
	3225.1.1 = {death="3225.1.1"}
}
12433901 = {
	name="Nammu"	# not a lord
	female=yes
	dynasty=33901

	religion="shadowbinders"
	culture="shadowlander"

	father=12033901
	mother=42033901

	3155.1.1 = {birth="3155.1.1"}
	3219.1.1 = {death="3219.1.1"}
}
12533901 = {
	name="Bunuth"	# a lord
	dynasty=33901

	religion="shadowbinders"
	culture="shadowlander"

	father=12233901
	mother=42233901

	3170.1.1 = {birth="3170.1.1"}
	3186.1.1 = {add_trait=skilled_warrior}
	3188.1.1 = {add_spouse=42533901}
	3203.1.1 = {death="3203.1.1"}
}
42533901 = {
	name="Daqqartum"
	female=yes

	religion="shadowbinders"
	culture="shadowlander"

	3170.1.1 = {birth="3170.1.1"}
	3233.1.1 = {death="3233.1.1"}
}
12633901 = {
	name="Bau"	# not a lord
	female=yes
	dynasty=33901

	religion="shadowbinders"
	culture="shadowlander"

	father=12533901
	mother=42533901

	3197.1.1 = {birth="3197.1.1"}
	3260.1.1 = {death="3260.1.1"}
}
12733901 = {
	name="Silili"	# not a lord
	female=yes
	dynasty=33901

	religion="shadowbinders"
	culture="shadowlander"

	father=12533901
	mother=42533901

	3200.1.1 = {birth="3200.1.1"}
	3267.1.1 = {death="3267.1.1"}
}
12833901 = {
	name="Wusum"	# a lord
	dynasty=33901

	religion="shadowbinders"
	culture="shadowlander"

	father=12533901
	mother=42533901

	3201.1.1 = {birth="3201.1.1"}
	3217.1.1 = {add_trait=poor_warrior}
	3224.1.1 = {add_spouse=42833901}
	3268.1.1 = {death="3268.1.1"}
}
42833901 = {
	name="Ninhursag"
	female=yes

	religion="shadowbinders"
	culture="shadowlander"

	3206.1.1 = {birth="3206.1.1"}
	3268.1.1 = {death="3268.1.1"}
}
12933901 = {
	name="Urbau"	# not a lord
	female=yes
	dynasty=33901

	religion="shadowbinders"
	culture="shadowlander"

	father=12833901
	mother=42833901

	3232.1.1 = {birth="3232.1.1"}
	3306.1.1 = {death="3306.1.1"}
}
13033901 = {
	name="Ugazum"	# a lord
	dynasty=33901

	religion="shadowbinders"
	culture="shadowlander"

	father=12833901
	mother=42833901

	3235.1.1 = {birth="3235.1.1"}
	3251.1.1 = {add_trait=trained_warrior}
	3253.1.1 = {add_spouse=43033901}
	3281.1.1 = {death="3281.1.1"}
}
43033901 = {
	name="Gemethega"
	female=yes

	religion="shadowbinders"
	culture="shadowlander"

	3235.1.1 = {birth="3235.1.1"}
	3281.1.1 = {death="3281.1.1"}
}
13133901 = {
	name="Enlil"	# a lord
	dynasty=33901

	religion="shadowbinders"
	culture="shadowlander"

	father=12833901
	mother=42833901

	3236.1.1 = {birth="3236.1.1"}
	3252.1.1 = {add_trait=poor_warrior}
	3254.1.1 = {add_spouse=43133901}
	3290.1.1 = {death="3290.1.1"}
}
43133901 = {
	name="Puabi"
	female=yes

	religion="shadowbinders"
	culture="shadowlander"

	3236.1.1 = {birth="3236.1.1"}
	3290.1.1 = {death="3290.1.1"}
}
13233901 = {
	name="Zimu"	# not a lord
	female=yes
	dynasty=33901

	religion="shadowbinders"
	culture="shadowlander"

	father=12833901
	mother=42833901

	3238.1.1 = {birth="3238.1.1"}
}
13333901 = {
	name="Ishtare"	# not a lord
	female=yes
	dynasty=33901

	religion="shadowbinders"
	culture="shadowlander"

	father=13033901
	mother=43033901

	3260.1.1 = {birth="3260.1.1"}
}
13433901 = {
	name="Sidu"	# a lord
	dynasty=33901

	religion="shadowbinders"
	culture="shadowlander"

	father=13133901
	mother=43133901

	3269.1.1 = {birth="3269.1.1"}
	3285.1.1 = {add_trait=trained_warrior}
	3287.1.1 = {add_spouse=43433901}
}
43433901 = {
	name="Ishtare"
	female=yes

	religion="shadowbinders"
	culture="shadowlander"

	3269.1.1 = {birth="3269.1.1"}
}
13533901 = {
	name="Ishtare"	# not a lord
	female=yes
	dynasty=33901

	religion="shadowbinders"
	culture="shadowlander"

	father=13433901
	mother=43433901

	3289.1.1 = {birth="3289.1.1"}
}
13633901 = {
	name="Amurri"	# not a lord
	dynasty=33901

	religion="shadowbinders"
	culture="shadowlander"

	father=13433901
	mother=43433901

	3292.1.1 = {birth="3292.1.1"}
	3308.1.1 = {add_trait=trained_warrior}
}
13733901 = {
	name="Ninhursag"	# not a lord
	female=yes
	dynasty=33901

	religion="shadowbinders"
	culture="shadowlander"

	father=13433901
	mother=43433901

	3294.1.1 = {birth="3294.1.1"}
}
13833901 = {
	name="Awil"	# not a lord
	dynasty=33901

	religion="shadowbinders"
	culture="shadowlander"

	father=13433901
	mother=43433901

	3295.1.1 = {birth="3295.1.1"}
	3311.1.1 = {add_trait=trained_warrior}
}
