###Jogos Nhai

101607399 = {
	name="Zhea"	# Jhattar, Repelled Yi Ti Invasion
	female=yes
	dynasty=607305
	
	martial=8
	stewardship=3
	diplomacy=6
	intrigue=5
	learning=2
	
	religion="jogos_pagan"
	culture="jogos_nhai"
	
	give_nickname = nick_the_cruel
	
	add_trait="brilliant_strategist"
	add_trait="quick"
	add_trait="ambitious"
	add_trait="cruel"
	add_trait="authoritative"
	add_trait="deceitful"
	
	add_trait=trickster
	add_trait=cavalry_leader
	add_trait=organizer
	add_trait=defensive_leader
	disallow_random_traits = yes
	
	3200.1.1 = {birth="3200.1.1"}
	3217.1.1 = {add_trait=trained_warrior}
	3245.1.1 = {death="3245.1.1"}
}
#Jhogwin#
100607300 = {
	name="Fardeen"	# a lord
	dynasty=607300

	religion="jogos_pagan"
	culture="jogos_nhai"

	2957.1.1 = {birth="2957.1.1"}
	2973.1.1 = {add_trait=trained_warrior}
	2975.1.1 = {add_spouse=400607300}
	3012.1.1 = {death="3012.1.1"}
}
400607300 = {
	name="Inaara"
	female=yes

	religion="jogos_pagan"
	culture="jogos_nhai"

	2957.1.1 = {birth="2957.1.1"}
	3012.1.1 = {death="3012.1.1"}
}
101607300 = {
	name="Isak"	# a lord
	dynasty=607300

	religion="jogos_pagan"
	culture="jogos_nhai"

	father=100607300
	mother=400607300

	2984.1.1 = {birth="2984.1.1"}
	3000.1.1 = {add_trait=trained_warrior}
	3002.1.1 = {add_spouse=401607300}
	3047.1.1 = {death="3047.1.1"}
}
401607300 = {
	name="Hadi"
	female=yes

	religion="jogos_pagan"
	culture="jogos_nhai"

	2984.1.1 = {birth="2984.1.1"}
	3047.1.1 = {death="3047.1.1"}
}
102607300 = {
	name="Latifa"	# not a lord
	female=yes
	dynasty=607300

	religion="jogos_pagan"
	culture="jogos_nhai"

	father=100607300
	mother=400607300

	2987.1.1 = {birth="2987.1.1"}
	3039.1.1 = {death="3039.1.1"}
}
103607300 = {
	name="Mahwak"	# a lord
	dynasty=607300

	religion="jogos_pagan"
	culture="jogos_nhai"

	father=101607300
	mother=401607300

	3004.1.1 = {birth="3004.1.1"}
	3020.1.1 = {add_trait=skilled_warrior}
	3022.1.1 = {add_spouse=403607300}
	3071.1.1 = {death="3071.1.1"}
}
403607300 = {
	name="Patra"
	female=yes

	religion="jogos_pagan"
	culture="jogos_nhai"

	3004.1.1 = {birth="3004.1.1"}
	3071.1.1 = {death="3071.1.1"}
}
104607300 = {
	name="Vida"	# not a lord
	female=yes
	dynasty=607300

	religion="jogos_pagan"
	culture="jogos_nhai"

	father=101607300
	mother=401607300

	3007.1.1 = {birth="3007.1.1"}
	3057.1.1 = {death="3057.1.1"}
}
105607300 = {
	name="Faqar"	# not a lord
	dynasty=607300

	religion="jogos_pagan"
	culture="jogos_nhai"

	father=101607300
	mother=401607300

	3009.1.1 = {birth="3009.1.1"}
	3025.1.1 = {add_trait=skilled_warrior}
	3064.1.1 = {death="3064.1.1"}
}
106607300 = {
	name="Jakar"	# a lord
	dynasty=607300

	religion="jogos_pagan"
	culture="jogos_nhai"

	father=103607300
	mother=403607300

	3026.1.1 = {birth="3026.1.1"}
	3042.1.1 = {add_trait=trained_warrior}
	3044.1.1 = {add_spouse=406607300}
	3082.1.1 = {death="3082.1.1"}
}
406607300 = {
	name="Laila"
	female=yes

	religion="jogos_pagan"
	culture="jogos_nhai"

	3026.1.1 = {birth="3026.1.1"}
	3082.1.1 = {death="3082.1.1"}
}
107607300 = {
	name="Halima"	# not a lord
	female=yes
	dynasty=607300

	religion="jogos_pagan"
	culture="jogos_nhai"

	father=103607300
	mother=403607300

	3029.1.1 = {birth="3029.1.1"}
	3098.1.1 = {death="3098.1.1"}
}
108607300 = {
	name="Chaman"	# not a lord
	dynasty=607300

	religion="jogos_pagan"
	culture="jogos_nhai"

	father=103607300
	mother=403607300

	3032.1.1 = {birth="3032.1.1"}
	3048.1.1 = {add_trait=master_warrior}
	3088.1.1 = {death="3088.1.1"}
}
109607300 = {
	name="Wafa"	# a lord
	dynasty=607300

	religion="jogos_pagan"
	culture="jogos_nhai"

	father=106607300
	mother=406607300

	3049.1.1 = {birth="3049.1.1"}
	3065.1.1 = {add_trait=poor_warrior}
	3067.1.1 = {add_spouse=409607300}
	3097.1.1 = {death="3097.1.1"}
}
409607300 = {
	name="Tarana"
	female=yes

	religion="jogos_pagan"
	culture="jogos_nhai"

	3049.1.1 = {birth="3049.1.1"}
	3097.1.1 = {death="3097.1.1"}
}
110607300 = {
	name="Vida"	# a lord
	female=yes
	dynasty=607300

	religion="jogos_pagan"
	culture="jogos_nhai"

	father=109607300
	mother=409607300

	3070.1.1 = {birth="3070.1.1"}
	3126.1.1 = {death="3126.1.1"}
}
410607300 = {
	name="Kahkazan"

	religion="jogos_pagan"
	culture="jogos_nhai"

	3070.1.1 = {birth="3070.1.1"}
	3086.1.1 = {add_trait=poor_warrior}
	3088.1.1 = {add_spouse=110607300}
	3126.1.1 = {death="3126.1.1"}
}
111607300 = {
	name="Tahib"	# a lord
	dynasty=607300

	religion="jogos_pagan"
	culture="jogos_nhai"

	father=410607300
	mother=110607300

	3088.1.1 = {birth="3088.1.1"}
	3104.1.1 = {add_trait=trained_warrior}
	3106.1.1 = {add_spouse=411607300}
	3142.1.1 = {death="3142.1.1"}
}
411607300 = {
	name="Qudratu"
	female=yes

	religion="jogos_pagan"
	culture="jogos_nhai"

	3088.1.1 = {birth="3088.1.1"}
	3142.1.1 = {death="3142.1.1"}
}
112607300 = {
	name="Malia"	# not a lord
	female=yes
	dynasty=607300

	religion="jogos_pagan"
	culture="jogos_nhai"

	father=111607300
	mother=411607300

	3122.1.1 = {birth="3122.1.1"}
	3185.1.1 = {death="3185.1.1"}
}
113607300 = {
	name="Lemar"	# a lord
	dynasty=607300

	religion="jogos_pagan"
	culture="jogos_nhai"

	father=111607300
	mother=411607300

	3125.1.1 = {birth="3125.1.1"}
	3141.1.1 = {add_trait=trained_warrior}
	3143.1.1 = {add_spouse=413607300}
	3173.1.1 = {death="3173.1.1"}
}
413607300 = {
	name="Hila"
	female=yes

	religion="jogos_pagan"
	culture="jogos_nhai"

	3125.1.1 = {birth="3125.1.1"}
	3173.1.1 = {death="3173.1.1"}
}
114607300 = {
	name="Fakhria"	# not a lord
	female=yes
	dynasty=607300

	religion="jogos_pagan"
	culture="jogos_nhai"

	father=111607300
	mother=411607300

	3127.1.1 = {birth="3127.1.1"}
	3183.1.1 = {death="3183.1.1"}
}
115607300 = {
	name="Khalek"	# not a lord
	dynasty=607300

	religion="jogos_pagan"
	culture="jogos_nhai"

	father=111607300
	mother=411607300

	3130.1.1 = {birth="3130.1.1"}
	3146.1.1 = {add_trait=poor_warrior}
	3190.1.1 = {death="3190.1.1"}
}
116607300 = {
	name="Barialy"	# a lord
	dynasty=607300

	religion="jogos_pagan"
	culture="jogos_nhai"

	father=113607300
	mother=413607300

	3143.1.1 = {birth="3143.1.1"}
	3159.1.1 = {add_trait=skilled_warrior}
	3161.1.1 = {add_spouse=416607300}
	3180.1.1 = {death="3180.1.1"}
}
416607300 = {
	name="Nabi"
	female=yes

	religion="jogos_pagan"
	culture="jogos_nhai"

	3143.1.1 = {birth="3143.1.1"}
	3180.1.1 = {death="3180.1.1"}
}
117607300 = {
	name="Naherak"	# not a lord
	dynasty=607300

	religion="jogos_pagan"
	culture="jogos_nhai"

	father=113607300
	mother=413607300

	3144.1.1 = {birth="3144.1.1"}
	3160.1.1 = {add_trait=master_warrior}
	3211.1.1 = {death="3211.1.1"}
}
118607300 = {
	name="Sabry"	# a lord
	dynasty=607300

	religion="jogos_pagan"
	culture="jogos_nhai"

	father=116607300
	mother=416607300

	3176.1.1 = {birth="3176.1.1"}
	3192.1.1 = {add_trait=trained_warrior}
	3194.1.1 = {add_spouse=418607300}
	3255.1.1 = {death="3255.1.1"}
}
418607300 = {
	name="Zahra"
	female=yes

	religion="jogos_pagan"
	culture="jogos_nhai"

	3176.1.1 = {birth="3176.1.1"}
	3255.1.1 = {death="3255.1.1"}
}
119607300 = {
	name="Lima"	# not a lord
	female=yes
	dynasty=607300

	religion="jogos_pagan"
	culture="jogos_nhai"

	father=116607300
	mother=416607300

	3179.1.1 = {birth="3179.1.1"}
	3237.1.1 = {death="3237.1.1"}
}
120607300 = {
	name="Usma"	# not a lord
	female=yes
	dynasty=607300

	religion="jogos_pagan"
	culture="jogos_nhai"

	father=116607300
	mother=416607300

	3180.1.1 = {birth="3180.1.1"}
	3231.1.1 = {death="3231.1.1"}
}
121607300 = {
	name="Lida"	# a lord
	female=yes
	dynasty=607300

	religion="jogos_pagan"
	culture="jogos_nhai"

	father=118607300
	mother=418607300

	3200.1.1 = {birth="3200.1.1"}
	3265.1.1 = {death="3265.1.1"}
}
421607300 = {
	name="Temur"

	religion="jogos_pagan"
	culture="jogos_nhai"

	3200.1.1 = {birth="3200.1.1"}
	3216.1.1 = {add_trait=poor_warrior}
	3218.1.1 = {add_spouse=121607300}
	3265.1.1 = {death="3265.1.1"}
}
122607300 = {
	name="Temur"	# not a lord
	dynasty=607300

	religion="jogos_pagan"
	culture="jogos_nhai"

	father=118607300
	mother=418607300

	3202.1.1 = {birth="3202.1.1"}
	3218.1.1 = {add_trait=trained_warrior}
	3252.1.1 = {death="3252.1.1"}
}
123607300 = {
	name="Aarak"	# a lord
	dynasty=607300

	religion="jogos_pagan"
	culture="jogos_nhai"

	father=421607300
	mother=121607300

	3226.1.1 = {birth="3226.1.1"}
	3242.1.1 = {add_trait=trained_warrior}
	3244.1.1 = {add_spouse=423607300}
}
423607300 = {
	name="Darya"
	female=yes

	religion="jogos_pagan"
	culture="jogos_nhai"

	3226.1.1 = {birth="3226.1.1"}
}
124607300 = {
	name="Gulloo"	# not a lord
	dynasty=607300

	religion="jogos_pagan"
	culture="jogos_nhai"

	father=123607300
	mother=423607300

	3259.1.1 = {birth="3259.1.1"}
	3275.1.1 = {add_trait=poor_warrior}
	3277.1.1 = {add_spouse=424607300}
}
424607300 = {
	name="Geeti"
	female=yes

	religion="jogos_pagan"
	culture="jogos_nhai"

	3259.1.1 = {birth="3259.1.1"}
}
125607300 = {
	name="Lemar"	# not a lord
	dynasty=607300

	religion="jogos_pagan"
	culture="jogos_nhai"

	father=123607300
	mother=423607300

	3262.1.1 = {birth="3262.1.1"}
	3278.1.1 = {add_trait=trained_warrior}
	3280.1.1 = {add_spouse=425607300}
}
425607300 = {
	name="Zabia"
	female=yes

	religion="jogos_pagan"
	culture="jogos_nhai"

	3262.1.1 = {birth="3262.1.1"}
}
126607300 = {
	name="Gulloo"	# not a lord
	dynasty=607300

	religion="jogos_pagan"
	culture="jogos_nhai"

	father=124607300
	mother=424607300

	3286.1.1 = {birth="3286.1.1"}
	3302.1.1 = {add_trait=poor_warrior}
}
127607300 = {
	name="Zeba"	# not a lord
	female=yes
	dynasty=607300

	religion="jogos_pagan"
	culture="jogos_nhai"

	father=124607300
	mother=424607300

	3288.1.1 = {birth="3288.1.1"}
}
128607300 = {
	name="Inaara"	# not a lord
	female=yes
	dynasty=607300

	religion="jogos_pagan"
	culture="jogos_nhai"

	father=124607300
	mother=424607300

	3290.1.1 = {birth="3290.1.1"}
}
129607300 = {
	name="Pari"	# not a lord
	female=yes
	dynasty=607300

	religion="jogos_pagan"
	culture="jogos_nhai"

	father=124607300
	mother=424607300

	3292.1.1 = {birth="3292.1.1"}
}
130607300 = {
	name="Isak"	# not a lord
	dynasty=607300

	religion="jogos_pagan"
	culture="jogos_nhai"

	father=124607300
	mother=424607300

	3295.1.1 = {birth="3295.1.1"}
	3311.1.1 = {add_trait=skilled_warrior}
}
131607300 = {
	name="Qurban"	# not a lord
	dynasty=607300

	religion="jogos_pagan"
	culture="jogos_nhai"

	father=125607300
	mother=425607300

	3290.1.1 = {birth="3290.1.1"}
	3306.1.1 = {add_trait=poor_warrior}
}
132607300 = {
	name="Diba"	# not a lord
	female=yes
	dynasty=607300

	religion="jogos_pagan"
	culture="jogos_nhai"

	father=125607300
	mother=425607300

	3293.1.1 = {birth="3293.1.1"}
}
#West Plains#
100607301 = {
	name="Barialy"	# a lord
	dynasty=607301

	religion="jogos_pagan"
	culture="jogos_nhai"

	2966.1.1 = {birth="2966.1.1"}
	2982.1.1 = {add_trait=trained_warrior}
	2984.1.1 = {add_spouse=400607301}
	3028.1.1 = {death="3028.1.1"}
}
400607301 = {
	name="Donyaa"
	female=yes

	religion="jogos_pagan"
	culture="jogos_nhai"

	2966.1.1 = {birth="2966.1.1"}
	3028.1.1 = {death="3028.1.1"}
}
101607301 = {
	name="Kahkazan"	# a lord
	dynasty=607301

	religion="jogos_pagan"
	culture="jogos_nhai"

	father=100607301
	mother=400607301

	2995.1.1 = {birth="2995.1.1"}
	3011.1.1 = {add_trait=skilled_warrior}
	3013.1.1 = {add_spouse=401607301}
	3034.1.1 = {death = {death_reason = death_murder}}
}
401607301 = {
	name="Geeti"
	female=yes

	religion="jogos_pagan"
	culture="jogos_nhai"

	2995.1.1 = {birth="2995.1.1"}
	3034.1.1 = {death="3034.1.1"}
}
102607301 = {
	name="Mahwak"	# not a lord
	dynasty=607301

	religion="jogos_pagan"
	culture="jogos_nhai"

	father=100607301
	mother=400607301

	2996.1.1 = {birth="2996.1.1"}
	3012.1.1 = {add_trait=skilled_warrior}
	3071.1.1 = {death="3071.1.1"}
}
103607301 = {
	name="Laimah"	# a lord
	female=yes
	dynasty=607301

	religion="jogos_pagan"
	culture="jogos_nhai"

	father=101607301
	mother=401607301

	3023.1.1 = {birth="3023.1.1"}
	3088.1.1 = {death = {death_reason = death_accident}}
}
403607301 = {
	name="Aamir"

	religion="jogos_pagan"
	culture="jogos_nhai"

	3023.1.1 = {birth="3023.1.1"}
	3039.1.1 = {add_trait=poor_warrior}
	3041.1.1 = {add_spouse=103607301}
	3088.1.1 = {death="3088.1.1"}
}
104607301 = {
	name="Wajia"	# not a lord
	female=yes
	dynasty=607301

	religion="jogos_pagan"
	culture="jogos_nhai"

	father=101607301
	mother=401607301

	3025.1.1 = {birth="3025.1.1"}
	3094.1.1 = {death="3094.1.1"}
}
105607301 = {
	name="Lailuma"	# not a lord
	female=yes
	dynasty=607301

	religion="jogos_pagan"
	culture="jogos_nhai"

	father=101607301
	mother=401607301

	3028.1.1 = {birth="3028.1.1"}
	3098.1.1 = {death="3098.1.1"}
}
106607301 = {
	name="Sadaf"	# a lord
	dynasty=607301

	religion="jogos_pagan"
	culture="jogos_nhai"

	father=403607301
	mother=103607301

	3046.1.1 = {birth="3046.1.1"}
	3062.1.1 = {add_trait=trained_warrior}
	3064.1.1 = {add_spouse=406607301}
	3100.1.1 = {death="3100.1.1"}
}
406607301 = {
	name="Tahmina"
	female=yes

	religion="jogos_pagan"
	culture="jogos_nhai"

	3046.1.1 = {birth="3046.1.1"}
	3100.1.1 = {death="3100.1.1"}
}
107607301 = {
	name="Zaid"	# a lord
	dynasty=607301

	religion="jogos_pagan"
	culture="jogos_nhai"

	father=106607301
	mother=406607301

	3066.1.1 = {birth="3066.1.1"}
	3082.1.1 = {add_trait=master_warrior}
	3084.1.1 = {add_spouse=407607301}
	3111.1.1 = {death="3111.1.1"}
}
407607301 = {
	name="Fakhria"
	female=yes

	religion="jogos_pagan"
	culture="jogos_nhai"

	3066.1.1 = {birth="3066.1.1"}
	3111.1.1 = {death="3111.1.1"}
}
108607301 = {
	name="Zabia"	# not a lord
	female=yes
	dynasty=607301

	religion="jogos_pagan"
	culture="jogos_nhai"

	father=106607301
	mother=406607301

	3068.1.1 = {birth="3068.1.1"}
	3119.1.1 = {death="3119.1.1"}
}
109607301 = {
	name="Obiada"	# not a lord
	female=yes
	dynasty=607301

	religion="jogos_pagan"
	culture="jogos_nhai"

	father=106607301
	mother=406607301

	3069.1.1 = {birth="3069.1.1"}
	3144.1.1 = {death="3144.1.1"}
}
110607301 = {
	name="Elhash"	# not a lord
	dynasty=607301

	religion="jogos_pagan"
	culture="jogos_nhai"

	father=106607301
	mother=406607301

	3071.1.1 = {birth="3071.1.1"}
	3087.1.1 = {add_trait=skilled_warrior}
	3137.1.1 = {death="3137.1.1"}
}
111607301 = {
	name="Naim"	# a lord
	dynasty=607301

	religion="jogos_pagan"
	culture="jogos_nhai"

	father=107607301
	mother=407607301

	3084.1.1 = {birth="3084.1.1"}
	3100.1.1 = {add_trait=poor_warrior}
	3102.1.1 = {add_spouse=411607301}
	3127.1.1 = {death="3127.1.1"}
}
411607301 = {
	name="Orzala"
	female=yes

	religion="jogos_pagan"
	culture="jogos_nhai"

	3084.1.1 = {birth="3084.1.1"}
	3127.1.1 = {death="3127.1.1"}
}
112607301 = {
	name="Darya"	# not a lord
	female=yes
	dynasty=607301

	religion="jogos_pagan"
	culture="jogos_nhai"

	father=107607301
	mother=407607301

	3086.1.1 = {birth="3086.1.1"}
	3159.1.1 = {death="3159.1.1"}
}
113607301 = {
	name="Lima"	# not a lord
	female=yes
	dynasty=607301

	religion="jogos_pagan"
	culture="jogos_nhai"

	father=111607301
	mother=411607301

	3113.1.1 = {birth="3113.1.1"}
	3165.1.1 = {death="3165.1.1"}
}
114607301 = {
	name="Walia"	# not a lord
	female=yes
	dynasty=607301

	religion="jogos_pagan"
	culture="jogos_nhai"

	father=111607301
	mother=411607301

	3114.1.1 = {birth="3114.1.1"}
	3166.1.1 = {death="3166.1.1"}
}
115607301 = {
	name="Jakar"	# a lord
	dynasty=607301

	religion="jogos_pagan"
	culture="jogos_nhai"

	father=111607301
	mother=411607301

	3116.1.1 = {birth="3116.1.1"}
	3132.1.1 = {add_trait=skilled_warrior}
	3134.1.1 = {add_spouse=415607301}
	3163.1.1 = {death="3163.1.1"}
}
415607301 = {
	name="Nabila"
	female=yes

	religion="jogos_pagan"
	culture="jogos_nhai"

	3116.1.1 = {birth="3116.1.1"}
	3163.1.1 = {death="3163.1.1"}
}
116607301 = {
	name="Bakhtiyar"	# not a lord
	dynasty=607301

	religion="jogos_pagan"
	culture="jogos_nhai"

	father=111607301
	mother=411607301

	3117.1.1 = {birth="3117.1.1"}
	3133.1.1 = {add_trait=trained_warrior}
	3160.1.1 = {death="3160.1.1"}
}
117607301 = {
	name="Abagull"	# a lord
	female=yes
	dynasty=607301

	religion="jogos_pagan"
	culture="jogos_nhai"

	father=115607301
	mother=415607301

	3144.1.1 = {birth="3144.1.1"}
	3223.1.1 = {death="3223.1.1"}
}
417607301 = {
	name="Uzrak"

	religion="jogos_pagan"
	culture="jogos_nhai"

	3144.1.1 = {birth="3144.1.1"}
	3160.1.1 = {add_trait=poor_warrior}
	3162.1.1 = {add_spouse=117607301}
	3223.1.1 = {death="3223.1.1"}
}
118607301 = {
	name="Inzir"	# a lord
	dynasty=607301

	religion="jogos_pagan"
	culture="jogos_nhai"

	father=417607301
	mother=117607301

	3171.1.1 = {birth="3171.1.1"}
	3187.1.1 = {add_trait=trained_warrior}
	3189.1.1 = {add_spouse=418607301}
	3230.1.1 = {death="3230.1.1"}
}
418607301 = {
	name="Nadera"
	female=yes

	religion="jogos_pagan"
	culture="jogos_nhai"

	3171.1.1 = {birth="3171.1.1"}
	3230.1.1 = {death="3230.1.1"}
}
119607301 = {
	name="Jaan"	# not a lord
	dynasty=607301

	religion="jogos_pagan"
	culture="jogos_nhai"

	father=417607301
	mother=117607301

	3173.1.1 = {birth="3173.1.1"}
	3189.1.1 = {add_trait=poor_warrior}
	3230.1.1 = {death="3230.1.1"}
}
120607301 = {
	name="Hadi"	# not a lord
	female=yes
	dynasty=607301

	religion="jogos_pagan"
	culture="jogos_nhai"

	father=118607301
	mother=418607301

	3191.1.1 = {birth="3191.1.1"}
	3222.1.1 = {death="3222.1.1"}
}
121607301 = {
	name="Zahra"	# not a lord
	female=yes
	dynasty=607301

	religion="jogos_pagan"
	culture="jogos_nhai"

	father=118607301
	mother=418607301

	3193.1.1 = {birth="3193.1.1"}
	3226.1.1 = {death="3226.1.1"}
}
122607301 = {
	name="Malia"	# a lord
	female=yes
	dynasty=607301

	religion="jogos_pagan"
	culture="jogos_nhai"

	father=118607301
	mother=418607301

	3196.1.1 = {birth="3196.1.1"}
	3258.1.1 = {death = {death_reason = death_accident}}
}
422607301 = {
	name="Wafa"

	religion="jogos_pagan"
	culture="jogos_nhai"

	3196.1.1 = {birth="3196.1.1"}
	3212.1.1 = {add_trait=poor_warrior}
	3214.1.1 = {add_spouse=122607301}
	3258.1.1 = {death="3258.1.1"}
}
123607301 = {
	name="Ghulak"	# a lord
	dynasty=607301

	religion="jogos_pagan"
	culture="jogos_nhai"

	father=422607301
	mother=122607301

	3219.1.1 = {birth="3219.1.1"}
	3235.1.1 = {add_trait=skilled_warrior}
	3237.1.1 = {add_spouse=423607301}
	3262.1.1 = {death="3262.1.1"}
}
423607301 = {
	name="Makai"
	female=yes

	religion="jogos_pagan"
	culture="jogos_nhai"

	3219.1.1 = {birth="3219.1.1"}
	3262.1.1 = {death="3262.1.1"}
}
124607301 = {
	name="Zabia"	# not a lord
	female=yes
	dynasty=607301

	religion="jogos_pagan"
	culture="jogos_nhai"

	father=422607301
	mother=122607301

	3228.1.1 = {birth="3228.1.1"}
	3264.1.1 = {death="3264.1.1"}
}
125607301 = {
	name="Yaldak"	# a lord
	dynasty=607301

	religion="jogos_pagan"
	culture="jogos_nhai"

	father=123607301
	mother=423607301

	3240.1.1 = {birth="3240.1.1"}
	3256.1.1 = {add_trait=poor_warrior}
	3258.1.1 = {add_spouse=425607301}
	3282.1.1 = {death="3282.1.1"}
}
425607301 = {
	name="Orzala"
	female=yes

	religion="jogos_pagan"
	culture="jogos_nhai"

	3240.1.1 = {birth="3240.1.1"}
	3282.1.1 = {death="3282.1.1"}
}
126607301 = {
	name="Mahwak"	# not a lord
	dynasty=607301

	religion="jogos_pagan"
	culture="jogos_nhai"

	father=123607301
	mother=423607301

	3243.1.1 = {birth="3243.1.1"}
	3259.1.1 = {add_trait=poor_warrior}
	3261.1.1 = {add_spouse=426607301}
}
426607301 = {
	name="Daywa"
	female=yes

	religion="jogos_pagan"
	culture="jogos_nhai"

	3243.1.1 = {birth="3243.1.1"}
}
127607301 = {
	name="Fardeen"	# a lord
	dynasty=607301

	religion="jogos_pagan"
	culture="jogos_nhai"

	father=125607301
	mother=425607301

	3272.1.1 = {birth="3272.1.1"}
	3288.1.1 = {add_trait=trained_warrior}
}
128607301 = {
	name="Ghezal"	# not a lord
	female=yes
	dynasty=607301

	religion="jogos_pagan"
	culture="jogos_nhai"

	father=125607301
	mother=425607301

	3275.1.1 = {birth="3275.1.1"}
}
129607301 = {
	name="Elhash"	# not a lord
	dynasty=607301

	religion="jogos_pagan"
	culture="jogos_nhai"

	father=125607301
	mother=425607301

	3277.1.1 = {birth="3277.1.1"}
	3293.1.1 = {add_trait=skilled_warrior}
}
130607301 = {
	name="Karima"	# not a lord
	female=yes
	dynasty=607301

	religion="jogos_pagan"
	culture="jogos_nhai"

	father=125607301
	mother=425607301

	3278.1.1 = {birth="3278.1.1"}
}
131607301 = {
	name="Taj"	# not a lord
	dynasty=607301

	religion="jogos_pagan"
	culture="jogos_nhai"

	father=126607301
	mother=426607301

	3278.1.1 = {birth="3278.1.1"}
	3294.1.1 = {add_trait=poor_warrior}
}
132607301 = {
	name="Uzrak"	# not a lord
	dynasty=607301

	religion="jogos_pagan"
	culture="jogos_nhai"

	father=126607301
	mother=426607301

	3280.1.1 = {birth="3280.1.1"}
	3296.1.1 = {add_trait=trained_warrior}
}
133607301 = {
	name="Haider"	# not a lord
	dynasty=607301

	religion="jogos_pagan"
	culture="jogos_nhai"

	father=126607301
	mother=426607301

	3281.1.1 = {birth="3281.1.1"}
	3297.1.1 = {add_trait=skilled_warrior}
}

#North Plains#
100607302 = {
	name="Jawak"	# a lord
	dynasty=607302

	religion="jogos_pagan"
	culture="jogos_nhai"

	2935.1.1 = {birth="2935.1.1"}
	2951.1.1 = {add_trait=trained_warrior}
	2953.1.1 = {add_spouse=400607302}
	3001.1.1 = {death="3001.1.1"}
}
400607302 = {
	name="Ghezal"
	female=yes

	religion="jogos_pagan"
	culture="jogos_nhai"

	2935.1.1 = {birth="2935.1.1"}
	3001.1.1 = {death="3001.1.1"}
}
101607302 = {
	name="Faqar"	# a lord
	dynasty=607302

	religion="jogos_pagan"
	culture="jogos_nhai"

	father=100607302
	mother=400607302

	2958.1.1 = {birth="2958.1.1"}
	2974.1.1 = {add_trait=poor_warrior}
	2976.1.1 = {add_spouse=401607302}
	3030.1.1 = {death="3030.1.1"}
}
401607302 = {
	name="Rabeha"
	female=yes

	religion="jogos_pagan"
	culture="jogos_nhai"

	2958.1.1 = {birth="2958.1.1"}
	3030.1.1 = {death="3030.1.1"}
}
102607302 = {
	name="Tahira"	# not a lord
	female=yes
	dynasty=607302

	religion="jogos_pagan"
	culture="jogos_nhai"

	father=100607302
	mother=400607302

	2959.1.1 = {birth="2959.1.1"}
	3022.1.1 = {death="3022.1.1"}
}
103607302 = {
	name="Daoud"	# not a lord
	dynasty=607302

	religion="jogos_pagan"
	culture="jogos_nhai"

	father=100607302
	mother=400607302

	2960.1.1 = {birth="2960.1.1"}
	2976.1.1 = {add_trait=skilled_warrior}
	3019.1.1 = {death="3019.1.1"}
}
104607302 = {
	name="Rasoul"	# not a lord
	dynasty=607302

	religion="jogos_pagan"
	culture="jogos_nhai"

	father=100607302
	mother=400607302

	2961.1.1 = {birth="2961.1.1"}
	2977.1.1 = {add_trait=trained_warrior}
	3040.1.1 = {death="3040.1.1"}
}
105607302 = {
	name="Kahkazan"	# a lord
	dynasty=607302

	religion="jogos_pagan"
	culture="jogos_nhai"

	father=101607302
	mother=401607302

	2990.1.1 = {birth="2990.1.1"}
	3006.1.1 = {add_trait=skilled_warrior}
	3008.1.1 = {add_spouse=405607302}
	3046.1.1 = {death="3046.1.1"}
}
405607302 = {
	name="Xebaida"
	female=yes

	religion="jogos_pagan"
	culture="jogos_nhai"

	2990.1.1 = {birth="2990.1.1"}
	3046.1.1 = {death="3046.1.1"}
}
106607302 = {
	name="Ghulak"	# not a lord
	dynasty=607302

	religion="jogos_pagan"
	culture="jogos_nhai"

	father=101607302
	mother=401607302

	2993.1.1 = {birth="2993.1.1"}
	3009.1.1 = {add_trait=poor_warrior}
	3041.1.1 = {death="3041.1.1"}
}
107607302 = {
	name="Tabish"	# not a lord
	dynasty=607302

	religion="jogos_pagan"
	culture="jogos_nhai"

	father=101607302
	mother=401607302

	2995.1.1 = {birth="2995.1.1"}
	2998.1.1 = {death="2998.1.1"}
}
108607302 = {
	name="Zeba"	# not a lord
	female=yes
	dynasty=607302

	religion="jogos_pagan"
	culture="jogos_nhai"

	father=101607302
	mother=401607302

	2998.1.1 = {birth="2998.1.1"}
	3041.1.1 = {death="3041.1.1"}
}
109607302 = {
	name="Lemar"	# not a lord
	dynasty=607302

	religion="jogos_pagan"
	culture="jogos_nhai"

	father=105607302
	mother=405607302

	3013.1.1 = {birth="3013.1.1"}
	3029.1.1 = {add_trait=poor_warrior}
	3046.1.1 = {death="3046.1.1"}
}
110607302 = {
	name="Zeba"	# a lord
	female=yes
	dynasty=607302

	religion="jogos_pagan"
	culture="jogos_nhai"

	father=105607302
	mother=405607302

	3016.1.1 = {birth="3016.1.1"}
	3059.1.1 = {death="3059.1.1"}
}
410607302 = {
	name="Changaze"

	religion="jogos_pagan"
	culture="jogos_nhai"

	3016.1.1 = {birth="3016.1.1"}
	3032.1.1 = {add_trait=poor_warrior}
	3034.1.1 = {add_spouse=110607302}
	3059.1.1 = {death="3059.1.1"}
}
111607302 = {
	name="Tarana"	# not a lord
	female=yes
	dynasty=607302

	religion="jogos_pagan"
	culture="jogos_nhai"

	father=105607302
	mother=405607302

	3019.1.1 = {birth="3019.1.1"}
	3066.1.1 = {death="3066.1.1"}
}
112607302 = {
	name="Rahila"	# not a lord
	female=yes
	dynasty=607302

	religion="jogos_pagan"
	culture="jogos_nhai"

	father=105607302
	mother=405607302

	3020.1.1 = {birth="3020.1.1"}
	3095.1.1 = {death="3095.1.1"}
}
113607302 = {
	name="Basir"	# a lord
	dynasty=607302

	religion="jogos_pagan"
	culture="jogos_nhai"

	father=410607302
	mother=110607302

	3045.1.1 = {birth="3045.1.1"}
	3061.1.1 = {add_trait=poor_warrior}
	3063.1.1 = {add_spouse=413607302}
	3103.1.1 = {death="3103.1.1"}
}
413607302 = {
	name="Daywa"
	female=yes

	religion="jogos_pagan"
	culture="jogos_nhai"

	3045.1.1 = {birth="3045.1.1"}
	3103.1.1 = {death="3103.1.1"}
}
114607302 = {
	name="Jaan"	# a lord
	dynasty=607302

	religion="jogos_pagan"
	culture="jogos_nhai"

	father=113607302
	mother=413607302

	3079.1.1 = {birth="3079.1.1"}
	3095.1.1 = {add_trait=poor_warrior}
	3097.1.1 = {add_spouse=414607302}
	3147.1.1 = {death="3147.1.1"}
}
414607302 = {
	name="Leepa"
	female=yes

	religion="jogos_pagan"
	culture="jogos_nhai"

	3079.1.1 = {birth="3079.1.1"}
	3147.1.1 = {death="3147.1.1"}
}
115607302 = {
	name="Yasen"	# a lord
	dynasty=607302

	religion="jogos_pagan"
	culture="jogos_nhai"

	father=114607302
	mother=414607302

	3102.1.1 = {birth="3102.1.1"}
	3118.1.1 = {add_trait=master_warrior}
	3120.1.1 = {add_spouse=415607302}
	3163.1.1 = {death="3163.1.1"}
}
415607302 = {
	name="Bakhtawar"
	female=yes

	religion="jogos_pagan"
	culture="jogos_nhai"

	3102.1.1 = {birth="3102.1.1"}
	3163.1.1 = {death="3163.1.1"}
}
116607302 = {
	name="Sabeir"	# a lord
	dynasty=607302

	religion="jogos_pagan"
	culture="jogos_nhai"

	father=114607302
	mother=414607302

	3103.1.1 = {birth="3103.1.1"}
	3119.1.1 = {add_trait=master_warrior}
	3121.1.1 = {add_spouse=416607302}
	3172.1.1 = {death="3172.1.1"}
}
416607302 = {
	name="Aatifa"
	female=yes

	religion="jogos_pagan"
	culture="jogos_nhai"

	3103.1.1 = {birth="3103.1.1"}
	3172.1.1 = {death="3172.1.1"}
}
117607302 = {
	name="Leena"	# not a lord
	female=yes
	dynasty=607302

	religion="jogos_pagan"
	culture="jogos_nhai"

	father=115607302
	mother=415607302

	3122.1.1 = {birth="3122.1.1"}
	3176.1.1 = {death="3176.1.1"}
}
118607302 = {
	name="Ramazan"	# a lord
	dynasty=607302

	religion="jogos_pagan"
	culture="jogos_nhai"

	father=116607302
	mother=416607302

	3136.1.1 = {birth="3136.1.1"}
	3152.1.1 = {add_trait=trained_warrior}
	3154.1.1 = {add_spouse=418607302}
	3191.1.1 = {death="3191.1.1"}
}
418607302 = {
	name="Faria"
	female=yes

	religion="jogos_pagan"
	culture="jogos_nhai"

	3136.1.1 = {birth="3136.1.1"}
	3191.1.1 = {death="3191.1.1"}
}
119607302 = {
	name="Sadik"	# not a lord
	dynasty=607302

	religion="jogos_pagan"
	culture="jogos_nhai"

	father=116607302
	mother=416607302

	3137.1.1 = {birth="3137.1.1"}
	3153.1.1 = {add_trait=skilled_warrior}
	3215.1.1 = {death="3215.1.1"}
}
120607302 = {
	name="Tamim"	# a lord
	dynasty=607302

	religion="jogos_pagan"
	culture="jogos_nhai"

	father=118607302
	mother=418607302

	3160.1.1 = {birth="3160.1.1"}
	3176.1.1 = {add_trait=trained_warrior}
	3178.1.1 = {add_spouse=420607302}
	3217.1.1 = {death="3217.1.1"}
}
420607302 = {
	name="Halima"
	female=yes

	religion="jogos_pagan"
	culture="jogos_nhai"

	3160.1.1 = {birth="3160.1.1"}
	3217.1.1 = {death="3217.1.1"}
}
121607302 = {
	name="Elhash"	# not a lord
	dynasty=607302

	religion="jogos_pagan"
	culture="jogos_nhai"

	father=118607302
	mother=418607302

	3161.1.1 = {birth="3161.1.1"}
	3177.1.1 = {add_trait=trained_warrior}
	3228.1.1 = {death="3228.1.1"}
}
122607302 = {
	name="Wais"	# not a lord
	dynasty=607302

	religion="jogos_pagan"
	culture="jogos_nhai"

	father=118607302
	mother=418607302

	3162.1.1 = {birth="3162.1.1"}
	3178.1.1 = {add_trait=trained_warrior}
	3222.1.1 = {death="3222.1.1"}
}
123607302 = {
	name="Tahira"	# not a lord
	female=yes
	dynasty=607302

	religion="jogos_pagan"
	culture="jogos_nhai"

	father=118607302
	mother=418607302

	3163.1.1 = {birth="3163.1.1"}
	3220.1.1 = {death = {death_reason = death_accident}}
}
124607302 = {
	name="Nadera"	# not a lord
	female=yes
	dynasty=607302

	religion="jogos_pagan"
	culture="jogos_nhai"

	father=120607302
	mother=420607302

	3179.1.1 = {birth="3179.1.1"}
	3236.1.1 = {death="3236.1.1"}
}
125607302 = {
	name="Obiad"	# a lord
	dynasty=607302

	religion="jogos_pagan"
	culture="jogos_nhai"

	father=120607302
	mother=420607302

	3181.1.1 = {birth="3181.1.1"}
	3197.1.1 = {add_trait=master_warrior}
	3199.1.1 = {add_spouse=425607302}
	3221.1.1 = {death="3221.1.1"}
}
425607302 = {
	name="Faria"
	female=yes

	religion="jogos_pagan"
	culture="jogos_nhai"

	3181.1.1 = {birth="3181.1.1"}
	3221.1.1 = {death="3221.1.1"}
}
126607302 = {
	name="Lailuma"	# not a lord
	female=yes
	dynasty=607302

	religion="jogos_pagan"
	culture="jogos_nhai"

	father=120607302
	mother=420607302

	3182.1.1 = {birth="3182.1.1"}
	3241.1.1 = {death="3241.1.1"}
}
127607302 = {
	name="Zahar"	# not a lord
	dynasty=607302

	religion="jogos_pagan"
	culture="jogos_nhai"

	father=120607302
	mother=420607302

	3185.1.1 = {birth="3185.1.1"}
	3201.1.1 = {add_trait=skilled_warrior}
	3247.1.1 = {death="3247.1.1"}
}
128607302 = {
	name="Zabi"	# a lord
	dynasty=607302

	religion="jogos_pagan"
	culture="jogos_nhai"

	father=125607302
	mother=425607302

	3205.1.1 = {birth="3205.1.1"}
	3221.1.1 = {add_trait=poor_warrior}
	3223.1.1 = {add_spouse=428607302}
	3258.1.1 = {death="3258.1.1"}
}
428607302 = {
	name="Orzala"
	female=yes

	religion="jogos_pagan"
	culture="jogos_nhai"

	3205.1.1 = {birth="3205.1.1"}
	3258.1.1 = {death="3258.1.1"}
}
129607302 = {
	name="Wahida"	# a lord
	female=yes
	dynasty=607302

	religion="jogos_pagan"
	culture="jogos_nhai"

	father=128607302
	mother=428607302

	3229.1.1 = {birth="3229.1.1"}
	3274.1.1 = {death="3274.1.1"}
}
429607302 = {
	name="Changaze"

	religion="jogos_pagan"
	culture="jogos_nhai"

	3229.1.1 = {birth="3229.1.1"}
	3245.1.1 = {add_trait=poor_warrior}
	3247.1.1 = {add_spouse=129607302}
	3274.1.1 = {death="3274.1.1"}
}
130607302 = {
	name="Rasoul"	# a lord
	dynasty=607302

	religion="jogos_pagan"
	culture="jogos_nhai"

	father=429607302
	mother=129607302

	3251.1.1 = {birth="3251.1.1"}
	3267.1.1 = {add_trait=trained_warrior}
	3269.1.1 = {add_spouse=430607302}
}
430607302 = {
	name="Ilaaha"
	female=yes

	religion="jogos_pagan"
	culture="jogos_nhai"

	3251.1.1 = {birth="3251.1.1"}
}
131607302 = {
	name="Aasif"	# not a lord
	dynasty=607302

	religion="jogos_pagan"
	culture="jogos_nhai"

	father=130607302
	mother=430607302

	3274.1.1 = {birth="3274.1.1"}
	3290.1.1 = {add_trait=trained_warrior}
}
132607302 = {
	name="Farhad"	# not a lord
	dynasty=607302

	religion="jogos_pagan"
	culture="jogos_nhai"

	father=130607302
	mother=430607302

	3277.1.1 = {birth="3277.1.1"}
	3293.1.1 = {add_trait=skilled_warrior}
}

#Central Plains#
100607303 = {
	name="Zaid"	# a lord
	dynasty=607303

	religion="jogos_pagan"
	culture="jogos_nhai"

	2960.1.1 = {birth="2960.1.1"}
	2976.1.1 = {add_trait=trained_warrior}
	2978.1.1 = {add_spouse=400607303}
	3019.1.1 = {death="3019.1.1"}
}
400607303 = {
	name="Donyaa"
	female=yes

	religion="jogos_pagan"
	culture="jogos_nhai"

	2960.1.1 = {birth="2960.1.1"}
	3019.1.1 = {death="3019.1.1"}
}
101607303 = {
	name="Edrees"	# a lord
	dynasty=607303

	religion="jogos_pagan"
	culture="jogos_nhai"

	father=100607303
	mother=400607303

	2983.1.1 = {birth="2983.1.1"}
	2999.1.1 = {add_trait=trained_warrior}
	3001.1.1 = {add_spouse=401607303}
	3035.1.1 = {death="3035.1.1"}
}
401607303 = {
	name="Laimah"
	female=yes

	religion="jogos_pagan"
	culture="jogos_nhai"

	2983.1.1 = {birth="2983.1.1"}
	3035.1.1 = {death="3035.1.1"}
}
102607303 = {
	name="Yama"	# not a lord
	female=yes
	dynasty=607303

	religion="jogos_pagan"
	culture="jogos_nhai"

	father=100607303
	mother=400607303

	2985.1.1 = {birth="2985.1.1"}
	3037.1.1 = {death="3037.1.1"}
}
103607303 = {
	name="Taj"	# not a lord
	dynasty=607303

	religion="jogos_pagan"
	culture="jogos_nhai"

	father=100607303
	mother=400607303

	2986.1.1 = {birth="2986.1.1"}
	3002.1.1 = {add_trait=trained_warrior}
	3040.1.1 = {death="3040.1.1"}
}
104607303 = {
	name="Tahira"	# not a lord
	female=yes
	dynasty=607303

	religion="jogos_pagan"
	culture="jogos_nhai"

	father=100607303
	mother=400607303

	2988.1.1 = {birth="2988.1.1"}
	3030.1.1 = {death="3030.1.1"}
}
105607303 = {
	name="Chehra"	# not a lord
	female=yes
	dynasty=607303

	religion="jogos_pagan"
	culture="jogos_nhai"

	father=101607303
	mother=401607303

	3003.1.1 = {birth="3003.1.1"}
	3053.1.1 = {death="3053.1.1"}
}
106607303 = {
	name="Qader"	# a lord
	dynasty=607303

	religion="jogos_pagan"
	culture="jogos_nhai"

	father=101607303
	mother=401607303

	3006.1.1 = {birth="3006.1.1"}
	3022.1.1 = {add_trait=trained_warrior}
	3024.1.1 = {add_spouse=406607303}
	3048.1.1 = {death="3048.1.1"}
}
406607303 = {
	name="Xebaida"
	female=yes

	religion="jogos_pagan"
	culture="jogos_nhai"

	3006.1.1 = {birth="3006.1.1"}
	3048.1.1 = {death="3048.1.1"}
}
107607303 = {
	name="Sabeir"	# a lord
	dynasty=607303

	religion="jogos_pagan"
	culture="jogos_nhai"

	father=106607303
	mother=406607303

	3030.1.1 = {birth="3030.1.1"}
	3046.1.1 = {add_trait=master_warrior}
	3048.1.1 = {add_spouse=407607303}
	3079.1.1 = {death="3079.1.1"}
}
407607303 = {
	name="Tahira"
	female=yes

	religion="jogos_pagan"
	culture="jogos_nhai"

	3030.1.1 = {birth="3030.1.1"}
	3079.1.1 = {death="3079.1.1"}
}
108607303 = {
	name="Tamim"	# not a lord
	dynasty=607303

	religion="jogos_pagan"
	culture="jogos_nhai"

	father=106607303
	mother=406607303

	3032.1.1 = {birth="3032.1.1"}
	3048.1.1 = {add_trait=trained_warrior}
	3073.1.1 = {death="3073.1.1"}
}
109607303 = {
	name="Taj"	# a lord
	dynasty=607303

	religion="jogos_pagan"
	culture="jogos_nhai"

	father=107607303
	mother=407607303

	3059.1.1 = {birth="3059.1.1"}
	3075.1.1 = {add_trait=trained_warrior}
	3077.1.1 = {add_spouse=409607303}
	3099.1.1 = {death="3099.1.1"}
}
409607303 = {
	name="Tamana"
	female=yes

	religion="jogos_pagan"
	culture="jogos_nhai"

	3059.1.1 = {birth="3059.1.1"}
	3099.1.1 = {death="3099.1.1"}
}
110607303 = {
	name="Kahkazan"	# a lord
	dynasty=607303

	religion="jogos_pagan"
	culture="jogos_nhai"

	father=109607303
	mother=409607303

	3087.1.1 = {birth="3087.1.1"}
	3103.1.1 = {add_trait=trained_warrior}
	3105.1.1 = {add_spouse=410607303}
	3155.1.1 = {death="3155.1.1"}
}
410607303 = {
	name="Daywa"
	female=yes

	religion="jogos_pagan"
	culture="jogos_nhai"

	3087.1.1 = {birth="3087.1.1"}
	3155.1.1 = {death="3155.1.1"}
}
111607303 = {
	name="Walia"	# not a lord
	female=yes
	dynasty=607303

	religion="jogos_pagan"
	culture="jogos_nhai"

	father=109607303
	mother=409607303

	3090.1.1 = {birth="3090.1.1"}
	3154.1.1 = {death="3154.1.1"}
}
112607303 = {
	name="Aamir"	# not a lord
	dynasty=607303

	religion="jogos_pagan"
	culture="jogos_nhai"

	father=109607303
	mother=409607303

	3091.1.1 = {birth="3091.1.1"}
	3107.1.1 = {add_trait=trained_warrior}
	3144.1.1 = {death="3144.1.1"}
}
113607303 = {
	name="Usma"	# a lord
	female=yes
	dynasty=607303

	religion="jogos_pagan"
	culture="jogos_nhai"

	father=110607303
	mother=410607303

	3108.1.1 = {birth="3108.1.1"}
	3176.1.1 = {death="3176.1.1"}
}
413607303 = {
	name="Tahib"

	religion="jogos_pagan"
	culture="jogos_nhai"

	3108.1.1 = {birth="3108.1.1"}
	3124.1.1 = {add_trait=poor_warrior}
	3126.1.1 = {add_spouse=113607303}
	3176.1.1 = {death="3176.1.1"}
}
114607303 = {
	name="Naim"	# a lord
	dynasty=607303

	religion="jogos_pagan"
	culture="jogos_nhai"

	father=413607303
	mother=113607303

	3137.1.1 = {birth="3137.1.1"}
	3153.1.1 = {add_trait=skilled_warrior}
	3155.1.1 = {add_spouse=414607303}
	3178.1.1 = {death="3178.1.1"}
}
414607303 = {
	name="Leena"
	female=yes

	religion="jogos_pagan"
	culture="jogos_nhai"

	3137.1.1 = {birth="3137.1.1"}
	3178.1.1 = {death="3178.1.1"}
}
115607303 = {
	name="Faqar"	# a lord
	dynasty=607303

	religion="jogos_pagan"
	culture="jogos_nhai"

	father=413607303
	mother=113607303

	3139.1.1 = {birth="3139.1.1"}
	3155.1.1 = {add_trait=trained_warrior}
	3157.1.1 = {add_spouse=415607303}
	3195.1.1 = {death="3195.1.1"}
}
415607303 = {
	name="Aatifa"
	female=yes

	religion="jogos_pagan"
	culture="jogos_nhai"

	3139.1.1 = {birth="3139.1.1"}
	3195.1.1 = {death="3195.1.1"}
}
116607303 = {
	name="Rahila"	# not a lord
	female=yes
	dynasty=607303

	religion="jogos_pagan"
	culture="jogos_nhai"

	father=114607303
	mother=414607303

	3171.1.1 = {birth="3171.1.1"}
	3198.1.1 = {death="3198.1.1"}
}
117607303 = {
	name="Aarak"	# a lord
	dynasty=607303

	religion="jogos_pagan"
	culture="jogos_nhai"

	father=114607303
	mother=414607303

	3174.1.1 = {birth="3174.1.1"}
	3190.1.1 = {add_trait=poor_warrior}
	3192.1.1 = {add_spouse=417607303}
	3226.1.1 = {death = {death_reason = death_murder}}
}
417607303 = {
	name="Chehra"
	female=yes

	religion="jogos_pagan"
	culture="jogos_nhai"

	3174.1.1 = {birth="3174.1.1"}
	3226.1.1 = {death="3226.1.1"}
}
118607303 = {
	name="Elina"	# not a lord
	female=yes
	dynasty=607303

	religion="jogos_pagan"
	culture="jogos_nhai"

	father=115607303
	mother=415607303

	3162.1.1 = {birth="3162.1.1"}
	3221.1.1 = {death="3221.1.1"}
}
119607303 = {
	name="Ehsan"	# a lord
	dynasty=607303

	religion="jogos_pagan"
	culture="jogos_nhai"

	father=117607303
	mother=417607303

	3199.1.1 = {birth="3199.1.1"}
	3215.1.1 = {add_trait=trained_warrior}
	3217.1.1 = {add_spouse=419607303}
	3252.1.1 = {death="3252.1.1"}
}
419607303 = {
	name="Obiada"
	female=yes

	religion="jogos_pagan"
	culture="jogos_nhai"

	3199.1.1 = {birth="3199.1.1"}
	3252.1.1 = {death="3252.1.1"}
}
120607303 = {
	name="Leepa"	# not a lord
	female=yes
	dynasty=607303

	religion="jogos_pagan"
	culture="jogos_nhai"

	father=117607303
	mother=417607303

	3201.1.1 = {birth="3201.1.1"}
	3280.1.1 = {death="3280.1.1"}
}
121607303 = {
	name="Orzala"	# not a lord
	female=yes
	dynasty=607303

	religion="jogos_pagan"
	culture="jogos_nhai"

	father=117607303
	mother=417607303

	3203.1.1 = {birth="3203.1.1"}
	3244.1.1 = {death="3244.1.1"}
}
122607303 = {
	name="Parviz"	# a lord
	dynasty=607303

	religion="jogos_pagan"
	culture="jogos_nhai"

	father=119607303
	mother=419607303

	3226.1.1 = {birth="3226.1.1"}
	3242.1.1 = {add_trait=trained_warrior}
	3244.1.1 = {add_spouse=422607303}
	3293.1.1 = {death="3293.1.1"}
}
422607303 = {
	name="Patra"
	female=yes

	religion="jogos_pagan"
	culture="jogos_nhai"

	3226.1.1 = {birth="3226.1.1"}
	3293.1.1 = {death="3293.1.1"}
}
123607303 = {
	name="Wajia"	# not a lord
	female=yes
	dynasty=607303

	religion="jogos_pagan"
	culture="jogos_nhai"

	father=119607303
	mother=419607303

	3227.1.1 = {birth="3227.1.1"}
	3274.1.1 = {death="3274.1.1"}
}
124607303 = {
	name="Yasaman"	# not a lord
	dynasty=607303

	religion="jogos_pagan"
	culture="jogos_nhai"

	father=119607303
	mother=419607303

	3230.1.1 = {birth="3230.1.1"}
	3246.1.1 = {add_trait=poor_warrior}
	3248.1.1 = {add_spouse=424607303}
	3295.1.1 = {death="3295.1.1"}
}
424607303 = {
	name="Laimah"
	female=yes

	religion="jogos_pagan"
	culture="jogos_nhai"

	3230.1.1 = {birth="3230.1.1"}
	3295.1.1 = {death="3295.1.1"}
}
125607303 = {
	name="Sabeir"	# not a lord
	dynasty=607303

	religion="jogos_pagan"
	culture="jogos_nhai"

	father=119607303
	mother=419607303

	3233.1.1 = {birth="3233.1.1"}
	3249.1.1 = {add_trait=poor_warrior}
	3284.1.1 = {death="3284.1.1"}
}
126607303 = {
	name="Ramazan"	# a lord
	dynasty=607303

	religion="jogos_pagan"
	culture="jogos_nhai"

	father=122607303
	mother=422607303

	3261.1.1 = {birth="3261.1.1"}
	3277.1.1 = {add_trait=trained_warrior}
	3279.1.1 = {add_spouse=426607303}
}
426607303 = {
	name="Obiada"
	female=yes

	religion="jogos_pagan"
	culture="jogos_nhai"

	3261.1.1 = {birth="3261.1.1"}
}
127607303 = {
	name="Zahra"	# not a lord
	female=yes
	dynasty=607303

	religion="jogos_pagan"
	culture="jogos_nhai"

	father=126607303
	mother=426607303

	3284.1.1 = {birth="3284.1.1"}
}
128607303 = {
	name="Sabroo"	# not a lord
	female=yes
	dynasty=607303

	religion="jogos_pagan"
	culture="jogos_nhai"

	father=124607303
	mother=424607303

	3253.1.1 = {birth="3253.1.1"}
}
129607303 = {
	name="Qader"	# a lord
	dynasty=607303

	religion="jogos_pagan"
	culture="jogos_nhai"

	father=124607303
	mother=424607303

	3255.1.1 = {birth="3255.1.1"}
	3271.1.1 = {add_trait=trained_warrior}
	3273.1.1 = {add_spouse=429607303}
}
429607303 = {
	name="Darya"
	female=yes

	religion="jogos_pagan"
	culture="jogos_nhai"

	3255.1.1 = {birth="3255.1.1"}
}
132607303 = {
	name="Maiwand"	# not a lord
	dynasty=607303

	religion="jogos_pagan"
	culture="jogos_nhai"

	father=124607303
	mother=424607303

	3258.1.1 = {birth="3258.1.1"}
	3274.1.1 = {add_trait=trained_warrior}
}
133607303 = {
	name="Fateh"	# not a lord
	dynasty=607303

	religion="jogos_pagan"
	culture="jogos_nhai"

	father=129607303
	mother=429607303

	3277.1.1 = {birth="3277.1.1"}
	3293.1.1 = {add_trait=master_warrior}
}

#East Plains#
100607304 = {
	name="Ehsan"	# a lord
	dynasty=607304

	religion="jogos_pagan"
	culture="jogos_nhai"

	2954.1.1 = {birth="2954.1.1"}
	2970.1.1 = {add_trait=skilled_warrior}
	2972.1.1 = {add_spouse=400607304}
	3005.1.1 = {death="3005.1.1"}
}
400607304 = {
	name="Wahida"
	female=yes

	religion="jogos_pagan"
	culture="jogos_nhai"

	2954.1.1 = {birth="2954.1.1"}
	3005.1.1 = {death="3005.1.1"}
}
101607304 = {
	name="Qader"	# a lord
	dynasty=607304

	religion="jogos_pagan"
	culture="jogos_nhai"

	father=100607304
	mother=400607304

	2977.1.1 = {birth="2977.1.1"}
	2993.1.1 = {add_trait=trained_warrior}
	2995.1.1 = {add_spouse=401607304}
	3027.1.1 = {death="3027.1.1"}
}
401607304 = {
	name="Malalai"
	female=yes

	religion="jogos_pagan"
	culture="jogos_nhai"

	2977.1.1 = {birth="2977.1.1"}
	3027.1.1 = {death="3027.1.1"}
}
102607304 = {
	name="Elhash"	# not a lord
	dynasty=607304

	religion="jogos_pagan"
	culture="jogos_nhai"

	father=100607304
	mother=400607304

	2980.1.1 = {birth="2980.1.1"}
	2996.1.1 = {add_trait=poor_warrior}
	3040.1.1 = {death="3040.1.1"}
}
103607304 = {
	name="Qudratu"	# a lord
	female=yes
	dynasty=607304

	religion="jogos_pagan"
	culture="jogos_nhai"

	father=101607304
	mother=401607304

	3004.1.1 = {birth="3004.1.1"}
	3039.1.1 = {death="3039.1.1"}
}
403607304 = {
	name="Wakel"

	religion="jogos_pagan"
	culture="jogos_nhai"

	3004.1.1 = {birth="3004.1.1"}
	3020.1.1 = {add_trait=poor_warrior}
	3022.1.1 = {add_spouse=103607304}
	3039.1.1 = {death="3039.1.1"}
}
104607304 = {
	name="Zhea"	# not a lord
	female=yes
	dynasty=607304

	religion="jogos_pagan"
	culture="jogos_nhai"

	father=101607304
	mother=401607304

	3006.1.1 = {birth="3006.1.1"}
	3065.1.1 = {death="3065.1.1"}
}
105607304 = {
	name="Camila"	# not a lord
	female=yes
	dynasty=607304

	religion="jogos_pagan"
	culture="jogos_nhai"

	father=101607304
	mother=401607304

	3009.1.1 = {birth="3009.1.1"}
	3036.1.1 = {death="3036.1.1"}
}
106607304 = {
	name="Jakan"	# a lord
	dynasty=607304

	religion="jogos_pagan"
	culture="jogos_nhai"

	father=403607304
	mother=103607304

	3024.1.1 = {birth="3024.1.1"}
	3040.1.1 = {add_trait=trained_warrior}
	3042.1.1 = {add_spouse=406607304}
	3083.1.1 = {death="3083.1.1"}
}
406607304 = {
	name="Wahida"
	female=yes

	religion="jogos_pagan"
	culture="jogos_nhai"

	3024.1.1 = {birth="3024.1.1"}
	3083.1.1 = {death="3083.1.1"}
}
107607304 = {
	name="Kamila"	# not a lord
	female=yes
	dynasty=607304

	religion="jogos_pagan"
	culture="jogos_nhai"

	father=106607304
	mother=406607304

	3047.1.1 = {birth="3047.1.1"}
	3088.1.1 = {death="3088.1.1"}
}
108607304 = {
	name="Tahmina"	# not a lord
	female=yes
	dynasty=607304

	religion="jogos_pagan"
	culture="jogos_nhai"

	father=106607304
	mother=406607304

	3048.1.1 = {birth="3048.1.1"}
	3111.1.1 = {death="3111.1.1"}
}
109607304 = {
	name="Rasoul"	# a lord
	dynasty=607304

	religion="jogos_pagan"
	culture="jogos_nhai"

	father=106607304
	mother=406607304

	3050.1.1 = {birth="3050.1.1"}
	3066.1.1 = {add_trait=skilled_warrior}
	3068.1.1 = {add_spouse=409607304}
	3109.1.1 = {death="3109.1.1"}
}
409607304 = {
	name="Tarana"
	female=yes

	religion="jogos_pagan"
	culture="jogos_nhai"

	3050.1.1 = {birth="3050.1.1"}
	3109.1.1 = {death="3109.1.1"}
}
110607304 = {
	name="Hila"	# not a lord
	female=yes
	dynasty=607304

	religion="jogos_pagan"
	culture="jogos_nhai"

	father=109607304
	mother=409607304

	3077.1.1 = {birth="3077.1.1"}
	3144.1.1 = {death="3144.1.1"}
}
111607304 = {
	name="Durkhany"	# not a lord
	female=yes
	dynasty=607304

	religion="jogos_pagan"
	culture="jogos_nhai"

	father=109607304
	mother=409607304

	3079.1.1 = {birth="3079.1.1"}
	3124.1.1 = {death="3124.1.1"}
}
112607304 = {
	name="Tarakai"	# a lord
	dynasty=607304

	religion="jogos_pagan"
	culture="jogos_nhai"

	father=109607304
	mother=409607304

	3082.1.1 = {birth="3082.1.1"}
	3098.1.1 = {add_trait=skilled_warrior}
	3100.1.1 = {add_spouse=412607304}
	3149.1.1 = {death="3149.1.1"}
}
412607304 = {
	name="Nabila"
	female=yes

	religion="jogos_pagan"
	culture="jogos_nhai"

	3082.1.1 = {birth="3082.1.1"}
	3149.1.1 = {death="3149.1.1"}
}
113607304 = {
	name="Sahar"	# not a lord
	dynasty=607304

	religion="jogos_pagan"
	culture="jogos_nhai"

	father=109607304
	mother=409607304

	3083.1.1 = {birth="3083.1.1"}
	3099.1.1 = {add_trait=poor_warrior}
	3141.1.1 = {death = {death_reason = death_accident}}
}
114607304 = {
	name="Nagia"	# not a lord
	female=yes
	dynasty=607304

	religion="jogos_pagan"
	culture="jogos_nhai"

	father=112607304
	mother=412607304

	3106.1.1 = {birth="3106.1.1"}
	3143.1.1 = {death="3143.1.1"}
}
115607304 = {
	name="Ramez"	# a lord
	dynasty=607304

	religion="jogos_pagan"
	culture="jogos_nhai"

	father=112607304
	mother=412607304

	3107.1.1 = {birth="3107.1.1"}
	3123.1.1 = {add_trait=trained_warrior}
	3125.1.1 = {add_spouse=415607304}
	3177.1.1 = {death="3177.1.1"}
}
415607304 = {
	name="Naazi"
	female=yes

	religion="jogos_pagan"
	culture="jogos_nhai"

	3107.1.1 = {birth="3107.1.1"}
	3177.1.1 = {death="3177.1.1"}
}
116607304 = {
	name="Elhash"	# not a lord
	dynasty=607304

	religion="jogos_pagan"
	culture="jogos_nhai"

	father=112607304
	mother=412607304

	3110.1.1 = {birth="3110.1.1"}
	3126.1.1 = {add_trait=poor_warrior}
	3172.1.1 = {death="3172.1.1"}
}
117607304 = {
	name="Fateh"	# not a lord
	dynasty=607304

	religion="jogos_pagan"
	culture="jogos_nhai"

	father=115607304
	mother=415607304

	3132.1.1 = {birth="3132.1.1"}
	3148.1.1 = {add_trait=skilled_warrior}
	3150.1.1 = {add_spouse=417607304}
	3175.1.1 = {death="3175.1.1"}
}
417607304 = {
	name="Rahila"
	female=yes

	religion="jogos_pagan"
	culture="jogos_nhai"

	3132.1.1 = {birth="3132.1.1"}
	3175.1.1 = {death="3175.1.1"}
}
118607304 = {
	name="Aarak"	# a lord
	dynasty=607304

	religion="jogos_pagan"
	culture="jogos_nhai"

	father=115607304
	mother=415607304

	3135.1.1 = {birth="3135.1.1"}
	3151.1.1 = {add_trait=poor_warrior}
	3153.1.1 = {add_spouse=418607304}
	3179.1.1 = {death="3179.1.1"}
}
418607304 = {
	name="Durkhany"
	female=yes

	religion="jogos_pagan"
	culture="jogos_nhai"

	3135.1.1 = {birth="3135.1.1"}
	3179.1.1 = {death="3179.1.1"}
}
119607304 = {
	name="Daywa"	# not a lord
	female=yes
	dynasty=607304

	religion="jogos_pagan"
	culture="jogos_nhai"

	father=117607304
	mother=417607304

	3151.1.1 = {birth="3151.1.1"}
	3215.1.1 = {death="3215.1.1"}
}
120607304 = {
	name="Tarakai"	# a lord
	dynasty=607304

	religion="jogos_pagan"
	culture="jogos_nhai"

	father=118607304
	mother=418607304

	3158.1.1 = {birth="3158.1.1"}
	3174.1.1 = {add_trait=poor_warrior}
	3176.1.1 = {add_spouse=420607304}
	3224.1.1 = {death="3224.1.1"}
}
420607304 = {
	name="Ghezal"
	female=yes

	religion="jogos_pagan"
	culture="jogos_nhai"

	3158.1.1 = {birth="3158.1.1"}
	3224.1.1 = {death="3224.1.1"}
}
121607304 = {
	name="Abagull"	# not a lord
	female=yes
	dynasty=607304

	religion="jogos_pagan"
	culture="jogos_nhai"

	father=120607304
	mother=420607304

	3182.1.1 = {birth="3182.1.1"}
	3235.1.1 = {death="3235.1.1"}
}
122607304 = {
	name="Inzir"	# a lord
	dynasty=607304

	religion="jogos_pagan"
	culture="jogos_nhai"

	father=120607304
	mother=420607304

	3183.1.1 = {birth="3183.1.1"}
	3199.1.1 = {add_trait=skilled_warrior}
	3201.1.1 = {add_spouse=422607304}
	3250.1.1 = {death="3250.1.1"}
}
422607304 = {
	name="Tarana"
	female=yes

	religion="jogos_pagan"
	culture="jogos_nhai"

	3183.1.1 = {birth="3183.1.1"}
	3250.1.1 = {death="3250.1.1"}
}
123607304 = {
	name="Jakan"	# a lord
	dynasty=607304

	religion="jogos_pagan"
	culture="jogos_nhai"

	father=122607304
	mother=422607304

	3217.1.1 = {birth="3217.1.1"}
	3233.1.1 = {add_trait=trained_warrior}
	3235.1.1 = {add_spouse=423607304}
	3275.1.1 = {death="3275.1.1"}
}
423607304 = {
	name="Camila"
	female=yes

	religion="jogos_pagan"
	culture="jogos_nhai"

	3217.1.1 = {birth="3217.1.1"}
	3275.1.1 = {death="3275.1.1"}
}
124607304 = {
	name="Sadaf"	# a lord
	dynasty=607304

	religion="jogos_pagan"
	culture="jogos_nhai"

	father=123607304
	mother=423607304

	3249.1.1 = {birth="3249.1.1"}
	3265.1.1 = {add_trait=trained_warrior}
	3267.1.1 = {add_spouse=424607304}
	3291.1.1 = {death="3291.1.1"}
}
424607304 = {
	name="Leepa"
	female=yes

	religion="jogos_pagan"
	culture="jogos_nhai"

	3249.1.1 = {birth="3249.1.1"}
	3291.1.1 = {death="3291.1.1"}
}
125607304 = {
	name="Ilaaha"	# not a lord
	female=yes
	dynasty=607304

	religion="jogos_pagan"
	culture="jogos_nhai"

	father=123607304
	mother=423607304

	3250.1.1 = {birth="3250.1.1"}
	3297.1.1 = {death="3297.1.1"}
}
126607304 = {
	name="Janan"	# a lord
	dynasty=607304

	religion="jogos_pagan"
	culture="jogos_nhai"

	father=124607304
	mother=424607304

	3272.1.1 = {birth="3272.1.1"}
	3288.1.1 = {add_trait=poor_warrior}
}
127607304 = {
	name="Zeba"	# not a lord
	female=yes
	dynasty=607304

	religion="jogos_pagan"
	culture="jogos_nhai"

	father=124607304
	mother=424607304

	3273.1.1 = {birth="3273.1.1"}
}
128607304 = {
	name="Temur"	# not a lord
	dynasty=607304

	religion="jogos_pagan"
	culture="jogos_nhai"

	father=124607304
	mother=424607304

	3274.1.1 = {birth="3274.1.1"}
	3290.1.1 = {add_trait=poor_warrior}
}
