

#############################################################   House Durrandon  ###########################################################################

41544 = {
	name= "Durran" # Built Storm's End
	dynasty=1544 #Durrandon
	
	martial=18
	diplomacy=15
	stewardship=20
	learning=15
	intrigue=15
	
	add_trait=brilliant_strategist
	add_trait=skilled_warrior
	add_trait=proud
	add_trait=genius
	add_trait=ambitious
	add_trait=wroth
	
	give_nickname=nick_godsgrief
	
	religion="storm_god"
	culture="old_first_man"

	3.1.1 ={ birth="3.1.1"}
	28.1.1 = {add_spouse=4041544}
	90.1.1={death="90.1.1"}
}
4041544 = {
	name= "Elenei" # Supposedly the daughter to the god of the sea and the goddess of the wind
	female=yes
	
	dna="aghckpgggcw"
	properties="0b0eck00000"
	
	martial=10
	diplomacy=10
	stewardship=10
	learning=15
	intrigue=10
	
	add_trait=mystic
	add_trait=fair
	add_trait=strong
	
	religion="storm_god"
	culture="old_first_man"

	3.1.1 ={ birth="3.1.1"}
	90.1.1={death="90.1.1"}
}
1501544 = {
	name = Durran #King Durran II the Devout
	dynasty = 1544 #Durrandon

	religion=old_gods
	culture=old_first_man

	father = 41544
	mother = 4041544
	
	add_trait=zealous
	add_trait=honorable
	add_trait=kind
	add_trait=patient
	add_trait=grey_eminence

	40.1.1 = {
		birth=40.1.1
	}
	56.1.1 = {
		add_trait=skilled_warrior
		give_nickname=nick_the_devout
	}
	122.1.1 = {
		death=122.1.1
	}
}
1511544 = {
	name = Durran #King Durran III (Non-canon)
	dynasty = 1544 #Durrandon

	religion=old_gods
	culture=old_first_man

	father = 1501544

	79.1.1 = {
		birth=79.1.1
	}
	95.1.1 = {
		add_trait=trained_warrior
	}
	149.1.1 = {
		death=149.1.1
	}
}
1521544 = {
	name = Durran #King Durran IV Bronze-Axe
	dynasty = 1544 #Durrandon

	religion=old_gods
	culture=old_first_man

	father = 1511544
	
	add_trait=strong
	add_trait=ambitious
	add_trait=wroth
	add_trait=diligent
	add_trait=authoritative
	
	100.1.1 = {
		birth=100.1.1
	}
	116.1.1 = {
		add_trait=master_warrior
		give_nickname=nick_bronze_axe
	}
	162.1.1 = {
		death=162.1.1
	}
}
1531544 = {
	name = Durran #King Durran V the Dour
	dynasty = 1544 #Durrandon

	religion=old_gods
	culture=old_first_man

	father = 1521544
	
	add_trait=strong
	add_trait=skilled_tactician
	add_trait=ruthless
	add_trait=authoritative
	add_trait=proud
	add_trait=temperate

	132.1.1 = {
		birth=132.1.1
	}
	148.1.1 = {
		add_trait=master_warrior
		give_nickname=nick_the_dour
	}
	189.1.1 = {
		death=189.1.1
	}
}
1541544 = {
	name = Durran #King Durran VI Ravenfriend
	dynasty = 1544 #Durrandon

	religion=old_gods
	culture=old_first_man

	father = 1531544
	
	add_trait=quick
	add_trait=charismatic_negotiator
	add_trait=gregarious
	add_trait=just
	add_trait=trusting

	160.1.1 = {
		birth=160.1.1
	}
	176.1.1 = {
		add_trait=trained_warrior
		give_nickname=nick_ravenfriend
	}
	219.1.1 = {
		death=219.1.1
	}
}
1551544 = {
	name = Erich #King Erich I (Non-canon)
	dynasty = 1544 #Durrandon

	religion=old_gods
	culture=old_first_man

	father = 1541544

	189.1.1 = {
		birth=189.1.1
	}
	205.1.1 = {
		add_trait=trained_warrior
	}
	230.1.1 = {
		death=230.1.1
	}
}
1561544 = {
	name = Durran #King Durran VII the Young
	dynasty = 1544 #Durrandon

	religion=old_gods
	culture=old_first_man

	father = 1551544
	
	add_trait=lustful
	add_trait=brilliant_strategist
	add_trait=strong
	add_trait=arbitrary
	add_trait=familyperson

	212.1.1 = {
		birth=212.1.1
	}
	228.1.1 = {
		add_trait=skilled_warrior
		give_nickname=nick_the_young
	}
	251.1.1 = {
		death={
			death_reason=death_murder
			killer=1571544
		}
	}
}
1571544 = {
	name = Erich #Kin-Killer
	dynasty = 1544 #Durrandon

	religion=old_gods
	culture=old_first_man

	father = 1551544
	
	add_trait=wroth
	add_trait=proud
	add_trait=ruthless
	
	214.1.1 = {
		birth=214.1.1
	}
	230.1.1 = {
		add_trait=trained_warrior
	}
	251.1.1 = {
		add_trait=kinslayer
		give_nickname=nick_kin_killer
		death={
			death_reason=death_execution
		}
	}
}
1581544 = {
	name = Argella
	female=yes
	dynasty = 1544 #Durrandon

	religion=old_gods
	culture=old_first_man

	father = 1571544
	
	add_trait=lustful
	add_trait=fair
	add_trait=cynical
	add_trait=arbitrary

	231.1.1 = {
		birth=231.1.1
	}
	282.1.1 = {
		death=282.1.1
	}
}
3071544 = {
	name= "Line of Durran the Young"
	dynasty=1544 #Durrandon
	
	occluded=yes
	
	father=1561544

	religion=old_gods
	culture=old_first_man

	251.1.1 = {birth="251.1.1"}
	2860.1.1={death="2860.1.1"}
}


10001544 = {
	name="Durhan"	# a lord
	dynasty=1544

	religion="old_gods"
	culture="old_first_man"


	father=3071544

	2860.1.1 = {birth="2860.1.1"}
	2876.1.1 = {add_trait=poor_warrior}
	2895.1.1 = {death="2895.1.1"}
}
10011544 = {
	name="Harlan"	# a lord
	dynasty=1544

	religion="old_gods"
	culture="old_first_man"

	father=10001544

	2880.1.1 = {birth="2880.1.1"}
	2896.1.1 = {add_trait=skilled_warrior}
	2933.1.1 = {death="2933.1.1"}
}
10041544 = {
	name="Donnel"	# a lord
	dynasty=1544

	religion="old_gods"
	culture="old_first_man"

	father=10011544

	2907.1.1 = {birth="2907.1.1"}
	2923.1.1 = {add_trait=skilled_warrior}
	2966.1.1 = {death="2966.1.1"}
}
10061544 = {
	name="Durhan"	# a lord
	dynasty=1544

	religion="old_gods"
	culture="old_first_man"

	father=10041544

	2944.1.1 = {birth="2944.1.1"}
	2960.1.1 = {add_trait=skilled_warrior}
	2973.1.1 = {death = {death_reason = death_murder}}
}
10081544 = {
	name="Richard"	# a lord
	dynasty=1544

	religion="old_gods"
	culture="old_first_man"

	father=10061544

	2967.1.1 = {birth="2967.1.1"}
	2983.1.1 = {add_trait=trained_warrior}
	3012.1.1 = {death = {death_reason = death_murder}}
}
10091544 = {
	name="Stannis"	# a lord
	dynasty=1544

	religion="old_gods"
	culture="old_first_man"

	father=10081544

	2996.1.1 = {birth="2996.1.1"}
	3012.1.1 = {add_trait=trained_warrior}
	3050.1.1 = {death="3050.1.1"}
}



1591544 = {
	name = Durran #King Durran VIII the Fair
	dynasty = 1544 #Durrandon

	religion=old_gods
	culture=old_first_man

	father = 10091544
	
	add_trait=fair
	add_trait=honorable
	add_trait=diligent
	add_trait=patient
	add_trait=grey_eminence
	
	3025.1.1 = {
		birth=3025.1.1
	}
	3041.1.1 = {
		add_trait=trained_warrior
		give_nickname=nick_the_fair
	}
	3055.1.1 = {
		add_spouse=151054 #Tarth
	}
	3078.1.1 = {
		death=3078.1.1
	}
}
1601544 = {
	name = Erich #King Erich II (Non-canon)
	dynasty = 1544 #Durrandon

	religion=old_gods
	culture=old_first_man

	father = 1591544
	mother = 151054

	3048.1.1 = {
		birth=3048.1.1
	}
	3064.1.1 = {
		add_trait=trained_warrior
	}
	3090.1.1 = {
		death=3090.1.1
	}
}
1611544 = {
	name = Erich #King Erich III the Sailmaker
	dynasty = 1544 #Durrandon

	religion=old_gods
	culture=old_first_man

	father = 1601544
	
	add_trait=strong
	add_trait=ambitious
	add_trait=brilliant_strategist

	3065.1.1 = {
		birth=3065.1.1
	}
	3081.1.1 = {
		add_trait=skilled_warrior
		give_nickname=nick_the_sailmaker
	}
	3126.1.1 = {
		death=3126.1.1
	}
}
1621544 = {
	name = Maldon #King Maldon I (Non-canon)
	dynasty = 1544 #Durrandon

	religion=old_gods
	culture=old_first_man

	father = 1611544

	3093.1.1 = {
		birth=3093.1.1
	}
	3109.1.1 = {
		add_trait=trained_warrior
	}
	3145.1.1 = {
		death=3145.1.1
	}
}
1631544 = {
	name = Maldon #King Maldon II (Non-canon)
	dynasty = 1544 #Durrandon

	religion=old_gods
	culture=old_first_man

	father = 1621544

	3114.1.1 = {
		birth=3114.1.1
	}
	3130.1.1 = {
		add_trait=trained_warrior
	}
	3156.1.1 = {
		death=3156.1.1
	}
}
1641544 = {
	name = Ormund #King Ormund I (Non-canon)
	dynasty = 1544 #Durrandon

	religion=old_gods
	culture=old_first_man

	father = 1631544

	3133.1.1 = {
		birth=3133.1.1
	}
	3149.1.1 = {
		add_trait=poor_warrior
	}
	3198.1.1 = {
		death=3198.1.1
	}
}
1651544 = {
	name = Durran #King Durran IX (Non-canon)
	dynasty = 1544 #Durrandon

	religion=old_gods
	culture=old_first_man

	father = 1641544

	3152.1.1 = {
		birth=3152.1.1
	}
	3168.1.1 = {
		add_trait=trained_warrior
	}
	3205.1.1 = {
		death=3205.1.1
	}
}
1661544 = {
	name = Morden #King Morden I (Non-canon)
	dynasty = 1544 #Durrandon

	religion=old_gods
	culture=old_first_man

	father = 1651544

	3178.1.1 = {
		birth=3178.1.1
	}
	3194.1.1 = {
		add_trait=trained_warrior
	}
	3238.1.1 = {
		death=3238.1.1
	}
}
1671544 = {
	name = Erich #King Erich IV (Non-canon)
	dynasty = 1544 #Durrandon

	religion=old_gods
	culture=old_first_man

	father = 1661544

	3200.1.1 = {
		birth=3200.1.1
	}
	3216.1.1 = {
		add_trait=trained_warrior
	}
	3249.1.1 = {
		death=3249.1.1
	}
}
1681544 = {
	name = Durran #King Durran X
	dynasty = 1544 #Durrandon

	religion=old_gods
	culture=old_first_man

	father = 1671544
	
	add_trait=brilliant_strategist
	add_trait=strong
	add_trait=brave
	add_trait=diligent

	3218.1.1 = {
		birth=3218.1.1
	}
	3234.1.1 = {
		add_trait=skilled_warrior
	}
	3275.1.1 = {
		death=3275.1.1
	}
}
1691544 = {
	name = Monfryd #King Monfryd I the Mighty
	dynasty = 1544 #Durrandon
	
	martial=7

	religion=old_gods
	culture=old_first_man

	father = 1681544
	
	add_trait=skilled_tactician
	add_trait=strong
	add_trait=tall
	add_trait=ambitious
	add_trait=wroth
	add_trait=authoritative
	add_trait=inspiring_leader

	3240.1.1 = {
		birth=3240.1.1
	}
	3256.1.1 = {
		add_trait=master_warrior
		give_nickname=nick_the_mighty
	}
	3299.1.1 = {
		death=3299.1.1
	}
}
1701544 = {
	name = Durran #King Durran XI the Dim
	dynasty = 1544 #Durrandon
	
	martial=4
	diplomacy=2
	intrigue=1
	stewardship=3
	learning=5

	religion=old_gods
	culture=old_first_man

	father = 1691544
	
	add_trait=misguided_warrior
	add_trait=slow
	add_trait=trusting
	add_trait=slothful
	add_trait=arbitrary
	add_trait=kind

	3275.1.1 = {
		birth=3275.1.1
	}
	3291.1.1 = {
		add_trait=poor_warrior
		give_nickname=nick_the_dim
	}
	3331.1.1 = {
		death=3331.1.1
	}
}
1711544 = {
	name = Barron #King Barron the Beautiful
	dynasty = 1544 #Durrandon
	
	martial=2
	diplomacy=3
	intrigue=5
	stewardship=5
	learning=2

	religion=old_gods
	culture=old_first_man

	father = 1701544
	
	add_trait=fair
	add_trait=fashionable
	add_trait=indulgent_wastrel
	add_trait=craven
	add_trait=gregarious
	add_trait=gluttonous
	add_trait=slothful

	3301.1.1 = {
		birth=3301.1.1
	}
	3317.1.1 = {
		add_trait=poor_warrior
		give_nickname=nick_the_beautiful
	}
	3365.1.1 = {
		death=3365.1.1
	}
}
1721544 = {
	name = Monfryd #King Monfryd II (Non-canon)
	dynasty = 1544 #Durrandon

	religion=old_gods
	culture=old_first_man

	father = 1711544

	3325.1.1 = {
		birth=3325.1.1
	}
	3341.1.1 = {
		add_trait=trained_warrior
	}
	3380.1.1 = {
		death=3380.1.1
	}
}
1731544 = {
	name = Durran #King Durran XII (Non-canon)
	dynasty = 1544 #Durrandon

	religion=old_gods
	culture=old_first_man

	father = 1721544

	3342.1.1 = {
		birth=3342.1.1
	}
	3358.1.1 = {
		add_trait=trained_warrior
	}
	3391.1.1 = {
		death=3391.1.1
	}
}


###############################################################################   House Massey  ###############################################################

150046 = {
	name="Maldon"	# Built Stonedance
	dynasty=46

	religion=old_gods
	culture=old_first_man
	
	add_trait=fortune_builder
	add_trait=quick
	add_trait=ambitious

	160.1.1 = {
		birth=160.1.1
	}
	176.1.1 = {
		add_trait=skilled_warrior
	}
	219.1.1 = {
		death=219.1.1
	}
}
151046 = {
	name="Line of Maldon"
	dynasty=46

	religion=old_gods
	culture=old_first_man
	
	occluded=yes
	
	father=150046

	219.1.1 = {
		birth=yes
	}
	2952.1.1 = {
		death=yes
	}
}
157046 = {
	name="Maldon"
	dynasty=46

	religion="old_gods"
	culture="old_first_man"
	
	father=151046

	2912.1.1 = {birth="2912.1.1"}
	2928.1.1 = {add_trait=brave 
		add_trait=trained_warrior}
	2952.1.1 = {death="2952.1.1"}
}
158046 = {
	name="Justin"	
	dynasty=46

	religion="old_gods"
	culture="old_first_man"
	
	father=157046

	2931.1.1 = {birth="2931.1.1"}
	2947.1.1 = {add_trait=brave 
		add_trait=trained_warrior}
	2992.1.1 = {death="2992.1.1"}
}
6000046 = {
	name="Triston"	# Master of Laws for Aegon I
	dynasty=46

	religion="old_gods"
	culture="old_first_man"
	
	father=158046

	2962.1.1 = {birth="2962.1.1"}
	2978.1.1 = {add_trait=brave 
		add_trait=skilled_warrior
		add_trait=grey_eminence}
	2980.1.1 = {add_spouse=5000046}
	3023.1.1 = {death="3023.1.1"}
}
5000046 = {
	name="Aglantine"
	female=yes

	religion="old_gods"
	culture="old_first_man"

	2962.1.1 = {birth="2962.1.1"}
	3023.1.1 = {death="3023.1.1"}
}
6000146 = {
	name="Morgan"	# a lord
	dynasty=46

	religion="old_gods"
	culture="old_first_man"

	father=6000046
	mother=5000046

	2983.1.1 = {birth="2983.1.1"}
	2999.1.1 = {add_trait=brave add_trait=poor_warrior}
	3001.1.1 = {add_spouse=5000146}
	3041.1.1 = {death="3041.1.1"}
}
5000146 = {
	name="Malora"
	female=yes

	religion="old_gods"
	culture="old_first_man"

	2983.1.1 = {birth="2983.1.1"}
	3041.1.1 = {death="3041.1.1"}
}
6000246 = {
	name="Jarmen"	# not a lord
	dynasty=46

	religion="old_gods"
	culture="old_first_man"

	father=6000046
	mother=5000046

	2985.1.1 = {birth="2985.1.1"}
	3001.1.1 = {add_trait=brave add_trait=trained_warrior}
	3037.1.1 = {death="3037.1.1"}
}
6000346 = {
	name="Senelle"	# not a lord
	female=yes
	dynasty=46

	religion="old_gods"
	culture="old_first_man"

	father=6000046
	mother=5000046

	2987.1.1 = {birth="2987.1.1"}
	3008.1.1 = {death="3008.1.1"}
}
6000446 = {
	name="Roger"	# not a lord
	dynasty=46

	religion="old_gods"
	culture="old_first_man"

	father=6000046
	mother=5000046

	2989.1.1 = {birth="2989.1.1"}
	3005.1.1 = {add_trait=brave add_trait=poor_warrior}
	3033.1.1 = {death="3033.1.1"}
}
6000546 = {
	name="Lothar"	# not a lord
	dynasty=46

	religion="old_gods"
	culture="old_first_man"

	father=6000046
	mother=5000046

	2990.1.1 = {birth="2990.1.1"}
	3006.1.1 = {add_trait=trained_warrior}
	3015.1.1 = {death="3015.1.1"}
}
6000646 = {
	name="Jacelyn"	# a lord
	dynasty=46

	religion="old_gods"
	culture="old_first_man"

	father=6000146
	mother=5000146

	3004.1.1 = {birth="3004.1.1"}
	3020.1.1 = {add_trait=brave add_trait=skilled_warrior}
	3022.1.1 = {add_spouse=5000646}
	3070.1.1 = {death="3070.1.1"}
}
5000646 = {
	name="Ermesande"
	female=yes

	religion="old_gods"
	culture="old_first_man"

	3004.1.1 = {birth="3004.1.1"}
	3070.1.1 = {death="3070.1.1"}
}
6000746 = {
	name="Mhaegan"	# not a lord
	female=yes
	dynasty=46

	religion="old_gods"
	culture="old_first_man"

	father=6000146
	mother=5000146

	3005.1.1 = {birth="3005.1.1"}
	3047.1.1 = {death="3047.1.1"}
}
6000846 = {
	name="Roelle"	# not a lord
	female=yes
	dynasty=46

	religion="old_gods"
	culture="old_first_man"

	father=6000146
	mother=5000146

	3007.1.1 = {birth="3007.1.1"}
	3062.1.1 = {death="3062.1.1"}
}
6000946 = {
	name="Alysanne"	# not a lord
	female=yes
	dynasty=46

	religion="old_gods"
	culture="old_first_man"

	father=6000146
	mother=5000146

	3010.1.1 = {birth="3010.1.1"}
	3053.1.1 = {death="3053.1.1"}
}
6001046 = {
	name="Duram"	# not a lord
	dynasty=46

	religion="old_gods"
	culture="old_first_man"

	father=6000646
	mother=5000646

	3036.1.1 = {birth="3036.1.1"}
	3052.1.1 = {add_trait=brave add_trait=skilled_warrior}
	3054.1.1 = {add_spouse=5001046}
	3068.1.1 = {death="3068.1.1"}
}
5001046 = {
	name="Corenna"
	female=yes

	religion="old_gods"
	culture="old_first_man"

	3036.1.1 = {birth="3036.1.1"}
	3068.1.1 = {death="3068.1.1"}
}
6001146 = {
	name="Humfrey"	# not a lord
	dynasty=46

	religion="old_gods"
	culture="old_first_man"

	father=6000646
	mother=5000646

	3037.1.1 = {birth="3037.1.1"}
	3053.1.1 = {add_trait=brave add_trait=skilled_warrior}
	3066.1.1 = {death = {death_reason = death_battle}}
}
6001246 = {
	name="Lollys"	# not a lord
	female=yes
	dynasty=46

	religion="old_gods"
	culture="old_first_man"

	father=6001046
	mother=5001046

	3061.1.1 = {birth="3061.1.1"}
	3125.1.1 = {death="3125.1.1"}
}
6001346 = {
	name="Boros"	# a lord
	dynasty=46

	religion="old_gods"
	culture="old_first_man"

	father=6001046
	mother=5001046

	3062.1.1 = {birth="3062.1.1"}
	3078.1.1 = {add_trait=brave add_trait=poor_warrior}
	3080.1.1 = {add_spouse=5001346}
	3128.1.1 = {death="3128.1.1"}
}
5001346 = {
	name="Lia"
	female=yes

	religion="old_gods"
	culture="old_first_man"

	3062.1.1 = {birth="3062.1.1"}
	3128.1.1 = {death="3128.1.1"}
}
6001446 = {
	name="Eglantine"	# not a lord
	female=yes
	dynasty=46

	religion="old_gods"
	culture="old_first_man"

	father=6001046
	mother=5001046

	3065.1.1 = {birth="3065.1.1"}
	3071.1.1 = {death="3071.1.1"}
}
6001846 = {
	name="Gormon"	# a lord at the time of the Dance of Dragons. A Black.
	dynasty=46

	religion="old_gods"
	culture="old_first_man"

	father=6001346
	mother=5001346

	3089.1.1 = {birth="3089.1.1"}
	3105.1.1 = {add_trait=brave add_trait=trained_warrior}
	3107.1.1 = {add_spouse=5001846}
	3129.4.1 = {
		death = {
			death_reason = death_battle
		}
	}
}
5001846 = {
	name="Roelle"
	female=yes

	religion="old_gods"
	culture="old_first_man"

	3089.1.1 = {birth="3089.1.1"}
	3158.1.1 = {death="3158.1.1"}
}
6001946 = {
	name="Eglantine"	# not a lord
	female=yes
	dynasty=46

	religion="old_gods"
	culture="old_first_man"

	father=6001346
	mother=5001346

	3090.1.1 = {birth="3090.1.1"}
	3163.1.1 = {death="3163.1.1"}
}
6002046 = {
	name="Malessa"	# not a lord
	female=yes
	dynasty=46

	religion="old_gods"
	culture="old_first_man"

	father=6001346
	mother=5001346

	3091.1.1 = {birth="3091.1.1"}
	3137.1.1 = {death="3137.1.1"}
}
6002146 = {
	name="Jaren"	# not a lord
	dynasty=46

	religion="old_gods"
	culture="old_first_man"

	father=6001346
	mother=5001346

	3093.1.1 = {birth="3093.1.1"}
	3109.1.1 = {add_trait=brave add_trait=trained_warrior}
	3129.12.2 = {death="3129.12.2"}
}
6002246 = {
	name="Florian"	# a lord
	dynasty=46

	religion="old_gods"
	culture="old_first_man"

	father=6001846
	mother=5001846

	3110.1.1 = {birth="3110.1.1"}
	3126.1.1 = {add_trait=brave add_trait=trained_warrior}
	3128.1.1 = {add_spouse=5002246}	
	3160.1.1 = {death="3160.1.1"}
}
5002246 = {
	name="Scolera"
	female=yes

	religion="old_gods"
	culture="old_first_man"

	3110.1.1 = {birth="3110.1.1"}
	3160.1.1 = {death="3160.1.1"}
}
6002346 = {
	name="Leona"	# not a lord
	female=yes
	dynasty=46

	religion="old_gods"
	culture="old_first_man"

	father=6001846
	mother=5001846

	3111.1.1 = {birth="3111.1.1"}
	3165.1.1 = {death="3165.1.1"}
}
6002446 = {
	name="Cyrenna"	# not a lord
	female=yes
	dynasty=46

	religion="old_gods"
	culture="old_first_man"

	father=6001846
	mother=5001846

	3112.1.1 = {birth="3112.1.1"}
	3171.1.1 = {death="3171.1.1"}
}
6002546 = {
	name="Leyla"	# not a lord
	female=yes
	dynasty=46

	religion="old_gods"
	culture="old_first_man"

	father=6001846
	mother=5001846

	3115.1.1 = {birth="3115.1.1"}
	3138.1.1 = {death="3138.1.1"}
}
6002646 = {
	name="Alys"	# not a lord
	female=yes
	dynasty=46

	religion="old_gods"
	culture="old_first_man"

	father=6002246
	mother=5002246

	3136.1.1 = {birth="3136.1.1"}
	3160.1.1 = {death="3160.1.1"}
}
6002746 = {
	name="Robin"	# a lord
	dynasty=46

	religion="old_gods"
	culture="old_first_man"

	father=6002246
	mother=5002246

	3138.1.1 = {birth="3138.1.1"}
	3154.1.1 = {add_trait=brave add_trait=poor_warrior}
	3156.1.1 = {add_spouse=5002746}
	3179.1.1 = {death="3179.1.1"}
}
5002746 = {
	name="Alynne"
	female=yes

	religion="old_gods"
	culture="old_first_man"

	3138.1.1 = {birth="3138.1.1"}
	3179.1.1 = {death="3179.1.1"}
}
6002846 = {
	name="Triston"	# not a lord
	dynasty=46

	religion="old_gods"
	culture="old_first_man"

	father=6002246
	mother=5002246

	3140.1.1 = {birth="3140.1.1"}
	3156.1.1 = {add_trait=trained_warrior}
	3191.1.1 = {death="3191.1.1"}
}
6002946 = {
	name="Florian"	# a lord
	dynasty=46

	religion="old_gods"
	culture="old_first_man"

	father=6002746
	mother=5002746

	3160.1.1 = {birth="3160.1.1"}
	3176.1.1 = {add_trait=brave add_trait=trained_warrior}
	3178.1.1 = {add_spouse=5002946}
	3205.1.1 = {death="3205.1.1"}
}
5002946 = {
	name="Mhaegen"
	female=yes

	religion="old_gods"
	culture="old_first_man"

	3160.1.1 = {birth="3160.1.1"}
	3205.1.1 = {death="3205.1.1"}
}
6003046 = {
	name="Mortimer"	# not a lord
	dynasty=46

	religion="old_gods"
	culture="old_first_man"

	father=6002746
	mother=5002746

	3161.1.1 = {birth="3161.1.1"}
	3177.1.1 = {add_trait=brave add_trait=skilled_warrior}
	3201.1.1 = {death="3201.1.1"}
}
6003146 = {
	name="Clayton"	# not a lord
	dynasty=46

	religion="old_gods"
	culture="old_first_man"

	father=6002746
	mother=5002746

	3163.1.1 = {birth="3163.1.1"}
	3179.1.1 = {add_trait=brave add_trait=master_warrior}
	3216.1.1 = {death="3216.1.1"}
}
6003246 = {
	name="Leonette"	# not a lord
	female=yes
	dynasty=46

	religion="old_gods"
	culture="old_first_man"

	father=6002746
	mother=5002746

	3166.1.1 = {birth="3166.1.1"}
	3207.1.1 = {death="3207.1.1"}
}
6003346 = {
	name="Florian"	# not a lord
	dynasty=46

	religion="old_gods"
	culture="old_first_man"

	father=6002946
	mother=5002946

	3184.1.1 = {birth="3184.1.1"}
	3200.1.1 = {add_trait=poor_warrior}
	3202.1.1 = {death="3202.1.1"}
}
6003446 = {
	name="Jeyne"	# not a lord
	female=yes
	dynasty=46

	religion="old_gods"
	culture="old_first_man"

	father=6002946
	mother=5002946

	3185.1.1 = {birth="3185.1.1"}
	3246.1.1 = {death = {death_reason = death_accident}}
}
6003546 = {
	name="Oswell"	# a lord
	dynasty=46

	religion="old_gods"
	culture="old_first_man"

	father=6002946
	mother=5002946

	3186.1.1 = {birth="3186.1.1"}
	3202.1.1 = {add_trait=poor_warrior}
	3204.1.1 = {add_spouse=5003546}
	3243.1.1 = {death="3243.1.1"}
}
5003546 = {
	name="Cyrenna"
	female=yes

	religion="old_gods"
	culture="old_first_man"

	3186.1.1 = {birth="3186.1.1"}
	3243.1.1 = {death="3243.1.1"}
}
6003646 = {
	name="Gilbert"	# not a lord
	dynasty=46

	religion="old_gods"
	culture="old_first_man"

	father=6002946
	mother=5002946

	3187.1.1 = {birth="3187.1.1"}
	3203.1.1 = {add_trait=brave add_trait=poor_warrior}
	3206.1.1 = {death="3206.1.1"}
}
6003746 = {
	name="Ermesande"	# not a lord
	female=yes
	dynasty=46

	religion="old_gods"
	culture="old_first_man"

	father=6003546
	mother=5003546

	3212.1.1 = {birth="3212.1.1"}
	3270.1.1 = {death="3270.1.1"}
}
6003846 = {
	name="Jonquil"	# not a lord
	female=yes
	dynasty=46

	religion="old_gods"
	culture="old_first_man"

	father=6003546
	mother=5003546

	3215.1.1 = {birth="3215.1.1"}
	3273.1.1 = {death="3273.1.1"}
}
6003946 = {
	name="Bethany"	# not a lord
	female=yes
	dynasty=46

	religion="old_gods"
	culture="old_first_man"

	father=6003546
	mother=5003546

	3218.1.1 = {birth="3218.1.1"}
	3253.1.1 = {death="3253.1.1"}
}
6004046 = {
	name="Will"	# a lord
	dynasty=46

	religion="old_gods"
	culture="old_first_man"

	father=6003546
	mother=5003546

	3219.1.1 = {birth="3219.1.1"}
	3235.1.1 = {add_trait=brave add_trait=trained_warrior}
	3237.1.1 = {add_spouse=5004046}
	3258.1.1 = {death="3258.1.1"}
}
5004046 = {
	name="Moelle"
	female=yes

	religion="old_gods"
	culture="old_first_man"

	3219.1.1 = {birth="3219.1.1"}
	3278.1.1 = {death="3278.1.1"}
}
8050046 = {
	name="Humfrey"
	dynasty=46
	religion="old_gods"
	culture="old_first_man"	
	
	father=6004046
	mother=5004046
	
	3244.1.1 = {
		birth="3244.1.1"
	}
	3260.1.1 = {
		add_trait="brave"
		add_trait=trained_warrior
	}
	3266.1.1 = {
		add_spouse=4050046
	}
	3294.1.1 = {
		death="3294.1.1"
	}
}
4050046 = {
	name="Leona"
	female=yes

	religion="old_gods"
	culture="old_first_man"

	3244.1.1 = {
		birth="3244.1.1"
	}
	3294.1.1 = {
		death="3294.1.1"
	}
}
8051046 = {
	name="Falena"
	female = yes
	dynasty=46
	religion="old_gods"
	culture="old_first_man"	
	
	father=6004046
	mother=5004046
	
	3246.1.1 = {
		birth="3246.1.1"
	}
}




###################################################################   Dornish Marches  #####################################################################

######  House Caron

300301 = {
	name="Lyonel" # a lord
	dynasty=301	
	
	religion="old_gods"	
	culture="old_first_man"		

	2974.1.1 = {birth="2974.1.1"}
	2990.1.1 = {add_trait="brave"}
	2992.1.1 = {add_spouse=40099301}
	3003.1.1 = {add_trait= ill death = {death_reason = death_trait}} # ill
}
40099301 = {
	name="Shyra" # Lyonel's wife
	female=yes
	
	religion="old_gods"	
	culture="old_first_man"		
	
	2978.1.1 = {birth="2978.1.1"}
	3032.1.1 = {death="3032.1.1"}
}
301301 = {
	name="Symon" # Lyonel's son, a lord
	dynasty=301	
	
	religion="old_gods"	
	culture="old_first_man"		

	father=300301
	mother=40099301
		
	2995.1.1 = {birth="2995.1.1" }
	3013.1.1 = {add_trait="brave"}
	3016.1.1 = { add_spouse = 401301 }
	3027.1.1 = {death ={death_reason = death_accident}}
}
60000301 = {
	name="Melinda" # Lyonel's daughter, not a lord
	dynasty=301	
	female=yes
	
	religion="old_gods"	
	culture="old_first_man"		

	father=300301
	mother=40099301
	
	2994.1.1 = {birth="2994.1.1"}
	3020.1.1 = {death ={death_reason = death_dungeon}}
}
401301 = {
	name="Ilena" # Simon's wife
	female=yes
	
	religion="old_gods"	
	culture="old_first_man"		
	
	3000.1.1 = {birth="3000.1.1"}
	3055.1.1 = {death="3055.1.1"}
}
302301 = {
	name="Rolland" # Simon's first son, a lord
	dynasty=301	
	
	religion="old_gods"	
	culture="old_first_man"		

	father=301301
	mother=401301
	
	3023.1.1 = {birth="3023.1.1"}
	3039.1.1 = {add_trait="brave"}
	3053.1.1 = {
		death ={
			death_reason = death_battle
		}
	}
}
303301 = {
	name="Byron" # Simon's second son, a lord
	dynasty=301	
	
	religion="old_gods"	
	culture="old_first_man"		

	father=301301
	mother=401301
	
	3024.1.1 = {birth="3024.1.1"}
	3040.1.1 = {add_trait="brave"}
	3084.1.1 = {death="3084.1.1"}
}
304301 = {
	name="Bryce" # Byron's son, a lord
	dynasty=301	
	
	religion="old_gods"	
	culture="old_first_man"		

	father=303301
	
	3063.1.1 = {birth="3063.1.1"}
	3079.1.1 = {add_trait="brave"}
	3110.1.1 = {death="3110.1.1"}
}
305301 = {
	name="Royce" # Bryce's son, a lord,
	dynasty=301	
	
	religion="old_gods"	
	culture="old_first_man"		

	father=304301
	
	3090.1.1 = {birth="3090.1.1"}
	3106.1.1 = {
		add_trait="brave"
		add_trait=trained_warrior
	}
	3142.1.1 = {death="3142.1.1"}
}
306301 = {
	name="Lyonel" # Royces son, a lord
	dynasty=301	
	
	religion="old_gods"	
	culture="old_first_man"		

	father=305301
	
	3125.1.1 = {birth="3125.1.1"}
	3141.1.1 = {add_trait="brave"}
	3174.1.1 = {death="3174.1.1"}
}
307301 = {
	name="Barrystan" # Lyonel's son, a lord
	dynasty=301	
	
	religion="old_gods"	
	culture="old_first_man"		

	father=306301
	
	3153.1.1 = {birth="3153.1.1"}
	3169.1.1 = {add_trait="brave"}
	3187.1.1 = {death="3187.1.1"}
}
308301 = {
	name="Pearse" #  Barrystan's son, a lord
	dynasty=301	
	
	religion="old_gods"	
	culture="old_first_man"		

	father=307301
	
	3175.1.1 = {birth="3175.1.1"}
	3181.1.1 = {
		add_trait="brave"
		add_trait="poet"
		add_trait="trained_warrior"
	}
	3226.1.1 = {death="3226.1.1"}
}
309301 = {
	name="Balon" # Pearse's son, a lord
	dynasty=301	
	
	religion="old_gods"	
	culture="old_first_man"		

	father=308301
	
	3193.1.1 = {birth="3193.1.1"}
	3209.1.1 = {add_trait="brave"}
	3246.1.1 = {death="3246.1.1"}
}
310301 = {
	name="Casper" # Balon's son, a lord
	dynasty=301	
	
	religion="old_gods"	
	culture="old_first_man"		

	father=309301
	
	3218.1.1 = {birth="3218.1.1"}
	3234.1.1 = {add_trait="brave"}
	3262.1.1 = {death="3262.1.1"}
}


########   House Dondarrion

300303 = {		
	name="Alaric"	# Founder, a lord	
	dynasty=303	
	
	religion="old_gods"	
	culture="old_first_man"	

	2951.1.1 = {birth="2951.1.1"}
	2967.1.1 = {add_trait="brave"}
	3006.1.1 = {death="3006.1.1"}
}
301303 = {		
	name="Donnel"	# Alaric's son, a lord	
	dynasty=303	
	
	religion="old_gods"	
	culture="old_first_man"	

	father=300303
	
	2978.1.1 = {birth="2978.1.1"}
	2994.1.1 = {add_trait="brave"}
	3043.1.1 = {death="3043.1.1"}
}
302303 = {		
	name="Harbert"	# Donnel's son, a lord	
	dynasty=303	
	
	religion="old_gods"	
	culture="old_first_man"	

	father=301303
	
	3010.1.1 = {birth="3010.1.1"}
	3026.1.1 = {add_trait="brave"}
	3069.1.1 = {death="3069.1.1"}
}
303303 = {		
	name="Galladon"	# Harbert's son, a lord	
	dynasty=303	
	
	religion="old_gods"	
	culture="old_first_man"	

	father=302303
	
	3041.1.1 = {birth="3041.1.1"}
	3057.1.1 = {add_trait="brave"}
	3086.1.1 = {death="3086.1.1"}
}
304303 = {
	name="Maric"	# Galladon's son, a lord	
	dynasty=303	
	
	religion="old_gods"	
	culture="old_first_man"	

	father=303303
	
	3072.1.1 = {birth="3072.1.1"}
	3088.1.1 = {add_trait="brave"}
	3090.1.1 = {add_spouse=404303}
	3107.1.1 = {
		death = { death_reason = death_accident }
	}
}
404303 = {
	name="Eleanor"	# Maric's wife
	female=yes
	
	religion="old_gods"	
	culture="old_first_man"	

	3075.1.1 = {birth="3075.1.1"}
	3107.1.1 = {
		death = { death_reason = death_accident }
	}
}
305303 = {
	name="Alaric"	# Maric's first son, not a lord	
	dynasty=303	
	
	religion="old_gods"	
	culture="old_first_man"	

	father=304303
	mother=404303
	
	3104.1.1 = {birth="3104.1.1"}
	3107.1.1 = {
		death = { death_reason = death_accident }
	}
}
306303 = {
	name="Rickard"	# Maric's second son, a lord	
	dynasty=303	
	
	religion="old_gods"	
	culture="old_first_man"	

	father=304303
	mother=404303
	
	3106.1.1 = {birth="3106.1.1"}
	3122.1.1 = {add_trait="brave"}
	3160.1.1 = {
		death = { death_reason = death_battle } 
	}
}
307303 = {
	name="Devan"	# Rickard's son, a lord	
	dynasty=303	
	
	religion="old_gods"	
	culture="old_first_man"	

	father=306303
	
	3135.1.1 = {birth="3135.1.1"}
	3151.1.1 = {add_trait="brave"}
	3176.1.1 = {death="3176.1.1"}
}
200303 = {
	name="Lyonel"	# Canon, Devan's son, a lord	
	dynasty=303	
	
	religion="old_gods"	
	culture="old_first_man"	

	father=307303
	
	3158.1.1 = {birth="3158.1.1"}
	3174.1.1 = {add_trait="brave"}
	3212.1.1 = {death="3212.1.1"}
}
250303 = {
	name="Jena"	#
	female = yes
	dynasty=303	
	
	religion="old_gods"	
	culture="old_first_man"	

	father=307303
	
	3165.1.1 = {birth="3165.1.1"}
	3212.1.1 = {death="3212.1.1"}
}
201303 = {
	name="Manfred"	# Canon, Lyonel's son, a lord	
	dynasty=303	
	
	religion="old_gods"	
	culture="old_first_man"	

	father=200303
	
	3186.1.1 = {birth="3186.1.1"}
	3202.1.1 = {add_trait="brave"}
	3241.1.1 = {death="3241.1.1"}
}
310303 = {
	name="Gulian"	# Manfred's son, a lord	
	dynasty=303	
	
	religion="old_gods"	
	culture="old_first_man"	

	father=201303
	
	3217.1.1 = {birth="3217.1.1"}
	3233.1.1 = {add_trait="brave"}
	3271.1.1 = {death="3271.1.1"}
}


#####  House Selmy

300302 = {
	name="Barristan"	# a lord
	dynasty=302

	religion="old_gods"
	culture="old_first_man"

	2950.1.1 = {birth="2950.1.1"}
	2966.1.1 = {add_trait="brave"}
	2970.1.1 = {add_spouse=400302}
	3013.1.1 = {death="3013.1.1"}
}
400302 = {
	name="Alerie"	# 
	female=yes

	religion="old_gods"
	culture="old_first_man"

	2950.1.1 = {birth="2950.1.1"}
	3002.1.1 = {death="3002.1.1"}
}
301302 = {
	name="Lyonel"	# Barristan's son, a lord
	dynasty=302

	religion="old_gods"
	culture="old_first_man"

	father=300302
	mother=400302

	2982.1.1 = {birth="2982.1.1"}
	2998.1.1 = {add_trait="brave"}
	3037.1.1 = {death="3037.1.1"}
}
302302 = {
	name="Othell"	# Barristan's son, a lord
	dynasty=302

	religion="old_gods"
	culture="old_first_man"

	father=300302
	mother=400302

	2984.1.1 = {birth="2984.1.1"}
	3000.1.1 = {add_trait="brave"}
	3004.1.1 = {add_spouse=402302}
	3040.1.1 = {death="3040.1.1"}
}
402302 = {
	name="Mylenda"	# 
	female=yes

	religion="old_gods"
	culture="old_first_man"

	2985.1.1 = {birth="2985.1.1"}
	3042.1.1 = {death="3042.1.1"}
}
303302 = {
	name="Cyrenna"	# Othell's daughter, a lord
	female=yes
	dynasty=302

	religion="old_gods"
	culture="old_first_man"

	father=302302
	mother=402302

	3004.1.1 = {birth="3004.1.1"}
	3065.1.1 = {death="3065.1.1"}
}
304302 = {
	name="Roelle"	# Othell's daughter, not a lord
	female=yes
	dynasty=302

	religion="old_gods"
	culture="old_first_man"

	father=302302
	mother=402302

	3005.1.1 = {birth="3005.1.1"}
	3058.1.1 = {death="3058.1.1"}
}
305302 = {
	name="Elynell"	# Othell's daughter, not a lord
	female=yes
	dynasty=302

	religion="old_gods"
	culture="old_first_man"

	father=302302
	mother=402302

	3008.1.1 = {birth="3008.1.1"}
	3066.1.1 = {death="3066.1.1"}
}
306302 = {
	name="Brienne"	# Othell's daughter, not a lord
	female=yes
	dynasty=302

	religion="old_gods"
	culture="old_first_man"
	
	father=302302
	
	add_trait="bastard"
	give_nickname = nick_storm

	3008.1.1 = {birth="3008.1.1"}
	3031.1.1 = {death="3031.1.1"}
}
307302 = {
	name="Ravella"	# Othell's daughter, not a lord
	female=yes
	dynasty=302

	religion="old_gods"
	culture="old_first_man"

	father=302302
	mother=402302

	3011.1.1 = {birth="3011.1.1"}
	3069.1.1 = {death="3069.1.1"}
}
308302 = {
	name="Barristan"	# Othell's son, not a lord
	dynasty=302

	religion="old_gods"
	culture="old_first_man"

	father=302302
	mother=402302

	3015.1.1 = {birth="3015.1.1"}
	3016.1.1 = {death="3016.1.1"}
}
309302 = {
	name="Alerie"	# Othell's daughter, not a lord
	female=yes
	dynasty=302

	religion="old_gods"
	culture="old_first_man"

	father=302302
	
	add_trait="bastard"
	give_nickname = nick_storm

	3015.1.1 = {birth="3015.1.1"}
	3069.1.1 = {death="3069.1.1"}
}
310302 = {
	name="Gladden"	# Othell's son, not a lord
	dynasty=302

	religion="old_gods"
	culture="old_first_man"

	father=302302
	
	add_trait="bastard"
	give_nickname = nick_storm

	3016.1.1 = {birth="3016.1.1"}
	3032.1.1 = {add_trait="brave"}
	3050.1.1 = {death="3050.1.1"}
}
311302 = {
	name="Humfrey"	# Cyrenna's son, a lord
	dynasty=302

	religion="old_gods"
	culture="old_first_man"

	mother=303302

	3031.1.1 = {birth="3031.1.1"}
	3047.1.1 = {add_trait="brave"}
	3051.1.1 = {add_spouse=411302}
	3079.1.1 = {death = {death_reason = death_murder_unknown}}
}
411302 = {
	name="Lia"	# 
	female=yes

	religion="old_gods"
	culture="old_first_man"

	3031.1.1 = {birth="3031.1.1"}
	3084.1.1 = {death="3084.1.1"}
}
312302 = {
	name="Barristan"	# Humfrey's son, not a lord
	dynasty=302

	religion="old_gods"
	culture="old_first_man"

	father=311302
	mother=411302

	3053.1.1 = {birth="3053.1.1"}
	3060.1.1 = {death="3060.1.1"}
}
313302 = {
	name="Lyonel"	# Humfrey's son, a lord
	dynasty=302

	religion="old_gods"
	culture="old_first_man"

	father=311302
	mother=411302

	3060.1.1 = {birth="3060.1.1"}
	3076.1.1 = {add_trait="brave"}
	3084.1.1 = {add_spouse=413302}
	3108.1.1 = {death="3108.1.1"}
}
413302 = {
	name="Brella"	# 
	female=yes

	religion="old_gods"
	culture="old_first_man"

	3066.1.1 = {birth="3066.1.1"}
	3112.1.1 = {death="3112.1.1"}
}
315302 = {
	name="Othell"	# Humfrey's son, not a lord
	dynasty=302

	religion="old_gods"
	culture="old_first_man"

	father=311302
	
	add_trait="bastard"
	give_nickname = nick_storm

	3060.1.1 = {birth="3060.1.1"}
	3076.1.1 = {add_trait="brave"}
	3134.1.1 = {death="3134.1.1"}
}
316302 = {
	name="Shireen"	# Humfrey's daughter, not a lord
	female=yes
	dynasty=302

	religion="old_gods"
	culture="old_first_man"

	father=311302
	mother=411302

	3061.1.1 = {birth="3061.1.1"}
	3125.1.1 = {death="3125.1.1"}
}
317302 = {
	name="Bryce"	# Humfrey's son, not a lord
	dynasty=302

	religion="old_gods"
	culture="old_first_man"

	father=311302
	
	add_trait="bastard"
	give_nickname = nick_storm

	3062.1.1 = {birth="3062.1.1"}
	3078.1.1 = {add_trait="brave"}
	3132.1.1 = {death="3132.1.1"}
}
318302 = {
	name="Myles"	# Lyonel's son, a lord. Sebera Selmy's father
	dynasty=302

	religion="old_gods"
	culture="old_first_man"

	father=313302
	mother=413302

	3085.1.1 = {birth="3085.1.1"}
	3101.1.1 = {add_trait="brave"}
	3136.1.1 = {death="3136.1.1"}
}
418302 = {
	name="Darla"	# Myles's wife
	female=yes

	religion="old_gods"
	culture="old_first_man"

	3080.1.1 = {birth="3080.1.1"}
	3097.1.1 = {add_spouse=318302} # Myles Selmy
	3129.1.1 = {death="3129.1.1"}
}
321302 = {
	name="Darran"	# Myle's brother, Lyonel's son, Sebara's uncle,
	dynasty=302

	religion="old_gods"
	culture="old_first_man"

	father=313302
	mother=413302

	3093.1.1 = {birth="3093.1.1"}
	3131.1.1 = {death= {death_reason=death_battle}} # Dance of Dragons
}
40010302 = {
	name="Kerena" # Lyonel's daughter,
	dynasty=302
	female=yes

	religion="old_gods"
	culture="old_first_man"
	
	father=313302
	mother=413302

	3100.1.1 = {birth="3100.1.1"}
	3171.1.1 = {death="3171.1.1"}
}
320302 = {
	name="Osmera"	# Lyonel's daughter,
	female=yes
	dynasty=302

	religion="old_gods"
	culture="old_first_man"

	father=313302
	mother=413302

	3103.1.1 = {birth="3103.1.1"}
	3178.1.1 = {death="3178.1.1"}
}
322302 = {
	name="Sebara"	# Myle's eldest daughter, Lady of Harvest Hall at the time of the Dornish Conquest
	dynasty=302
	female=yes

	religion="old_gods"
	culture="old_first_man"

	father=318302 # Myles Selmy
	mother=418302

	3110.1.1 = {birth="3110.1.1"}
	3167.1.1 = {death="3167.1.1"}
}
323302 = {
	name="Tysane" #
	female=yes
	dynasty=302

	religion="old_gods"
	culture="old_first_man"

	father=318302 # Myles Selmy
	mother=418302

	3103.1.1 = {birth="3103.1.1"}
	3162.1.1 = {death="3162.1.1"}
}
324302 = {
	name="Gerbert"	# Once heir of Myles Selmy,
	dynasty=302

	religion="old_gods"
	culture="old_first_man"

	father=318302 # Myles Selmy
	mother=418302

	3104.1.1 = {birth="3104.1.1"}
	3131.1.1 = {death= {death_reason=death_battle}}
}

327302 = {
	name="Beren"	# Sebara's son, a lord. Married Tynalla Cafferen
	dynasty=302

	religion="old_gods"
	culture="old_first_man"

	mother=322302 # Sebara Selmy

	3126.1.1 = {birth="3126.1.1"}
	3142.1.1 = {add_trait="brave"}
	3176.1.1 = {death="3176.1.1"}
}
328302 = {
	name="Halwin"	# Sebara's son, not a lord
	dynasty=302

	religion="old_gods"
	culture="old_first_man"

	mother=322302 # Sebara Selmy

	3130.1.1 = {birth="3130.1.1"}
	3179.1.1 = {death="3179.1.1"}
}

602302 = {
	name="Ellos"	# Sebara's son, studying to become a Maester
	dynasty=302

	religion="old_gods"
	culture="old_first_man"

	mother=322302 # Sebara Selmy

	3140.1.1 = {birth="3140.1.1"}
	3156.1.1 = {add_trait=mastermind_theologian}
	3162.1.1 = {add_trait=maester}
	3199.1.1 = {death="3199.1.1"}
}
329302 = {
	name="Balon"	# Beren's son, Sebara's grandson, not a lord
	dynasty=302

	religion="old_gods"
	culture="old_first_man"

	father=327302 # Beren Selmy

	3150.1.1 = {birth="3150.1.1"}
	3166.1.1 = {add_trait="brave"}
	3167.1.1 = {death= {death_reason=death_accident}}
}
330302 = {
	name="Beram"	# Beren's son, Sebara's grandson, a lord
	dynasty=302

	religion="old_gods"
	culture="old_first_man"

	father=327302 # Beren Selmy

	3152.1.1 = {birth="3152.1.1"}
	3168.1.1 = {add_trait="brave"}
	3207.1.1 = {death="3207.1.1"}
}
331302 = {
	name="Beonelle"	# Arstan's daughter, not a lord
	dynasty=302
	female=yes

	religion="old_gods"
	culture="old_first_man"

	father=327302 # Beren Selmy

	3155.1.1 = {birth="3155.1.1"}
	3182.1.1 = {death="3182.1.1"}
}
332302 = {
	name="Barristan"	# Beram's son, a lord
	dynasty=302

	religion="old_gods"
	culture="old_first_man"

	father=330302 # Beram Selmy

	3185.1.1 = {birth="3185.1.1"}
	3201.1.1 = {add_trait="brave"}
	3260.1.1 = {death="3260.1.1"}
}


####  House Swann

1000306 = {
	name="Lomas"	# a lord
	dynasty=306

	religion="old_gods"
	culture="old_first_man"

	2966.1.1 = {birth="2966.1.1"}
	2982.1.1 = {add_trait=poor_warrior}
	2984.1.1 = {add_spouse=4000306}
	3032.1.1 = {death="3032.1.1"}
}
4000306 = {
	name="Senelle"
	female=yes

	religion="old_gods"
	culture="old_first_man"

	2966.1.1 = {birth="2966.1.1"}
	3032.1.1 = {death="3032.1.1"}
}
1001306 = {
	name="Andrew"	# a lord
	dynasty=306

	religion="old_gods"
	culture="old_first_man"

	father=1000306
	mother=4000306

	2999.1.1 = {birth="2999.1.1"}
	3015.1.1 = {add_trait=brave add_trait=skilled_warrior}
	3017.1.1 = {add_spouse=4001306}
	3062.1.1 = {death="3062.1.1"}
}
4001306 = {
	name="Meredyth"
	female=yes

	religion="old_gods"
	culture="old_first_man"

	2999.1.1 = {birth="2999.1.1"}
	3062.1.1 = {death="3062.1.1"}
}
1002306 = {
	name="Rohanne"	# not a lord
	female=yes
	dynasty=306

	religion="old_gods"
	culture="old_first_man"

	father=1001306
	mother=4001306

	3025.1.1 = {birth="3025.1.1"}
	3076.1.1 = {death="3076.1.1"}
}
1003306 = {
	name="Hugh"	# a lord
	dynasty=306

	religion="old_gods"
	culture="old_first_man"

	father=1001306
	mother=4001306

	3026.1.1 = {birth="3026.1.1"}
	3042.1.1 = {add_trait=trained_warrior}
	3044.1.1 = {add_spouse=4003306}
	3075.1.1 = {death="3075.1.1"}
}
4003306 = {
	name="Barra"
	female=yes

	religion="old_gods"
	culture="old_first_man"

	3026.1.1 = {birth="3026.1.1"}
	3075.1.1 = {death="3075.1.1"}
}
1004306 = {
	name="Robin"	# not a lord
	dynasty=306

	religion="old_gods"
	culture="old_first_man"

	father=1001306
	mother=4001306

	3029.1.1 = {birth="3029.1.1"}
	3045.1.1 = {add_trait=brave add_trait=trained_warrior}
	3087.1.1 = {death="3087.1.1"}
}
1005306 = {
	name="Brus"	# a lord
	dynasty=306

	religion="old_gods"
	culture="old_first_man"

	father=1003306
	mother=4003306

	3045.1.1 = {birth="3045.1.1"}
	3061.1.1 = {add_trait=brave add_trait=trained_warrior}
	3063.1.1 = {add_spouse=4005306}
	3101.1.1 = {death="3101.1.1"}
}
4005306 = {
	name="Selyse"
	female=yes

	religion="old_gods"
	culture="old_first_man"

	3045.1.1 = {birth="3045.1.1"}
	3101.1.1 = {death="3101.1.1"}
}
1006306 = {
	name="Leona"	# not a lord
	female=yes
	dynasty=306

	religion="old_gods"
	culture="old_first_man"

	father=1005306
	mother=4005306

	3077.1.1 = {birth="3077.1.1"}
	3132.1.1 = {death="3132.1.1"}
}
1007306 = {
	name="Maric"	# a lord
	dynasty=306

	religion="old_gods"
	culture="old_first_man"

	father=1005306
	mother=4005306

	3080.1.1 = {birth="3080.1.1"}
	3096.1.1 = {add_trait=poor_warrior}
	3098.1.1 = {add_spouse=4007306}
	3116.1.1 = {death = {death_reason = death_murder}}
}
4007306 = {
	name="Mylenda"
	female=yes

	religion="old_gods"
	culture="old_first_man"

	3080.1.1 = {birth="3080.1.1"}
	3116.1.1 = {death="3116.1.1"}
}
1008306 = {
	name="Gowen"	# a lord
	dynasty=306

	religion="old_gods"
	culture="old_first_man"

	father=1007306
	mother=4007306

	3100.1.1 = {birth="3100.1.1"}
	3116.1.1 = {add_trait=brave add_trait=trained_warrior}
	3118.1.1 = {add_spouse=4008306}
	3154.1.1 = {death="3154.1.1"}
}
4008306 = {
	name="Brella"
	female=yes

	religion="old_gods"
	culture="old_first_man"

	3100.1.1 = {birth="3100.1.1"}
	3154.1.1 = {death="3154.1.1"}
}
1009306 = {
	name="Cressen"	# not a lord
	dynasty=306

	religion="old_gods"
	culture="old_first_man"

	father=1007306
	mother=4007306

	3103.1.1 = {birth="3103.1.1"}
	3119.1.1 = {add_trait=poor_warrior}
	3141.1.1 = {death="3141.1.1"}
}
1010306 = {
	name="Dalla"	# not a lord
	female=yes
	dynasty=306

	religion="old_gods"
	culture="old_first_man"

	father=1007306
	mother=4007306

	3104.1.1 = {birth="3104.1.1"}
	3138.1.1 = {death="3138.1.1"}
}
1011306 = {
	name="Thurgood"	# a lord
	dynasty=306

	religion="old_gods"
	culture="old_first_man"

	father=1008306
	mother=4008306

	3118.1.1 = {birth="3118.1.1"}
	3134.1.1 = {add_trait=brave add_trait=master_warrior}
	3136.1.1 = {add_spouse=4011306}
	3193.1.1 = {death="3193.1.1"}
}
4011306 = {
	name="Emma"
	female=yes

	religion="old_gods"
	culture="old_first_man"

	3118.1.1 = {birth="3118.1.1"}
	3193.1.1 = {death="3193.1.1"}
}
1012306 = {
	name="Rohanne"	# not a lord
	female=yes
	dynasty=306

	religion="old_gods"
	culture="old_first_man"

	father=1008306
	mother=4008306

	3119.1.1 = {birth="3119.1.1"}
	3180.1.1 = {death="3180.1.1"}
}
1013306 = {
	name="Bryce"	# a lord
	dynasty=306

	religion="old_gods"
	culture="old_first_man"

	father=1011306
	mother=4011306

	3145.1.1 = {birth="3145.1.1"}
	3161.1.1 = {add_trait=brave add_trait=skilled_warrior}
	3163.1.1 = {add_spouse=4013306}
	3197.1.1 = {death="3197.1.1"}
}
4013306 = {
	name="Belandra"
	female=yes

	religion="old_gods"
	culture="old_first_man"

	3145.1.1 = {birth="3145.1.1"}
	3197.1.1 = {death="3197.1.1"}
}
1014306 = {
	name="Thurgood"	# not a lord
	dynasty=306

	religion="old_gods"
	culture="old_first_man"

	father=1011306
	mother=4011306

	3148.1.1 = {birth="3148.1.1"}
	3164.1.1 = {add_trait=brave add_trait=skilled_warrior}
	3204.1.1 = {death="3204.1.1"}
}
1015306 = {
	name="Barra"	# not a lord
	female=yes
	dynasty=306

	religion="old_gods"
	culture="old_first_man"

	father=1013306
	mother=4013306

	3164.1.1 = {birth="3164.1.1"}
	3166.1.1 = {death = {death_reason = death_accident}}
}
1016306 = {
	name="Ravella"	# not a lord
	female=yes
	dynasty=306

	religion="old_gods"
	culture="old_first_man"

	father=1013306
	mother=4013306

	3165.1.1 = {birth="3165.1.1"}
	3212.1.1 = {death="3212.1.1"}
}
1017306 = {
	name="Davos"	# a lord
	dynasty=306

	religion="old_gods"
	culture="old_first_man"

	father=1013306
	mother=4013306

	3167.1.1 = {birth="3167.1.1"}
	3183.1.1 = {add_trait=brave add_trait=skilled_warrior}
	3185.1.1 = {add_spouse=4017306}
	3216.1.1 = {death="3216.1.1"}
}
4017306 = {
	name="Shireen"
	female=yes

	religion="old_gods"
	culture="old_first_man"

	3167.1.1 = {birth="3167.1.1"}
	3216.1.1 = {death="3216.1.1"}
}
1018306 = {
	name="Jon"	# a lord
	dynasty=306

	religion="old_gods"
	culture="old_first_man"

	father=1017306
	mother=4017306

	3200.1.1 = {birth="3200.1.1"}
	3216.1.1 = {add_trait=poor_warrior}
	3218.1.1 = {add_spouse=4018306}
	3236.1.1 = {death = {death_reason = death_murder}}
}
4018306 = {
	name="Elenei"
	female=yes

	religion="old_gods"
	culture="old_first_man"

	3200.1.1 = {birth="3200.1.1"}
	3236.1.1 = {death="3236.1.1"}
}
1019306 = {
	name="Brienne"	# not a lord
	female=yes
	dynasty=306

	religion="old_gods"
	culture="old_first_man"

	father=1017306
	mother=4017306

	3203.1.1 = {birth="3203.1.1"}
	3264.1.1 = {death="3264.1.1"}
}
1020306 = {
	name="Sebastion"	# a lord
	dynasty=306

	religion="old_gods"
	culture="old_first_man"

	father=1018306
	mother=4018306

	3223.1.1 = {birth="3223.1.1"}
	3239.1.1 = {add_trait=brave add_trait=trained_warrior}
	3241.1.1 = {add_spouse=4020306}
	3289.1.1 = {death="3289.1.1"}
}
4020306 = {
	name="Alerie"
	female=yes

	religion="old_gods"
	culture="old_first_man"

	3223.1.1 = {birth="3223.1.1"}
	3289.1.1 = {death="3289.1.1"}
}
1021306 = {
	name="Richard"	# not a lord
	dynasty=306

	religion="old_gods"
	culture="old_first_man"

	father=1018306
	mother=4018306

	3226.1.1 = {birth="3226.1.1"}
	3242.1.1 = {add_trait=brave add_trait=poor_warrior}
	3290.1.1 = {death="3290.1.1"}
}
1022306 = {
	name="Barristan"	# a lord
	dynasty=306

	religion="old_gods"
	culture="old_first_man"

	father=1020306
	mother=4020306

	3255.1.1 = {birth="3255.1.1"}
	3271.1.1 = {add_trait=brave add_trait=trained_warrior}
	3273.1.1 = {add_spouse=4022306}
	3310.1.1 = {death="3310.1.1"}
}
4022306 = {
	name="Matrice"
	female=yes

	religion="old_gods"
	culture="old_first_man"

	3255.1.1 = {birth="3255.1.1"}
	3310.1.1 = {death="3310.1.1"}
}
1023306 = {
	name="Allard"	# a lord
	dynasty=306

	religion="old_gods"
	culture="old_first_man"

	father=1022306
	mother=4022306

	3275.1.1 = {birth="3275.1.1"}
	3291.1.1 = {add_trait=brave add_trait=trained_warrior}
	3293.1.1 = {add_spouse=4023306}
	3348.1.1 = {death="3348.1.1"}
}
4023306 = {
	name="Rhea"
	female=yes

	religion="old_gods"
	culture="old_first_man"

	3275.1.1 = {birth="3275.1.1"}
	3348.1.1 = {death="3348.1.1"}
}
1024306 = {
	name="Steffon"	# a lord
	dynasty=306

	religion="old_gods"
	culture="old_first_man"

	father=1023306
	mother=4023306

	3307.1.1 = {birth="3307.1.1"}
	3323.1.1 = {add_trait=brave add_trait=poor_warrior}
	3372.1.1 = {death="3372.1.1"}
}
1025306 = {
	name="Mary"	# not a lord
	female=yes
	dynasty=306

	religion="old_gods"
	culture="old_first_man"

	father=1023306
	mother=4023306

	3310.1.1 = {birth="3310.1.1"}
	3368.1.1 = {death="3368.1.1"}
}



###
### HOUSE TARTH (id = 54)
### ID (for new character only) : 200+ for canon character / 300+ for non-canon character / 400+ for wives
###
### Nacodaco


153054 = {
	name="Selwyn"	# a lord
	dynasty=881810

	religion="old_gods"
	culture="old_first_man"
	
	father = 152054

	2924.1.1 = {birth="2924.1.1"}
	2940.1.1 = {add_trait="knight" add_trait="skilled_warrior"}
	2976.1.1 = {death="2976.1.1"}
}
60000054 = {
	name="Daven"	# a lord
	dynasty=881810

	religion="old_gods"
	culture="old_first_man"
	
	father = 153054

	2954.1.1 = {birth="2954.1.1"}
	2970.1.1 = {add_trait="knight" add_trait="skilled_warrior"}
	2986.2.1 = {add_spouse=40000054}
	2988.1.1 = {death = {death_reason = death_accident}}
}
40000054 = {
	name="Syella"	# 
	female=yes

	religion="old_gods"
	culture="old_first_man"

	2960.1.1 = {birth="2960.1.1"}
	3018.1.1 = {death="3018.1.1"}
}
300054 = {
	name="Selwyn"	# a lord
	dynasty=881810

	religion="old_gods"
	culture="old_first_man"
	
	father=60000054
	mother=40000054

	2980.1.1 = {birth="2980.1.1"}
	2996.1.1 = {add_trait="knight" add_trait="skilled_warrior"}
	2996.2.1 = {add_spouse=400054}
	3039.1.1 = {death = {death_reason = death_battle}}
}
60100054 = {
	name="Jolynne"	# not a lord
	dynasty=881810
	female=yes

	religion="old_gods"
	culture="old_first_man"
	
	father=60000054
	mother=40000054

	2982.1.1 = {birth="2982.1.1"}
	3018.1.1 = {death = {death_reason = death_dungeon}} # child birth in game
}
60200054 = {
	name="Torren"	# not a lord
	dynasty=881810

	religion="old_gods"
	culture="old_first_man"
	
	father=60000054
	mother=40000054

	2984.1.1 = {birth="2984.1.1"}
	3000.1.1 = {add_trait="knight" add_trait="poor_warrior" add_trait="humble" add_trait="content"}
	3018.1.1 = {death = {death_reason = death_battle}} # Dornish skimish
}
400054 = {
	name="Arianne"	# 
	female=yes

	religion="old_gods"
	culture="old_first_man"

	2980.1.1 = {birth="2980.1.1"}
	3035.1.1 = {death="3035.1.1"}
}
150054 = {
	name="Edwyn"	# a lord
	dynasty=881810

	religion=old_gods
	culture=old_first_man

	father=300054
	mother=400054
	
	give_nickname=nick_evenstar
	add_trait=patient
	add_trait=proud
	add_trait=gregarious
	add_trait=familyperson
	add_trait=quick
	add_trait=charismatic_negotiator

	3010.1.1 = {birth="3010.1.1"}
	3026.1.1 = {add_trait="skilled_warrior"}
	3072.1.1 = {death="3072.1.1"}
}
151054 = {
	name="Brienne"	# a lord
	female=yes
	dynasty=881810

	religion=old_gods
	culture=old_first_man
	
	add_trait=fair
	
	father = 150054

	3035.1.1 = {birth="3035.1.1"}
	3095.1.1 = {death="3095.1.1"}
}
310054 = {
	name="Selwyn"	# Galladon's son, a lord
	dynasty=881810

	religion="old_gods"
	culture="old_first_man"

	father = 150054

	3058.1.1 = {birth="3058.1.1"}
	3074.1.1 = {add_trait="knight"}
	3076.1.1 = {add_spouse=410054}
	3114.1.1 = {death="3114.1.1"}
}
410054 = {
	name="Shireen"	# 
	female=yes

	religion="old_gods"
	culture="old_first_man"

	3058.1.1 = {birth="3058.1.1"}
	3109.1.1 = {death="3109.1.1"}
}
312054 = {
	name="Arianne"	# Selwyn's daughter, not a lord
	female=yes
	dynasty=881810

	religion="old_gods"
	culture="old_first_man"

	father=310054
	mother=410054

	3089.1.1 = {birth="3089.1.1"}
	3132.1.1 = {death="3132.1.1"}
}
313054 = {
	name="Mina"	# Selwyn's daughter, not a lord
	female=yes
	dynasty=881810

	religion="old_gods"
	culture="old_first_man"

	father=310054
	mother=410054

	3090.1.1 = {birth="3090.1.1"}
	3161.1.1 = {death="3161.1.1"}
}
315054 = {
	name="Willem"	# Selwyn's son, a lord
	dynasty=881810

	religion="old_gods"
	culture="old_first_man"

	father=310054
	mother=410054

	3092.1.1 = {birth="3092.1.1"}
	3108.1.1 = {add_trait="knight"}
	3110.1.1 = {add_spouse=415054}
	3146.1.1 = {death="3146.1.1"}
}
415054 = {
	name="Rohanne"	# 
	female=yes

	religion="old_gods"
	culture="old_first_man"

	3092.1.1 = {birth="3092.1.1"}
	3145.1.1 = {death="3145.1.1"}
}
316054 = {
	name="Renly"	# Willem's son, a lord
	dynasty=881810

	religion="old_gods"
	culture="old_first_man"

	father=315054
	mother=415054

	3121.1.1 = {birth="3121.1.1"}
	3137.1.1 = {add_trait="knight"}
	3139.1.1 = {add_spouse=416054}
	3174.1.1 = {death = {death_reason = death_murder}}
}
416054 = {
	name="Aglantine"	# 
	female=yes

	religion="old_gods"
	culture="old_first_man"

	3121.1.1 = {birth="3121.1.1"}
	3175.1.1 = {death="3175.1.1"}
}
317054 = {
	name="Meredyth"	# Willem's daughter, not a lord
	female=yes
	dynasty=881810

	religion="old_gods"
	culture="old_first_man"

	father=315054
	mother=415054

	3122.1.1 = {birth="3122.1.1"}
	3180.1.1 = {death="3180.1.1"}
}
318054 = {
	name="Annara"	# Willem's daughter, not a lord
	female=yes
	dynasty=881810

	religion="old_gods"
	culture="old_first_man"

	father=315054
	mother=415054

	3124.1.1 = {birth="3124.1.1"}
	3161.1.1 = {death="3161.1.1"}
}
319054 = {
	name="Myrcella"	# Willem's daughter, not a lord
	female=yes
	dynasty=881810

	religion="old_gods"
	culture="old_first_man"

	father=315054
	mother=415054

	3126.1.1 = {birth="3126.1.1"}
	3181.1.1 = {death="3181.1.1"}
}
320054 = {
	name="Brienne"	# Renly's daughter, not a lord
	female=yes
	dynasty=881810

	religion="old_gods"
	culture="old_first_man"

	father=316054
	mother=416054

	3146.1.1 = {birth="3146.1.1"}
	3211.1.1 = {death="3211.1.1"}
}
321054 = {
	name="Selwyn"	# Renly's son, not a lord
	dynasty=881810

	religion="old_gods"
	culture="old_first_man"

	father=316054
	mother=416054

	3149.1.1 = {birth="3149.1.1"}
	3150.1.1 = {death="3150.1.1"}
}
322054 = {
	name="Endrew"	# Renly's son, a lord
	dynasty=881810

	religion="old_gods"
	culture="old_first_man"

	father=316054
	mother=416054

	3151.1.1 = {birth="3151.1.1"}
	3167.1.1 = {add_trait="knight"}
	3169.1.1 = {add_spouse=422054}
	3210.1.1 = {death="3210.1.1"}
}
422054 = {
	name="Cyrenna"	# 
	female=yes

	religion="old_gods"
	culture="old_first_man"

	3150.1.1 = {birth="3150.1.1"}
	3200.1.1 = {death="3200.1.1"}
}
323054 = {
	name="Renly"	# Endrew's son, not a lord
	dynasty=881810

	religion="old_gods"
	culture="old_first_man"

	father=322054
	mother=422054

	3176.1.1 = {birth="3176.1.1"}
	3192.1.1 = {add_trait="knight"}
	3196.6.7 = {death = {death_reason = death_battle}}
}
324054 = {
	name="Annara"	# Endrew's daughter, not a lord
	female=yes
	dynasty=881810

	religion="old_gods"
	culture="old_first_man"

	father=322054
	mother=422054

	3177.1.1 = {birth="3177.1.1"}
	3225.1.1 = {death="3225.1.1"}
}
325054 = {
	name="Selwyn"	# Endrew's son, not a lord
	dynasty=881810

	religion="old_gods"
	culture="old_first_man"

	father=322054
	mother=422054

	3179.1.1 = {birth="3179.1.1"}
	3184.1.1 = {death="3184.1.1"}
}
200054 = {
	name="Quentyn"	# Canon, Endrew's son, a lord
	dynasty=881810

	religion="old_gods"
	culture="old_first_man"

	father=322054
	mother=422054

	3180.1.1 = {birth="3180.1.1"}
	3196.1.1 = {add_trait="knight"}
	3198.1.1 = {add_spouse=4200054}
	3237.1.1 = {death="3237.1.1"}
}
4200054 = {
	name="Mary"	# 
	female=yes

	religion="old_gods"
	culture="old_first_man"

	3180.1.1 = {birth="3180.1.1"}
	3234.1.1 = {death="3234.1.1"}
}
326054 = {
	name="Terrence"	# Quentyn's son, a lord
	dynasty=881810

	religion="old_gods"
	culture="old_first_man"

	father=200054
	mother=4200054

	3200.1.1 = {birth="3200.1.1"}
	3216.1.1 = {add_trait="knight"}
	3255.1.1 = {death="3255.1.1"}
}
327054 = {
	name="Belandra"	# Quentyn's daughter, not a lord
	female=yes
	dynasty=881810

	religion="old_gods"
	culture="old_first_man"

	father=200054
	mother=4200054

	3202.1.1 = {birth="3202.1.1"}
	3266.1.1 = {death="3266.1.1"}
}
328054 = {
	name="Arianne"	# Quentyn's daughter, not a lord
	female=yes
	dynasty=881810

	religion="old_gods"
	culture="old_first_man"

	father=200054
	mother=4200054

	3205.1.1 = {birth="3205.1.1"}
	3270.1.1 = {death="3270.1.1"}
}
329054 = {
	name="Mylenda"	# Quentyn's daughter, not a lord
	female=yes
	dynasty=881810

	religion="old_gods"
	culture="old_first_man"

	father=200054
	mother=4200054

	3207.1.1 = {birth="3207.1.1"}
	3209.1.1 = {death="3209.1.1"}
}
330054 = {
	name="Steffon"	# Quentyn's son, not a lord
	dynasty=881810

	religion="old_gods"
	culture="old_first_man"

	father=200054
	mother=4200054
	
	3210.1.1 = {birth="3210.1.1"}
	3226.1.1 = {
		add_trait="knight"
		add_spouse=430054
	}
	3273.1.1 = {death="3273.1.1"}
}
430054 = {
	name="Selyce"	# 
	female=yes

	religion="old_gods"
	culture="old_first_man"

	3210.1.1 = {birth="3210.1.1"}
	3273.1.1 = {death="3273.1.1"}
}
331054 = {
	name="Arlan"	# Terrence's son, a lord
	dynasty=881810

	religion="old_gods"
	culture="old_first_man"

	father=326054

	3220.1.1 = {
		birth="3220.1.1"

	}
	3236.1.1 = {add_trait="knight"}
	3238.1.1 = {add_spouse=375054}
	3279.1.1 = {death="3279.1.1"}
}
375054 = {
	name="Brienne"
	female=yes
	dynasty=881810

	religion="old_gods"
	culture="old_first_man"

	father=330054
	mother=430054

	3227.1.1 = {birth="3227.1.1"}
	3295.1.1 = {death="3295.1.1"}
}



################################  Estermont petty kings


10001852 = {
	name="Vayon"	# a lord
	dynasty=881852

	religion="old_gods"
	culture="old_first_man"

	2958.1.1 = {birth="2958.1.1"}
	2974.1.1 = {add_trait=poor_warrior}
	2976.1.1 = {add_spouse=40001852}
	3015.1.1 = {death="3015.1.1"}
}
40001852 = {
	name="Alyssa"
	female=yes

	religion="old_gods"
	culture="old_first_man"

	2958.1.1 = {birth="2958.1.1"}
	3015.1.1 = {death="3015.1.1"}
}
10011852 = {
	name="Desmond"	# not a lord
	dynasty=881852

	religion="old_gods"
	culture="old_first_man"

	father=10001852
	mother=40001852

	2993.1.1 = {birth="2993.1.1"}
	2996.1.1 = {death="2996.1.1"}
}
10021852 = {
	name="Meera"	# not a lord
	female=yes
	dynasty=881852

	religion="old_gods"
	culture="old_first_man"

	father=10001852
	mother=40001852

	2995.1.1 = {birth="2995.1.1"}
	3050.1.1 = {death="3050.1.1"}
}
10031852 = {
	name="Danny"	# not a lord
	female=yes
	dynasty=881852

	religion="old_gods"
	culture="old_first_man"

	father=10001852
	mother=40001852

	2998.1.1 = {birth="2998.1.1"}
	3071.1.1 = {death="3071.1.1"}
}
10041852 = {
	name="Medger"	# a lord
	dynasty=881852

	religion="old_gods"
	culture="old_first_man"

	father=10001852
	mother=40001852

	3000.1.1 = {birth="3000.1.1"}
	3016.1.1 = {add_trait=trained_warrior}
	3018.1.1 = {add_spouse=40041852}
	3030.1.1 = {death="3030.1.1"}
}
40041852 = {
	name="Danny"
	female=yes

	religion="old_gods"
	culture="old_first_man"

	3000.1.1 = {birth="3000.1.1"}
	3030.1.1 = {death="3030.1.1"}
}
10051852 = {
	name="Ronnel"	# a lord
	dynasty=881852

	religion="old_gods"
	culture="old_first_man"

	father=10041852
	mother=40041852

	3035.1.1 = {birth="3035.1.1"}
	3051.1.1 = {add_trait=skilled_warrior}
	3053.1.1 = {add_spouse=40051852}
	3102.1.1 = {death="3102.1.1"}
}
40051852 = {
	name="Bethany"
	female=yes

	religion="old_gods"
	culture="old_first_man"

	3035.1.1 = {birth="3035.1.1"}
	3102.1.1 = {death="3102.1.1"}
}
10061852 = {
	name="Domeric"	# not a lord
	dynasty=881852

	religion="old_gods"
	culture="old_first_man"

	father=10051852
	mother=40051852

	3055.1.1 = {birth="3055.1.1"}
	3071.1.1 = {add_trait=poor_warrior}
	3102.1.1 = {death="3102.1.1"}
}
10071852 = {
	name="Hugo"	# not a lord
	dynasty=881852

	religion="old_gods"
	culture="old_first_man"

	father=10051852
	mother=40051852

	3057.1.1 = {birth="3057.1.1"}
	3073.1.1 = {add_trait=skilled_warrior}
	3092.1.1 = {death="3092.1.1"}
}
10081852 = {
	name="Brandon"	# a lord
	dynasty=881852

	religion="old_gods"
	culture="old_first_man"

	father=10051852
	mother=40051852

	3059.1.1 = {birth="3059.1.1"}
	3075.1.1 = {add_trait=trained_warrior}
	3077.1.1 = {add_spouse=40081852}
	3117.1.1 = {death="3117.1.1"}
}
40081852 = {
	name="Beth"
	female=yes

	religion="old_gods"
	culture="old_first_man"

	3059.1.1 = {birth="3059.1.1"}
	3117.1.1 = {death="3117.1.1"}
}
10091852 = {
	name="Ramsay"	# not a lord
	dynasty=881852

	religion="old_gods"
	culture="old_first_man"

	father=10051852
	mother=40051852

	3060.1.1 = {birth="3060.1.1"}
	3076.1.1 = {add_trait=poor_warrior}
	3130.1.1 = {death="3130.1.1"}
}
10101852 = {
	name="Bannen"	# a lord
	dynasty=881852

	religion="old_gods"
	culture="old_first_man"

	father=10081852
	mother=40081852

	3080.1.1 = {birth="3080.1.1"}
	3096.1.1 = {add_trait=trained_warrior}
	3098.1.1 = {add_spouse=40101852}
	3139.1.1 = {death="3139.1.1"}
}
40101852 = {
	name="Bessa"
	female=yes

	religion="old_gods"
	culture="old_first_man"

	3080.1.1 = {birth="3080.1.1"}
	3139.1.1 = {death="3139.1.1"}
}
10111852 = {
	name="Edwyle"	# a lord
	dynasty=881852

	religion="old_gods"
	culture="old_first_man"

	father=10101852
	mother=40101852

	3112.1.1 = {birth="3112.1.1"}
	3128.1.1 = {add_trait=skilled_warrior}
	3130.1.1 = {add_spouse=40111852}
	3148.1.1 = {death="3148.1.1"}
}
40111852 = {
	name="Rowena"
	female=yes

	religion="old_gods"
	culture="old_first_man"

	3112.1.1 = {birth="3112.1.1"}
	3148.1.1 = {death="3148.1.1"}
}
10121852 = {
	name="Martyn"	# a lord
	dynasty=881852

	religion="old_gods"
	culture="old_first_man"

	father=10111852
	mother=40111852

	3144.1.1 = {birth="3144.1.1"}
	3160.1.1 = {add_trait=poor_warrior}
	3162.1.1 = {add_spouse=40121852}
	3178.1.1 = {death="3178.1.1"}
}
40121852 = {
	name="Palla"
	female=yes

	religion="old_gods"
	culture="old_first_man"

	3144.1.1 = {birth="3144.1.1"}
	3178.1.1 = {death="3178.1.1"}
}
10131852 = {
	name="Roger"	# a lord
	dynasty=881852

	religion="old_gods"
	culture="old_first_man"

	father=10121852
	mother=40121852

	3163.1.1 = {birth="3163.1.1"}
	3179.1.1 = {add_trait=poor_warrior}
	3181.1.1 = {add_spouse=40131852}
	3239.1.1 = {death="3239.1.1"}
}
40131852 = {
	name="Beth"
	female=yes

	religion="old_gods"
	culture="old_first_man"

	3163.1.1 = {birth="3163.1.1"}
	3239.1.1 = {death="3239.1.1"}
}
10141852 = {
	name="Beth"	# not a lord
	female=yes
	dynasty=881852

	religion="old_gods"
	culture="old_first_man"

	father=10121852
	mother=40121852

	3164.1.1 = {birth="3164.1.1"}
	3200.1.1 = {death="3200.1.1"}
}
10151852 = {
	name="Mylessa"	# not a lord
	female=yes
	dynasty=881852

	religion="old_gods"
	culture="old_first_man"

	father=10131852
	mother=40131852

	3188.1.1 = {birth="3188.1.1"}
	3238.1.1 = {death="3238.1.1"}
}
10161852 = {
	name="Robett"	# a lord
	dynasty=881852

	religion="old_gods"
	culture="old_first_man"

	father=10131852
	mother=40131852

	3190.1.1 = {birth="3190.1.1"}
	3206.1.1 = {add_trait=trained_warrior}
	3208.1.1 = {add_spouse=40161852}
	3255.1.1 = {death="3255.1.1"}
}
40161852 = {
	name="Berena"
	female=yes

	religion="old_gods"
	culture="old_first_man"

	3190.1.1 = {birth="3190.1.1"}
	3255.1.1 = {death="3255.1.1"}
}
10171852 = {
	name="Benfred"	# not a lord
	dynasty=881852

	religion="old_gods"
	culture="old_first_man"

	father=10131852
	mother=40131852

	3192.1.1 = {birth="3192.1.1"}
	3208.1.1 = {add_trait=poor_warrior}
	3250.1.1 = {death="3250.1.1"}
}
10181852 = {
	name="Jonos"	# a lord
	dynasty=881852

	religion="old_gods"
	culture="old_first_man"

	father=10161852
	mother=40161852

	3209.1.1 = {birth="3209.1.1"}
	3225.1.1 = {add_trait=poor_warrior}
	3227.1.1 = {add_spouse=40181852}
	3262.1.1 = {death="3262.1.1"}
}
40181852 = {
	name="Jonella"
	female=yes

	religion="old_gods"
	culture="old_first_man"

	3209.1.1 = {birth="3209.1.1"}
	3262.1.1 = {death="3262.1.1"}
}
10191852 = {
	name="Berena"	# not a lord
	female=yes
	dynasty=881852

	religion="old_gods"
	culture="old_first_man"

	father=10161852
	mother=40161852

	3212.1.1 = {birth="3212.1.1"}
	3265.1.1 = {death="3265.1.1"}
}
10201852 = {
	name="Jorah"	# a lord
	dynasty=881852

	religion="old_gods"
	culture="old_first_man"

	father=10181852
	mother=40181852

	3232.1.1 = {birth="3232.1.1"}
	3248.1.1 = {add_trait=poor_warrior}
	3250.1.1 = {add_spouse=40201852}
	3296.1.1 = {death="3296.1.1"}
}
40201852 = {
	name="Perra"
	female=yes

	religion="old_gods"
	culture="old_first_man"

	3232.1.1 = {birth="3232.1.1"}
	3296.1.1 = {death="3296.1.1"}
}
10211852 = {
	name="Bellena"	# not a lord
	female=yes
	dynasty=881852

	religion="old_gods"
	culture="old_first_man"

	father=10181852
	mother=40181852

	3235.1.1 = {birth="3235.1.1"}
	3263.1.1 = {death = {death_reason = death_murder}}
}
10221852 = {
	name="Wyl"	# not a lord
	dynasty=881852

	religion="old_gods"
	culture="old_first_man"

	father=10181852
	mother=40181852

	3238.1.1 = {birth="3238.1.1"}
	3254.1.1 = {add_trait=poor_warrior}
	3285.1.1 = {death="3285.1.1"}
}
10231852 = {
	name="Sarra"	# not a lord
	female=yes
	dynasty=881852

	religion="old_gods"
	culture="old_first_man"

	father=10181852
	mother=40181852

	3241.1.1 = {birth="3241.1.1"}
	3291.1.1 = {death="3291.1.1"}
}
10241852 = {
	name="Sarra"	# not a lord
	female=yes
	dynasty=881852

	religion="old_gods"
	culture="old_first_man"

	father=10201852
	mother=40201852

	3263.1.1 = {birth="3263.1.1"}
	3307.1.1 = {death="3307.1.1"}
}
10251852 = {
	name="Bartimus"	# a lord
	dynasty=881852

	religion="old_gods"
	culture="old_first_man"

	father=10201852
	mother=40201852

	3266.1.1 = {birth="3266.1.1"}
	3282.1.1 = {add_trait=skilled_warrior}
	3284.1.1 = {add_spouse=40251852}
	3339.1.1 = {death="3339.1.1"}
}
40251852 = {
	name="Eddara"
	female=yes

	religion="old_gods"
	culture="old_first_man"

	3266.1.1 = {birth="3266.1.1"}
	3339.1.1 = {death="3339.1.1"}
}
10261852 = {
	name="Donnel"	# not a lord
	dynasty=881852

	religion="old_gods"
	culture="old_first_man"

	father=10201852
	mother=40201852

	3269.1.1 = {birth="3269.1.1"}
	3285.1.1 = {add_trait=poor_warrior}
	3297.1.1 = {death="3297.1.1"}
}
10271852 = {
	name="Elyana"	# not a lord
	female=yes
	dynasty=881852

	religion="old_gods"
	culture="old_first_man"

	father=10251852
	mother=40251852

	3299.1.1 = {birth="3299.1.1"}
	3323.1.1 = {death="3323.1.1"}
}
10281852 = {
	name="Larence"	# a lord
	dynasty=881852

	religion="old_gods"
	culture="old_first_man"

	father=10251852
	mother=40251852

	3300.1.1 = {birth="3300.1.1"}
	3316.1.1 = {add_trait=trained_warrior}
	3373.1.1 = {death="3373.1.1"}
}



