

###############################################   House Casterly  #################################################################################################

174406 = {
	name="Caster" # Father of Corlos
	dynasty=174406

	religion="old_gods"
	culture="old_first_man"

	3.1.1 = {birth="3.1.1"}
	20.1.1 = {add_trait=trained_warrior add_trait=kind add_trait=charitable add_trait=brave}
	60.1.1 = {death="60.1.1"}
}
20174406 = {
	name="Corlos" # The first Casterly to mine from Casterly Rock
	dynasty=174406

	religion="old_gods"
	culture="old_first_man"
	
	add_trait=genius
	add_trait=hunter
	
	father=174406

	21.1.1 = {birth="21.1.1"}
	40.1.1 = {add_trait=skilled_warrior add_trait=kind add_trait=charitable add_trait=brave add_trait=midas_touched}
	80.1.1 = {death="80.1.1"}
}
21174406 = {
	name="Carlon" # Progeny of Corlos
	dynasty=174406

	religion="old_gods"
	culture="old_first_man"
	
	add_trait=quick
	
	father=20174406

	41.1.1 = {birth="41.1.1"}
	60.1.1 = {add_trait=trained_warrior add_trait=kind add_trait=charitable add_trait=brave add_trait=tough_soldier}
	120.1.1 = {death="120.1.1"}
}
22174406 = {
	name="Caston" #
	dynasty=174406

	religion="old_gods"
	culture="old_first_man"
	
	add_trait=quick
	
	father=21174406

	69.1.1 = {birth="69.1.1"}
	90.1.1 = {add_trait=trained_warrior add_trait=brave add_trait=tough_soldier}
	150.1.1 = {death="150.1.1"}
}
23174406 = {
	name="Criston" #
	dynasty=174406

	religion="old_gods"
	culture="old_first_man"
	
	father=22174406

	99.1.1 = {birth="99.1.1"}
	115.1.1 = {add_trait=trained_warrior add_trait=kind add_trait=charitable add_trait=brave add_trait=tough_soldier}
	156.1.1 = {death="156.1.1"}
}
24174406 = {
	name="Corlos" #
	dynasty=174406

	religion="old_gods"
	culture="old_first_man"
	
	father=23174406

	120.1.1 = {birth="120.1.1"}
	140.1.1 = {add_trait=trained_warrior add_trait=kind add_trait=charitable add_trait=brave add_trait=tough_soldier}
	186.1.1 = {death="186.1.1"}
}
25174406 = {
	name="Caster" #
	dynasty=174406

	religion="old_gods"
	culture="old_first_man"
	
	father=24174406

	150.1.1 = {birth="150.1.1"}
	160.1.1 = {add_trait=poor_warrior add_trait=kind add_trait=charitable add_trait=brave add_trait=trusting add_trait=depressed}
	198.1.1 = {
		add_trait = assign_mission_target #House Customiser
		death="198.1.1"
	}
}
26174406 = {
	name="Castella" # 
	dynasty=174406
	female=yes

	religion="old_gods"
	culture="old_first_man"
	
	father=25174406

	170.1.1 = {birth="170.1.1"}
	190.1.1 = {add_trait=lustful}
	210.1.1 = {death="210.1.1"}
}



#############################################################################   House Lannister  ##################################################################

###Lann the Clever, founder of House Lannister###
9001190 = {
	name="Lann"	# canon, never became a lord
	dynasty=190
	dna=kqfeocjkfkl

	religion="old_gods"
	culture="old_first_man"

	give_nickname = nick_the_clever
	add_trait="intricate_webweaver"
	add_trait="quick"
	add_trait="deceitful"
	add_trait="greedy"

	158.1.1 = {birth="158.1.1"}
	190.1.1 = {add_spouse=26174406} # Castella Casterly
	370.1.1 = {death="370.1.1"} # Legends say he died at the age of 212.
}
80260190 = {
	name="Lanna"	# The Lannister descend from Lann through the female line
	dynasty=190
	female=yes
	dna=obgnelgofho

	religion="old_gods"
	culture="old_first_man"
	
	father=9001190
	mother=26174406
	
	add_trait=genius

	195.1.1 = {birth="195.1.1"}
	250.1.1 = {death="250.1.1"}
}
80270190 = {
	name="Loreon"	# Loreon I, The lion. First King of the Rock
	dynasty=190
	dna=dmpdqqoiflh

	religion="old_gods"
	culture="old_first_man"
	
	martial=10
	
	mother=80260190
	
	add_trait=genius
	add_trait=ruthless
	add_trait=zealous
	add_trait=diligent

	215.1.1 = {birth="215.1.1"}
	235.1.1 = {add_spouse=320197} # Rayna Reyne
	240.1.1 = {add_trait=brave add_trait=patient add_trait=master_warrior add_trait=brilliant_strategist
	give_nickname=nick_the_lion}
	280.1.1 = {death="280.1.1"}
}
175190 = { #son killed by lions
	name="Loreon"	
	dynasty=190

	religion="old_gods"
	culture="old_first_man"
	
	father=80270190
	mother=320197

	248.1.1 = {birth="248.1.1"}
	260.1.1 = {
		death = {
			death_reason = death_murder_unknown
			killer = 152200 #murdered from beyond
		}
	}
}
176190 = { #son killed by lions
	name="Tywell"	
	dynasty=190

	religion="old_gods"
	culture="old_first_man"
	
	father=80270190
	mother=320197

	250.1.1 = {birth="250.1.1"}
	260.1.1 = {
		death = {
			death_reason = death_murder_unknown
			killer = 152200 #murdered from beyond
		}
	}
}
177190 = { #son killed by lions
	name="Norwin"	
	dynasty=190

	religion="old_gods"
	culture="old_first_man"
	
	father=80270190
	mother=320197

	251.1.1 = {birth="251.1.1"}
	260.1.1 = {
		death = {
			death_reason = death_murder_unknown
			killer = 152200 #murdered from beyond
		}
	}
}
80250190 = {
	name="Line of Loreon the Lion"	# 
	dynasty=190
	
	occluded=yes

	religion="old_gods"
	culture="old_first_man"
	
	father=80270190
	mother=320197
	
	240.1.1 = {birth="240.1.1"}
	2966.1.1 = {death="2966.1.1"}
}


1000190 = {
	name="Daven"	# a lord
	dynasty=190

	religion="old_gods"
	culture="old_first_man"

	father=80250190

	2966.1.1 = {birth="2966.1.1"}
	2982.1.1 = {add_trait=poor_warrior}
	3021.1.1 = {death="3021.1.1"}
}
1001190 = {
	name="Lorimer"	# a lord
	dynasty=190

	religion="old_gods"
	culture="old_first_man"

	father=1000190

	2998.1.1 = {birth="2998.1.1"}
	3014.1.1 = {add_trait=knight add_trait=trained_warrior}
	3059.1.1 = {death="3059.1.1"}
}
1002190 = {
	name="Tymeon"	# a lord
	dynasty=190

	religion="old_gods"
	culture="old_first_man"

	father=1001190

	3031.1.1 = {birth="3031.1.1"}
	3047.1.1 = {add_trait=poor_warrior}
	3097.1.1 = {death="3097.1.1"}
}
1005190 = {
	name="Tywin"	# a lord
	dynasty=190

	religion="old_gods"
	culture="old_first_man"

	father=1002190

	3064.1.1 = {birth="3064.1.1"}
	3080.1.1 = {add_trait=knight add_trait=poor_warrior}
	3107.1.1 = {death="3107.1.1"}
}
1006190 = {
	name="Loreon"	# a lord
	dynasty=190

	religion="old_gods"
	culture="old_first_man"

	father=1005190

	3085.1.1 = {birth="3085.1.1"}
	3101.1.1 = {add_trait=knight add_trait=skilled_warrior}
	3141.1.1 = {death="3141.1.1"}
}
1007190 = {
	name="Lorimar"	# a lord
	dynasty=190

	religion="old_gods"
	culture="old_first_man"

	father=1006190

	3108.1.1 = {birth="3108.1.1"}
	3124.1.1 = {add_trait=trained_warrior}
	3168.1.1 = {death="3168.1.1"}
}
1010190 = {
	name="Damon"	# a lord
	dynasty=190

	religion="old_gods"
	culture="old_first_man"

	father=1007190

	3131.1.1 = {birth="3131.1.1"}
	3147.1.1 = {add_trait=knight add_trait=skilled_warrior}
	3173.1.1 = {death="3173.1.1"}
}
1013190 = {
	name="Tytos"	# a lord
	dynasty=190

	religion="old_gods"
	culture="old_first_man"

	father=1010190

	3165.1.1 = {birth="3165.1.1"}
	3181.1.1 = {add_trait=knight add_trait=poor_warrior}
	3211.1.1 = {death="3211.1.1"}
}
1014190 = {
	name="Tyland"	# a lord
	dynasty=190

	religion="old_gods"
	culture="old_first_man"

	father=1013190

	3187.1.1 = {birth="3187.1.1"}
	3203.1.1 = {add_trait=poor_warrior}
	3223.1.1 = {death = {death_reason = death_accident}}
}
1015190 = {
	name="Lucas"	# a lord
	dynasty=190

	religion="old_gods"
	culture="old_first_man"

	father=1014190

	3209.1.1 = {birth="3209.1.1"}
	3225.1.1 = {add_trait=knight add_trait=trained_warrior}
	3281.1.1 = {death="3281.1.1"}
}
1020190 = {
	name="Tytos"	# a lord
	dynasty=190

	religion="old_gods"
	culture="old_first_man"

	father=1015190

	3245.1.1 = {birth="3245.1.1"}
	3261.1.1 = {add_trait=skilled_warrior}
	3311.1.1 = {death="3311.1.1"}
}
1021190 = {
	name="Tyryan"	# a lord
	dynasty=190

	religion="old_gods"
	culture="old_first_man"

	father=1020190

	3269.1.1 = {birth="3269.1.1"}
	3285.1.1 = {add_trait=knight add_trait=poor_warrior}
	3328.1.1 = {death = {death_reason = death_accident}}
}





###########################################################################   House Greenfield  ##################################################################

325232 = {
	name="Terrence"	# a lord
	dynasty=232

	religion="old_gods"
	culture="old_first_man"

	2956.1.1 = {birth="2956.1.1"}
	2972.1.1 = {add_trait=brave add_trait=trained_warrior}
	2974.1.1 = {add_spouse=425232}
	3000.6.6 = {death = {death_reason = death_battle}}
}
425232 = {
	name="Liane"
	female=yes

	religion="old_gods"
	culture="old_first_man"

	2958.1.1 = {birth="2958.1.1"}
	3017.1.1 = {death="3017.1.1"}
}
326232 = {
	name="Sallei"	# not a lord
	female=yes
	dynasty=232

	religion="old_gods"
	culture="old_first_man"

	father=325232
	mother=425232

	2982.1.1 = {birth="2982.1.1"}
	3041.1.1 = {death="3041.1.1"}
}
327232 = {
	name="Cadwyn"	# a lord
	dynasty=232

	religion="old_gods"
	culture="old_first_man"

	father=325232
	mother=425232

	2983.1.1 = {birth="2983.1.1"}
	2999.1.1 = {add_trait=brave add_trait=skilled_warrior}
	3001.1.1 = {add_spouse=427232}
	3040.1.1 = {death = {death_reason = death_battle}}
}
427232 = {
	name="Janei"
	female=yes

	religion="old_gods"
	culture="old_first_man"

	2983.1.1 = {birth="2983.1.1"}
	3034.1.1 = {death="3034.1.1"}
}
328232 = {
	name="Sarya"	# not a lord
	female=yes
	dynasty=232

	religion="old_gods"
	culture="old_first_man"

	father=327232
	mother=427232

	3017.1.1 = {birth="3017.1.1"}
	3049.1.1 = {death="3049.1.1"}
}
329232 = {
	name="Garth"	# a lord
	dynasty=232

	religion="old_gods"
	culture="old_first_man"

	father=327232
	mother=427232

	3018.1.1 = {birth="3018.1.1"}
	3034.1.1 = {add_trait=brave add_trait=poor_warrior}
	3036.1.1 = {add_spouse=429232}
	3061.1.1 = {death="3061.1.1"}
}
429232 = {
	name="Tyta"
	female=yes

	religion="old_gods"
	culture="old_first_man"

	3017.1.1 = {birth="3017.1.1"}
	3060.1.1 = {death="3060.1.1"}
}
330232 = {
	name="Emma"	# not a lord
	female=yes
	dynasty=232

	religion="old_gods"
	culture="old_first_man"

	father=329232
	mother=429232

	3036.1.1 = {birth="3036.1.1"}
	3104.1.1 = {death="3104.1.1"}
}
331232 = {
	name="Kevan"	# a lord
	dynasty=232

	religion="old_gods"
	culture="old_first_man"

	father=329232
	mother=429232

	3039.1.1 = {birth="3039.1.1"}
	3055.1.1 = {add_trait=brave add_trait=trained_warrior}
	3057.1.1 = {add_spouse=431232}
	3097.1.1 = {death="3097.1.1"}
}
431232 = {
	name="Jonquil"
	female=yes

	religion="old_gods"
	culture="old_first_man"

	3039.1.1 = {birth="3039.1.1"}
	3099.1.1 = {death="3099.1.1"}
}
332232 = {
	name="Serra"	# not a lord
	female=yes
	dynasty=232

	religion="old_gods"
	culture="old_first_man"

	father=331232
	mother=431232

	3065.1.1 = {birth="3065.1.1"}
	3092.1.1 = {death="3092.1.1"}
}
333232 = {
	name="Ormond"	# a lord
	dynasty=232

	religion="old_gods"
	culture="old_first_man"

	father=331232
	mother=431232

	3068.1.1 = {birth="3068.1.1"}
	3084.1.1 = {add_trait=brave add_trait=trained_warrior}
	3086.1.1 = {add_spouse=433232}
	3111.1.1 = {death="3111.1.1"}
}
433232 = {
	name="Melara"
	female=yes

	religion="old_gods"
	culture="old_first_man"

	3067.1.1 = {birth="3067.1.1"}
	3113.1.1 = {death="3113.1.1"}
}
334232 = {
	name="Dorna"	# not a lord
	female=yes
	dynasty=232

	religion="old_gods"
	culture="old_first_man"

	father=331232
	mother=431232

	3069.1.1 = {birth="3069.1.1"}
	3119.1.1 = {death = {death_reason = death_accident}}
}
335232 = {
	name="Myrielle"	# a lord
	female=yes
	dynasty=232

	religion="old_gods"
	culture="old_first_man"

	father=333232
	mother=433232

	3096.1.1 = {birth="3096.1.1"}
	3127.1.1 = {death="3127.1.1"}
}
435232 = {
	name="Andros"

	religion="old_gods"
	culture="old_first_man"

	3095.1.1 = {birth="3095.1.1"}
	3111.1.1 = {add_trait=brave add_trait=poor_warrior}
	3113.1.1 = {add_spouse=335232}
	3130.1.1 = {death="3130.1.1"}
}
336232 = {
	name="Cadwyn"	# not a lord
	dynasty=232

	religion="old_gods"
	culture="old_first_man"

	father=333232
	mother=433232

	3099.1.1 = {birth="3099.1.1"}
	3107.1.1 = {death = {death_reason = death_accident}}
}
337232 = {
	name="Joanna"	# a lord
	female=yes
	dynasty=232

	religion="old_gods"
	culture="old_first_man"

	mother=335232
	father=435232

	3118.1.1 = {birth="3118.1.1"}
	3175.1.1 = {death="3175.1.1"}
}
437232 = {
	name="Harys"

	religion="old_gods"
	culture="old_first_man"

	3117.1.1 = {birth="3117.1.1"}
	3133.1.1 = {add_trait=brave add_trait=poor_warrior}
	3135.1.1 = {add_spouse=337232}
	3158.1.1 = {death = {death_reason = death_battle}}
}
338232 = {
	name="Preston"	# not a lord
	dynasty=232

	religion="old_gods"
	culture="old_first_man"

	mother=337232
	father=437232

	3138.1.1 = {birth="3138.1.1"}
	3154.1.1 = {add_trait=brave add_trait=poor_warrior}
	3157.1.1 = {death = {death_reason = death_battle}}
}
339232 = {
	name="Myrielle"	# not a lord
	female=yes
	dynasty=232

	religion="old_gods"
	culture="old_first_man"

	mother=337232
	father=437232

	3140.1.1 = {birth="3140.1.1"}
	3143.1.1 = {death = {death_reason = death_accident}}
}
341232 = {
	name="Forley"	# a lord
	dynasty=232

	religion="old_gods"
	culture="old_first_man"

	mother=337232
	father=437232

	3144.1.1 = {birth="3144.1.1"}
	3160.1.1 = {add_trait=brave add_trait=poor_warrior}
	3162.1.1 = {add_spouse=441232}
	3204.1.1 = {death="3204.1.1"}
}
441232 = {
	name="Emma"
	female=yes

	religion="old_gods"
	culture="old_first_man"

	3142.1.1 = {birth="3142.1.1"}
	3195.1.1 = {death="3195.1.1"}
}
342232 = {
	name="Willem"	# a lord
	dynasty=232

	religion="old_gods"
	culture="old_first_man"

	father=341232
	mother=441232

	3172.1.1 = {birth="3172.1.1"}
	3188.1.1 = {add_trait=brave add_trait=skilled_warrior}
	3190.1.1 = {add_spouse=442232}
	3231.1.1 = {death="3231.1.1"}
}
442232 = {
	name="Ellyn"
	female=yes

	religion="old_gods"
	culture="old_first_man"

	3172.1.1 = {birth="3172.1.1"}
	3231.1.1 = {death="3231.1.1"}
}
343232 = {
	name="Tyta"	# not a lord
	female=yes
	dynasty=232

	religion="old_gods"
	culture="old_first_man"

	father=341232
	mother=441232

	3174.1.1 = {birth="3174.1.1"}
	3211.1.1 = {death="3211.1.1"}
}
344232 = {
	name="Elenya"	# not a lord
	female=yes
	dynasty=232

	religion="old_gods"
	culture="old_first_man"

	father=341232
	mother=441232

	3175.1.1 = {birth="3175.1.1"}
	3210.1.1 = {death="3210.1.1"}
}
345232 = {
	name="Alys"	# not a lord
	female=yes
	dynasty=232

	religion="old_gods"
	culture="old_first_man"

	father=341232
	mother=441232

	3178.1.1 = {birth="3178.1.1"}
	3210.1.1 = {death="3210.1.1"}
}
346232 = {
	name="Ossifer"	# a lord
	dynasty=232

	religion="old_gods"
	culture="old_first_man"

	father=342232
	mother=442232

	3198.1.1 = {birth="3198.1.1"}
	3214.1.1 = {add_trait=brave add_trait=trained_warrior}
	3216.1.1 = {add_spouse=446232}
	3240.1.1 = {death = {death_reason = death_accident}}
}
446232 = {
	name="Sarra"
	female=yes

	religion="old_gods"
	culture="old_first_man"

	3198.1.1 = {birth="3198.1.1"}
	3240.1.1 = {death="3240.1.1"}
}
347232 = {
	name="Jocelyn"	# not a lord
	female=yes
	dynasty=232

	religion="old_gods"
	culture="old_first_man"

	father=346232
	mother=446232

	3225.1.1 = {birth="3225.1.1"}
	3270.1.1 = {death="3270.1.1"}
}
348232 = {
	name="Godwyn"	# a lord
	dynasty=232

	religion="old_gods"
	culture="old_first_man"

	father=346232
	mother=446232

	3226.1.1 = {birth="3226.1.1"}
	3242.1.1 = {add_trait=brave add_trait=master_warrior}
	3244.1.1 = {add_spouse=448232}
	3259.1.1 = {death = {death_reason = death_battle}}
}
448232 = {
	name="Joy"
	female=yes

	religion="old_gods"
	culture="old_first_man"

	3226.1.1 = {birth="3226.1.1"}
	3259.1.1 = {death="3259.1.1"}
}


########################################################################   House Reyne  ######################################################################

319197 = {
	name="Ryon"	# not a lord
	dynasty=197
	
	stewardship=9
	diplomacy=10
	learning=12
	
	add_trait=diligent
	add_trait=quick
	add_trait=patient
	add_trait=fortune_builder
	add_trait=greedy
	add_trait=gregarious
	
	religion="old_gods"
	culture="old_first_man"

	180.1.1 = {birth="180.1.1"}
	250.1.1 = {death="250.1.1"}
}
320197 = {
	name="Rayna" # Reyne that marriaged the first King of the Rock
	dynasty=197
	female=yes
	
	dna="aghjevmidbd"
	properties="0a0cfk00000"
	
	religion="old_gods"
	culture="old_first_man"
	
	add_trait=quick
	add_trait=ambitious
	
	father=319197

	212.1.1 = {birth="212.1.1"}
	265.1.1 = {death="265.1.1"}
}
318197 = {
	name="Line of Ryon"	# not a lord
	dynasty=197
	
	occluded=yes
	
	father=319197

	religion="old_gods"
	culture="westerman"

	210.1.1 = {birth="210.1.1"}
	2800.1.1 = {death="6295.1.1"}
}



300197 = {
	name="Damion"	# a lord
	dynasty=197

	religion="old_gods"
	culture="old_first_man"
	
	father=318197

	2800.1.1 = {birth="2800.1.1"}
	2816.1.1 = {add_trait=brave add_trait=skilled_warrior}
	2818.1.1 = {add_spouse=400197}
	2852.1.1 = {death="2852.1.1"}
}
400197 = {
	name="Sarra"
	female=yes

	religion="old_gods"
	culture="old_first_man"

	2800.1.1 = {birth="2800.1.1"}
	2860.1.1 = {death="2860.1.1"}
}
301197 = {
	name="Roger"	# a lord
	dynasty=197

	religion="old_gods"
	culture="old_first_man"

	father=300197
	mother=400197

	2831.1.1 = {birth="2831.1.1"}
	2847.1.1 = {add_trait=brave add_trait=trained_warrior}
	2849.1.1 = {add_spouse=401197}
	2903.1.1 = {death="2903.1.1"}
}
401197 = {
	name="Roslyn"
	female=yes

	religion="old_gods"
	culture="old_first_man"

	2830.1.1 = {birth="2830.1.1"}
	2907.1.1 = {death="2907.1.1"}
}
305197 = {
	name="Beron"	# a lord
	dynasty=197
	
	dna="cklifbibdec"
	properties="0e0chk00000"

	religion="old_gods"
	culture="old_first_man"

	father=301197
	mother=401197

	2863.1.1 = {birth="2863.1.1"}
	2879.1.1 = {add_trait=brave add_trait=trained_warrior}
	2881.1.1 = {add_spouse=405197}
	2907.1.1 = {death = {death_reason = death_accident}}
}
405197 = {
	name="Rosamund"
	female=yes

	religion="old_gods"
	culture="old_first_man"

	2863.1.1 = {birth="2863.1.1"}
	2907.1.1 = {death="2907.1.1"}
}
306197 = {
	name="Sarya"	# not a lord
	female=yes
	dynasty=197

	religion="old_gods"
	culture="old_first_man"

	father=305197
	mother=405197

	2888.1.1 = {birth="2888.1.1"}
	2918.1.1 = {death="2918.1.1"}
}
307197 = {
	name="Lorent"	# a lord
	dynasty=197

	religion="old_gods"
	culture="old_first_man"

	father=305197
	mother=405197

	2889.1.1 = {birth="2889.1.1"}
	2905.1.1 = {add_trait=brave add_trait=poor_warrior}
	2907.1.1 = {add_spouse=407197}
	2956.1.1 = {death="2956.1.1"}
}
407197 = {
	name="Jyanna"
	female=yes

	religion="old_gods"
	culture="old_first_man"

	2889.1.1 = {birth="2889.1.1"}
	2956.1.1 = {death="2956.1.1"}
}
308197 = {
	name="Dorna"	# not a lord
	female=yes
	dynasty=197

	religion="old_gods"
	culture="old_first_man"

	father=305197
	mother=405197

	2887.1.1 = {birth="2887.1.1"}
	2945.1.1 = {death="2945.1.1"}
}
309197 = {
	name="Tyeon"	# a lord 
	dynasty=197
	
	dna="cklifbibdec"
	properties="0e0chk00000"

	religion="old_gods"
	culture="old_first_man"

	father=305197
	mother=405197

	2890.1.1 = {birth="2890.1.1"}
	2904.1.1 = {add_trait=brave add_trait=skilled_warrior}
	2906.1.1 = {add_spouse=409197}
	2929.7.1 = {death= {death_reason = death_battle}}
}
409197 = {
	name="Melesa"
	female=yes

	religion="old_gods"
	culture="old_first_man"

	2888.1.1 = {birth="2888.1.1"}
	2937.1.1 = {death="2937.1.1"}
}
310197 = {
	name="Leonette"	# not a lord
	female=yes
	dynasty=197

	religion="old_gods"
	culture="old_first_man"

	father=307197
	mother=407197

	2924.1.1 = {birth="2924.1.1"}
	2975.1.1 = {death="2975.1.1"}
}
311197 = {
	name="Bertram"	# a lord of Castamere
	dynasty=197
	
	dna="aammaikddbd"
	properties="0i0ebk00000"

	religion="old_gods"
	culture="old_first_man"

	father=307197
	mother=407197

	2927.1.1 = {birth="2927.1.1"}
	2943.1.1 = {add_trait=brave add_trait=skilled_warrior}
	2945.1.1 = {add_spouse=312197}
	2981.1.1 = {death="2981.1.1"}
}
312197 = {
	name="Myrielle"	# not a lord, married Bertram, a cousin
	female=yes
	dynasty=197
	
	dna="aghjevmidbd"
	properties="0a0cfk00000"

	religion="old_gods"
	culture="old_first_man"

	father=309197
	mother=409197

	2930.1.1 = {birth="2930.1.1"}
	2969.1.1 = {death = {death_reason = death_dungeon}}
}
3430197 = {
	name="Vachery"	# a lord
	dynasty=197
	

	religion="old_gods"
	culture="old_first_man"

	father=309197
	mother=409197

	2929.1.1 = {birth="2929.1.1"}
	2946.1.1 = {add_trait=brave add_trait=skilled_warrior}
	2968.1.1 = {death = {death_reason = death_accident}}
}

4440197 = {
	name="Cyrol"
	female=yes

	religion="old_gods"
	culture="old_first_man"

	2947.1.1 = {birth="2947.1.1"}
	3000.1.1 = {death="3000.1.1"}
}
314197 = {
	name="Raynhart"	# a lord of Castamere
	dynasty=197

	religion="old_gods"
	culture="old_first_man"

	father=311197
	mother=312197

	2963.1.1 = {birth="2963.1.1"}
	2979.1.1 = {add_trait=brave add_trait=skilled_warrior}
	2990.1.1 = {death = {death_reason = death_battle}}
}
317197 = {
	name="Bergren"	# not a lord
	dynasty=197

	religion="old_gods"
	culture="old_first_man"

	father=311197
	mother=312197

	2969.1.1 = {birth="2969.1.1"}
	2985.1.1 = {add_trait=brave add_trait=trained_warrior}
	3021.1.1 = {death="3021.1.1"}
}
150197 = {		
	name="Damion" # Lord. Father of Byram. 
	dynasty=197 # Reyne
	
	dna="aammaikddbd"
	properties="0i0ebk00000"
	
	
	add_trait="quick"
	
	father=311197
	mother=312197

	religion="old_gods"	
	culture="old_first_man"

	2967.1.1 = {birth="2967.1.1" }
	2985.1.1 = {add_trait=brave add_trait=trained_warrior add_trait=wroth add_trait=proud add_trait=authoritative}
    3021.1.1 = {add_trait="depressed" death = { death_reason = death_trait }}
}
140197 = {		
	name="Byram" # Lord. Father of Adrian.
	dynasty=197 # Reyne
	
	
	father=150197 # Damion Reyne

	religion="old_gods"	
	culture="old_first_man"	

	2990.1.1 = {birth="2990.1.1" }
	2996.1.1 = {add_trait=proud add_trait=honest}
	3006.1.1 = {add_trait="brave"}
    3058.1.1 = {death="3058.1.1"} 	
}
190197 = {		
	name="Josten" # 
	dynasty=197 # Reyne

	
	martial=8
	
	father=150197 # Damion Reyne

	religion="old_gods"	
	culture="old_first_man"	

	2992.1.1 = {birth="2992.1.1"}
	2999.1.1 = {add_trait=kind add_trait=content}
	3008.1.1 = {add_trait=brave add_trait=trained_warrior}
    3020.12.2 = {death= {death_reason= death_battle}}
}

130197 = {		
	name="Adrian" # Lord. Father of Robb.
	dynasty=197 # Reyne
	
	
	father=140197

	religion="old_gods"	
	culture="old_first_man"	

	3021.1.1 = {birth="3021.1.1" }
	3037.1.1 = {add_trait="brave"}
    3078.1.1 = {death="3078.1.1"} 	
}
120197 = {		
	name="Robb" # Lord. Father of Damon.
	dynasty=197 # Reyne
	
	
	father=130197

	religion="old_gods"	
	culture="old_first_man"	

	3042.1.1 = {birth="3042.1.1" }
	3058.1.1 = {add_trait="brave"}
    3105.1.1 = {death="3105.1.1"} 	
}
110197 = {		
	name="Damon" # Lord. Father of Tywle and Roland, married to Landra Lannister.
	dynasty=197 # Reyne
	


	father=120197

	religion="old_gods"	
	culture="old_first_man"	

	3069.1.1 = {birth="3069.1.1" }
	3085.1.1 = {add_trait="brave"}
    3126.1.1 = {death="3126.1.1"} 	
}
10197 = {		
	name="Tywle" # Lord. Father of Kaven. Son of Damon and Landra.
	dynasty=197 # Reyne
	
	martial=10
	
    add_trait="proud"
	add_trait="patient"
	add_trait="ambitious"
	
	father=110197 # Damon Reyne

	
	religion="old_gods"	
	culture="old_first_man"	

	3096.1.1 = {birth="3096.1.1" }	
    3154.1.1 = {death="3154.1.1"} 	
}
9197 = {		
	name="Bertand" # Lord 
	dynasty=197 # Reyne
	

    add_trait="proud"

	father=10197 # Tywle Reyne
	
	religion="old_gods"	
	culture="old_first_man"	

	3113.1.1 = {birth="3113.1.1"}
	3129.1.1 = {add_trait="brave"}
    3176.1.1 = {death="3176.1.1"} 	
}
8197 = {		
	name="Victor" # Lord. Father of Berthram,
	dynasty=197 # Reyne
	
	
    add_trait="proud"

	father=9197 # Bertrand Reyne
	
	religion="old_gods"	
	culture="old_first_man"	

	3131.1.1 = {birth="3131.1.1" }
	3147.1.1 = {add_trait="brave"}
    3188.1.1 = {death="3188.1.1"} 	
}
200197 = {		
	name="Wendal" # Second son of Bertrand Reyne,
	dynasty=197 # Reyne
	
	
    add_trait="proud"

	father=9197 # Bertrand Reyne
	
	religion="old_gods"	
	culture="old_first_man"	

	3134.1.1 = {birth="3134.1.1" }
	3147.1.1 = {add_trait="brave"}
    3196.8.1 = {death= {death_reason = death_battle}} 	
}
210197 = {		
	name="Rylene" # Daughter of Bertrand Reyne. 
	dynasty=197 # Reyne
	female=yes
	
	
    add_trait="proud"
	add_trait="fair"

	father=9197 # Bertrand Reyne
	
	religion="old_gods"	
	culture="old_first_man"	

	3130.1.1 = {birth="3130.1.1"}
    3198.1.1 = {death="3198.1.1"} 	
}
7197 = {		
	name="Robb" # 
	dynasty=197 # Reyne
	
	martial=15
	diplomacy=10
	intrigue=4
	stewardship=3
	
	add_trait="strong"

	father=8197 # Victor Reyne
	
	religion="old_gods"	
	culture="old_first_man"	

	3165.1.1 = {birth="3165.1.1" }
	3176.1.1 = {add_trait="just"
	            add_trait="temperate"
	            add_trait="diligent"
				add_trait="squire"}
    3197.1.1 = {death={ death_reason = death_battle }} 
}
6197 = {		
	name="Berthram" # Lord. Brother of Robb Reyne.
	dynasty=197 # Reyne
	
	diplomacy=10

	add_trait="proud"

	father=8197 # Victor Reyne
	
	religion="old_gods"	
	culture="old_first_man"	

	3163.1.1 = {birth="3163.1.1" }
	3179.1.1 = {add_trait="trained_warrior" add_trait="brave"}
    3201.1.1 = {death="3201.1.1"} 	
}
5197 = {		
	name="Robert" # Lord. Father of Roger 
	dynasty=197 # Reyne
	
	diplomacy=11

	add_trait="proud"
	add_trait="ambitious"
	
	father=6197
	
	religion="old_gods"	
	culture="old_first_man"	

	3195.1.1 = {birth="3195.1.1" }
	3227.1.1 = {add_trait="brave"
	            add_trait="skilled_warrior"
	}
    3233.1.1 = {
		add_trait=brave
		death= {death_reason = death_battle}
	}
}
197 = {		
	name="Roger" # Lord.
	dynasty=197 # Reyne
	
	dna="aammaikddbd"
	properties="0i0ebk00000"

	martial=10
	
	father=5197
	
	religion="old_gods"	
	culture="old_first_man"	

	3211.1.1 = {birth="3211.1.1" }
	3227.1.1 = {
		add_trait="brave"	   
	    add_trait="skilled_warrior"		
	}
	3228.1.1 = {add_spouse=11197}	
	3261.11.11 = {death={ death_reason = death_battle}} 
}
11197 = {		
	name="Alysanne" # Married to the Red Lion.

	female=yes
	
	religion="old_gods"	
	culture="old_first_man"
	

	3210.1.1 = {birth="3210.1.1"}
   	3257.1.1 = {death="3257.1.1"}
}	
60000197 = {		
	name="Reynard" # 
	dynasty=197 # Reyne

	father=5197
	
	diplomacy=7
	
	religion="old_gods"	
	culture="old_first_man"	
	

	3216.1.1 = {birth="3216.1.1"}
	3232.1.1 = {add_trait=brave add_trait=trained_warrior }
	3261.3.5 = { death = {death_reason = death_execution } }
}


#########################################################################   House Crakehall  ##########################################################################

3990227 = {
	name="Crake"	# 
	dynasty=227
	
	martial=8
	stewardship=9
	
	religion="old_gods"
	culture="old_first_man"
	
	add_trait=master_warrior
	add_trait=hunter
	add_trait=brave
	add_trait=patient
	add_trait=tough_soldier
	add_trait=diligent
	give_nickname=nick_the_boarkiller

	30.1.1 = {birth=yes}
	101.1.1 = {death=yes}
}
399227 = {
	name="Line of Crake"	# 
	dynasty=227
	
	occluded=yes
	
	father=3990227

	religion="old_gods"
	culture="old_first_man"

	101.1.1 = {birth=yes}
	2799.1.1 = {death=yes}
}



396227 = {
	name="Tymeon"	# a lord
	dynasty=227

	religion="old_gods"
	culture="old_first_man"
	
	father=399227

	2799.1.1 = {birth="2799.1.1"}
	2816.1.1 = {add_trait=trained_warrior}
	2818.1.1 = {add_spouse=496227}
	2840.1.1 = {death = {death_reason = death_battle}}
}
496227 = {
	name="Amarei"
	female=yes

	religion="old_gods"
	culture="old_first_man"

	2800.1.1 = {birth="2800.1.1"}
	2855.1.1 = {death="2855.1.1"}
}
397227 = {
	name="Harys"	# a lord
	dynasty=227

	religion="old_gods"
	culture="old_first_man"

	father=396227
	mother=496227

	2819.1.1 = {birth="2819.1.1"}
	2835.1.1 = {add_trait=brave add_trait=trained_warrior}
	2837.1.1 = {add_spouse=497227}
	2871.1.1 = {death="2871.1.1"}
}
497227 = {
	name="Perra"
	female=yes

	religion="old_gods"
	culture="old_first_man"

	2819.1.1 = {birth="2819.1.1"}
	2871.1.1 = {death="2871.1.1"}
}
398227 = {
	name="Ryland"	# a lord
	dynasty=227

	religion="old_gods"
	culture="old_first_man"

	father=397227
	mother=497227

	2850.1.1 = {birth="2850.1.1"}
	2866.1.1 = {add_trait=brave add_trait=skilled_warrior}
	2868.1.1 = {add_spouse=498227}
	2888.1.1 = {death="2888.1.1"}
}
498227 = {
	name="Mylessa"
	female=yes

	religion="old_gods"
	culture="old_first_man"

	2850.1.1 = {birth="2850.1.1"}
	2888.1.1 = {death="2888.1.1"}
}

390227 = {
	name="Cragon"	# a lord
	dynasty=227

	religion="old_gods"
	culture="old_first_man"
	
	father=398227
	mother=498227

	2870.1.1 = {birth="2870.1.1"}
	2886.1.1 = {add_trait=brave add_trait=trained_warrior}
	2888.1.1 = {add_spouse=490227}
	2935.1.1 = {death="2935.1.1"}
}
3400227 = {
	name="Symond"	# not a lord
	dynasty=227

	religion="old_gods"
	culture="old_first_man"
	
	father=398227
	mother=498227

	2873.1.1 = {birth="2873.1.1"}
	2889.1.1 = {add_trait=brave add_trait=trained_warrior add_trait=content}
	2917.1.1 = {death="2917.1.1"}
}
3410227 = {
	name="Martyn"	# not a lord
	dynasty=227

	religion="old_gods"
	culture="old_first_man"
	
	father=398227
	mother=498227

	2878.1.1 = {birth="2878.1.1"}
	2892.1.1 = {add_trait=brave add_trait=trained_warrior add_trait=content}
	2910.1.1 = {death="2910.1.1"}
}
490227 = {
	name="Serra"
	female=yes

	religion="old_gods"
	culture="old_first_man"

	2870.1.1 = {birth="2870.1.1"}
	2935.1.1 = {death="2935.1.1"}
}
392227 = {
	name="Loreon"	# a lord
	dynasty=227

	religion="old_gods"
	culture="old_first_man"

	father=390227
	mother=490227

	2907.1.1 = {birth="2907.1.1"}
	2923.1.1 = {add_trait=brave add_trait=skilled_warrior}
	2925.1.1 = {add_spouse=492227}
	2961.1.1 = {death="2961.1.1"}
}
492227 = {
	name="Alysanne"
	female=yes

	religion="old_gods"
	culture="old_first_man"

	2907.1.1 = {birth="2907.1.1"}
	2961.1.1 = {death="2961.1.1"}
}
393227 = {
	name="Alys"	# not a lord
	female=yes
	dynasty=227

	religion="old_gods"
	culture="old_first_man"

	father=390227
	mother=490227

	2899.1.1 = {birth="2899.1.1"}
	2976.1.1 = {death="2976.1.1"}
}
394227 = {
	name="Roland"	# a lord
	dynasty=227

	religion="old_gods"
	culture="old_first_man"

	father=392227
	mother=492227

	2935.1.1 = {birth="2935.1.1"}
	2957.1.1 = {add_trait=brave add_trait=poor_warrior}
	2980.1.1 = {death = {death_reason = death_battle}}
}
395227 = {
	name="Sumner"	# a lord
	dynasty=227

	religion="old_gods"
	culture="old_first_man"

	father=392227
	mother=492227

	2940.1.1 = {birth="2940.1.1"}
	2960.1.1 = {add_trait=brave add_trait=trained_warrior}
	2982.1.1 = {death = {death_reason = death_accident}}
}
31227 = {		
	name="Lyle"	# a Lord. 
	dynasty=227	
	
	add_trait="strong"
	
	father=392227
	mother=492227
	
	
	religion="old_gods"	
	culture="old_first_man"

	2949.1.1 = {birth="2949.1.1"}
	2965.1.1 = {add_trait=brave add_trait=skilled_warrior}
	3045.1.1 = {death="3045.1.1"}
}
401227 = {		
	name="Melinda"
	female=yes
	
		
	religion="old_gods"	
	culture="old_first_man"

	2950.1.1 = {birth="2950.1.1"}
	3035.1.1 = {death="3035.1.1"}
}
29227 = {		
	name="Sumner"	# a Lord
	dynasty=227	
	
	add_trait="strong"
	
	
	religion="old_gods"	
	culture="old_first_man"
	
	father=31227
	mother=401227

	2970.1.1 = {birth="2970.1.1"}
	2986.1.1 = {add_trait="brave" add_trait="skilled_warrior"}
	3056.1.1 = {death="3056.1.1"}
}
501227 = {
	name="Elinor"
	female=yes

	religion="old_gods"
	culture="old_first_man"

	2972.1.1 = {birth="2972.1.1"}
	2996.2.1 = {add_spouse=29227} # Sumner Crakehall
	3028.1.1 = {death="3028.1.1"}
}

600227 = {
	name="Lyndon"	# not a lord
	dynasty=227

	religion="old_gods"
	culture="old_first_man"

	father=31227
	mother=401227

	2972.1.1 = {birth="2972.1.1"}
	2988.1.1 = {add_trait=brave add_trait=trained_warrior}
	3005.1.1 = {death="3005.1.1"}
}
604227 = {
	name="Shierle"	# not a lord
	female=yes
	dynasty=227

	religion="old_gods"
	culture="old_first_man"

	father=31227
	mother=401227

	2973.1.1 = {birth="2973.1.1"}
	3018.1.1 = {death="3018.1.1"}
}
605227 = {
	name="Elenya"	# not a lord
	female=yes
	dynasty=227

	religion="old_gods"
	culture="old_first_man"

	father=31227
	mother=401227

	2980.1.1 = {birth="2980.1.1"}
	3028.1.1 = {death="3028.1.1"}
}

500227 = {
	name="Jeyne"
	female=yes

	religion="old_gods"
	culture="old_first_man"

	2972.1.1 = {birth="2972.1.1"}
	3005.1.1 = {death="3005.1.1"}
}
601227 = {
	name="Petryn"	# not a lord
	dynasty=227

	religion="old_gods"
	culture="old_first_man"

	father=600227
	mother=500227

	2995.1.1 = {birth="2995.1.1"}
	3011.1.1 = {add_trait=brave add_trait=skilled_warrior}
	3052.1.1 = {death="3052.1.1"}
}
602227 = {
	name="Malessa"	# not a lord
	female=yes
	dynasty=227

	religion="old_gods"
	culture="old_first_man"

	father=600227
	mother=500227

	2998.1.1 = {birth="2998.1.1"}
	3038.1.1 = {death="3038.1.1"}
}
603227 = {
	name="Lucion"	# not a lord
	dynasty=227

	religion="old_gods"
	culture="old_first_man"

	father=600227
	mother=500227

	2999.1.1 = {birth="2999.1.1"}
	3012.1.1 = {death = {death_reason = death_accident}}
}

28227 = {		
	name="Roland"	# a Lord
	dynasty=227	
	
	add_trait="strong"
	
	
	religion="old_gods"	
	culture="old_first_man"
	
	father=29227
	mother=501227

	2998.1.1 = {birth="2998.1.1"}
	3046.1.1 = {add_trait="brave"}
	3088.1.1 = {death="3088.1.1"}
}

27227 = {		
	name="Rolph"	# a Lord. # Sire of Rafford.
	dynasty=227	
	
	add_trait="strong"
	
	
	religion="old_gods"	
	culture="old_first_man"
	
	father=28227

	3055.1.1 = {birth="3055.1.1"}
	3071.1.1 = {add_trait="brave"}
	3073.1.1 = {add_spouse=400227}
	3100.1.1 = {death="3100.1.1"}
}
400227 = {
	name="Leona"
	female=yes

	religion="old_gods"
	culture="old_first_man"

	3053.1.1 = {birth="3053.1.1"}
	3101.1.1 = {death="3101.1.1"}
}
400203 = {
	name="Leonette" 
	dynasty=227	
	female=yes

	father=27227
	mother=400227
	
	religion="old_gods"
	culture="old_first_man"

	3080.1.1 = {birth="3080.1.1"}
	3108.1.1 = {death="3108.1.1"}
}
26227 = {		
	name="Jonos"	# a Lord 
	dynasty=227	
	
	add_trait="strong"
	
	
	religion="old_gods"	
	culture="old_first_man"
	
	mother=400227
	father=27227 # Rolph Crakehall

	3085.1.1 = {birth="3085.1.1"}
	3096.1.1 = {add_trait="brave" add_trait="skilled_warrior"}
	3167.1.1 = {death="3167.1.1"}
}
520227 = {		
	name="Clement"	# not a Lord, 
	dynasty=227	
	
	add_trait="strong"
	
	
	religion="old_gods"	
	culture="old_first_man"
	
	mother=400227
	father=27227 # Rolph Crakehall

	3095.1.1 = {birth="3095.1.1"}
	3111.1.1 = {add_trait="brave" add_trait="skilled_warrior"}
	3129.7.1 = {death= {death_reason = death_battle}}
}
25227 = {		
	name="Jothor"	# Eldest son of Jonos. Not a Lord,
	dynasty=227	
	
	add_trait="strong"
	
	
	religion="old_gods"	
	culture="old_first_man"
	
	father=26227 # Jonos Crakehall

	3107.1.1 = {birth="3107.1.1"}
	3123.1.1 = {add_trait="brave" add_trait="trained_warrior"}
	3157.12.1 = {death="3157.12.1"}
}
510227 = {		
	name="Burton"	# a Lord, 
	dynasty=227	
	
	add_trait="strong"
	
	
	religion="old_gods"	
	culture="old_first_man"
	
	father=25227 # Jothor Crakehall

	3131.1.1 = {birth="3131.1.1"}
	3147.1.1 = {add_trait="brave" add_trait="trained_warrior"}
	3175.1.1 = {death="3175.1.1"}
}
23227 = {		
	name="Garen"	# a Lord. 
	dynasty=227	
	
	add_trait="strong"
	
	
	religion="old_gods"	
	culture="old_first_man"
	
	father=510227 # Burton Crakehall

	3151.1.1 = {birth="3151.1.1"}
	3160.1.1 = {add_trait="squire"}
	3170.1.1 = {remove_trait="squire" add_trait="brave"}
	3188.1.1 = {death="3188.1.1"}
}
22227 = {		
	name="Damion"	# a Lord.
	dynasty=227	
	
	add_trait="strong"
	
	
	religion="old_gods"	
	culture="old_first_man"
	
	father=23227 # Garen Crakehall

	3170.1.1 = {birth="3170.1.1"}
	3187.1.1 = {add_trait="brave" add_trait="trained_warrior"}
	3196.3.1 = {death={death_reason = death_battle}} 
}
20227 = {		
	name="Bryce" # a Lord.
	dynasty=227	
	
	add_trait="strong"
	
	
	religion="old_gods"	
	culture="old_first_man"
	
	father=23227 # Garen Crakehall

	3172.1.1 = {birth="3172.1.1"}
	3184.1.1 = {add_trait="brave"}
	3244.7.7={death="3244.7.7"}
}


####################################################################   House Westerling  #######################################################################

21199 = {		
	name="Raynard" # Lord.
	dynasty=199	# Westerling
	
	
	religion="old_gods"	
	culture="old_first_man"
	
	add_trait="proud"	
	
	2977.1.1 = {birth="2977.1.1"}
	2993.1.1 = {add_trait="trained_warrior" add_trait="brave"}
	3034.1.1 = {death="3034.1.1"}
}
24199 = {		
	name="Marianne" # Wife of Raynard.
	female=yes
	
	religion="old_gods"	
	culture="old_first_man"
	
	
	add_trait="fair"
	
	2979.1.1 = {birth="2979.1.1"}
	2996.1.1 = {add_spouse=21199 add_trait="proud"}
	3038.1.1 = {death="3038.1.1"}
}
20199 = {		
	name="Gawen" # Lord. 
	dynasty=199	# Westerling
	
	
	religion="old_gods"	
	culture="old_first_man"
	
	add_trait="fair"
	
	father=21199 # Raynard Westerling
	mother=24199
	
	2996.11.1 = {birth="2996.11.1"} 
	3013.12.3 = {add_trait="brave" add_trait="proud" add_trait="trained_warrior"}
	3058.1.1 = {death="3058.1.1"}
}
5010199 = {		
	name="Tyrek" # Uncle of Rollam, 
	dynasty=199	# Westerling
	
	
	religion="old_gods"	
	culture="old_first_man"
	
	father=21199 # Raynard Westerling
	mother=24199	
	
	2998.1.1 = {birth="2998.1.1"} 
	3013.1.1 = {add_trait="brave" add_trait="proud"}
	3058.1.1 = {death="3058.1.1"}
}
19199 = {		
	name="Rollam" # Lord.
	dynasty=199	# Westerling
	
	
	religion="old_gods"	
	culture="old_first_man"
	
	father=20199 # Gawen Westerling
	
	add_trait="proud"	
	
	3020.1.1 = {birth="3020.1.1"}
	3036.1.1 = {add_trait="brave"}
	3077.1.1 = {death="3077.1.1"}
}
5030199 = {		
	name="Loren" # Not a Lord.
	dynasty=199	# Westerling
	
	
	religion="old_gods"	
	culture="old_first_man"
	
	father=20199 # Gawen Westerling
	
	
	3022.1.1 = {birth="3022.1.1"}
	3038.1.1 = {add_trait="brave" add_trait="proud" add_trait="content"}
	3048.1.8 = {death= {death_reason = death_execution}}
}
5040199 = {		
	name="Cyressa" # Not a Lord.
	dynasty=199	# Westerling
	female=yes
	
	religion="old_gods"	
	culture="old_first_man"
	
	add_trait="fair"
	
	father=20199 # Gawen Westerling
	
	
	3025.1.1 = {birth="3025.1.1"}
	3041.1.1 = {add_trait="proud"}
	3058.1.1 = {death= {death_reason = death_accident}}
}
18199 = {		
	name="Raynard" # a Lord.
	dynasty=199	# Westerling
	
	
	religion="old_gods"	
	culture="old_first_man"
	
	father=19199
	
	
	3060.1.1 = {birth="3060.1.1"}
	3076.1.1 = {add_trait="brave" add_trait="proud"}
	3098.1.1 = {death="3098.1.1"}
}
25199 = {		
	name="Myella" # Wife of Regenard.
	female=yes
	
	
	religion="old_gods"	
	culture="old_first_man"
	
	
	3080.1.1 = {birth="3080.1.1"}
	3102.1.1 = {add_trait="proud"}
	3129.1.1 = {death="3129.1.1"}
}
17199 = {		
	name="Regenard" # Lord, father of Daric Westerling.
	dynasty=199	# Westerling
	
	
	religion="old_gods"	
	culture="old_first_man"
	
	father=18199
	
	3080.1.1 = {birth="3080.1.1"}
	3104.1.1 = {add_trait="trained_warrior" add_trait="brave" add_trait="proud"}
	3106.1.1 = {add_spouse=25199} # Myella
	3128.1.1 = {death= {death_reason = death_accident}}
}
16199 = {		
	name="Roland" # 
	dynasty=199	# Westerling
	
	
	religion="old_gods"	
	culture="old_first_man"
	
	father=17199 # Regenard Westerling
	mother=25199
	
	add_trait="proud"	
	
	3107.1.1 = {birth="3107.1.1"}
	3123.1.1 = {add_trait="brave"}
	3133.6.1 = {
		add_trait=ill
		death= {death_reason = death_trait}
	} 
}
15199 = {		
	name="Symeon" # a Lord, 
	dynasty=199	# Westerling
	
	
	religion="old_gods"	
	culture="old_first_man"
	
	father=16199 # Roland Westerling
	

	3132.1.1 = {birth="3132.1.1"}
	3149.1.1 = {add_trait=squire}
	3155.1.1 = {remove_trait="squire" add_trait="brave" add_trait="skilled_warrior" add_trait="proud"}
	3155.1.3 = {add_trait=brave}
	3178.1.1 = {death="3178.1.1"}
}
14199 = {		
	name="Rolder" # a Lord.
	dynasty=199	# Westerling
	
	
	religion="old_gods"	
	culture="old_first_man"
	
	father=15199
	
	add_trait="proud"	
	
	3157.1.1 = {birth="3157.1.1"}
	3173.1.1 = {add_trait="brave"}
	3196.2.5 = {death={ death_reason = death_battle}} 
}
13199 = {		
	name="Sumner" # Ser. Sire to both Rupert and Ormund. Didn't become Lord.
	dynasty=199	# Westerling
	
	
	religion="old_gods"	
	culture="old_first_man"
	
	father=15199
	
	add_trait="proud"	
	
	3158.1.1 = {birth="3158.1.1"}
	3174.1.1 = {add_trait="brave"}
	3196.2.5 = {death={ death_reason = death_battle} 
	}
}
26199 = {		
	name="Cerenna" #
	female=yes
	
	religion="old_gods"	
	culture="old_first_man"
	
	add_trait="proud"	
	
	3160.1.1 = {birth="3160.1.1"}
	3180.1.1 = {add_spouse=13199}
	3210.3.8= {
		add_trait="has_bubonic_plague"
		death = { death_reason = death_trait } 
	}
}
12199 = {		
	name="Rupert" # Lord. Father of Lorent. Brother of Ormond.
	dynasty=199	# Westerling
	
	
	religion="old_gods"	
	culture="old_first_man"
	
	father=13199
	mother=26199
	
	add_trait="proud"	
	
	3181.1.1 = {birth="3181.1.1"}
	3197.1.1 = {add_trait="brave"}
	3211.1.1={
		add_trait="has_bubonic_plague"
		death = { death_reason = death_trait } 
	}
}
9199 = {		
	name="Ormund" # Ser. Brother of Rupert. 
	dynasty=199	# Westerling
	
	
	religion="old_gods"	
	culture="old_first_man"
	
	father=13199
	mother=26199
	add_trait="proud"	
	
	3184.1.1 = {birth="3184.1.1"}
	3202.1.1 = {add_trait="brave"}
	3214.1.1 = {death={ death_reason = death_battle}} 
}
8199 = {		
	name="Elena" #  Daughter of Ormund, wife of a Tarbeck. A further reason for their loss of prestige and power.
	dynasty=199	# Westerling
	female=yes
	
	religion="old_gods"	
	culture="old_first_man"
	
	father=9199
	add_trait="proud"	
	
	3203.1.1 = {birth="3203.1.1"}
	3253.1.1 = {death="3253.1.1"}
}
11199 = {		
	name="Lorent" # Lord. Father of Addam and Elys.
	dynasty=199	# Westerling
	
	
	religion="old_gods"	
	culture="old_first_man"
	
	father=12199
	add_trait="proud"	
	
	3203.1.1 = {birth="3203.1.1"}
	3219.1.1 = {add_trait="brave"}
	3254.1.1 = {death="3254.1.1"}
}
10199 = {		
	name="Addam" # Lord. Father of Gawen, elder brother of Elys.	
	dynasty=199	# Westerling
	
	
	religion="old_gods"	
	culture="old_first_man"
	
	father=11199
	add_trait="proud"	
	
	3224.1.1 = {birth="3224.1.1"}
	3240.1.1 = {add_trait="brave"}
	3273.1.1 = {death="3273.1.1"}
}
5199 = {		
	name="Elys"	 # Ser. 
	dynasty=199	
	
	martial=10

	religion="old_gods"	
	culture="old_first_man"	
	
	father=11199
	add_trait="tough_soldier"


	3229.1.1 = {birth="3229.1.1"} # he was a brave at the time of the sack. Must be older. 
    3245.1.1 = {
	add_trait="brave"
	}	
}


#######################################################################   House Moreland  ##########################################################

150209 = {
	name="Pate"	# 
	dynasty=209
		
	religion="old_gods"
	culture="old_first_man"
	
	add_trait=skilled_warrior
	add_trait=gardener
	add_trait=diligent
	add_trait=patient
	add_trait=midas_touched

	give_nickname=nick_the_plowman

	42.1.1 = {birth=yes}
	127.1.1 = {death=yes}
}
151209 = {
	name="Line of Pate"	# 
	dynasty=209
		
	religion="old_gods"
	culture="old_first_man"
	
	occluded = yes
	
	father = 150209

	127.1.1 = {birth=yes}
	2882.1.1 = {death=yes}
}


60400209 = {
   name="Bryce"
   dynasty=209
   
   religion="old_gods"
   culture="old_first_man"
   
   father = 151209
   
   2882.1.1={ birth="2882.1.1"}
   2900.1.1={add_trait="trained_warrior" add_trait="brave"}
   2901.1.1={add_spouse=40300209}
   2912.1.1={ death= {death_reason = death_battle}}
}
40300209 = {
   name="Patryca"
   female=yes
   
   religion="old_gods"
   culture="old_first_man"
   
   2882.1.1={ birth="2882.1.1"}
   2922.1.1={ death="2922.1.1"}
}
60600209 = {
   name="Criston" # a Lord, with issue
   dynasty=209
   
   religion="old_gods"
   culture="old_first_man"
   
   father=60400209
   mother=40300209
   
   
   2903.1.1={ birth="2903.1.1"}
   2919.1.1={add_trait="trained_warrior" add_trait="brave"}
   2923.1.1={ death= {death_reason = death_accident}}
}
60700209 = {
   name="Alette" #
   dynasty=209
   female=yes
   
   religion="old_gods"
   culture="old_first_man"
   
   father=60600209 # Criston Moreland
   
   
   2921.1.1={ birth="2921.1.1"}
   2975.1.1={ death="2975.1.1"} 
}
60500209 = {
   name="Kennoth" # a Lord, without issue
   dynasty=209
   
   religion="old_gods"
   culture="old_first_man"
   
   father=60400209
   mother=40300209
   
   
   2904.1.1={ birth="2904.1.1"}
   2925.1.1={add_trait="trained_warrior" add_trait="brave"}
   2928.1.1={ death="2928.1.1"} 
}
60300209 = {
   name="Prestor" # a Lord, with issue
   dynasty=209
   
   religion="old_gods"
   culture="old_first_man"
   
   father=60400209
   mother=40300209
   
   2909.1.1={ birth="2909.1.1"}
   2925.1.1={add_trait="trained_warrior" add_trait="brave"}
   2926.1.1={add_spouse=40200209}
   2975.1.1={ death="2975.1.1"} 
}
40200209 = {
   name="Tyna"
   female=yes
   
   religion="old_gods"
   culture="old_first_man"
   
   2908.1.1={ birth="2908.1.1"}
   2970.1.1={ death="2970.1.1"}
}
60200209 = {
   name="Robin" # a Lord, with issue 
   dynasty=209
   
   religion="old_gods"
   culture="old_first_man"
   
   father=60300209
   mother=40200209
   
   
   2928.1.1={ birth="2928.1.1"}
   2946.1.1={add_trait="trained_warrior" add_trait="brave"}
   2949.1.1={add_spouse=60700209} 
   2991.1.1={ death="2991.1.1"} 
}
60800209 = {
   name="Jaime" # a Ser, with issue 
   dynasty=209
   
   religion="old_gods"
   culture="old_first_man"
   
   father=60300209
   mother=40200209
   
   
   2929.1.1={ birth="2929.1.1"}
   2947.1.1={add_trait="trained_warrior" add_trait="brave" add_trait="content"}
   2950.1.1={add_spouse=40100209}
   2991.1.1={ death="2991.1.1"} 
}
40100209 = {
   name="Cassandra"
  female=yes
   
   religion="old_gods"
   culture="old_first_man"
   
   2928.1.1={ birth="2928.1.1"}
   3000.1.1={ death="3000.1.1"}
}
60900209 = {
   name="Lynden" # a Ser, with issue
   dynasty=209
   
   religion="old_gods"
   culture="old_first_man"
   
   father=60800209
   mother=40100209
   
   
   2952.1.1={ birth="2952.1.1"}
   2968.1.1={ add_trait=brave add_trait=trained_warrior add_trait=content}
   3012.1.1={ death="3012.1.1"} 
}
61100209 = {
   name="Ryford" # a Ser, without issue
   dynasty=209
   
   religion="old_gods"
   culture="old_first_man"
   
   father=60900209
   
   
   
   2972.1.1={ birth="2972.1.1"}
   2988.1.1={ add_trait=brave add_trait=trained_warrior add_trait=content}
   3000.6.7={ death= {death_reason = death_battle}} 
}
61200209 = {
   name="Robert" # a Ser, without issue
   dynasty=209
   
   religion="old_gods"
   culture="old_first_man"
   
   father=60900209
   
   
   
   2975.1.1={ birth="2975.1.1"}
   2991.1.1={ add_trait=brave add_trait=trained_warrior add_trait=content}
   3000.6.7={ death= {death_reason = death_battle}} 
}
61300209 = {
   name="Dorna" # not a Ser, with issue
   dynasty=209
   female=yes
   
   dna="behdhujlabv"
   properties="0c0dik00000"
   
   religion="old_gods"
   culture="old_first_man"
   
   father=60900209
   
   
   
   2978.1.1={ birth="2978.1.1"}
   3019.1.7={ death= {death_reason = death_dungeon}} # Childbirth
}
60000209 = {
   name="Lyman"
   dynasty=209
   
   religion="old_gods"
   culture="old_first_man"
   
   father=60200209
   mother=60700209
   
   
   2950.1.1={ birth="2950.1.1"}
   2966.1.1={ add_trait=brave add_trait=trained_warrior}
   2970.1.1={ add_spouse=40000209}
   3002.1.1={ death="3002.1.1"} 
}
40000209 = {
   name="Mariette"
   female=yes
   
   religion="old_gods"
   culture="old_first_man"
   
   2946.1.1={ birth="2946.1.1"}
   3002.1.1={ death="3002.1.1"}
}
60100209 = {
   name="Jayne" # Married Calon Moore
   dynasty=209
   female=yes
   
   religion="old_gods"
   culture="old_first_man"
   
   father=60000209 # Lyman Moreland
   mother=40000209
   
   
   2977.1.1={ birth="2977.1.1"}
   3043.1.1={ death="3043.1.1"} 
}
11209 = {
   name="Preston"
   dynasty=209
   
   religion="old_gods"
   culture="old_first_man"
   
   father=60000209 # Lyman Moreland
   mother=40000209
   
   
   2980.1.1={ birth="2980.1.1"}
   2995.1.1={ add_spouse=40209}
   2996.1.1={ add_trait=trained_warrior add_trait=brave}
   3045.1.1={ death="3045.1.1"} 
}
61000209 = {
   name="Tyland"
   dynasty=209
   
   religion="old_gods"
   culture="old_first_man"
   
   father=60000209 # Lyman Moreland
   mother=40000209
   
   
   2984.1.1={ birth="2984.1.1"}
   2996.1.1={add_trait=squire add_trait=poor_warrior add_trait=content}
   3001.1.1={add_trait=brave remove_trait=squire add_trait=skilled_warrior remove_trait=poor_warrior}
   3002.1.1={add_spouse=61300209} # Dorna Moreland, a cousin
   3045.1.1={ death="3045.1.1"} 
}
61400209 = {
   name="Carinda" # A Dame, with issue
   dynasty=209
   female=yes
   
   religion="old_gods"
   culture="old_first_man"
   
   father=61000209 # Lyman Moreland
   mother=61300209
   
   
   3002.1.1={ birth="3002.1.1"}
   3045.1.1={ death="3045.1.1"} 
}
40209 = {
   name="Lynesse"
   female=yes
   
   religion="old_gods"
   culture="old_first_man"
   
   2979.1.1={ birth="2979.1.1"}
   3033.1.1={ death="3033.1.1"}
} 
12209 = {
   name="Burton" 
   dynasty = 209
   
   stewardship=11
 
   
   religion="old_gods"
   culture="old_first_man"
   
   father=11209
   mother=40209
   
   2996.1.1={ birth="2996.1.1"}
   3012.1.1={add_trait=poor_warrior add_trait=brave}
   3024.1.1={ add_trait=drunkard}
   3030.1.1={ death= {death_reason = death_battle}}
}
13209 = {
   name="Leo"
   dynasty=209
   religion="old_gods"
   culture="old_first_man"
   
   father=11209
   mother=40209
   
   3003.1.1={ birth="3003.1.1"}
   3019.1.1={ add_trait="brave" }
   3020.1.1={ add_spouse=61400209} # Carinda Moreland
   3052.1.1={ death="3052.1.1"} 
}
14209 = {
   name="Sandor" 
   dynasty=209
   religion="old_gods"
   culture="old_first_man"
   
   father=13209
   mother=61400209
   
   3028.1.1={ birth="3028.1.1"}
   3042.1.1={ add_trait="brave" }
   3064.1.1={ death="3064.1.1"} 
}
15209 = {
   name="Garrison"
   dynasty=209
   religion="old_gods"
   culture="old_first_man"
   
   father=14209
   
   3043.1.1={ birth="3043.1.1"}
   3065.1.1={ add_trait="brave" }
   3070.1.1={ death="3070.1.1"} 
}
16209 = {
   name="Lewys"
   dynasty=209
   religion="old_gods"
   culture="old_first_man"
   father=15209
   3069.1.1={ birth="3069.1.1"}
   3089.1.1={ add_trait="brave" }
   3112.1.1={ death="3112.1.1"} 
} 
17209 = {
   name="Chiswyck"
   dynasty=209
   religion="old_gods"
   culture="old_first_man"
   father=16209
   3098.1.1={ birth="3098.1.1"}
   3120.1.1={ add_trait="brave" }
   3147.1.1={death="3147.1.1"}
} 
18209 = {
   name="Hathur"
   dynasty=209
   
   martial=12 # 

   
   religion="old_gods"
   culture="old_first_man"
   
   father=17209
   
   
   3121.1.1={ birth="3121.1.1"}
   3140.1.1={add_trait=brave add_trait=trained_warrior}
   3141.1.1={add_spouse=400209}
   3162.1.1={ death="3162.1.1"}
}
400209 = {
   name="Ossena"
   female=yes
   
   religion="old_gods"
   culture="old_first_man"
    
   3119.1.1={ birth="3119.1.1"}
   3142.1.1={ death= {death_reason=death_dungeon}} 
}  
500209 = {
   name="Larella"
   dynasty=209
   female=yes
   
   religion="old_gods"
   culture="old_first_man"
   
   father=18209 # Hathur Moreland
   
   3146.1.1={ birth="3146.1.1"}
   3178.1.1={ death="3178.1.1"}
} 
19209 = {
   name="Ossifer"
   dynasty=209
   religion="old_gods"
   culture="old_first_man"
   
   father=18209 # Hathur Moreland
   mother=400209
   
   3140.1.2={ birth="3140.1.2"}
   3161.1.1={ add_trait="brave" }
   3178.1.1={ death="3178.1.1"}
} 
20209 = {
   name="Russell"
   dynasty=209
   religion="old_gods"
   culture="old_first_man"
   father=19209
   3155.1.1={ birth="3155.1.1"}
   3171.1.1={ add_trait="brave" }
   3196.1.1={ 
		death = {
			death_reason = death_battle # died in the Blackfyre Rebellions.
		}
   } 
}  
21209 = {
	name="Willit"
	dynasty=209
	religion="old_gods"
	culture="old_first_man"	
	father=20209
	3170.1.1={
		birth="3170.1.1"
	}
	3186.1.1={ add_trait="brave" }
	3218.1.1={
		death="3218.1.1"
	}
}  
22209 = {
	name="Damon"
	dynasty=209
	religion="old_gods"
	culture="old_first_man"	
	father= 21209
	3197.1.1={
		birth="3197.1.1"
	}
	3214.1.1={ add_trait="brave" }
	3243.1.1={
		death="3243.1.1"
	}
}  
23209 = {
	name="Tion" # Father of Robin
	dynasty=209
	religion="old_gods"
	culture="old_first_man"
	father= 22209
	3221.1.1={
		birth="3221.1.1"
	}
	3273.1.1={
		death="3273.1.1"  
	}
}


######################################################################  House Farman  #################################################################

150194 = {		
	name="Gylbert" # expelled the Ironborn from fair isle
	dynasty=194	# Farman
	
	martial=6
	
	religion="old_gods"
	culture="old_first_man"
	
	add_trait=authoritative
	add_trait=diligent
	add_trait=zealous
	add_trait=skilled_tactician
	add_trait=brave

	1882.1.1 = {birth="1882.1.1"}
	1898.1.1 = {add_trait="trained_warrior"}
	1937.1.1 = {death="1937.1.1"}
}
151194 = {		
	name="Line of Gylbert" 
	dynasty=194	# Farman
	
	religion="old_gods"
	culture="old_first_man"
	
	occluded = yes
	
	father = 150194

	1937.1.1 = {birth="1937.1.1"}
	2935.1.1 = {death="2935.1.1"}
}


155194 = {		
	name="Manfryd"
	dynasty=194	# Farman
	
	religion="old_gods"	
	culture="old_first_man"
	
	father=151194

	2935.1.1 = {birth="2935.1.1"}
	2951.1.1 = {add_trait="trained_warrior" add_trait="brave"}
	2982.1.1 = {death="2982.1.1"}
}
156194 = {	
	name="Gylbert"
	dynasty=194	# Farman
	
	religion="old_gods"	
	culture="old_first_man"
	
	father=155194

	2958.1.1 = {birth="2958.1.1"}
	2974.1.1 = {add_trait="trained_warrior" add_trait="brave"}
	2995.1.1 = {death="2995.1.1"}
}
310194 = {		
	name="Lambert" # Lord,
	dynasty=194	# Farman
	
	religion="old_gods"	
	culture="old_first_man"
	
	father=156194

	2980.1.1 = {birth="2980.1.1"}
	2996.1.1 = {add_trait="trained_warrior" add_trait="brave"}
	2996.1.2 = {add_spouse=400194}
	3039.1.1 = {death= {death_reason = death_battle} } 
}
400194 = {		
	name="Laurya" #
	female=yes
	
	
	religion="old_gods"	
	culture="old_first_man"

	2980.1.1 = {birth="2980.1.1"}
	3031.1.1 = {death= {death_reason = death_murder}}
}
309194 = {		
	name="Gawen" # a Lord.	
	dynasty=194	# Farman
	
		
	religion="old_gods"	
	culture="old_first_man"
	
	father=310194
	mother=400194

	2997.10.1 = {birth="2997.10.1"}
	3013.11.3 = {add_trait="poor_warrior" add_trait="brave"}
	3065.1.1 = {death="3065.1.1"}
}
311194 = {		
	name="Farwyle" # Not a Lord.	
	dynasty=194	# Farman
	
		
	religion="old_gods"	
	culture="old_first_man"
	
	father=310194
	mother=400194

	2999.1.1 = {birth="2999.1.1"}
	3015.1.1 = {add_trait="brave"}
	3065.1.1 = {death="3065.1.1"}
}
308194 = {		
	name="Gareth" # Lord.
	dynasty=194	# Farman
	
	
	
	religion="old_gods"	
	culture="old_first_man"
	
	father=309194

	3035.1.1 = {birth="3035.1.1"}
	3051.1.1 = {add_trait="brave"}
	3088.1.1 = {death="3088.1.1"}
}
307194 = {		
	name="Othell" # Lord.	
	dynasty=194	# Farman
	
	
	
	religion="old_gods"	
	culture="old_first_man"
	
	father=308194

	3060.1.1 = {birth="3060.1.1"}
	3076.1.1 = {add_trait="brave"}
	3104.1.1 = {death="3104.1.1"}
}
306194 = {		
	name="Symon" # Lord.
	dynasty=194	# Farman
	
	religion="old_gods"	
	culture="old_first_man"
	
	father=307194

	3080.1.1 = {birth="3080.1.1"}
	3096.1.1 = {add_trait="brave"}
	3100.1.1 = {
		add_spouse=406194
	}
	3130.1.1 = {death="3130.1.1"}
}
406194 = {		
	name="Malessa" 
	female=yes
	
	religion="old_gods"	
	culture="old_first_man"

	3080.1.1 = {birth="3080.1.1"}
	3130.1.1 = {
		death=yes
	}
}
##Issue of Symon##
305194 = {		
	name="Eggon" # Lord.
	dynasty=194	# Farman
	
	religion="old_gods"	
	culture="old_first_man"
	
	father=306194
	mother=406194

	3105.1.1 = {birth="3105.1.1"}
	3121.1.1 = {add_trait="brave"}
	3161.1.1 = {death="3161.1.1"}
}
393194 = {		
	name="Liane"
	dynasty=194	# Farman
	female=yes
	
	religion="old_gods"	
	culture="old_first_man"
	
	father=306194
	mother=406194
	
	3112.1.1 = {birth="3112.1.1"}
	3163.1.1 = {death="3163.1.1"}
}
394194 = {		
	name="Perra"
	dynasty=194	# Farman
	female=yes
	
	religion="old_gods"	
	culture="old_first_man"
	
	father=306194
	mother=406194
	
	3115.1.1 = {birth="3115.1.1"}
	3157.1.1 = {death="3157.1.1"}
}
###
304194 = {		
	name="Sebaston"	# Lord.
	dynasty=194	# Farman
	
	religion="old_gods"	
	culture="old_first_man"
	
	father=305194

	3131.1.1 = {birth="3131.1.1"}
	3147.1.1 = {add_trait="brave"}
	3199.1.1 = {death="3199.1.1"}
}
303194 = {		
	name="Gareth" # Ser. Didn't become Lord.	
	dynasty=194	# Farman
	
	
	
	religion="old_gods"	
	culture="old_first_man"
	father=304194

	3152.1.1 = {birth="3152.1.1"}
	3168.1.1 = {add_trait="brave"}
	3196.5.5 = {death= {death_reason = death_battle} } 
}
201194 = {		
	name="Melyna" # Wife of Gareth. Mother of Lambert and Lyandra.
	female=yes

	religion="old_gods"	
	culture="old_first_man"	

	3153.1.1 = {birth="3153.1.1"}
	3172.1.1 = {add_spouse=303194}
	3207.1.1 = {death="3207.1.1"}
}
302194 = {		
	name="Lambert" # Lord.	
	dynasty=194	# Farman
	
	religion="old_gods"	
	culture="old_first_man"
	father=303194
	mother=201194

	3175.1.1 = {birth="3175.1.1"}
	3191.1.1 = {add_trait="brave"}
	3211.1.1=  {
		add_trait="has_bubonic_plague"
		death = { death_reason = death_trait } 
	}
}
301194 = {		
	name="Hugh" # Lord.
	dynasty=194	# Farman
		
	religion="old_gods"	
	culture="old_first_man"
	
	father=302194

	3200.1.1 = {birth="3200.1.1"}
	3216.1.1 = {add_trait="brave"}
	3251.1.1 = {death="3251.1.1"}
}
300194 = {		
	name="Symon" # Lord.	
	dynasty=194	# Farman
		
	religion="old_gods"	
	culture="old_first_man"
	
	father=301194

	3220.1.1 = {birth="3220.1.1"}
	3236.1.1 = {add_trait="brave"}
	3262.1.1 = {death="3262.1.1"}
}
60000194 = {		
	name="Farla" #
	dynasty=194	# Farman
	female=yes
	
	
	
	religion="old_gods"	
	culture="old_first_man"
	
	father=301194

	3220.1.1 = {birth="3220.1.1"}
	3257.1.1 = {death="3257.1.1"}
}
152194 = {		
	name="Emmon" # Last farman King
	dynasty=194	# Farman
	
	religion="old_gods"
	culture="old_first_man"
	
	father = 300194

	3245.1.1 = {birth="3245.1.1"}
	3262.1.1 = {add_trait="trained_warrior"}
	3295.1.1 = {death="3295.1.1"}
}
153194 = {		
	name="Ronessa" # married Tommen I
	female=yes
	dynasty=194	# Farman
	
	religion="old_gods"
	culture="old_first_man"
	
	father=152194

	3274.1.1 = {birth="3274.1.1"}
	3321.1.1 = {death="3321.1.1"}
}


##########################################################  House Plumm  ##########################################################################

312226 = {		
	name="Othell" # Lord.
	dynasty=226	
	
	
	religion="old_gods"	
	culture="old_first_man"
	
	2965.1.1 = {birth="2965.1.1"}
	2982.1.1 = {add_trait="brave"
	            add_spouse=204226}
	2998.6.6 = {death= {death_reason = death_battle} } 
}
204226 = {		
	name="Rylene" # Othell wife.
	female=yes
	
	
	religion="old_gods"	
	culture="old_first_man"
	
	2964.1.1 = {birth="2964.1.1"}
	3021.1.1 = {death="3021.1.1"}
}
311226 = {		
	name="Peter" # a Lord.
	dynasty=226	
	
	father=312226
	mother=204226
	
	religion="old_gods"	
	culture="old_first_man"
	
	2983.1.1 = {birth="2983.1.1"}
	2998.1.1 = {add_trait="brave"}
	2998.6.6 = {death= {death_reason = death_battle} } 
}
310226 = {		
	name="Dennis" # a Lord.
	dynasty=226	
	
	father=312226
	mother=204226
	
	religion="old_gods"	
	culture="old_first_man"
	
	2987.1.1 = {birth="2987.1.1"}
	2996.1.1 = {add_trait="squire"}
	2998.6.6 = {death= {death_reason = death_battle} }
}
309226 = {		
	name="Philipp" # a Lord.
	dynasty=226	

	father=312226
	mother=204226	
	
	religion="old_gods"	
	culture="old_first_man"
	
	2992.1.1 = {birth="2992.1.1"}
	3037.1.1 = {death="3037.1.1"}
}
308226 = {		
	name="Ossifer" # a Lord.
	dynasty=226	
	
	father=309226
	
	
	religion="old_gods"	
	culture="old_first_man"
	
	3009.1.1 = {birth="3009.1.1"}
	3025.1.1 = {add_trait="brave"}
	3054.1.1 = {death="3054.1.1"}
}
307226 = {		
	name="Harwyn" # a Lord.
	dynasty=226	
	
	
    father=308226
	
	religion="old_gods"	
	culture="old_first_man"
	
	3032.1.1 = {birth="3032.1.1"}
	3048.1.1 = {add_trait="brave"}
	3087.1.1 = {death="3087.1.1"}
}
306226 = {		
	name="Willem" # a Lord.
	dynasty=226	
	
	father=307226
	
	religion="old_gods"	
	culture="old_first_man"
	
	3055.1.1 = {birth="3055.1.1"}
	3071.1.1 = {add_trait="brave"}
	3115.1.1 = {death="3115.1.1"}
}
305226 = {		
	name="Maynard" # a Lord.
	dynasty=226	
	
	father=306226
	
	religion="old_gods"	
	culture="old_first_man"
	
	3070.1.1 = {birth="3070.1.1"}
	3086.1.1 = {add_trait="brave"}
	3121.1.1 = {death="3121.1.1"}
}
304226 = {		
	name="Peter" # a Lord.
	dynasty=226	
	
	father=305226
	
	religion="old_gods"	
	culture="old_first_man"
	
	3084.1.1 = {birth="3084.1.1"}
	3100.1.1 = {add_trait="brave"}
	3147.1.1 = {death="3147.1.1"}
}
303226 = {		
	name="Ormond" # a Lord. Sire of Ossifer.
	dynasty=226	
		
	father=304226
	
	religion="old_gods"	
	culture="old_first_man"
	
	3100.1.1 = {birth="3100.1.1"}
	3116.1.1 = {add_trait="brave"}
	3140.1.1 = {add_spouse=4050226}
	3168.1.1 = {death="3168.1.1"}
}
4050226 = {		
	name="Joy"
	female=yes
	
	
	religion="old_gods"	
	culture="old_first_man"
	
	3100.1.1 = {birth="3100.1.1"}
	3168.1.1 = {death="3168.1.1"}
}
203226 = {		
	name="Ossifer" # Lord. 
	dynasty=226	

	father=303226
	mother=4050226
	
	religion="old_gods"	
	culture="old_first_man"
	
	3115.1.1 = {birth="3115.1.1"} 
	3131.1.1 = {
		add_trait=brave
		add_trait=trained_warrior
	}
	3176.6.3 = {death="3176.6.3"} 
}
3050226 = {		
	name="Kevan" 
	dynasty=226	
	
	father=303226
	mother=4050226

	religion="old_gods"	
	culture="old_first_man"
	
	3120.1.1 = {birth="3120.1.1"}
	3136.1.1 = {
		add_trait=brave
		add_trait=trained_warrior
	}
	3195.1.1 = {death="3195.1.1"} 
}
202226 = {		
	name="Roger" # a Lord.
	dynasty=226	
	
	father=203226 # Ossifer Plumm
	
	religion="old_gods"	
	culture="old_first_man"
	
	3177.1.1 = {
		birth="3177.1.1" 	
	} 
	3190.1.1 = {add_spouse=201226}
	3193.1.1 = {add_trait="brave"}
	3231.1.1 = {death="3231.1.1"}
}
201226 = {		
	name="Irinna"
	female=yes
	
	
	religion="old_gods"	
	culture="old_first_man"
	
	3173.1.1 = {birth="3173.1.1"}
	3211.1.1=  {
		add_trait="has_bubonic_plague"
		death = { death_reason = death_trait }
	}
}
302226 = {		
	name="Gylbert" # a Lord.
	dynasty=226	
	
	father=202226 # 
	mother=201226

	
	religion="old_gods"	
	culture="old_first_man"
	
	3192.1.1 = {birth="3192.1.1"}
	3208.1.1 = {add_trait="brave"}
	3246.1.1 = {death="3246.1.1"}
}
301226 = {		
	name="Othell" # a Lord.
	dynasty=226	
	
	father=302226
	
	religion="old_gods"	
	culture="old_first_man"
	
	3215.1.1 = {birth="3215.1.1"}
	3231.1.1 = {add_trait="brave"}
	3267.1.1 = {death="3267.1.1"}
}
300226 = {		
	name="Harys" # Ser. Didn't become Lord.
	dynasty=226	
	
	father=301226
	
	religion="old_gods"	
	culture="old_first_man"
	
	3233.1.1 = {birth="3233.1.1"}
	3249.1.1 = {add_trait="brave"}
	3259.2.2 = {death = {death_reason = death_battle} } 
}


####################################################################   House Hawthorne  ##########################################################

300220 = {
	name="Steffon"	# a lord
	dynasty=220

	religion="old_gods"
	culture="old_first_man"

	2959.1.1 = {birth="2959.1.1"}
	2975.1.1 = {add_trait=brave add_trait=trained_warrior}
	2977.1.1 = {add_spouse=400220}
	3015.1.1 = {death="3015.1.1"}
}
400220 = {
	name="Amarei"
	female=yes

	religion="old_gods"
	culture="old_first_man"

	2961.1.1 = {birth="2961.1.1"}
	3019.1.1 = {death="3019.1.1"}
}
301220 = {
	name="Daven"	# a lord
	dynasty=220

	religion="old_gods"
	culture="old_first_man"

	father=300220
	mother=400220

	2979.1.1 = {birth="2979.1.1"}
	2995.1.1 = {add_trait=brave add_trait=poor_warrior}
	2996.1.1 = {add_spouse=401220}
	3040.1.1 = {death = {death_reason = death_battle}}
}
401220 = {
	name="Mylessa"
	female=yes

	religion="old_gods"
	culture="old_first_man"

	2979.1.1 = {birth="2979.1.1"}
	3038.1.1 = {death="3038.1.1"}
}
600220 = {
	name="Leana"	# not a lord
	female=yes
	dynasty=220

	religion="old_gods"
	culture="old_first_man"

	father=300220
	mother=400220

	2986.1.1 = {birth="2986.1.1"}
	3065.1.1 = {death="3065.1.1"}
}
602220 = {
	name="Florian"	# not a lord
	dynasty=220

	religion="old_gods"
	culture="old_first_man"

	father=300220
	mother=400220

	2988.1.1 = {birth="2988.1.1"}
	3004.1.1 = {add_trait=brave add_trait=trained_warrior}
	3025.1.1 = {death= {death_reason = death_accident}}
}
603220 = {
	name="Dorna"	# not a lord
	female=yes
	dynasty=220

	religion="old_gods"
	culture="old_first_man"

	father=300220
	mother=400220

	2994.1.1 = {birth="2994.1.1"}
	3040.1.1 = {death="3040.1.1"}
}
302220 = {
	name="Leona"	# not a lord
	female=yes
	dynasty=220

	religion="old_gods"
	culture="old_first_man"

	father=300220
	mother=400220

	2982.1.1 = {birth="2982.1.1"}
	3005.1.1 = {death="3005.1.1"}
}
303220 = {
	name="Manfryd"	# a lord
	dynasty=220

	religion="old_gods"
	culture="old_first_man"

	father=301220
	mother=401220

	3007.1.1 = {birth="3007.1.1"}
	3023.1.1 = {add_trait=trained_warrior}
	3025.1.1 = {add_spouse=403220}
	3056.1.1 = {death="3056.1.1"}
}
403220 = {
	name="Layna"
	female=yes

	religion="old_gods"
	culture="old_first_man"

	3007.1.1 = {birth="3007.1.1"}
	3060.1.1 = {death="3060.1.1"}
}
304220 = {
	name="Antario"	# not a lord
	dynasty=220

	religion="old_gods"
	culture="old_first_man"

	father=301220
	mother=401220

	3010.1.1 = {birth="3010.1.1"}
	3026.1.1 = {add_trait=master_warrior}
	3042.1.1 = {death = {death_reason = death_execution}}
}
305220 = {
	name="Ellyn"	# not a lord
	female=yes
	dynasty=220

	religion="old_gods"
	culture="old_first_man"

	father=301220
	mother=401220

	3011.1.1 = {birth="3011.1.1"}
	3080.1.1 = {death="3080.1.1"}
}
306220 = {
	name="Manfryd"	# a lord
	dynasty=220

	religion="old_gods"
	culture="old_first_man"

	father=303220
	mother=403220

	3042.1.1 = {birth="3042.1.1"}
	3058.1.1 = {add_trait=brave add_trait=poor_warrior}
	3060.1.1 = {add_spouse=406220}
	3092.1.1 = {death = {death_reason = death_accident}}
}
406220 = {
	name="Genna"
	female=yes

	religion="old_gods"
	culture="old_first_man"

	3044.1.1 = {birth="3044.1.1"}
	3092.1.1 = {death="3092.1.1"}
}
307220 = {
	name="Shirei"	# not a lord
	female=yes
	dynasty=220

	religion="old_gods"
	culture="old_first_man"

	father=303220
	mother=403220

	3043.1.1 = {birth="3043.1.1"}
	3067.1.1 = {death="3067.1.1"}
}
308220 = {
	name="Shiera"	# not a lord
	female=yes
	dynasty=220

	religion="old_gods"
	culture="old_first_man"

	father=303220
	mother=403220

	3045.1.1 = {birth="3045.1.1"}
	3056.1.1 = {death="3056.1.1"}
}
309220 = {
	name="Polliver"	# a lord
	dynasty=220

	religion="old_gods"
	culture="old_first_man"

	father=306220
	mother=406220

	3067.1.1 = {birth="3067.1.1"}
	3083.1.1 = {add_trait=brave add_trait=trained_warrior}
	3085.1.1 = {add_spouse=409220}
	3121.1.1 = {death="3121.1.1"}
}
409220 = {
	name="Malessa"
	female=yes

	religion="old_gods"
	culture="old_first_man"

	3067.1.1 = {birth="3067.1.1"}
	3118.1.1 = {death="3118.1.1"}
}
310220 = {
	name="Raynard"	# not a lord
	dynasty=220

	religion="old_gods"
	culture="old_first_man"

	father=306220
	mother=406220

	3069.1.1 = {birth="3069.1.1"}
	3085.1.1 = {add_trait=brave add_trait=trained_warrior}
	3092.1.1 = {death="3092.1.1"}
}
311220 = {
	name="Gerold"	# not a lord
	dynasty=220

	religion="old_gods"
	culture="old_first_man"

	father=306220
	mother=406220

	3070.1.1 = {birth="3070.1.1"}
	3086.1.1 = {add_trait=brave add_trait=trained_warrior}
	3098.1.1 = {death = {death_reason = death_battle}}
}
312220 = {
	name="Jonquil"	# not a lord
	female=yes
	dynasty=220

	religion="old_gods"
	culture="old_first_man"

	father=309220
	mother=409220

	3093.1.1 = {birth="3093.1.1"}
	3115.1.1 = {death="3115.1.1"}
}
313220 = {
	name="Andros"	# a lord
	dynasty=220

	religion="old_gods"
	culture="old_first_man"

	father=309220
	mother=409220

	3094.1.1 = {birth="3094.1.1"}
	3110.1.1 = {add_trait=brave add_trait=trained_warrior}
	3112.1.1 = {add_spouse=413220}
	3129.1.1 = {death = {death_reason = death_battle}}
}
413220 = {
	name="Perriane"
	female=yes

	religion="old_gods"
	culture="old_first_man"

	3094.1.1 = {birth="3094.1.1"}
	3145.1.1 = {death="3145.1.1"}
}
314220 = {
	name="Alys"	# not a lord
	female=yes
	dynasty=220

	religion="old_gods"
	culture="old_first_man"

	father=309220
	mother=409220

	3096.1.1 = {birth="3096.1.1"}
	3133.1.1 = {death="3133.1.1"}
}
315220 = {
	name="Lucion"	# not a lord
	dynasty=220

	religion="old_gods"
	culture="old_first_man"

	father=309220
	mother=409220

	3097.1.1 = {birth="3097.1.1"}
	3113.1.1 = {add_trait=brave add_trait=skilled_warrior}
	3130.1.1 = {death="3130.1.1"}
}
316220 = {
	name="Leonella"	# not a lord
	female=yes
	dynasty=220

	religion="old_gods"
	culture="old_first_man"

	father=309220
	mother=409220

	3099.1.1 = {birth="3099.1.1"}
	3148.1.1 = {death="3148.1.1"}
}
317220 = {
	name="Rosamund"	# a lord
	female=yes
	dynasty=220

	religion="old_gods"
	culture="old_first_man"

	father=313220
	mother=413220

	3124.1.1 = {birth="3124.1.1"}
	3144.1.1 = {death = {death_reason = death_accident}}
}
417220 = {
	name="Robb"

	religion="old_gods"
	culture="old_first_man"

	3123.1.1 = {birth="3123.1.1"}
	3139.1.1 = {add_trait=poor_warrior}
	3141.1.1 = {add_spouse=317220}
	3145.1.1 = {death = {death_reason = death_execution}}
}
318220 = {
	name="Marissa"	# a lord
	female=yes
	dynasty=220

	religion="old_gods"
	culture="old_first_man"

	father=313220
	mother=413220

	3126.1.1 = {birth="3126.1.1"}
	3184.1.1 = {death="3184.1.1"}
}
418220 = {
	name="Selmond"

	religion="old_gods"
	culture="old_first_man"

	3128.1.1 = {birth="3128.1.1"}
	3144.1.1 = {add_trait=brave add_trait=trained_warrior}
	3146.1.1 = {add_spouse=318220}
	3160.1.1 = {death = {death_reason = death_battle}}
}
319220 = {
	name="Genna"	# not a lord
	female=yes
	dynasty=220

	religion="old_gods"
	culture="old_first_man"

	father=313220
	mother=413220

	3129.1.1 = {birth="3129.1.1"}
	3185.1.1 = {death="3185.1.1"}
}
320220 = {
	name="Lorimer"	# a lord
	dynasty=220

	religion="old_gods"
	culture="old_first_man"

	mother=318220

	3146.1.1 = {birth="3146.1.1"}
	3162.1.1 = {add_trait=poor_warrior}
	3164.1.1 = {add_spouse=420220}
	3196.1.1 = {death = {death_reason = death_battle}}
}
420220 = {
	name="Tya"
	female=yes

	religion="old_gods"
	culture="old_first_man"

	3145.1.1 = {birth="3145.1.1"}
	3205.1.1 = {death="3205.1.1"}
}
321220 = {
	name="Shierle"	# not a lord
	female=yes
	dynasty=220

	religion="old_gods"
	culture="old_first_man"

	mother=318220

	3147.1.1 = {birth="3147.1.1"}
	3182.1.1 = {death = {death_reason = death_accident}}
}
322220 = {
	name="Dennis"	# a lord
	dynasty=220

	religion="old_gods"
	culture="old_first_man"

	father=320220
	mother=420220

	3175.1.1 = {birth="3175.1.1"}
	3191.1.1 = {add_trait=brave add_trait=poor_warrior}
	3193.1.1 = {add_spouse=422220}
	3233.1.1 = {death = {death_reason = death_execution}}
}
422220 = {
	name="Ellyn"
	female=yes

	religion="old_gods"
	culture="old_first_man"

	3175.1.1 = {birth="3175.1.1"}
	3233.1.1 = {death="3233.1.1"}
}
323220 = {
	name="Garwyn"	# not a lord
	dynasty=220

	religion="old_gods"
	culture="old_first_man"

	father=320220
	mother=420220

	3178.1.1 = {birth="3178.1.1"}
	3194.1.1 = {add_trait=brave add_trait=trained_warrior}
	3196.1.1 = {death = {death_reason = death_battle}}
}
324220 = {
	name="Leona"	# not a lord
	female=yes
	dynasty=220

	religion="old_gods"
	culture="old_first_man"

	father=320220
	mother=420220

	3179.1.1 = {birth="3179.1.1"}
	3221.1.1 = {death="3221.1.1"}
}
325220 = {
	name="Quenton"	# not a lord
	dynasty=220

	religion="old_gods"
	culture="old_first_man"

	father=320220
	mother=420220

	3182.1.1 = {birth="3182.1.1"}
	3198.1.1 = {add_trait=brave add_trait=poor_warrior}
	3207.1.1 = {  add_trait="nightswatch"}
	3234.1.1 = {death="3234.1.1"}
}
326220 = {
	name="Perra"	# not a lord
	female=yes
	dynasty=220

	religion="old_gods"
	culture="old_first_man"

	father=322220
	mother=422220

	3197.1.1 = {birth="3197.1.1"}
	3226.1.1 = {death="3226.1.1"}
}
327220 = {
	name="Gerold"	# a lord
	dynasty=220

	religion="old_gods"
	culture="old_first_man"

	father=322220
	mother=422220

	3198.1.1 = {birth="3198.1.1"}
	3214.1.1 = {add_trait=brave add_trait=skilled_warrior}
	3216.1.1 = {add_spouse=427220}
	3237.1.1 = {death="3237.1.1"}
}
427220 = {
	name="Ellyn"
	female=yes

	religion="old_gods"
	culture="old_first_man"

	3198.1.1 = {birth="3198.1.1"}
	3262.1.1 = {death="3262.1.1"}
}
328220 = {
	name="Gareth"	# a lord
	dynasty=220

	religion="old_gods"
	culture="old_first_man"

	father=327220
	mother=427220

	3225.1.1 = {birth="3225.1.1"}
	3241.1.1 = {add_trait=poor_warrior}
	3243.1.1 = {add_spouse=428220}
	3278.1.1 = {death="3278.1.1"}
}
428220 = {
	name="Tya"
	female=yes

	religion="old_gods"
	culture="old_first_man"

	3224.1.1 = {birth="3224.1.1"}
	3283.1.1 = {death="3283.1.1"}
}
329220 = {
	name="Kyra"	# not a lord
	female=yes
	dynasty=220

	religion="old_gods"
	culture="old_first_man"

	father=327220
	mother=427220

	3226.1.1 = {birth="3226.1.1"}
	3281.1.1 = {death="3281.1.1"}
}


#########################################################  House Yew  ######################################################################

150222 = {
	name="Alan o'the Oak"	# 
	dynasty=222
		
	religion="old_gods"
	culture="old_first_man"
	
	add_trait=master_warrior
	add_trait=hunter
	add_trait=diligent
	add_trait=tough_soldier
	add_trait=blinded_age
	give_nickname=nick_the_blind_bowman

	1.1.1 = {birth=yes}
	1.1.1 = {death=yes}
}
151222 = {
	name="Line of Alan o'the Oak"	# 
	dynasty=222
		
	religion="old_gods"
	culture="old_first_man"
	
	occluded = yes
	
	father = 150222

	1.1.1 = {birth=yes}
	2929.1.1 = {death=yes}
}


152222 = {
	name="Polliver"	# a lord
	dynasty=222

	religion="old_gods"
	culture="old_first_man"
	
	father = 151222

	2929.1.1 = {birth="2929.1.1"}
	2945.1.1 = {add_trait=brave add_trait=trained_warrior}
	2975.1.1 = {death = yes }
}
153222 = {
	name="Damon"	# a lord
	dynasty=222

	religion="old_gods"
	culture="old_first_man"
	
	father = 152222

	2950.1.1 = {birth="2950.1.1"}
	2966.1.1 = {add_trait=brave add_trait=trained_warrior}
	2996.1.1 = {death = yes }
}
300222 = {
	name="Manford"	# a lord
	dynasty=222

	religion="old_gods"
	culture="old_first_man"
	
	father = 153222

	2976.1.1 = {birth="2976.1.1"}
	2992.1.1 = {add_trait=brave add_trait=trained_warrior}
	2993.1.1 = {add_spouse=400222}
	3039.1.1 = {death = {death_reason = death_battle}}
}
400222 = {
	name="Shirei"
	female=yes

	religion="old_gods"
	culture="old_first_man"

	2976.1.1 = {birth="2976.1.1"}
	3046.1.1 = {death="3046.1.1"}
}
301222 = {
	name="Shiera"	# not a lord
	female=yes
	dynasty=222

	religion="old_gods"
	culture="old_first_man"
	
	add_trait=genius

	father=300222
	mother=400222
	
	add_trait=twin

	2994.1.1 = {birth="2994.1.1"}
	3019.1.1 = {death = {death_reason = death_accident}}
}
302222 = {
	name="Joanna"	# not a lord
	female=yes
	dynasty=222

	religion="old_gods"
	culture="old_first_man"

	father=300222
	mother=400222
	
	add_trait=fair
	
	add_trait=twin

	2994.1.1 = {birth="2994.1.1"}
	3071.1.1 = {death="3071.1.1"}
}
303222 = {
	name="Gerion"	# a lord
	dynasty=222

	religion="old_gods"
	culture="old_first_man"

	father=300222
	mother=400222

	2996.1.1 = {birth="2996.1.1"}
	3012.1.1 = {add_trait=brave add_trait=trained_warrior}
	3021.1.1 = {add_spouse=403222}
	3058.1.1 = {death="3058.1.1"}
}
403222 = {
	name="Margot"
	female=yes

	religion="old_gods"
	culture="old_first_man"

	3000.1.1 = {birth="3000.1.1"}
	3061.1.1 = {death="3061.1.1"}
}
304222 = {
	name="Darlan"	# not a lord
	dynasty=222

	religion="old_gods"
	culture="old_first_man"

	father=300222
	mother=400222

	2998.1.1 = {birth="2998.1.1"}
	3033.1.1 = {death = {death_reason = death_accident}}
}
305222 = {
	name="Joanna"	# not a lord
	female=yes
	dynasty=222

	religion="old_gods"
	culture="old_first_man"

	father=300222
	mother=400222

	3002.1.1 = {birth="3002.1.1"}
	3066.1.1 = {death="3066.1.1"}
}
306222 = {
	name="Harwyn"	# not a lord
	dynasty=222

	religion="old_gods"
	culture="old_first_man"

	father=303222
	mother=403222

	3039.1.1 = {birth="3039.1.1"}
	3055.1.1 = {add_trait=brave add_trait=trained_warrior}
	3111.1.1 = {death="3111.1.1"}
}
307222 = {
	name="Garrison"	# a lord
	dynasty=222

	religion="old_gods"
	culture="old_first_man"

	father=303222
	mother=403222

	3041.1.1 = {birth="3041.1.1"}
	3057.1.1 = {add_trait=brave add_trait=master_warrior}
	3059.1.1 = {add_spouse=407222}
	3094.1.1 = {death="3094.1.1"}
}
407222 = {
	name="Alys"
	female=yes

	religion="old_gods"
	culture="old_first_man"

	3040.1.1 = {birth="3040.1.1"}
	3099.1.1 = {death="3099.1.1"}
}
308222 = {
	name="Willem"	# not a lord
	dynasty=222

	religion="old_gods"
	culture="old_first_man"

	father=303222
	mother=403222

	3044.1.1 = {birth="3044.1.1"}
	3060.1.1 = {add_trait=brave add_trait=trained_warrior}
	3067.1.1 = {death = {death_reason = death_accident}}
}
309222 = {
	name="Sybell"	# not a lord
	female=yes
	dynasty=222

	religion="old_gods"
	culture="old_first_man"

	father=303222
	mother=403222

	3047.1.1 = {birth="3047.1.1"}
	3054.1.1 = {death = {death_reason = death_accident}}
}
310222 = {
	name="Amarei"	# not a lord
	female=yes
	dynasty=222

	religion="old_gods"
	culture="old_first_man"

	father=307222
	mother=407222

	3068.1.1 = {birth="3068.1.1"}
	3115.1.1 = {death="3115.1.1"}
}
311222 = {
	name="Quenton"	# a lord
	dynasty=222

	religion="old_gods"
	culture="old_first_man"

	father=307222
	mother=407222

	3071.1.1 = {birth="3071.1.1"}
	3087.1.1 = {add_trait=brave add_trait=trained_warrior}
	3089.1.1 = {add_spouse=411222}
	3132.1.1 = {death = {death_reason = death_execution}}
}
411222 = {
	name="Genna"
	female=yes

	religion="old_gods"
	culture="old_first_man"

	3073.1.1 = {birth="3073.1.1"}
	3137.1.1 = {death="3137.1.1"}
}
312222 = {
	name="Dorna"	# not a lord
	female=yes
	dynasty=222

	religion="old_gods"
	culture="old_first_man"

	father=311222
	mother=411222

	3091.1.1 = {birth="3091.1.1"}
	3092.1.1 = {death = {death_reason = death_accident}}
}
313222 = {
	name="Genna"	# a lord
	female=yes
	dynasty=222

	religion="old_gods"
	culture="old_first_man"

	father=311222
	mother=411222

	3093.1.1 = {birth="3093.1.1"}
	3161.1.1 = {death="3161.1.1"}
}
413222 = {
	name="Lancel"

	religion="old_gods"
	culture="old_first_man"

	3093.1.1 = {birth="3093.1.1"}
	3109.1.1 = {add_trait=brave add_trait=poor_warrior}
	3111.1.1 = {add_spouse=313222}
	3160.1.1 = {death = {death_reason = death_battle}}
}
314222 = {
	name="Quenton"	# not a lord
	dynasty=222

	religion="old_gods"
	culture="old_first_man"

	father=413222
	mother=313222

	3125.1.1 = {birth="3125.1.1"}
	3141.1.1 = {add_trait=brave add_trait=skilled_warrior}
	3159.1.1 = {death = {death_reason = death_battle}}
}
315222 = {
	name="Lewys"	# a lord
	dynasty=222

	religion="old_gods"
	culture="old_first_man"

	father=413222
	mother=313222

	3128.1.1 = {birth="3128.1.1"}
	3144.1.1 = {add_trait=brave add_trait=skilled_warrior}
	3146.1.1 = {add_spouse=415222}
	3170.1.1 = {death="3170.1.1"}
}
415222 = {
	name="Rosamund"
	female=yes

	religion="old_gods"
	culture="old_first_man"

	3126.1.1 = {birth="3126.1.1"}
	3177.1.1 = {death="3177.1.1"}
}
316222 = {
	name="Ormond"	# a lord
	dynasty=222

	religion="old_gods"
	culture="old_first_man"

	father=315222
	mother=415222

	3157.1.1 = {birth="3157.1.1"}
	3173.1.1 = {add_trait=brave add_trait=trained_warrior}
	3175.1.1 = {add_spouse=416222}
	3196.1.1 = {death="3196.1.1"}
}
416222 = {
	name="Leona"
	female=yes

	religion="old_gods"
	culture="old_first_man"

	3157.1.1 = {birth="3157.1.1"}
	3201.1.1 = {death="3201.1.1"}
}
317222 = {
	name="Sybell"	# not a lord
	female=yes
	dynasty=222

	religion="old_gods"
	culture="old_first_man"

	father=315222
	mother=415222

	3160.1.1 = {birth="3160.1.1"}
	3206.1.1 = {death="3206.1.1"}
}
318222 = {
	name="Joy"	# not a lord
	female=yes
	dynasty=222

	religion="old_gods"
	culture="old_first_man"

	father=315222
	mother=415222

	3163.1.1 = {birth="3163.1.1"}
	3176.1.1 = {death = {death_reason = death_accident}}
}
319222 = {
	name="Manfryd"	# a lord
	dynasty=222

	religion="old_gods"
	culture="old_first_man"

	father=316222
	mother=416222

	3185.1.1 = {birth="3185.1.1"}
	3201.1.1 = {add_trait=brave add_trait=skilled_warrior}
	3203.1.1 = {add_spouse=419222}
	3233.1.1 = {death="3233.1.1"}
}
419222 = {
	name="Tysha"
	female=yes

	religion="old_gods"
	culture="old_first_man"

	3185.1.1 = {birth="3185.1.1"}
	3231.1.1 = {death="3231.1.1"}
}
320222 = {
	name="Rupert"	# not a lord
	dynasty=222

	religion="old_gods"
	culture="old_first_man"

	father=316222
	mother=416222

	3190.1.1 = {birth="3190.1.1"}
	3206.1.1 = {add_trait=brave add_trait=trained_warrior}
	3207.1.1 = {death = {death_reason = death_accident}}
}
321222 = {
	name="Roland"	# a lord
	dynasty=222

	religion="old_gods"
	culture="old_first_man"

	father=319222
	mother=419222

	3203.1.1 = {birth="3203.1.1"}
	3219.1.1 = {add_trait=brave add_trait=trained_warrior}
	3221.1.1 = {add_spouse=421222}
	3270.1.1 = {death="3270.1.1"}
}
421222 = {
	name="Janna"
	female=yes

	religion="old_gods"
	culture="old_first_man"

	3203.1.1 = {birth="3203.1.1"}
	3269.1.1 = {death="3269.1.1"}
}
322222 = {
	name="Kyra"	# not a lord
	female=yes
	dynasty=222

	religion="old_gods"
	culture="old_first_man"

	father=319222
	mother=419222

	3205.1.1 = {birth="3205.1.1"}
	3239.1.1 = {death="3239.1.1"}
}
323222 = {
	name="Maynard"	# not a lord
	dynasty=222

	religion="old_gods"
	culture="old_first_man"

	father=321222
	mother=421222

	3226.1.1 = {birth="3226.1.1"}
	3242.1.1 = {add_trait=brave add_trait=poor_warrior}
	3244.1.1 = {add_spouse=423222}
	3259.2.8 = {death = {death_reason = death_battle}}
}
423222 = {
	name="Dorna"
	female=yes

	religion="old_gods"
	culture="old_first_man"

	3226.1.1 = {birth="3226.1.1"}
	3267.1.1 = {death="3267.1.1"}
}
324222 = {
	name="Sumner"	# not a lord
	dynasty=222

	religion="old_gods"
	culture="old_first_man"

	father=321222
	mother=421222

	3228.1.1 = {birth="3228.1.1"}
	3244.1.1 = {add_trait=brave add_trait=poor_warrior}
	3259.2.9 = {death = {death_reason = death_battle}}
}


################################################################  House Banefort  ##############################################################

150200 = {
	name=" "	# 
	dynasty=200
	
	religion="old_gods"
	culture="old_first_man"
	
	add_trait=skilled_warrior
	add_trait=quick
	add_trait=deceitful
	add_trait=elusive_shadow
	add_trait=diligent
	add_trait=patient
	
	give_nickname=nick_the_hooded_man

	40.1.1 = {birth=yes}
	89.1.1 = {death=yes}
}
151200 = {
	name="Line of The Hooded Man"	# 
	dynasty=200
	
	religion="old_gods"
	culture="old_first_man"
	
	occluded = yes
	
	father = 150200

	89.1.1 = {birth=yes}
	232.1.1 = {death=yes}
}



152200 = {
	name="Morgon"	# Last Hooded King
	dynasty=200
	
	religion="old_gods"
	culture="old_first_man"

	father=151200
	
	add_trait=wroth
	add_trait=mystic
	add_trait=trained_warrior
	add_trait=deceitful
	add_trait=elusive_shadow
	add_trait=zealous
	
	232.1.1 = {birth="232.1.1"}
	260.1.1 = {
		death={
			death_reason = death_battle
			killer = 80270190 #Loreon I
		}
	}
}
153200 = {
	name="Line of Morgon"	# 
	dynasty=200
	
	religion="old_gods"
	culture="old_first_man"
	
	occluded = yes
	
	father = 152200

	260.1.1 = {birth=yes}
	2910.1.1 = {death=yes}
}


154200 = {
	name="Josmyn"	# a lord
	dynasty=200

	religion="old_gods"
	culture="old_first_man"
	
	father = 153200

	2910.1.1 = {birth="2910.1.1"}
	2926.1.1 = {add_trait="brave"}
	2972.1.1 = {death=yes}
}
155200 = {
	name="Roger"	# a lord
	dynasty=200

	religion="old_gods"
	culture="old_first_man"
	
	father = 154200

	2938.1.1 = {birth="2938.1.1"}
	2954.1.1 = {add_trait="brave"}
	2990.1.1 = {death=yes}
}
325200 = {
	name="Sebaston"	# a lord
	dynasty=200

	religion="old_gods"
	culture="old_first_man"
	
	father = 155200

	2958.1.1 = {birth="2958.1.1"}
	2974.1.1 = {add_trait="brave"}
	3000.6.6 = {death = {death_reason = death_battle}}
}
400200 = {
	name="Alys"	# 
	female=yes

	religion="old_gods"
	culture="old_first_man"

	2960.1.1 = {birth="2960.1.1"}
	2978.1.1 = {add_spouse=325200}
	3001.6.17 = {death = {death_reason = death_suicide}}
}
324200 = {
	name="Quenten"	# Sebaston's son, not a lord
	dynasty=200

	religion="old_gods"
	culture="old_first_man"

	father=325200
	mother=400200

	2979.1.1 = {birth="2979.1.1"}
	2995.1.1 = {add_trait="brave"}
	2996.1.1 = {add_spouse=401200} # Joyuese
	3000.6.6 = {death = {death_reason = death_battle}}
}
401200 = {
	name="Joyuese"	# 
	female=yes

	religion="old_gods"
	culture="old_first_man"

	2980.1.1 = {birth="2980.1.1"}
	3032.1.1 = {death="3032.1.1"}
}
323200 = {
	name="Kevan"	# Sebaston's son, not a lord
	dynasty=200

	religion="old_gods"
	culture="old_first_man"

	father=325200
	mother=400200
	

	2982.1.1 = {birth="2982.1.1"}
	2998.1.1 = {add_trait="brave"}
	2998.2.3 = {add_spouse=415200} # Janella
	3000.6.6 = {death = {death_reason = death_battle}}
}
415200 = {
	name="Janella"	# Kevan's wife
	female=yes

	religion="old_gods"
	culture="old_first_man"

	2980.1.1 = {birth="2980.1.1"}
	3032.1.1 = {death="3032.1.1"}
}
322200 = {
	name="Sebaston"	# Sebaston's son, not a lord
	dynasty=200

	religion="old_gods"
	culture="old_first_man"

	father=325200
	mother=400200

	2983.1.1 = {birth="2983.1.1"}
	3000.6.6 = {death = {death_reason = death_battle}}
}
321200 = {
	name="Quelion"	# Quenten's son, a lord
	dynasty=200

	religion="old_gods"
	culture="old_first_man"

	father=324200 # Quenten Banefort
	mother=401200
	
	add_trait=twin

	2996.1.1 = {birth="2996.1.1"}
	3067.1.1 = {death="3067.1.1"}
}
340200 = {
	name="Louisa"	# Quenten's daughter, not a lord
	female=yes
	dynasty=200

	religion="old_gods"
	culture="old_first_man"

	father=324200 # Quenten Banefort
	mother=401200
	
	add_trait=twin

	2996.1.1 = {birth="2996.1.1"}
	3020.1.1 = {add_trait=septa add_trait=celibate}
	3060.1.1 = {death="3060.1.1"}
}
341200 = {
	name="Justyn"	# Quenten's son, not a lord
	dynasty=200

	religion="old_gods"
	culture="old_first_man"

	father=324200 # Quenten Banefort
	mother=401200
	

	2998.1.1 = {birth="2998.1.1"}
	3038.1.1 = {death= {death_reason = death_battle}}
}
5000200 = {
	name="Jonn"	# Kevan's son, not a lord
	dynasty=200

	religion="old_gods"
	culture="old_first_man"

	father=323200 # Kevan Banefort
	mother=415200
	

	2999.1.1 = {birth="2999.1.1"}
	3040.1.1 = {death= {death_reason = death_battle}}
}
5010200 = {
	name="Kyla"	# Kevan's daughter, not a lord
	dynasty=200
	female=yes

	religion="old_gods"
	culture="old_first_man"

	father=323200 # Kevan Banefort
	mother=415200
	

	2999.12.27 = {birth="2999.12.27"}
	3062.2.8 = {death="3062.2.8"}
}
402200 = {
	name="Carenna" # 
	female=yes

	religion="old_gods"
	culture="old_first_man"

	2996.1.1 = {birth="2996.1.1"}
	3012.1.1 = {add_trait="brave"}
	3014.1.1 = {add_spouse=321200} # Quelion Banefort
	3052.1.1 = {death="3052.1.1"}
}
320200 = {
	name="Quenten"	# Quelion's son, not a lord
	dynasty=200

	religion="old_gods"
	culture="old_first_man"

	mother=402200
	father=321200

	3017.1.1 = {birth="3017.1.1"}
	3033.1.1 = {add_trait="brave"}
	3040.1.1 = {death = {death_reason = death_battle}}
}
4010200 = {
	name="Alysa" # 
	female=yes

	religion="old_gods"
	culture="old_first_man"

	3015.1.1 = {birth="3015.1.1"}
	3035.1.1 = {add_spouse=320200} # Quenton Banefort
	3052.1.1 = {death="3052.1.1"}
}
319200 = {
	name="Alys"	# Quelion's daughter, not a lord
	female=yes
	dynasty=200

	religion="old_gods"
	culture="old_first_man"

	mother=402200
	father=321200

	3019.1.1 = {birth="3019.1.1"}
	3036.1.1 = {death="3036.1.1"}
}
318200 = {
	name="Willem"	# Quelion's son, a lord
	dynasty=200

	religion="old_gods"
	culture="old_first_man"

	mother=402200
	father=321200

	3024.1.1 = {birth="3024.1.1"}
	3040.1.1 = {add_trait="brave"}
	3088.1.1 = {death="3088.1.1"}
}
404200 = {
	name="Leonette"	# 
	female=yes

	religion="old_gods"
	culture="old_first_man"

	3025.1.1 = {birth="3025.1.1"}
	3041.1.1 = {add_spouse=318200}
	3049.1.1 = {death = {death_reason = death_dungeon}}
}
317200 = {
	name="Genna"	# Quelion's daughter, not a lord
	female=yes
	dynasty=200

	religion="old_gods"
	culture="old_first_man"

	mother=402200
	father=321200

	3028.1.1 = {birth="3028.1.1"}
	3069.1.1 = {death="3069.1.1"}
}
316200 = {
	name="Josmyn"	# Quenten's son, not a lord
	dynasty=200

	religion="old_gods"
	culture="old_first_man"

	father=320200
	mother=4010200

	3036.1.1 = {birth="3036.1.1"}
	3053.1.1 = {death = {death_reason = death_accident}}
}
315200 = {
	name="Jocelyn"	# Quenten's daughter, not a lord
	female=yes
	dynasty=200

	religion="old_gods"
	culture="old_first_man"

	father=320200
	mother=4010200

	3040.1.1 = {birth="3040.1.1"}
	3057.1.1=  {
		add_trait="ill"
		death = { death_reason = death_trait }}
}
314200 = {
	name="Sebaston"	# Willem's son, a lord
	dynasty=200

	religion="old_gods"
	culture="old_first_man"

	father=318200
	mother=404200

	3049.1.1 = {birth="3049.1.1"}
	3065.1.1 = {add_trait="brave"}
	3104.1.1 = {death="3104.1.1"}
}
405200 = {
	name="Lythene"	# 
	female=yes

	religion="old_gods"
	culture="old_first_man"

	3050.1.1 = {birth="3050.1.1"}
	3068.1.1 = {add_spouse=314200}
	3112.1.1 = {death="3112.1.1"}
}
313200 = {
	name="Gareth"	# Sebaston's son, a lord
	dynasty=200

	religion="old_gods"
	culture="old_first_man"

	father=314200
	mother=405200

	3070.1.1 = {birth="3070.1.1"}
	3086.1.1 = {add_trait="brave"}
	3126.1.1 = {death="3126.1.1"}
}
312200 = {
	name="Myriella"	# Sebaston's daughter, not a lord
	female=yes
	dynasty=200

	religion="old_gods"
	culture="old_first_man"

	father=314200
	mother=405200

	3073.1.1 = {birth="3073.1.1"}
	3132.1.1 = {death="3132.1.1"}
}
311200 = {
	name="Damon"	# Sebaston's son, not a lord
	dynasty=200

	religion="old_gods"
	culture="old_first_man"

	father=314200
	mother=405200

	3079.1.1 = {birth="3079.1.1"}
	3095.1.1 = {add_trait="brave"}
	3101.1.1 = {death = {death_reason = death_battle}}
}
406200 = {
	name="Mellara"	# 
	female=yes

	religion="old_gods"
	culture="old_first_man"

	3068.1.1 = {birth="3068.1.1"}
	3086.1.1 = {add_spouse=313200}
	3123.1.1 = {death="3123.1.1"}
}
310200 = {
	name="Quenten"	# Gareth's son, a lord
	dynasty=200

	religion="old_gods"
	culture="old_first_man"

	father=313200
	mother=406200

	3089.1.1 = {birth="3089.1.1"}
	3105.1.1 = {add_trait="brave"}
	3129.1.1 = {death = {death_reason = death_battle}}
}
407200 = {
	name="Sarra"	# 
	female=yes

	religion="old_gods"
	culture="old_first_man"

	3091.1.1 = {birth="3091.1.1"}
	3109.1.1 = {add_spouse=310200}
	3141.1.1 = {death="3141.1.1"}
}
309200 = {
	name="Symond"	# Gareth's son, not a lord
	dynasty=200

	religion="old_gods"
	culture="old_first_man"

	father=313200
	mother=406200

	3092.1.1 = {birth="3092.1.1"}
	3108.1.1 = {add_trait="brave"}
	3130.1.1 = {death = {death_reason = death_battle}}
}
308200 = {
	name="Willis"	# Gareth's son, not a lord
	dynasty=200

	religion="old_gods"
	culture="old_first_man"

	father=313200
	mother=406200

	3095.1.1 = {birth="3095.1.1"}
	3111.1.1 = {add_trait="brave"}
	3154.1.1 = {death="3154.1.1"}
}
307200 = {
	name="Josmyn"	# Quenten's son, not a lord
	dynasty=200

	religion="old_gods"
	culture="old_first_man"

	father=310200
	mother=407200

	3106.1.1 = {birth="3106.1.1"}
	3117.1.1=  {
		add_trait="ill"
		death = { death_reason = death_trait }}
}
306200 = {
	name="Jaime"	# Quenten's son, a lord
	dynasty=200

	religion="old_gods"
	culture="old_first_man"

	father=310200
	mother=407200

	3108.1.1 = {birth="3108.1.1"}
	3124.1.1 = {add_trait="brave"}
	3181.1.1 = {death="3181.1.1"}
}
408200 = {
	name="Dorcas"	# 
	female=yes

	religion="old_gods"
	culture="old_first_man"

	3110.1.1 = {birth="3110.1.1"}
	3128.1.1 = {add_spouse=306200}
	3177.1.1 = {death="3177.1.1"}
}
305200 = {
	name="Quenten"	# Jaime's son, a lord
	dynasty=200

	religion="old_gods"
	culture="old_first_man"

	father=306200

	3131.1.1 = {birth="3131.1.1"}
	3147.1.1 = {add_trait="brave"}
	3196.1.1 = {death = {death_reason = death_battle}}
}
304200 = {
	name="Jocelyn"	# Jaime's daughter, not a lord
	female=yes
	dynasty=200

	religion="old_gods"
	culture="old_first_man"

	father=306200

	3132.1.1 = {birth="3132.1.1"}
	3146.1.1 =  {add_trait="ill" 
	         death = { death_reason = death_trait }}
}
303200 = {
	name="Joanna"	# Jaime's daughter, not a lord
	female=yes
	dynasty=200

	religion="old_gods"
	culture="old_first_man"

	father=306200

	3135.1.1 = {birth="3135.1.1"}
	3158.1.1 = {death = {death_reason = death_dungeon}}
}
302200 = {
	name="Donella"	# Jaime's daughter, not a lord
	female=yes
	dynasty=200

	religion="old_gods"
	culture="old_first_man"

	father=306200

	3139.1.1 = {birth="3139.1.1"}
	3201.1.1 = {death="3201.1.1"}
}
301200 = {
	name="Jaime"	# Quenten's son, a lord
	dynasty=200

	religion="old_gods"
	culture="old_first_man"

	father=305200
	mother=408200

	3152.1.1 = {birth="3152.1.1"}
	3168.1.1 = {add_trait="brave"}
	3170.1.1 = {add_spouse=409200}
	3203.1.1 = {death="3203.1.1"}
}
326200 = {
	name="Gerion"	# Quenten's son, not a lord
	dynasty=200

	religion="old_gods"
	culture="old_first_man"

	father=305200
	mother=408200

	3156.1.1 = {birth="3156.1.1"}
	3173.1.1 = {death = {death_reason = death_accident}}
}
409200 = {
	name="Liane"	# 
	female=yes

	religion="old_gods"
	culture="old_first_man"

	3150.1.1 = {birth="3150.1.1"}
	3210.1.1 =  {
		add_trait="ill"
		death = { death_reason = death_trait }}
}
327200 = {
	name="Gerion"	# Jaime's son, a lord
	dynasty=200

	religion="old_gods"
	culture="old_first_man"

	mother=409200
	father=301200

	3174.1.1 = {birth="3174.1.1"}
	3190.1.1 = {add_trait="brave"}
	3221.1.1 = {death="3221.1.1"}
}
328200 = {
	name="Donella"	# Jaime's daughter, not a lord
	female=yes
	dynasty=200

	religion="old_gods"
	culture="old_first_man"

	mother=409200
	father=301200

	3175.1.1 = {birth="3175.1.1"}
	3211.1.9=  {
		add_trait="has_bubonic_plague"
		death = { death_reason = death_trait } # Died in the Great Spring Sickness
	}
}
410200 = {
	name="Shierle"	# 
	female=yes

	religion="old_gods"
	culture="old_first_man"

	3172.1.1 = {birth="3172.1.1"}
	3190.1.1 = {add_spouse=327200}
	3212.2.8=  {
		add_trait="has_bubonic_plague"
		death = { death_reason = death_trait } # Died in the Great Spring Sickness
	}
}
329200 = {
	name="Symond"	# Gerion's son, not a lord
	dynasty=200

	religion="old_gods"
	culture="old_first_man"

	mother=410200
	father=327200

	3195.1.1 = {birth="3195.1.1"}
	3197.1.1 =  {
		add_trait="ill"
		death = { death_reason = death_trait }}
}
330200 = {
	name="Lyana"	# Gerion's daughter, not a lord
	female=yes
	dynasty=200

	religion="old_gods"
	culture="old_first_man"

	mother=410200
	father=327200

	3199.1.1 = {birth="3199.1.1"}
	3218.1.1 = {death = {death_reason = death_dungeon}}
}
331200 = {
	name="Sebaston"	# Gerion's son, a lord
	dynasty=200

	religion="old_gods"
	culture="old_first_man"

	mother=410200
	father=327200

	3201.1.1 = {birth="3201.1.1"}
	3217.1.1 = {add_trait="brave"}
	3260.1.1 = {death="3260.1.1"}
}
411200 = {
	name="Rohanne"	# 
	female=yes

	religion="old_gods"
	culture="old_first_man"

	3200.1.1 = {birth="3200.1.1"}
	3218.1.1 = {add_spouse=331200}
	3264.1.1 = {death="3264.1.1"}
}
332200 = {
	name="Symond"	# Sebaston's son, not a lord
	dynasty=200

	religion="old_gods"
	culture="old_first_man"

	mother=411200
	father=331200

	3219.1.1 = {birth="3219.1.1"}
	3231.1.1 =  {
		add_trait="ill"
		death = { death_reason = death_trait }}
}
300200 = {
	name="Kevan"	# Sebaston's son, not a lord
	dynasty=200

	religion="old_gods"
	culture="old_first_man"

	mother=411200
	father=331200

	3223.1.1 = {birth="3223.1.1"}
	3259.1.1 = {death = {death_reason = death_battle}}
}


################################################################  House Kenning  #######################################################################

150195 = {
	name="Herrock"	#  Founder
	dynasty=195	

	religion="drowned_god"
	culture="old_ironborn"
	
	martial=9
	
	add_trait=strong
	add_trait=brave 
	add_trait=ambitious
	add_trait=deceitful
	add_trait=master_warrior
	add_trait=tough_soldier
	
	give_nickname=nick_the_whoreson
	
	father = 150115
	
	290.1.1 = {birth="290.1.1"}
	347.1.1 = {death="347.1.1"}
}
151195 = {
	name="Line of Herrock"	
	dynasty=195	

	religion="old_gods"	
	culture="old_first_man"
	
	occluded = yes
	
	father = 150195
	
	347.1.1 = {birth="347.1.1"}
	2867.1.1 = {death="2867.1.1"}
}


315195 = {		
	name="Herrock" # a Lord.
	dynasty=195	

	religion="old_gods"	
	culture="old_first_man"
	
	father=151195
	
	2867.1.1 = {birth="2867.1.1"}
	2878.1.1 = {add_trait="trained_warrior"}
	2905.1.1 = {death="2905.1.1"}
}
314195 = {		
	name="Dagmer" # Lord.
	dynasty=195	

	religion="old_gods"	
	culture="old_first_man"
	
	father=315195
		
	
	2882.1.1 = {birth="2882.1.1"}
	2898.1.1 = {add_trait="trained_warrior"}
	2945.1.1 = {death="2945.1.1"}
}
313195 = {		
	name="Balon" # Lord.
	dynasty=195	

	religion="old_gods"	
	culture="old_first_man"
	
	father=314195
		
	
	2901.1.1 = {birth="2901.1.1"}
	2917.1.1 = {add_trait="skilled_warrior"}
	2975.1.1 = {death="2975.1.1"}
}
312195 = {		
	name="Lorren" # Lord.
	dynasty=195	

	religion="old_gods"	
	culture="old_first_man"
	
	father=313195
		
	
	2939.1.1 = {birth="2939.1.1"}
	2955.1.1 = {add_trait="skilled_warrior"}
	2982.1.1 = {death="2982.1.1"}
}
311195 = {		
	name="Quellon" # Lord.
	dynasty=195	

	religion="old_gods"	
	culture="old_first_man"
	father=312195	
	
	2962.1.1 = {birth="2962.1.1"}
	2978.1.1 = {add_trait="trained_warrior"}
	2980.1.1 = {add_spouse=6000195}
	2985.1.7 = {add_trait="brave"}
	2998.6.6 = {death= {death_reason = death_battle} } 
}
6000195 = {		
	name="Lanna" # Lord.
	female=yes
	

	religion="old_gods"	
	culture="old_first_man"
	
	
	2964.1.1 = {birth="2964.1.1"}
	3025.1.1 = {death="3025.1.1"}
}
310195 = {		
	name="Tymor" # Lord.
	dynasty=195	

	religion="old_gods"	
	culture="old_first_man"
	
	father=311195	
	mother=6000195
	
	2982.1.1 = {birth="2982.1.1"}
	2998.1.1 = {add_trait="brave"}
	3036.1.1 = {death="3036.1.1"}
}
5000195 = {		
	name="Loren" # Lord.
	dynasty=195	

	religion="old_gods"	
	culture="old_first_man"
	
	father=311195
	mother=6000195
	
	
	2986.1.1 = {birth="2986.1.1"}
	3002.1.1 = {add_trait="brave"}
	3048.1.1 = {death="3048.1.1"}
}
5001195 = {		
	name="Yvonne" # Lord.
	dynasty=195	
	female=yes

	religion="old_gods"	
	culture="old_first_man"
	
	father=311195
	mother=6000195
	
	
	2987.1.1 = {birth="2987.1.1"}
	3063.1.1 = {death="3063.1.1"}
}
309195 = {		
	name="Gevin" # Lord.
	dynasty=195	

	religion="old_gods"	
	culture="old_first_man"	
	father=310195
	
	3012.1.1 = {birth="3012.1.1"}
	3028.1.1 = {add_trait="brave"}
	3040.1.1 = {death= {death_reason = death_battle} }
} 
308195 = {		
	name="Amrode" # Lord.
	dynasty=195	

	religion="old_gods"	
	culture="old_first_man"	
	father=309195	
	
	3038.1.1 = {birth="3038.1.1"}
	3054.1.1 = {add_trait="brave"}
	3093.1.1 = {death="3093.1.1"}
}
307195 = {		
	name="Quenten" # Lord.
	dynasty=195	

	religion="old_gods"	
	culture="old_first_man"	
	father=308195	
	
	3065.1.1 = {birth="3065.1.1"}
	3081.1.1 = {add_trait="brave"}
	3116.1.1 = {death="3116.1.1"}
}
306195 = {		
	name="Ilyn" # Lord.
	dynasty=195	

	religion="old_gods"	
	culture="old_first_man"	
	father=307195	
	
	3098.1.1 = {birth="3098.1.1"}
	3114.1.1 = {add_trait="brave"}
	3129.4.9 = {death= {death_reason = death_battle} }
}
305195 = {		
	name="Andros" # Lord.
	dynasty=195	

	religion="old_gods"	
	culture="old_first_man"	
	father=306195
		
	
	3121.1.1 = {birth="3121.1.1"}
	3137.1.1 = {add_trait="brave"}
	3173.1.1 = {death="3173.1.1"}
}
304195 = {		
	name="Terrence" # Lord.
	dynasty=195	

	religion="old_gods"	
	culture="old_first_man"	
	father=305195
		
	
	3148.1.1 = {birth="3148.1.1"}
	3164.1.1 = {add_trait="brave"}
	3196.5.5 = {death= {death_reason = death_battle} }
}
303195 = {		
	name="Alyn" # Lord.
	dynasty=195	

	religion="old_gods"	
	culture="old_first_man"	
	father=304195
		
	
	3171.1.1 = {birth="3171.1.1"}
	3187.1.1 = {add_trait="brave"}
	3236.1.1 = {death="3236.1.1"}
}
302195 = {		
	name="Josmyn" # Lord.
	dynasty=195	

	religion="old_gods"	
	culture="old_first_man"	
	father=303195
		
	
	3190.1.1 = {birth="3190.1.1"}
	3206.1.1 = {add_trait="brave"}

	3261.1.1 = {death="3261.1.1"}
}
301195 = {		
	name="Ilyn" # Ser. Didn't become Lord.
	dynasty=195	

	religion="old_gods"	
	culture="old_first_man"
	father=302195
		
	
	3215.1.1 = {birth="3215.1.1"}
	3231.1.1 = {add_trait="brave"}
	3259.3.5 = {death= {death_reason = death_battle} }
}
300195 = {		
	name="Pallyn" # Lord.
	dynasty=195	

	religion="old_gods"	
	culture="old_first_man"	
	father=301195
	
	
	3237.1.1 = {birth="3237.1.1"}
	3253.1.1 = {add_trait="brave"}
	3273.1.1 = {death="3273.1.1"}
}
