## Non-Canon Hedge Knights Dynasties
## HK North (201k+)
201000 = {
	name="Ansot"
	culture = northman can_appear = no
	coat_of_arms = {
		template = 0
		layer = {
			texture = 14
			texture_internal = 11
			emblem = 0
			color = 0
			color = 0
			color = 0
		}
	}
}
201001 = {
	name="Bolde"
	culture = northman can_appear = no
	coat_of_arms = {
		template = 0
		layer = {
			texture = 14
			texture_internal = 12
			emblem = 0
			color = 0
			color = 0
			color = 0
		}
	}
}
201002 = {
	name="Cairn"
	culture = northman can_appear = no
	coat_of_arms = {
		template = 0
		layer = {
			texture = 14
			texture_internal = 13
			emblem = 0
			color = 0
			color = 0
			color = 0
		}
	}
}
201003 = {
	name="Grove"
	culture = northman can_appear = no
	coat_of_arms = {
		template = 0
		layer = {
			texture = 14
			texture_internal = 14
			emblem = 0
			color = 0
			color = 0
			color = 0
		}
	}
}
201004 = {
	name="Holt"
	culture = northman can_appear = no
	coat_of_arms = {
		template = 0
		layer = {
			texture = 14
			texture_internal = 15
			emblem = 0
			color = 0
			color = 0
			color = 0
		}
	}
}
201005 = {
	name="Lythe"
	culture = northman can_appear = no
	coat_of_arms = {
		template = 0
		layer = {
			texture = 14
			texture_internal = 16
			emblem = 0
			color = 0
			color = 0
			color = 0
		}
	}
}
201006 = {
	name="Sward"
	culture = northman can_appear = no
	coat_of_arms = {
		template = 0
		layer = {
			texture = 14
			texture_internal = 17
			emblem = 0
			color = 0
			color = 0
			color = 0
		}
	}
}
201007 = {
	name="Dart"
	culture = northman can_appear = no
	coat_of_arms = {
		template = 0
		layer = {
			texture = 15
			texture_internal = 60
			emblem = 0
			color = 0
			color = 0
			color = 0
		}
	}
}
201008 = {
	name="Brockett"
	culture = northman can_appear = no
	coat_of_arms = {
		template = 0
		layer = {
			texture = 16
			texture_internal = 1
			emblem = 0
			color = 0
			color = 0
			color = 0
		}
	}
}
201009 = {
	name="Gist"
	culture = northman can_appear = no
	coat_of_arms = {
		template = 0
		layer = {
			texture = 16
			texture_internal = 2
			emblem = 0
			color = 0
			color = 0
			color = 0
		}
	}
}
201010 = {
	name="Hoggart"
	culture = northman can_appear = no
	coat_of_arms = {
		template = 0
		layer = {
			texture = 16
			texture_internal = 3
			emblem = 0
			color = 0
			color = 0
			color = 0
		}
	}
}
201011 = {
	name="Hudes"
	culture = northman can_appear = no
	coat_of_arms = {
		template = 0
		layer = {
			texture = 16
			texture_internal = 4
			emblem = 0
			color = 0
			color = 0
			color = 0
		}
	}
}
201012 = {
	name="Quinnpass"
	culture = northman can_appear = no
	coat_of_arms = {
		template = 0
		layer = {
			texture = 16
			texture_internal = 5
			emblem = 0
			color = 0
			color = 0
			color = 0
		}
	}
}
201013 = {
	name="Pace"
	culture = northman can_appear = no
	coat_of_arms = {
		template = 0
		layer = {
			texture = 16
			texture_internal = 6
			emblem = 0
			color = 0
			color = 0
			color = 0
		}
	}
}
201014 = {
	name="Storer"
	culture = northman can_appear = no
	coat_of_arms = {
		template = 0
		layer = {
			texture = 16
			texture_internal = 7
			emblem = 0
			color = 0
			color = 0
			color = 0
		}
	}
}
201015 = {
	name="Andle"
	culture = northman can_appear = no
	coat_of_arms = {
		template = 0
		layer = {
			texture = 17
			texture_internal = 8
			emblem = 0
			color = 0
			color = 0
			color = 0
		}
	}
}
201016 = {
	name="Bain"
	culture = northman can_appear = no
	coat_of_arms = {
		template = 0
		layer = {
			texture = 17
			texture_internal = 9
			emblem = 0
			color = 0
			color = 0
			color = 0
		}
	}
}
201017 = {
	name="Capp"
	culture = northman can_appear = no
	coat_of_arms = {
		template = 0
		layer = {
			texture = 17
			texture_internal = 10
			emblem = 0
			color = 0
			color = 0
			color = 0
		}
	}
}
201018 = {
	name="Clyff"
	culture = northman can_appear = no
	coat_of_arms = {
		template = 0
		layer = {
			texture = 17
			texture_internal = 11
			emblem = 0
			color = 0
			color = 0
			color = 0
		}
	}
}
201019 = {
	name="Cowl"
	culture = northman can_appear = no
	coat_of_arms = {
		template = 0
		layer = {
			texture = 17
			texture_internal = 12
			emblem = 0
			color = 0
			color = 0
			color = 0
		}
	}
}
201020 = {
	name="Dirk"
	culture = northman can_appear = no
	coat_of_arms = {
		template = 0
		layer = {
			texture = 17
			texture_internal = 13
			emblem = 0
			color = 0
			color = 0
			color = 0
		}
	}
}
201021 = {
	name="Flyte"
	culture = northman can_appear = no
	coat_of_arms = {
		template = 0
		layer = {
			texture = 17
			texture_internal = 14
			emblem = 0
			color = 0
			color = 0
			color = 0
		}
	}
}
201022 = {
	name="Gale"
	culture = northman can_appear = no
	coat_of_arms = {
		template = 0
		layer = {
			texture = 17
			texture_internal = 15
			emblem = 0
			color = 0
			color = 0
			color = 0
		}
	}
}
201023 = {
	name="Laigh"
	culture = northman can_appear = no
	coat_of_arms = {
		template = 0
		layer = {
			texture = 17
			texture_internal = 16
			emblem = 0
			color = 0
			color = 0
			color = 0
		}
	}
}
201024 = {
	name="Twigg"
	culture = northman can_appear = no
	coat_of_arms = {
		template = 0
		layer = {
			texture = 17
			texture_internal = 17
			emblem = 0
			color = 0
			color = 0
			color = 0
		}
	}
}
201025 = {
	name="Clulow"
	culture = northman can_appear = no
	coat_of_arms = {
		template = 0
		layer = {
			texture = 17
			texture_internal = 58
			emblem = 0
			color = 0
			color = 0
			color = 0
		}
	}
}
201026 = {
	name="Short"
	culture = northman can_appear = no
	coat_of_arms = {
		template = 0
		layer = {
			texture = 17
			texture_internal = 59
			emblem = 0
			color = 0
			color = 0
			color = 0
		}
	}
}




##Riverlands(202k+)
202000 = {
	name="Athyscross"
	culture = riverlander can_appear = no
	coat_of_arms = {
		template = 0
		layer = {
			texture = 14
			texture_internal = 18
			emblem = 0
			color = 0
			color = 0
			color = 0
		}
	}
}
202001 = {
	name="Aldford"
	culture = riverlander can_appear = no
	coat_of_arms = {
		template = 0
		layer = {
			texture = 14
			texture_internal = 19
			emblem = 0
			color = 0
			color = 0
			color = 0
		}
	}
}
202002 = {
	name="Baudryck"
	culture = riverlander can_appear = no
	coat_of_arms = {
		template = 0
		layer = {
			texture = 14
			texture_internal = 20
			emblem = 0
			color = 0
			color = 0
			color = 0
		}
	}
}
202003 = {
	name="Billett"
	culture = riverlander can_appear = no
	coat_of_arms = {
		template = 0
		layer = {
			texture = 14
			texture_internal = 21
			emblem = 0
			color = 0
			color = 0
			color = 0
		}
	}
}
202004 = {
	name="Corre"
	culture = riverlander can_appear = no
	coat_of_arms = {
		template = 0
		layer = {
			texture = 14
			texture_internal = 22
			emblem = 0
			color = 0
			color = 0
			color = 0
		}
	}
}
202005 = {
	name="Erregsford"
	culture = riverlander can_appear = no
	coat_of_arms = {
		template = 0
		layer = {
			texture = 14
			texture_internal = 23
			emblem = 0
			color = 0
			color = 0
			color = 0
		}
	}
}
202006 = {
	name="Goswell"
	culture = riverlander can_appear = no
	coat_of_arms = {
		template = 0
		layer = {
			texture = 14
			texture_internal = 24
			emblem = 0
			color = 0
			color = 0
			color = 0
		}
	}
}
202007 = {
	name="Harper"
	culture = riverlander can_appear = no
	coat_of_arms = {
		template = 0
		layer = {
			texture = 14
			texture_internal = 25
			emblem = 0
			color = 0
			color = 0
			color = 0
		}
	}
}
202008 = {
	name="Haswell"
	culture = riverlander can_appear = no
	coat_of_arms = {
		template = 0
		layer = {
			texture = 14
			texture_internal = 26
			emblem = 0
			color = 0
			color = 0
			color = 0
		}
	}
}
202009 = {
	name="Legnes"
	culture = riverlander can_appear = no
	coat_of_arms = {
		template = 0
		layer = {
			texture = 14
			texture_internal = 27
			emblem = 0
			color = 0
			color = 0
			color = 0
		}
	}
}
202010 = {
	name="Lymm"
	culture = riverlander can_appear = no
	coat_of_arms = {
		template = 0
		layer = {
			texture = 14
			texture_internal = 28
			emblem = 0
			color = 0
			color = 0
			color = 0
		}
	}
}
202011 = {
	name="Mellor"
	culture = riverlander can_appear = no
	coat_of_arms = {
		template = 0
		layer = {
			texture = 14
			texture_internal = 29
			emblem = 0
			color = 0
			color = 0
			color = 0
		}
	}
}
202012 = {
	name="Reeve"
	culture = riverlander can_appear = no
	coat_of_arms = {
		template = 0
		layer = {
			texture = 14
			texture_internal = 30
			emblem = 0
			color = 0
			color = 0
			color = 0
		}
	}
}
202013 = {
	name="Steadman"
	culture = riverlander can_appear = no
	coat_of_arms = {
		template = 0
		layer = {
			texture = 14
			texture_internal = 31
			emblem = 0
			color = 0
			color = 0
			color = 0
		}
	}
}
202014 = {
	name="Ameland"
	culture = riverlander can_appear = no
	coat_of_arms = {
		template = 0
		layer = {
			texture = 14
			texture_internal = 65
			emblem = 0
			color = 0
			color = 0
			color = 0
		}
	}
}
202015 = {
	name="Cerwych"
	culture = riverlander can_appear = no
	coat_of_arms = {
		template = 0
		layer = {
			texture = 14
			texture_internal = 66
			emblem = 0
			color = 0
			color = 0
			color = 0
		}
	}
}
202016 = {
	name="Learmont"
	culture = riverlander can_appear = no
	coat_of_arms = {
		template = 0
		layer = {
			texture = 14
			texture_internal = 67
			emblem = 0
			color = 0
			color = 0
			color = 0
		}
	}
}
202017 = {
	name="Piggsford"
	culture = riverlander can_appear = no
	coat_of_arms = {
		template = 0
		layer = {
			texture = 14
			texture_internal = 68
			emblem = 0
			color = 0
			color = 0
			color = 0
		}
	}
}
202018 = {
	name="Shawe"
	culture = riverlander can_appear = no
	coat_of_arms = {
		template = 0
		layer = {
			texture = 14
			texture_internal = 69
			emblem = 0
			color = 0
			color = 0
			color = 0
		}
	}
}
202019 = {
	name="Braewode"
	culture = riverlander can_appear = no
	coat_of_arms = {
		template = 0
		layer = {
			texture = 15
			texture_internal = 61
			emblem = 0
			color = 0
			color = 0
			color = 0
		}
	}
}
202020 = {
	name="Averford"
	culture = riverlander can_appear = no
	coat_of_arms = {
		template = 0
		layer = {
			texture = 16
			texture_internal = 8
			emblem = 0
			color = 0
			color = 0
			color = 0
		}
	}
}
202021 = {
	name="Beroy"
	culture = riverlander can_appear = no
	coat_of_arms = {
		template = 0
		layer = {
			texture = 16
			texture_internal = 9
			emblem = 0
			color = 0
			color = 0
			color = 0
		}
	}
}
202022 = {
	name="Brynland"
	culture = riverlander can_appear = no
	coat_of_arms = {
		template = 0
		layer = {
			texture = 16
			texture_internal = 10
			emblem = 0
			color = 0
			color = 0
			color = 0
		}
	}
}
202023 = {
	name="Chatburn"
	culture = riverlander can_appear = no
	coat_of_arms = {
		template = 0
		layer = {
			texture = 16
			texture_internal = 11
			emblem = 0
			color = 0
			color = 0
			color = 0
		}
	}
}
202024 = {
	name="Gallen"
	culture = riverlander can_appear = no
	coat_of_arms = {
		template = 0
		layer = {
			texture = 16
			texture_internal = 12
			emblem = 0
			color = 0
			color = 0
			color = 0
		}
	}
}
202025 = {
	name="Lodel"
	culture = riverlander can_appear = no
	coat_of_arms = {
		template = 0
		layer = {
			texture = 16
			texture_internal = 13
			emblem = 0
			color = 0
			color = 0
			color = 0
		}
	}
}
202026 = {
	name="Partton"
	culture = riverlander can_appear = no
	coat_of_arms = {
		template = 0
		layer = {
			texture = 16
			texture_internal = 14
			emblem = 0
			color = 0
			color = 0
			color = 0
		}
	}
}
202027 = {
	name="Yates"
	culture = riverlander can_appear = no
	coat_of_arms = {
		template = 0
		layer = {
			texture = 16
			texture_internal = 15
			emblem = 0
			color = 0
			color = 0
			color = 0
		}
	}
}
202028 = {
	name="Acton"
	culture = riverlander can_appear = no
	coat_of_arms = {
		template = 0
		layer = {
			texture = 17
			texture_internal = 18
			emblem = 0
			color = 0
			color = 0
			color = 0
		}
	}
}
202029 = {
	name="Collyer"
	culture = riverlander can_appear = no
	coat_of_arms = {
		template = 0
		layer = {
			texture = 17
			texture_internal = 19
			emblem = 0
			color = 0
			color = 0
			color = 0
		}
	}
}
202030 = {
	name="Gelding"
	culture = riverlander can_appear = no
	coat_of_arms = {
		template = 0
		layer = {
			texture = 17
			texture_internal = 20
			emblem = 0
			color = 0
			color = 0
			color = 0
		}
	}
}
202031 = {
	name="Harwyndrell"
	culture = riverlander can_appear = no
	coat_of_arms = {
		template = 0
		layer = {
			texture = 17
			texture_internal = 21
			emblem = 0
			color = 0
			color = 0
			color = 0
		}
	}
}
202032 = {
	name="Hotham"
	culture = riverlander can_appear = no
	coat_of_arms = {
		template = 0
		layer = {
			texture = 17
			texture_internal = 22
			emblem = 0
			color = 0
			color = 0
			color = 0
		}
	}
}
202033 = {
	name="Tabott"
	culture = riverlander can_appear = no
	coat_of_arms = {
		template = 0
		layer = {
			texture = 17
			texture_internal = 23
			emblem = 0
			color = 0
			color = 0
			color = 0
		}
	}
}
202034 = {
	name="Dowd"
	culture = riverlander can_appear = no
	coat_of_arms = {
		template = 0
		layer = {
			texture = 17
			texture_internal = 60
			emblem = 0
			color = 0
			color = 0
			color = 0
		}
	}
}
202035 = {
	name="Marlock"
	culture = riverlander can_appear = no
	coat_of_arms = {
		template = 0
		layer = {
			texture = 17
			texture_internal = 61
			emblem = 0
			color = 0
			color = 0
			color = 0
		}
	}
}
202036 = {
	name="Stanley"
	culture = riverlander can_appear = no
	coat_of_arms = {
		template = 0
		layer = {
			texture = 17
			texture_internal = 62
			emblem = 0
			color = 0
			color = 0
			color = 0
		}
	}
}
202037 = {
	name="Wilkowe"
	culture = riverlander can_appear = no
	coat_of_arms = {
		template = 0
		layer = {
			texture = 17
			texture_internal = 63
			emblem = 0
			color = 0
			color = 0
			color = 0
		}
	}
}




## HK Vale (203k+)
203000 = {
	name="Aurell"
	culture = valeman can_appear = no
	coat_of_arms = {
		template = 0
		layer = {
			texture = 14
			texture_internal = 32
			emblem = 0
			color = 0
			color = 0
			color = 0
		}
	}
}
203001 = {
	name="Alderman"
	culture = valeman can_appear = no
	coat_of_arms = {
		template = 0
		layer = {
			texture = 14
			texture_internal = 33
			emblem = 0
			color = 0
			color = 0
			color = 0
		}
	}
}
203002 = {
	name="Buntyngg"
	culture = valeman can_appear = no
	coat_of_arms = {
		template = 0
		layer = {
			texture = 14
			texture_internal = 34
			emblem = 0
			color = 0
			color = 0
			color = 0
		}
	}
}
203003 = {
	name="Brabyns"
	culture = valeman can_appear = no
	coat_of_arms = {
		template = 0
		layer = {
			texture = 14
			texture_internal = 35
			emblem = 0
			color = 0
			color = 0
			color = 0
		}
	}
}
203004 = {
	name="Bardel"
	culture = valeman can_appear = no
	coat_of_arms = {
		template = 0
		layer = {
			texture = 14
			texture_internal = 36
			emblem = 0
			color = 0
			color = 0
			color = 0
		}
	}
}
203005 = {
	name="Caskeld"
	culture = valeman can_appear = no
	coat_of_arms = {
		template = 0
		layer = {
			texture = 14
			texture_internal = 37
			emblem = 0
			color = 0
			color = 0
			color = 0
		}
	}
}
203006 = {
	name="Galehurst"
	culture = valeman can_appear = no
	coat_of_arms = {
		template = 0
		layer = {
			texture = 14
			texture_internal = 38
			emblem = 0
			color = 0
			color = 0
			color = 0
		}
	}
}
203007 = {
	name="Holyn"
	culture = valeman can_appear = no
	coat_of_arms = {
		template = 0
		layer = {
			texture = 14
			texture_internal = 39
			emblem = 0
			color = 0
			color = 0
			color = 0
		}
	}
}
203008 = {
	name="Marlheath"
	culture = valeman can_appear = no
	coat_of_arms = {
		template = 0
		layer = {
			texture = 14
			texture_internal = 40
			emblem = 0
			color = 0
			color = 0
			color = 0
		}
	}
}
203009 = {
	name="Rosburgh"
	culture = valeman can_appear = no
	coat_of_arms = {
		template = 0
		layer = {
			texture = 14
			texture_internal = 41
			emblem = 0
			color = 0
			color = 0
			color = 0
		}
	}
}
203010 = {
	name="Weygall"
	culture = valeman can_appear = no
	coat_of_arms = {
		template = 0
		layer = {
			texture = 14
			texture_internal = 42
			emblem = 0
			color = 0
			color = 0
			color = 0
		}
	}
}
203011 = {
	name="Comberly"
	culture = valeman can_appear = no
	coat_of_arms = {
		template = 0
		layer = {
			texture = 16
			texture_internal = 16
			emblem = 0
			color = 0
			color = 0
			color = 0
		}
	}
}
203012 = {
	name="Duncliffe"
	culture = valeman can_appear = no
	coat_of_arms = {
		template = 0
		layer = {
			texture = 16
			texture_internal = 17
			emblem = 0
			color = 0
			color = 0
			color = 0
		}
	}
}
203013 = {
	name="Eaglehardt"
	culture = valeman can_appear = no
	coat_of_arms = {
		template = 0
		layer = {
			texture = 16
			texture_internal = 18
			emblem = 0
			color = 0
			color = 0
			color = 0
		}
	}
}
203014 = {
	name="Keen"
	culture = valeman can_appear = no
	coat_of_arms = {
		template = 0
		layer = {
			texture = 16
			texture_internal = 19
			emblem = 0
			color = 0
			color = 0
			color = 0
		}
	}
}
203015 = {
	name="Kittenge"
	culture = valeman can_appear = no
	coat_of_arms = {
		template = 0
		layer = {
			texture = 16
			texture_internal = 20
			emblem = 0
			color = 0
			color = 0
			color = 0
		}
	}
}
203016 = {
	name="Mallett"
	culture = valeman can_appear = no
	coat_of_arms = {
		template = 0
		layer = {
			texture = 16
			texture_internal = 21
			emblem = 0
			color = 0
			color = 0
			color = 0
		}
	}
}
203017 = {
	name="Payncill"
	culture = valeman can_appear = no
	coat_of_arms = {
		template = 0
		layer = {
			texture = 16
			texture_internal = 22
			emblem = 0
			color = 0
			color = 0
			color = 0
		}
	}
}
203018 = {
	name="Pettclough"
	culture = valeman can_appear = no
	coat_of_arms = {
		template = 0
		layer = {
			texture = 16
			texture_internal = 23
			emblem = 0
			color = 0
			color = 0
			color = 0
		}
	}
}
203019 = {
	name="Whiteshore"
	culture = valeman can_appear = no
	coat_of_arms = {
		template = 0
		layer = {
			texture = 16
			texture_internal = 24
			emblem = 0
			color = 0
			color = 0
			color = 0
		}
	}
}
203020 = {
	name="Arden"
	culture = valeman can_appear = no
	coat_of_arms = {
		template = 0
		layer = {
			texture = 17
			texture_internal = 24
			emblem = 0
			color = 0
			color = 0
			color = 0
		}
	}
}
203021 = {
	name="Baligan"
	culture = valeman can_appear = no
	coat_of_arms = {
		template = 0
		layer = {
			texture = 17
			texture_internal = 25
			emblem = 0
			color = 0
			color = 0
			color = 0
		}
	}
}
203022 = {
	name="Hawkeslowe"
	culture = valeman can_appear = no
	coat_of_arms = {
		template = 0
		layer = {
			texture = 17
			texture_internal = 26
			emblem = 0
			color = 0
			color = 0
			color = 0
		}
	}
}
203023 = {
	name="Redesmere"
	culture = valeman can_appear = no
	coat_of_arms = {
		template = 0
		layer = {
			texture = 17
			texture_internal = 27
			emblem = 0
			color = 0
			color = 0
			color = 0
		}
	}
}
203024 = {
	name="Tendale"
	culture = valeman can_appear = no
	coat_of_arms = {
		template = 0
		layer = {
			texture = 17
			texture_internal = 28
			emblem = 0
			color = 0
			color = 0
			color = 0
		}
	}
}
203025 = {
	name="Thornycroft"
	culture = valeman can_appear = no
	coat_of_arms = {
		template = 0
		layer = {
			texture = 17
			texture_internal = 29
			emblem = 0
			color = 0
			color = 0
			color = 0
		}
	}
}
203026 = {
	name="Cerrick"
	culture = valeman can_appear = no
	coat_of_arms = {
		template = 0
		layer = {
			texture = 17
			texture_internal = 64
			emblem = 0
			color = 0
			color = 0
			color = 0
		}
	}
}
203027 = {
	name="Hugorston"
	culture = valeman can_appear = no
	coat_of_arms = {
		template = 0
		layer = {
			texture = 17
			texture_internal = 65
			emblem = 0
			color = 0
			color = 0
			color = 0
		}
	}
}
203028 = {
	name="Maynegorm"
	culture = valeman can_appear = no
	coat_of_arms = {
		template = 0
		layer = {
			texture = 17
			texture_internal = 66
			emblem = 0
			color = 0
			color = 0
			color = 0
		}
	}
}
203029 = {
	name="Underhill"
	culture = valeman can_appear = no
	coat_of_arms = {
		template = 0
		layer = {
			texture = 17
			texture_internal = 67
			emblem = 0
			color = 0
			color = 0
			color = 0
		}
	}
}
203030 = {
	name="Thanett"
	culture = valeman can_appear = no
	coat_of_arms = {
		template = 0
		layer = {
			texture = 18
			texture_internal = 67
			emblem = 0
			color = 0
			color = 0
			color = 0
		}
	}
}




## HK Crownlands (204k+)
204000 = {
	name="Ambray"
	culture = crownlander can_appear = no
	coat_of_arms = {
		template = 0
		layer = {
			texture = 14
			texture_internal = 43
			emblem = 0
			color = 0
			color = 0
			color = 0
		}
	}
}
204001 = {
	name="Archer"
	culture = crownlander can_appear = no
	coat_of_arms = {
		template = 0
		layer = {
			texture = 14
			texture_internal = 44
			emblem = 0
			color = 0
			color = 0
			color = 0
		}
	}
}
204002 = {
	name="Arrecstone"
	culture = crownlander can_appear = no
	coat_of_arms = {
		template = 0
		layer = {
			texture = 14
			texture_internal = 45
			emblem = 0
			color = 0
			color = 0
			color = 0
		}
	}
}
204003 = {
	name="Brandhill"
	culture = crownlander can_appear = no
	coat_of_arms = {
		template = 0
		layer = {
			texture = 14
			texture_internal = 46
			emblem = 0
			color = 0
			color = 0
			color = 0
		}
	}
}
204004 = {
	name="Bradshaw"
	culture = crownlander can_appear = no
	coat_of_arms = {
		template = 0
		layer = {
			texture = 14
			texture_internal = 47
			emblem = 0
			color = 0
			color = 0
			color = 0
		}
	}
}
204005 = {
	name="Bullen"
	culture = crownlander can_appear = no
	coat_of_arms = {
		template = 0
		layer = {
			texture = 14
			texture_internal = 48
			emblem = 0
			color = 0
			color = 0
			color = 0
		}
	}
}
204006 = {
	name="Bridgewater"
	culture = crownlander can_appear = no
	coat_of_arms = {
		template = 0
		layer = {
			texture = 14
			texture_internal = 49
			emblem = 0
			color = 0
			color = 0
			color = 0
		}
	}
}
204007 = {
	name="Boteler"
	culture = crownlander can_appear = no
	coat_of_arms = {
		template = 0
		layer = {
			texture = 14
			texture_internal = 50
			emblem = 0
			color = 0
			color = 0
			color = 0
		}
	}
}
204008 = {
	name="Butcher"
	culture = crownlander can_appear = no
	coat_of_arms = {
		template = 0
		layer = {
			texture = 14
			texture_internal = 51
			emblem = 0
			color = 0
			color = 0
			color = 0
		}
	}
}
204009 = {
	name="Caladryon"
	culture = crownlander can_appear = no
	coat_of_arms = {
		template = 0
		layer = {
			texture = 14
			texture_internal = 52
			emblem = 0
			color = 0
			color = 0
			color = 0
		}
	}
}
204010 = {
	name="Dromegar"
	culture = crownlander can_appear = no
	coat_of_arms = {
		template = 0
		layer = {
			texture = 14
			texture_internal = 53
			emblem = 0
			color = 0
			color = 0
			color = 0
		}
	}
}
204011 = {
	name="Dyer"
	culture = crownlander can_appear = no
	coat_of_arms = {
		template = 0
		layer = {
			texture = 14
			texture_internal = 54
			emblem = 0
			color = 0
			color = 0
			color = 0
		}
	}
}
204012 = {
	name="Gullet"
	culture = crownlander can_appear = no
	coat_of_arms = {
		template = 0
		layer = {
			texture = 14
			texture_internal = 55
			emblem = 0
			color = 0
			color = 0
			color = 0
		}
	}
}
204013 = {
	name="Higgins"
	culture = crownlander can_appear = no
	coat_of_arms = {
		template = 0
		layer = {
			texture = 14
			texture_internal = 56
			emblem = 0
			color = 0
			color = 0
			color = 0
		}
	}
}
204014 = {
	name="Longshore"
	culture = crownlander can_appear = no
	coat_of_arms = {
		template = 0
		layer = {
			texture = 14
			texture_internal = 57
			emblem = 0
			color = 0
			color = 0
			color = 0
		}
	}
}
204015 = {
	name="Nottinbury"
	culture = crownlander can_appear = no
	coat_of_arms = {
		template = 0
		layer = {
			texture = 14
			texture_internal = 58
			emblem = 0
			color = 0
			color = 0
			color = 0
		}
	}
}
204016 = {
	name="Saddler"
	culture = crownlander can_appear = no
	coat_of_arms = {
		template = 0
		layer = {
			texture = 14
			texture_internal = 59
			emblem = 0
			color = 0
			color = 0
			color = 0
		}
	}
}
204017 = {
	name="Stibbs"
	culture = crownlander can_appear = no
	coat_of_arms = {
		template = 0
		layer = {
			texture = 14
			texture_internal = 60
			emblem = 0
			color = 0
			color = 0
			color = 0
		}
	}
}
204018 = {
	name="Tidemarsh"
	culture = crownlander can_appear = no
	coat_of_arms = {
		template = 0
		layer = {
			texture = 14
			texture_internal = 61
			emblem = 0
			color = 0
			color = 0
			color = 0
		}
	}
}
204019 = {
	name="Treadwyleh"
	culture = crownlander can_appear = no
	coat_of_arms = {
		template = 0
		layer = {
			texture = 14
			texture_internal = 62
			emblem = 0
			color = 0
			color = 0
			color = 0
		}
	}
}
204020 = {
	name="Wytt"
	culture = crownlander can_appear = no
	coat_of_arms = {
		template = 0
		layer = {
			texture = 14
			texture_internal = 63
			emblem = 0
			color = 0
			color = 0
			color = 0
		}
	}
}
204021 = {
	name="Weddell"
	culture = crownlander can_appear = no
	coat_of_arms = {
		template = 0
		layer = {
			texture = 14
			texture_internal = 64
			emblem = 0
			color = 0
			color = 0
			color = 0
		}
	}
}
204022 = {
	name="Garriot"
	culture = crownlander can_appear = no
	coat_of_arms = {
		template = 0
		layer = {
			texture = 15
			texture_internal = 62
			emblem = 0
			color = 0
			color = 0
			color = 0
		}
	}
}
204023 = {
	name="Berkdye"
	culture = crownlander can_appear = no
	coat_of_arms = {
		template = 0
		layer = {
			texture = 16
			texture_internal = 35
			emblem = 0
			color = 0
			color = 0
			color = 0
		}
	}
}
204024 = {
	name="Brownhurst"
	culture = crownlander can_appear = no
	coat_of_arms = {
		template = 0
		layer = {
			texture = 16
			texture_internal = 36
			emblem = 0
			color = 0
			color = 0
			color = 0
		}
	}
}
204025 = {
	name="Cuperton"
	culture = crownlander can_appear = no
	coat_of_arms = {
		template = 0
		layer = {
			texture = 16
			texture_internal = 37
			emblem = 0
			color = 0
			color = 0
			color = 0
		}
	}
}
204026 = {
	name="Flacks"
	culture = crownlander can_appear = no
	coat_of_arms = {
		template = 0
		layer = {
			texture = 16
			texture_internal = 38
			emblem = 0
			color = 0
			color = 0
			color = 0
		}
	}
}
204027 = {
	name="Lazard"
	culture = crownlander can_appear = no
	coat_of_arms = {
		template = 0
		layer = {
			texture = 16
			texture_internal = 39
			emblem = 0
			color = 0
			color = 0
			color = 0
		}
	}
}
204028 = {
	name="Kanecock"
	culture = crownlander can_appear = no
	coat_of_arms = {
		template = 0
		layer = {
			texture = 16
			texture_internal = 40
			emblem = 0
			color = 0
			color = 0
			color = 0
		}
	}
}
204029 = {
	name="Patterson"
	culture = crownlander can_appear = no
	coat_of_arms = {
		template = 0
		layer = {
			texture = 16
			texture_internal = 41
			emblem = 0
			color = 0
			color = 0
			color = 0
		}
	}
}
204030 = {
	name="Scramton"
	culture = crownlander can_appear = no
	coat_of_arms = {
		template = 0
		layer = {
			texture = 16
			texture_internal = 42
			emblem = 0
			color = 0
			color = 0
			color = 0
		}
	}
}
204031 = {
	name="Spunt"
	culture = crownlander can_appear = no
	coat_of_arms = {
		template = 0
		layer = {
			texture = 16
			texture_internal = 43
			emblem = 0
			color = 0
			color = 0
			color = 0
		}
	}
}
204032 = {
	name="Bolt"
	culture = crownlander can_appear = no
	coat_of_arms = {
		template = 0
		layer = {
			texture = 17
			texture_internal = 30
			emblem = 0
			color = 0
			color = 0
			color = 0
		}
	}
}
204033 = {
	name="Ferryman"
	culture = crownlander can_appear = no
	coat_of_arms = {
		template = 0
		layer = {
			texture = 17
			texture_internal = 31
			emblem = 0
			color = 0
			color = 0
			color = 0
		}
	}
}
204034 = {
	name="Gidley"
	culture = crownlander can_appear = no
	coat_of_arms = {
		template = 0
		layer = {
			texture = 17
			texture_internal = 32
			emblem = 0
			color = 0
			color = 0
			color = 0
		}
	}
}
204035 = {
	name="Jerritt"
	culture = crownlander can_appear = no
	coat_of_arms = {
		template = 0
		layer = {
			texture = 17
			texture_internal = 33
			emblem = 0
			color = 0
			color = 0
			color = 0
		}
	}
}
204036 = {
	name="Worth"
	culture = crownlander can_appear = no
	coat_of_arms = {
		template = 0
		layer = {
			texture = 17
			texture_internal = 34
			emblem = 0
			color = 0
			color = 0
			color = 0
		}
	}
}
204037 = {
	name="Weirstone"
	culture = crownlander can_appear = no
	coat_of_arms = {
		template = 0
		layer = {
			texture = 17
			texture_internal = 35
			emblem = 0
			color = 0
			color = 0
			color = 0
		}
	}
}
204038 = {
	name="Burroughs"
	culture = crownlander can_appear = no
	coat_of_arms = {
		template = 0
		layer = {
			texture = 17
			texture_internal = 68
			emblem = 0
			color = 0
			color = 0
			color = 0
		}
	}
}
204039 = {
	name="Carver"
	culture = crownlander can_appear = no
	coat_of_arms = {
		template = 0
		layer = {
			texture = 17
			texture_internal = 69
			emblem = 0
			color = 0
			color = 0
			color = 0
		}
	}
}
204040 = {
	name="Dyrweald"
	culture = crownlander can_appear = no
	coat_of_arms = {
		template = 0
		layer = {
			texture = 18
			texture_internal = 0
			emblem = 0
			color = 0
			color = 0
			color = 0
		}
	}
}

## Westerlands (205k+)
205000 = {
	name="Abingdon"
	culture = westerman can_appear = no
	coat_of_arms = {
		template = 0
		layer = {
			texture = 15
			texture_internal = 0
			emblem = 0
			color = 0
			color = 0
			color = 0
		}
	}
}
205001 = {
	name="Bayfield"
	culture = westerman can_appear = no
	coat_of_arms = {
		template = 0
		layer = {
			texture = 15
			texture_internal = 1
			emblem = 0
			color = 0
			color = 0
			color = 0
		}
	}
}
205002 = {
	name="Boffard"
	culture = westerman can_appear = no
	coat_of_arms = {
		template = 0
		layer = {
			texture = 15
			texture_internal = 2
			emblem = 0
			color = 0
			color = 0
			color = 0
		}
	}
}
205003 = {
	name="Brimsley"
	culture = westerman can_appear = no
	coat_of_arms = {
		template = 0
		layer = {
			texture = 15
			texture_internal = 3
			emblem = 0
			color = 0
			color = 0
			color = 0
		}
	}
}
205004 = {
	name="Colmere"
	culture = westerman can_appear = no
	coat_of_arms = {
		template = 0
		layer = {
			texture = 15
			texture_internal = 4
			emblem = 0
			color = 0
			color = 0
			color = 0
		}
	}
}
205005 = {
	name="Elbrook"
	culture = westerman can_appear = no
	coat_of_arms = {
		template = 0
		layer = {
			texture = 15
			texture_internal = 5
			emblem = 0
			color = 0
			color = 0
			color = 0
		}
	}
}
205006 = {
	name="Finniss"
	culture = westerman can_appear = no
	coat_of_arms = {
		template = 0
		layer = {
			texture = 15
			texture_internal = 6
			emblem = 0
			color = 0
			color = 0
			color = 0
		}
	}
}
205007 = {
	name="Greycote"
	culture = westerman can_appear = no
	coat_of_arms = {
		template = 0
		layer = {
			texture = 15
			texture_internal = 7
			emblem = 0
			color = 0
			color = 0
			color = 0
		}
	}
}
205008 = {
	name="Garst"
	culture = westerman can_appear = no
	coat_of_arms = {
		template = 0
		layer = {
			texture = 15
			texture_internal = 8
			emblem = 0
			color = 0
			color = 0
			color = 0
		}
	}
}
205009 = {
	name="Galvayn"
	culture = westerman can_appear = no
	coat_of_arms = {
		template = 0
		layer = {
			texture = 15
			texture_internal = 9
			emblem = 0
			color = 0
			color = 0
			color = 0
		}
	}
}
205010 = {
	name="Harling"
	culture = westerman can_appear = no
	coat_of_arms = {
		template = 0
		layer = {
			texture = 15
			texture_internal = 10
			emblem = 0
			color = 0
			color = 0
			color = 0
		}
	}
}
205011 = {
	name="Hyde"
	culture = westerman can_appear = no
	coat_of_arms = {
		template = 0
		layer = {
			texture = 15
			texture_internal = 11
			emblem = 0
			color = 0
			color = 0
			color = 0
		}
	}
}
205012 = {
	name="Myner"
	culture = westerman can_appear = no
	coat_of_arms = {
		template = 0
		layer = {
			texture = 15
			texture_internal = 12
			emblem = 0
			color = 0
			color = 0
			color = 0
		}
	}
}
205013 = {
	name="Mauldeth"
	culture = westerman can_appear = no
	coat_of_arms = {
		template = 0
		layer = {
			texture = 15
			texture_internal = 13
			emblem = 0
			color = 0
			color = 0
			color = 0
		}
	}
}
205014 = {
	name="Radbroke"
	culture = westerman can_appear = no
	coat_of_arms = {
		template = 0
		layer = {
			texture = 15
			texture_internal = 14
			emblem = 0
			color = 0
			color = 0
			color = 0
		}
	}
}
205015 = {
	name="Tumblestone"
	culture = westerman can_appear = no
	coat_of_arms = {
		template = 0
		layer = {
			texture = 15
			texture_internal = 15
			emblem = 0
			color = 0
			color = 0
			color = 0
		}
	}
}
205016 = {
	name="Wrenbury"
	culture = westerman can_appear = no
	coat_of_arms = {
		template = 0
		layer = {
			texture = 15
			texture_internal = 16
			emblem = 0
			color = 0
			color = 0
			color = 0
		}
	}
}
205017 = {
	name="Wollaston"
	culture = westerman can_appear = no
	coat_of_arms = {
		template = 0
		layer = {
			texture = 15
			texture_internal = 17
			emblem = 0
			color = 0
			color = 0
			color = 0
		}
	}
}
205018 = {
	name="Ampkins"
	culture = westerman can_appear = no
	coat_of_arms = {
		template = 0
		layer = {
			texture = 16
			texture_internal = 25
			emblem = 0
			color = 0
			color = 0
			color = 0
		}
	}
}
205019 = {
	name="Chermore"
	culture = westerman can_appear = no
	coat_of_arms = {
		template = 0
		layer = {
			texture = 16
			texture_internal = 26
			emblem = 0
			color = 0
			color = 0
			color = 0
		}
	}
}
205020 = {
	name="Grincell"
	culture = westerman can_appear = no
	coat_of_arms = {
		template = 0
		layer = {
			texture = 16
			texture_internal = 27
			emblem = 0
			color = 0
			color = 0
			color = 0
		}
	}
}
205021 = {
	name="Hortiss"
	culture = westerman can_appear = no
	coat_of_arms = {
		template = 0
		layer = {
			texture = 16
			texture_internal = 28
			emblem = 0
			color = 0
			color = 0
			color = 0
		}
	}
}
205022 = {
	name="Landers"
	culture = westerman can_appear = no
	coat_of_arms = {
		template = 0
		layer = {
			texture = 16
			texture_internal = 29
			emblem = 0
			color = 0
			color = 0
			color = 0
		}
	}
}
205023 = {
	name="Karr"
	culture = westerman can_appear = no
	coat_of_arms = {
		template = 0
		layer = {
			texture = 16
			texture_internal = 30
			emblem = 0
			color = 0
			color = 0
			color = 0
		}
	}
}
205024 = {
	name="Rudd"
	culture = westerman can_appear = no
	coat_of_arms = {
		template = 0
		layer = {
			texture = 16
			texture_internal = 31
			emblem = 0
			color = 0
			color = 0
			color = 0
		}
	}
}
205025 = {
	name="Sanderly"
	culture = westerman can_appear = no
	coat_of_arms = {
		template = 0
		layer = {
			texture = 16
			texture_internal = 32
			emblem = 0
			color = 0
			color = 0
			color = 0
		}
	}
}
205026 = {
	name="Swiftsmith"
	culture = westerman can_appear = no
	coat_of_arms = {
		template = 0
		layer = {
			texture = 16
			texture_internal = 33
			emblem = 0
			color = 0
			color = 0
			color = 0
		}
	}
}
205027 = {
	name="Wittstring"
	culture = westerman can_appear = no
	coat_of_arms = {
		template = 0
		layer = {
			texture = 16
			texture_internal = 34
			emblem = 0
			color = 0
			color = 0
			color = 0
		}
	}
}
205028 = {
	name="Bellner"
	culture = westerman can_appear = no
	coat_of_arms = {
		template = 0
		layer = {
			texture = 17
			texture_internal = 36
			emblem = 0
			color = 0
			color = 0
			color = 0
		}
	}
}
205029 = {
	name="Capesthorne"
	culture = westerman can_appear = no
	coat_of_arms = {
		template = 0
		layer = {
			texture = 17
			texture_internal = 37
			emblem = 0
			color = 0
			color = 0
			color = 0
		}
	}
}
205030 = {
	name="Ramsfield"
	culture = westerman can_appear = no
	coat_of_arms = {
		template = 0
		layer = {
			texture = 17
			texture_internal = 38
			emblem = 0
			color = 0
			color = 0
			color = 0
		}
	}
}
205031 = {
	name="Thorley"
	culture = westerman can_appear = no
	coat_of_arms = {
		template = 0
		layer = {
			texture = 17
			texture_internal = 39
			emblem = 0
			color = 0
			color = 0
			color = 0
		}
	}
}
205032 = {
	name="Arkwright"
	culture = westerman can_appear = no
	coat_of_arms = {
		template = 0
		layer = {
			texture = 18
			texture_internal = 1
			emblem = 0
			color = 0
			color = 0
			color = 0
		}
	}
}
205033 = {
	name="Stayner"
	culture = westerman can_appear = no
	coat_of_arms = {
		template = 0
		layer = {
			texture = 18
			texture_internal = 2
			emblem = 0
			color = 0
			color = 0
			color = 0
		}
	}
}
205034 = {
	name="Septon"
	culture = westerman can_appear = no
	coat_of_arms = {
		template = 0
		layer = {
			texture = 18
			texture_internal = 3
			emblem = 0
			color = 0
			color = 0
			color = 0
		}
	}
}

## Reach (206k+)
206000 = {
	name="Alesworth"
	culture = reachman can_appear = no
	coat_of_arms = {
		template = 0
		layer = {
			texture = 15
			texture_internal = 18
			emblem = 0
			color = 0
			color = 0
			color = 0
		}
	}
}
206001 = {
	name="Andylton"
	culture = reachman can_appear = no
	coat_of_arms = {
		template = 0
		layer = {
			texture = 15
			texture_internal = 19
			emblem = 0
			color = 0
			color = 0
			color = 0
		}
	}
}
206002 = {
	name="Brisby"
	culture = reachman can_appear = no
	coat_of_arms = {
		template = 0
		layer = {
			texture = 15
			texture_internal = 20
			emblem = 0
			color = 0
			color = 0
			color = 0
		}
	}
}
206003 = {
	name="Bruges"
	culture = reachman can_appear = no
	coat_of_arms = {
		template = 0
		layer = {
			texture = 15
			texture_internal = 21
			emblem = 0
			color = 0
			color = 0
			color = 0
		}
	}
}
206004 = {
	name="Byrnside"
	culture = reachman can_appear = no
	coat_of_arms = {
		template = 0
		layer = {
			texture = 15
			texture_internal = 22
			emblem = 0
			color = 0
			color = 0
			color = 0
		}
	}
}
206005 = {
	name="Cadellin"
	culture = reachman can_appear = no
	coat_of_arms = {
		template = 0
		layer = {
			texture = 15
			texture_internal = 23
			emblem = 0
			color = 0
			color = 0
			color = 0
		}
	}
}
206006 = {
	name="Godrell"
	culture = reachman can_appear = no
	coat_of_arms = {
		template = 0
		layer = {
			texture = 15
			texture_internal = 24
			emblem = 0
			color = 0
			color = 0
			color = 0
		}
	}
}
206007 = {
	name="Hare"
	culture = reachman can_appear = no
	coat_of_arms = {
		template = 0
		layer = {
			texture = 15
			texture_internal = 25
			emblem = 0
			color = 0
			color = 0
			color = 0
		}
	}
}
206008 = {
	name="Ireton"
	culture = reachman can_appear = no
	coat_of_arms = {
		template = 0
		layer = {
			texture = 15
			texture_internal = 26
			emblem = 0
			color = 0
			color = 0
			color = 0
		}
	}
}
206009 = {
	name="Joure"
	culture = reachman can_appear = no
	coat_of_arms = {
		template = 0
		layer = {
			texture = 15
			texture_internal = 27
			emblem = 0
			color = 0
			color = 0
			color = 0
		}
	}
}
206010 = {
	name="Manderside"
	culture = reachman can_appear = no
	coat_of_arms = {
		template = 0
		layer = {
			texture = 15
			texture_internal = 28
			emblem = 0
			color = 0
			color = 0
			color = 0
		}
	}
}
206011 = {
	name="Pryss"
	culture = reachman can_appear = no
	coat_of_arms = {
		template = 0
		layer = {
			texture = 15
			texture_internal = 29
			emblem = 0
			color = 0
			color = 0
			color = 0
		}
	}
}
206012 = {
	name="Radnor"
	culture = reachman can_appear = no
	coat_of_arms = {
		template = 0
		layer = {
			texture = 15
			texture_internal = 30
			emblem = 0
			color = 0
			color = 0
			color = 0
		}
	}
}
206013 = {
	name="Septvale"
	culture = reachman can_appear = no
	coat_of_arms = {
		template = 0
		layer = {
			texture = 15
			texture_internal = 31
			emblem = 0
			color = 0
			color = 0
			color = 0
		}
	}
}
206014 = {
	name="Warbeck"
	culture = reachman can_appear = no
	coat_of_arms = {
		template = 0
		layer = {
			texture = 15
			texture_internal = 32
			emblem = 0
			color = 0
			color = 0
			color = 0
		}
	}
}
206015 = {
	name="Barnett"
	culture = reachman can_appear = no
	coat_of_arms = {
		template = 0
		layer = {
			texture = 16
			texture_internal = 51
			emblem = 0
			color = 0
			color = 0
			color = 0
		}
	}
}
206016 = {
	name="Byerley"
	culture = reachman can_appear = no
	coat_of_arms = {
		template = 0
		layer = {
			texture = 16
			texture_internal = 52
			emblem = 0
			color = 0
			color = 0
			color = 0
		}
	}
}
206018 = {
	name="Hampshire"
	culture = reachman can_appear = no
	coat_of_arms = {
		template = 0
		layer = {
			texture = 16
			texture_internal = 54
			emblem = 0
			color = 0
			color = 0
			color = 0
		}
	}
}
206019 = {
	name="Haycock"
	culture = reachman can_appear = no
	coat_of_arms = {
		template = 0
		layer = {
			texture = 16
			texture_internal = 55
			emblem = 0
			color = 0
			color = 0
			color = 0
		}
	}
}
206020 = {
	name="Jeckson"
	culture = reachman can_appear = no
	coat_of_arms = {
		template = 0
		layer = {
			texture = 16
			texture_internal = 56
			emblem = 0
			color = 0
			color = 0
			color = 0
		}
	}
}
206021 = {
	name="Renton"
	culture = reachman can_appear = no
	coat_of_arms = {
		template = 0
		layer = {
			texture = 16
			texture_internal = 57
			emblem = 0
			color = 0
			color = 0
			color = 0
		}
	}
}
206022 = {
	name="Langton"
	culture = reachman can_appear = no
	coat_of_arms = {
		template = 0
		layer = {
			texture = 16
			texture_internal = 58
			emblem = 0
			color = 0
			color = 0
			color = 0
		}
	}
}
206023 = {
	name="Copyhold"
	culture = reachman can_appear = no
	coat_of_arms = {
		template = 0
		layer = {
			texture = 17
			texture_internal = 40
			emblem = 0
			color = 0
			color = 0
			color = 0
		}
	}
}
206024 = {
	name="Eardley"
	culture = reachman can_appear = no
	coat_of_arms = {
		template = 0
		layer = {
			texture = 17
			texture_internal = 41
			emblem = 0
			color = 0
			color = 0
			color = 0
		}
	}
}
206025 = {
	name="Hagman"
	culture = reachman can_appear = no
	coat_of_arms = {
		template = 0
		layer = {
			texture = 17
			texture_internal = 42
			emblem = 0
			color = 0
			color = 0
			color = 0
		}
	}
}
206026 = {
	name="Adderleigh"
	culture = reachman can_appear = no
	coat_of_arms = {
		template = 0
		layer = {
			texture = 18
			texture_internal = 4
			emblem = 0
			color = 0
			color = 0
			color = 0
		}
	}
}
206027 = {
	name="Gawsworth"
	culture = reachman can_appear = no
	coat_of_arms = {
		template = 0
		layer = {
			texture = 18
			texture_internal = 5
			emblem = 0
			color = 0
			color = 0
			color = 0
		}
	}
}
206028 = {
	name="Vaine"
	culture = reachman can_appear = no
	coat_of_arms = {
		template = 0
		layer = {
			texture = 18
			texture_internal = 68
			emblem = 0
			color = 0
			color = 0
			color = 0
		}
	}
}


## HK Stormlands (207k+)
207000 = {
	name="Alsegar"
	culture = stormlander can_appear = no
	coat_of_arms = {
		template = 0
		layer = {
			texture = 15
			texture_internal = 33
			emblem = 0
			color = 0
			color = 0
			color = 0
		}
	}
}
207001 = {
	name="Bowermont"
	culture = stormlander can_appear = no
	coat_of_arms = {
		template = 0
		layer = {
			texture = 15
			texture_internal = 34
			emblem = 0
			color = 0
			color = 0
			color = 0
		}
	}
}
207002 = {
	name="Bysley"
	culture = stormlander can_appear = no
	coat_of_arms = {
		template = 0
		layer = {
			texture = 15
			texture_internal = 35
			emblem = 0
			color = 0
			color = 0
			color = 0
		}
	}
}
207003 = {
	name="Brindlewood"
	culture = stormlander can_appear = no
	coat_of_arms = {
		template = 0
		layer = {
			texture = 15
			texture_internal = 36
			emblem = 0
			color = 0
			color = 0
			color = 0
		}
	}
}
207004 = {
	name="Delving"
	culture = stormlander can_appear = no
	coat_of_arms = {
		template = 0
		layer = {
			texture = 15
			texture_internal = 37
			emblem = 0
			color = 0
			color = 0
			color = 0
		}
	}
}
207005 = {
	name="Fletcher"
	culture = stormlander can_appear = no
	coat_of_arms = {
		template = 0
		layer = {
			texture = 15
			texture_internal = 38
			emblem = 0
			color = 0
			color = 0
			color = 0
		}
	}
}
207006 = {
	name="Hawkwood"
	culture = stormlander can_appear = no
	coat_of_arms = {
		template = 0
		layer = {
			texture = 15
			texture_internal = 39
			emblem = 0
			color = 0
			color = 0
			color = 0
		}
	}
}
207007 = {
	name="Lylburne"
	culture = stormlander can_appear = no
	coat_of_arms = {
		template = 0
		layer = {
			texture = 15
			texture_internal = 40
			emblem = 0
			color = 0
			color = 0
			color = 0
		}
	}
}
207008 = {
	name="Lumbard"
	culture = stormlander can_appear = no
	coat_of_arms = {
		template = 0
		layer = {
			texture = 15
			texture_internal = 41
			emblem = 0
			color = 0
			color = 0
			color = 0
		}
	}
}
207009 = {
	name="Nayler"
	culture = stormlander can_appear = no
	coat_of_arms = {
		template = 0
		layer = {
			texture = 15
			texture_internal = 42
			emblem = 0
			color = 0
			color = 0
			color = 0
		}
	}
}
207010 = {
	name="Orley"
	culture = stormlander can_appear = no
	coat_of_arms = {
		template = 0
		layer = {
			texture = 15
			texture_internal = 43
			emblem = 0
			color = 0
			color = 0
			color = 0
		}
	}
}
207011 = {
	name="Scourre"
	culture = stormlander can_appear = no
	coat_of_arms = {
		template = 0
		layer = {
			texture = 15
			texture_internal = 44
			emblem = 0
			color = 0
			color = 0
			color = 0
		}
	}
}
207012 = {
	name="Tetherstone"
	culture = stormlander can_appear = no
	coat_of_arms = {
		template = 0
		layer = {
			texture = 15
			texture_internal = 45
			emblem = 0
			color = 0
			color = 0
			color = 0
		}
	}
}
207013 = {
	name="Waldkin"
	culture = stormlander can_appear = no
	coat_of_arms = {
		template = 0
		layer = {
			texture = 15
			texture_internal = 46
			emblem = 0
			color = 0
			color = 0
			color = 0
		}
	}
}
207014 = {
	name="Weygall"
	culture = stormlander can_appear = no
	coat_of_arms = {
		template = 0
		layer = {
			texture = 15
			texture_internal = 47
			emblem = 0
			color = 0
			color = 0
			color = 0
		}
	}
}
207015 = {
	name="Abney"
	culture = stormlander can_appear = no
	coat_of_arms = {
		template = 0
		layer = {
			texture = 15
			texture_internal = 48
			emblem = 0
			color = 0
			color = 0
			color = 0
		}
	}
}
207016 = {
	name="Boyden"
	culture = stormlander can_appear = no
	coat_of_arms = {
		template = 0
		layer = {
			texture = 16
			texture_internal = 59
			emblem = 0
			color = 0
			color = 0
			color = 0
		}
	}
}
207017 = {
	name="Bradbury"
	culture = stormlander can_appear = no
	coat_of_arms = {
		template = 0
		layer = {
			texture = 16
			texture_internal = 60
			emblem = 0
			color = 0
			color = 0
			color = 0
		}
	}
}
207018 = {
	name="Carter"
	culture = stormlander can_appear = no
	coat_of_arms = {
		template = 0
		layer = {
			texture = 16
			texture_internal = 61
			emblem = 0
			color = 0
			color = 0
			color = 0
		}
	}
}
207019 = {
	name="Cheadle"
	culture = stormlander can_appear = no
	coat_of_arms = {
		template = 0
		layer = {
			texture = 16
			texture_internal = 62
			emblem = 0
			color = 0
			color = 0
			color = 0
		}
	}
}
207020 = {
	name="Foxen"
	culture = stormlander can_appear = no
	coat_of_arms = {
		template = 0
		layer = {
			texture = 16
			texture_internal = 63
			emblem = 0
			color = 0
			color = 0
			color = 0
		}
	}
}
207021 = {
	name="Flemport"
	culture = stormlander can_appear = no
	coat_of_arms = {
		template = 0
		layer = {
			texture = 16
			texture_internal = 64
			emblem = 0
			color = 0
			color = 0
			color = 0
		}
	}
}
207022 = {
	name="Gamfort"
	culture = stormlander can_appear = no
	coat_of_arms = {
		template = 0
		layer = {
			texture = 16
			texture_internal = 65
			emblem = 0
			color = 0
			color = 0
			color = 0
		}
	}
}
207023 = {
	name="Gillmont"
	culture = stormlander can_appear = no
	coat_of_arms = {
		template = 0
		layer = {
			texture = 16
			texture_internal = 66
			emblem = 0
			color = 0
			color = 0
			color = 0
		}
	}
}
207024 = {
	name="Harfield"
	culture = stormlander can_appear = no
	coat_of_arms = {
		template = 0
		layer = {
			texture = 16
			texture_internal = 67
			emblem = 0
			color = 0
			color = 0
			color = 0
		}
	}
}
207025 = {
	name="Pitt"
	culture = stormlander can_appear = no
	coat_of_arms = {
		template = 0
		layer = {
			texture = 16
			texture_internal = 68
			emblem = 0
			color = 0
			color = 0
			color = 0
		}
	}
}
207026 = {
	name="Steurenton"
	culture = stormlander can_appear = no
	coat_of_arms = {
		template = 0
		layer = {
			texture = 16
			texture_internal = 69
			emblem = 0
			color = 0
			color = 0
			color = 0
		}
	}
}
207027 = {
	name="Stonewell"
	culture = stormlander can_appear = no
	coat_of_arms = {
		template = 0
		layer = {
			texture = 17
			texture_internal = 0
			emblem = 0
			color = 0
			color = 0
			color = 0
		}
	}
}
207028 = {
	name="Amerrwick"
	culture = stormlander can_appear = no
	coat_of_arms = {
		template = 0
		layer = {
			texture = 17
			texture_internal = 43
			emblem = 0
			color = 0
			color = 0
			color = 0
		}
	}
}
207029 = {
	name="Ballard"
	culture = stormlander can_appear = no
	coat_of_arms = {
		template = 0
		layer = {
			texture = 17
			texture_internal = 44
			emblem = 0
			color = 0
			color = 0
			color = 0
		}
	}
}
207030 = {
	name="Coldwin"
	culture = stormlander can_appear = no
	coat_of_arms = {
		template = 0
		layer = {
			texture = 17
			texture_internal = 45
			emblem = 0
			color = 0
			color = 0
			color = 0
		}
	}
}
207031 = {
	name="Govanndon"
	culture = stormlander can_appear = no
	coat_of_arms = {
		template = 0
		layer = {
			texture = 17
			texture_internal = 46
			emblem = 0
			color = 0
			color = 0
			color = 0
		}
	}
}
207032 = {
	name="Guthwine"
	culture = stormlander can_appear = no
	coat_of_arms = {
		template = 0
		layer = {
			texture = 17
			texture_internal = 47
			emblem = 0
			color = 0
			color = 0
			color = 0
		}
	}
}
207033 = {
	name="Heard"
	culture = stormlander can_appear = no
	coat_of_arms = {
		template = 0
		layer = {
			texture = 17
			texture_internal = 48
			emblem = 0
			color = 0
			color = 0
			color = 0
		}
	}
}
207034 = {
	name="Tawny"
	culture = stormlander can_appear = no
	coat_of_arms = {
		template = 0
		layer = {
			texture = 17
			texture_internal = 49
			emblem = 0
			color = 0
			color = 0
			color = 0
		}
	}
}
207035 = {
	name="Athan"
	culture = stormlander can_appear = no
	coat_of_arms = {
		template = 0
		layer = {
			texture = 18
			texture_internal = 6
			emblem = 0
			color = 0
			color = 0
			color = 0
		}
	}
}
207036 = {
	name="Meade"
	culture = stormlander can_appear = no
	coat_of_arms = {
		template = 0
		layer = {
			texture = 18
			texture_internal = 7
			emblem = 0
			color = 0
			color = 0
			color = 0
		}
	}
}
207037 = {
	name="Ruddwall"
	culture = stormlander can_appear = no
	coat_of_arms = {
		template = 0
		layer = {
			texture = 18
			texture_internal = 8
			emblem = 0
			color = 0
			color = 0
			color = 0
		}
	}
}
207038 = {
	name="Stout"
	culture = stormlander can_appear = no
	coat_of_arms = {
		template = 0
		layer = {
			texture = 18
			texture_internal = 9
			emblem = 0
			color = 0
			color = 0
			color = 0
		}
	}
}
207039 = {
	name="Warrens"
	culture = stormlander can_appear = no
	coat_of_arms = {
		template = 0
		layer = {
			texture = 18
			texture_internal = 69
			emblem = 0
			color = 0
			color = 0
			color = 0
		}
	}
}



## Iron Islands (208k+)
208000 = {
	name="Arkyll"
	culture = ironborn can_appear = no
	coat_of_arms = {
		template = 0
		layer = {
			texture = 15
			texture_internal = 49
			emblem = 0
			color = 0
			color = 0
			color = 0
		}
	}
}
208001 = {
	name="Bitter"
	culture = ironborn can_appear = no
	coat_of_arms = {
		template = 0
		layer = {
			texture = 15
			texture_internal = 50
			emblem = 0
			color = 0
			color = 0
			color = 0
		}
	}
}
208002 = {
	name="Crookshanks"
	culture = ironborn can_appear = no
	coat_of_arms = {
		template = 0
		layer = {
			texture = 15
			texture_internal = 51
			emblem = 0
			color = 0
			color = 0
			color = 0
		}
	}
}
208003 = {
	name="Hollger"
	culture = ironborn can_appear = no
	coat_of_arms = {
		template = 0
		layer = {
			texture = 15
			texture_internal = 52
			emblem = 0
			color = 0
			color = 0
			color = 0
		}
	}
}
208004 = {
	name="Jynnar"
	culture = ironborn can_appear = no
	coat_of_arms = {
		template = 0
		layer = {
			texture = 15
			texture_internal = 53
			emblem = 0
			color = 0
			color = 0
			color = 0
		}
	}
}
208005 = {
	name="Morse"
	culture = ironborn can_appear = no
	coat_of_arms = {
		template = 0
		layer = {
			texture = 15
			texture_internal = 54
			emblem = 0
			color = 0
			color = 0
			color = 0
		}
	}
}
208006 = {
	name="Shriek"
	culture = ironborn can_appear = no
	coat_of_arms = {
		template = 0
		layer = {
			texture = 15
			texture_internal = 55
			emblem = 0
			color = 0
			color = 0
			color = 0
		}
	}
}
208007 = {
	name="Blackfate"
	culture = ironborn can_appear = no
	coat_of_arms = {
		template = 0
		layer = {
			texture = 15
			texture_internal = 63
			emblem = 0
			color = 0
			color = 0
			color = 0
		}
	}
}
208008 = {
	name="Goraton"
	culture = ironborn can_appear = no
	coat_of_arms = {
		template = 0
		layer = {
			texture = 15
			texture_internal = 64
			emblem = 0
			color = 0
			color = 0
			color = 0
		}
	}
}
208009 = {
	name="Gravetyde"
	culture = ironborn can_appear = no
	coat_of_arms = {
		template = 0
		layer = {
			texture = 15
			texture_internal = 65
			emblem = 0
			color = 0
			color = 0
			color = 0
		}
	}
}
208010 = {
	name="Irongrief"
	culture = ironborn can_appear = no
	coat_of_arms = {
		template = 0
		layer = {
			texture = 15
			texture_internal = 66
			emblem = 0
			color = 0
			color = 0
			color = 0
		}
	}
}
208011 = {
	name="Juton"
	culture = ironborn can_appear = no
	coat_of_arms = {
		template = 0
		layer = {
			texture = 15
			texture_internal = 67
			emblem = 0
			color = 0
			color = 0
			color = 0
		}
	}
}
208012 = {
	name="Maring"
	culture = ironborn can_appear = no
	coat_of_arms = {
		template = 0
		layer = {
			texture = 15
			texture_internal = 68
			emblem = 0
			color = 0
			color = 0
			color = 0
		}
	}
}
208013 = {
	name="Redwave"
	culture = ironborn can_appear = no
	coat_of_arms = {
		template = 0
		layer = {
			texture = 15
			texture_internal = 69
			emblem = 0
			color = 0
			color = 0
			color = 0
		}
	}
}
208014 = {
	name="Surton"
	culture = ironborn can_appear = no
	coat_of_arms = {
		template = 0
		layer = {
			texture = 16
			texture_internal = 0
			emblem = 0
			color = 0
			color = 0
			color = 0
		}
	}
}
208015 = {
	name="Bloodshore"
	culture = ironborn can_appear = no
	coat_of_arms = {
		template = 0
		layer = {
			texture = 16
			texture_internal = 44
			emblem = 0
			color = 0
			color = 0
			color = 0
		}
	}
}
208016 = {
	name="Drain"
	culture = ironborn can_appear = no
	coat_of_arms = {
		template = 0
		layer = {
			texture = 16
			texture_internal = 45
			emblem = 0
			color = 0
			color = 0
			color = 0
		}
	}
}
208017 = {
	name="Dodds"
	culture = ironborn can_appear = no
	coat_of_arms = {
		template = 0
		layer = {
			texture = 16
			texture_internal = 46
			emblem = 0
			color = 0
			color = 0
			color = 0
		}
	}
}
208018 = {
	name="Gropper"
	culture = ironborn can_appear = no
	coat_of_arms = {
		template = 0
		layer = {
			texture = 16
			texture_internal = 47
			emblem = 0
			color = 0
			color = 0
			color = 0
		}
	}
}
208019 = {
	name="Royer"
	culture = ironborn can_appear = no
	coat_of_arms = {
		template = 0
		layer = {
			texture = 16
			texture_internal = 48
			emblem = 0
			color = 0
			color = 0
			color = 0
		}
	}
}
208020 = {
	name="Towler"
	culture = ironborn can_appear = no
	coat_of_arms = {
		template = 0
		layer = {
			texture = 16
			texture_internal = 49
			emblem = 0
			color = 0
			color = 0
			color = 0
		}
	}
}
208021 = {
	name="Shawdrake"
	culture = ironborn can_appear = no
	coat_of_arms = {
		template = 0
		layer = {
			texture = 16
			texture_internal = 50
			emblem = 0
			color = 0
			color = 0
			color = 0
		}
	}
}
208022 = {
	name="Breakback"
	culture = ironborn can_appear = no
	coat_of_arms = {
		template = 0
		layer = {
			texture = 17
			texture_internal = 50
			emblem = 0
			color = 0
			color = 0
			color = 0
		}
	}
}
208023 = {
	name="Colmar"
	culture = ironborn can_appear = no
	coat_of_arms = {
		template = 0
		layer = {
			texture = 17
			texture_internal = 51
			emblem = 0
			color = 0
			color = 0
			color = 0
		}
	}
}
208024 = {
	name="Freeman"
	culture = ironborn can_appear = no
	coat_of_arms = {
		template = 0
		layer = {
			texture = 17
			texture_internal = 52
			emblem = 0
			color = 0
			color = 0
			color = 0
		}
	}
}
208025 = {
	name="Morley"
	culture = ironborn can_appear = no
	coat_of_arms = {
		template = 0
		layer = {
			texture = 17
			texture_internal = 53
			emblem = 0
			color = 0
			color = 0
			color = 0
		}
	}
}
208026 = {
	name="Saltyre"
	culture = ironborn can_appear = no
	coat_of_arms = {
		template = 0
		layer = {
			texture = 17
			texture_internal = 54
			emblem = 0
			color = 0
			color = 0
			color = 0
		}
	}
}
208027 = {
	name="Scald"
	culture = ironborn can_appear = no
	coat_of_arms = {
		template = 0
		layer = {
			texture = 17
			texture_internal = 55
			emblem = 0
			color = 0
			color = 0
			color = 0
		}
	}
}
208028 = {
	name="Block"
	culture = ironborn can_appear = no
	coat_of_arms = {
		template = 0
		layer = {
			texture = 18
			texture_internal = 10
			emblem = 0
			color = 0
			color = 0
			color = 0
		}
	}
}
208029 = {
	name="Cleftjaw"
	culture = ironborn can_appear = no
	coat_of_arms = {
		template = 0
		layer = {
			texture = 18
			texture_internal = 11
			emblem = 0
			color = 0
			color = 0
			color = 0
		}
	}
}
208030 = {
	name="Flatnose"
	culture = ironborn can_appear = no
	coat_of_arms = {
		template = 0
		layer = {
			texture = 18
			texture_internal = 12
			emblem = 0
			color = 0
			color = 0
			color = 0
		}
	}
}
208031 = {
	name="Gorsalck"
	culture = ironborn can_appear = no
	coat_of_arms = {
		template = 0
		layer = {
			texture = 18
			texture_internal = 13
			emblem = 0
			color = 0
			color = 0
			color = 0
		}
	}
}
208032 = {
	name="Ironmaker"
	culture = ironborn can_appear = no
	coat_of_arms = {
		template = 0
		layer = {
			texture = 18
			texture_internal = 14
			emblem = 0
			color = 0
			color = 0
			color = 0
		}
	}
}
208033 = {
	name="Longstride"
	culture = ironborn can_appear = no
	coat_of_arms = {
		template = 0
		layer = {
			texture = 18
			texture_internal = 15
			emblem = 0
			color = 0
			color = 0
			color = 0
		}
	}
}
208034 = {
	name="Milkeye"
	culture = ironborn can_appear = no
	coat_of_arms = {
		template = 0
		layer = {
			texture = 18
			texture_internal = 16
			emblem = 0
			color = 0
			color = 0
			color = 0
		}
	}
}
208035 = {
	name="Mull"
	culture = ironborn can_appear = no
	coat_of_arms = {
		template = 0
		layer = {
			texture = 18
			texture_internal = 17
			emblem = 0
			color = 0
			color = 0
			color = 0
		}
	}
}
208036 = {
	name="Scurling"
	culture = ironborn can_appear = no
	coat_of_arms = {
		template = 0
		layer = {
			texture = 18
			texture_internal = 18
			emblem = 0
			color = 0
			color = 0
			color = 0
		}
	}
}


## HK Dorne (209k+)
209000 = {
	name="Anath"
	culture = salt_dornish can_appear = no
	coat_of_arms = {
		template = 0
		layer = {
			texture = 15
			texture_internal = 56
			emblem = 0
			color = 0
			color = 0
			color = 0
		}
	}
}
209001 = {
	name="Suthrons"
	culture = sand_dornish can_appear = no
	coat_of_arms = {
		template = 0
		layer = {
			texture = 15
			texture_internal = 57
			emblem = 0
			color = 0
			color = 0
			color = 0
		}
	}
}
209002 = {
	name="Scourge"
	culture = stone_dornish can_appear = no
	coat_of_arms = {
		template = 0
		layer = {
			texture = 15
			texture_internal = 58
			emblem = 0
			color = 0
			color = 0
			color = 0
		}
	}
}
209003 = {
	name="Casanmar"
	culture = salt_dornish can_appear = no
	coat_of_arms = {
		template = 0
		layer = {
			texture = 15
			texture_internal = 59
			emblem = 0
			color = 0
			color = 0
			color = 0
		}
	}
}
209004 = {
	name="Blackwall"
	culture = sand_dornish can_appear = no
	coat_of_arms = {
		template = 0
		layer = {
			texture = 17
			texture_internal = 1
			emblem = 0
			color = 0
			color = 0
			color = 0
		}
	}
}
209005 = {
	name="Dergeladinn"
	culture = stone_dornish can_appear = no
	coat_of_arms = {
		template = 0
		layer = {
			texture = 17
			texture_internal = 2
			emblem = 0
			color = 0
			color = 0
			color = 0
		}
	}
}
209006 = {
	name="Kalaron"
	culture = salt_dornish can_appear = no
	coat_of_arms = {
		template = 0
		layer = {
			texture = 17
			texture_internal = 3
			emblem = 0
			color = 0
			color = 0
			color = 0
		}
	}
}
209007 = {
	name="Nalris"
	culture = sand_dornish can_appear = no
	coat_of_arms = {
		template = 0
		layer = {
			texture = 17
			texture_internal = 4
			emblem = 0
			color = 0
			color = 0
			color = 0
		}
	}
}
209008 = {
	name="Nureddin"
	culture = stone_dornish can_appear = no
	coat_of_arms = {
		template = 0
		layer = {
			texture = 17
			texture_internal = 5
			emblem = 0
			color = 0
			color = 0
			color = 0
		}
	}
}
209009 = {
	name="Salar"
	culture = salt_dornish can_appear = no
	coat_of_arms = {
		template = 0
		layer = {
			texture = 17
			texture_internal = 6
			emblem = 0
			color = 0
			color = 0
			color = 0
		}
	}
}
209010 = {
	name="Spires"
	culture = sand_dornish can_appear = no
	coat_of_arms = {
		template = 0
		layer = {
			texture = 17
			texture_internal = 7
			emblem = 0
			color = 0
			color = 0
			color = 0
		}
	}
}
209011 = {
	name="Selemand"
	culture = stone_dornish can_appear = no
	coat_of_arms = {
		template = 0
		layer = {
			texture = 17
			texture_internal = 56
			emblem = 0
			color = 0
			color = 0
			color = 0
		}
	}
}
209012 = {
	name="Qolle"
	culture = salt_dornish can_appear = no
	coat_of_arms = {
		template = 0
		layer = {
			texture = 17
			texture_internal = 57
			emblem = 0
			color = 0
			color = 0
			color = 0
		}
	}
}
209013 = {
	name="Ondresgar"
	culture = sand_dornish can_appear = no
	coat_of_arms = {
		template = 0
		layer = {
			texture = 18
			texture_internal = 19
			emblem = 0
			color = 0
			color = 0
			color = 0
		}
	}
}
209014 = {
	name="Lhoryan"
	culture = stone_dornish can_appear = no
	coat_of_arms = {
		template = 0
		layer = {
			texture = 18
			texture_internal = 20
			emblem = 0
			color = 0
			color = 0
			color = 0
		}
	}
}
209015 = {
	name="Henarrion"
	culture = salt_dornish can_appear = no
	coat_of_arms = {
		template = 0
		layer = {
			texture = 18
			texture_internal = 21
			emblem = 0
			color = 0
			color = 0
			color = 0
		}
	}
}
209016 = {
	name="Talynne"
	culture = sand_dornish can_appear = no
	coat_of_arms = {
		template = 0
		layer = {
			texture = 18
			texture_internal = 22
			emblem = 0
			color = 0
			color = 0
			color = 0
		}
	}
}
209017 = {
	name="Leen"
	culture = stone_dornish can_appear = no
	coat_of_arms = {
		template = 0
		layer = {
			texture = 18
			texture_internal = 23
			emblem = 0
			color = 0
			color = 0
			color = 0
		}
	}
}
209018 = {
	name="Nemidyan"
	culture = salt_dornish can_appear = no
	coat_of_arms = {
		template = 0
		layer = {
			texture = 18
			texture_internal = 24
			emblem = 0
			color = 0
			color = 0
			color = 0
		}
	}
}
209019 = {
	name="Saylon"
	culture = sand_dornish can_appear = no
	coat_of_arms = {
		template = 0
		layer = {
			texture = 18
			texture_internal = 25
			emblem = 0
			color = 0
			color = 0
			color = 0
		}
	}
}
209020 = {
	name="Montamar"
	culture = stone_dornish can_appear = no
	coat_of_arms = {
		template = 0
		layer = {
			texture = 18
			texture_internal = 26
			emblem = 0
			color = 0
			color = 0
			color = 0
		}
	}
}
209021 = {
	name="Moselle"
	culture = salt_dornish can_appear = no
	coat_of_arms = {
		template = 0
		layer = {
			texture = 18
			texture_internal = 27
			emblem = 0
			color = 0
			color = 0
			color = 0
		}
	}
}
209022 = {
	name="Kanwyan"
	culture = sand_dornish can_appear = no
	coat_of_arms = {
		template = 0
		layer = {
			texture = 18
			texture_internal = 28
			emblem = 0
			color = 0
			color = 0
			color = 0
		}
	}
}
209023 = {
	name="Lyrtamar"
	culture = stone_dornish can_appear = no
	coat_of_arms = {
		template = 0
		layer = {
			texture = 18
			texture_internal = 29
			emblem = 0
			color = 0
			color = 0
			color = 0
		}
	}
}
209024 = {
	name="Saalar"
	culture = salt_dornish can_appear = no
	coat_of_arms = {
		template = 0
		layer = {
			texture = 18
			texture_internal = 30
			emblem = 0
			color = 0
			color = 0
			color = 0
		}
	}
}
209025 = {
	name="Lorryne"
	culture = sand_dornish can_appear = no
	coat_of_arms = {
		template = 0
		layer = {
			texture = 18
			texture_internal = 31
			emblem = 0
			color = 0
			color = 0
			color = 0
		}
	}
}
209026 = {
	name="Hynlar"
	culture = stone_dornish can_appear = no
	coat_of_arms = {
		template = 0
		layer = {
			texture = 18
			texture_internal = 32
			emblem = 0
			color = 0
			color = 0
			color = 0
		}
	}
}
209027 = {
	name="Oboynne"
	culture = salt_dornish can_appear = no
	coat_of_arms = {
		template = 0
		layer = {
			texture = 18
			texture_internal = 33
			emblem = 0
			color = 0
			color = 0
			color = 0
		}
	}
}
209028 = {
	name="Shallyr"
	culture = sand_dornish can_appear = no
	coat_of_arms = {
		template = 0
		layer = {
			texture = 18
			texture_internal = 34
			emblem = 0
			color = 0
			color = 0
			color = 0
		}
	}
}
209029 = {
	name="Yoltyr"
	culture = stone_dornish can_appear = no
	coat_of_arms = {
		template = 0
		layer = {
			texture = 18
			texture_internal = 35
			emblem = 0
			color = 0
			color = 0
			color = 0
		}
	}
}
209030 = {
	name="Rionsyr"
	culture = salt_dornish can_appear = no
	coat_of_arms = {
		template = 0
		layer = {
			texture = 18
			texture_internal = 36
			emblem = 0
			color = 0
			color = 0
			color = 0
		}
	}
}
209031 = {
	name="Osbyr"
	culture = sand_dornish can_appear = no
	coat_of_arms = {
		template = 0
		layer = {
			texture = 18
			texture_internal = 37
			emblem = 0
			color = 0
			color = 0
			color = 0
		}
	}
}
209032 = {
	name="Rossyr"
	culture = stone_dornish can_appear = no
	coat_of_arms = {
		template = 0
		layer = {
			texture = 18
			texture_internal = 38
			emblem = 0
			color = 0
			color = 0
			color = 0
		}
	}
}
209033 = {
	name="Sannar"
	culture = salt_dornish can_appear = no
	coat_of_arms = {
		template = 0
		layer = {
			texture = 18
			texture_internal = 39
			emblem = 0
			color = 0
			color = 0
			color = 0
		}
	}
}
209034 = {
	name="Jystor"
	culture = sand_dornish can_appear = no
	coat_of_arms = {
		template = 0
		layer = {
			texture = 18
			texture_internal = 40
			emblem = 0
			color = 0
			color = 0
			color = 0
		}
	}
}
209035 = {
	name="Listarr"
	culture = stone_dornish can_appear = no
	coat_of_arms = {
		template = 0
		layer = {
			texture = 18
			texture_internal = 41
			emblem = 0
			color = 0
			color = 0
			color = 0
		}
	}
}
209036 = {
	name="Valelynne"
	culture = salt_dornish can_appear = no
	coat_of_arms = {
		template = 0
		layer = {
			texture = 18
			texture_internal = 42
			emblem = 0
			color = 0
			color = 0
			color = 0
		}
	}
}
209037 = {
	name="Harton"
	culture = sand_dornish can_appear = no
	coat_of_arms = {
		template = 0
		layer = {
			texture = 18
			texture_internal = 43
			emblem = 0
			color = 0
			color = 0
			color = 0
		}
	}
}
209038 = {
	name="Hallon"
	culture = stone_dornish can_appear = no
	coat_of_arms = {
		template = 0
		layer = {
			texture = 18
			texture_internal = 44
			emblem = 0
			color = 0
			color = 0
			color = 0
		}
	}
}
209039 = {
	name="Gulbyon"
	culture = salt_dornish can_appear = no
	coat_of_arms = {
		template = 0
		layer = {
			texture = 18
			texture_internal = 45
			emblem = 0
			color = 0
			color = 0
			color = 0
		}
	}
}
209040 = {
	name="Ventryn"
	culture = sand_dornish can_appear = no
	coat_of_arms = {
		template = 0
		layer = {
			texture = 18
			texture_internal = 46
			emblem = 0
			color = 0
			color = 0
			color = 0
		}
	}
}
209041 = {
	name="Ogyne"
	culture = stone_dornish can_appear = no
	coat_of_arms = {
		template = 0
		layer = {
			texture = 18
			texture_internal = 47
			emblem = 0
			color = 0
			color = 0
			color = 0
		}
	}
}
209042 = {
	name="Tennaryon"
	culture = salt_dornish can_appear = no
	coat_of_arms = {
		template = 0
		layer = {
			texture = 18
			texture_internal = 48
			emblem = 0
			color = 0
			color = 0
			color = 0
		}
	}
}
209043 = {
	name="Horlynne"
	culture = sand_dornish can_appear = no
	coat_of_arms = {
		template = 0
		layer = {
			texture = 18
			texture_internal = 49
			emblem = 0
			color = 0
			color = 0
			color = 0
		}
	}
}
209044 = {
	name="Velyon"
	culture = stone_dornish can_appear = no
	coat_of_arms = {
		template = 0
		layer = {
			texture = 18
			texture_internal = 50
			emblem = 0
			color = 0
			color = 0
			color = 0
		}
	}
}
209045 = {
	name="Mestarrion"
	culture = salt_dornish can_appear = no
	coat_of_arms = {
		template = 0
		layer = {
			texture = 18
			texture_internal = 51
			emblem = 0
			color = 0
			color = 0
			color = 0
		}
	}
}

## HK Crannogmen
210000 = {
	name="Lery"
	culture = crannogman can_appear = no
	coat_of_arms = {
		template = 0
		layer = {
			texture = 18
			texture_internal = 52
			emblem = 0
			color = 0
			color = 0
			color = 0
		}
	}
}
210001 = {
	name="Rox"
	culture = crannogman can_appear = no
	coat_of_arms = {
		template = 0
		layer = {
			texture = 18
			texture_internal = 53
			emblem = 0
			color = 0
			color = 0
			color = 0
		}
	}
}
210002 = {
	name="Skynnar"
	culture = crannogman can_appear = no
	coat_of_arms = {
		template = 0
		layer = {
			texture = 18
			texture_internal = 54
			emblem = 0
			color = 0
			color = 0
			color = 0
		}
	}
}
210003 = {
	name="Mossfield"
	culture = crannogman can_appear = no
	coat_of_arms = {
		template = 0
		layer = {
			texture = 18
			texture_internal = 55
			emblem = 0
			color = 0
			color = 0
			color = 0
		}
	}
}
210004 = {
	name="Trask"
	culture = crannogman can_appear = no
	coat_of_arms = {
		template = 0
		layer = {
			texture = 18
			texture_internal = 56
			emblem = 0
			color = 0
			color = 0
			color = 0
		}
	}
}
210005 = {
	name="Kays"
	culture = crannogman can_appear = no
	coat_of_arms = {
		template = 0
		layer = {
			texture = 18
			texture_internal = 57
			emblem = 0
			color = 0
			color = 0
			color = 0
		}
	}
}
210006 = {
	name="Carr"
	culture = crannogman can_appear = no
	coat_of_arms = {
		template = 0
		layer = {
			texture = 18
			texture_internal = 58
			emblem = 0
			color = 0
			color = 0
			color = 0
		}
	}
}
210007 = {
	name="Swayle"
	culture = crannogman can_appear = no
	coat_of_arms = {
		template = 0
		layer = {
			texture = 18
			texture_internal = 59
			emblem = 0
			color = 0
			color = 0
			color = 0
		}
	}
}
210008 = {
	name="Greenwater"
	culture = crannogman can_appear = no
	coat_of_arms = {
		template = 0
		layer = {
			texture = 18
			texture_internal = 60
			emblem = 0
			color = 0
			color = 0
			color = 0
		}
	}
}
210009 = {
	name="Yannil"
	culture = crannogman can_appear = no
	coat_of_arms = {
		template = 0
		layer = {
			texture = 18
			texture_internal = 61
			emblem = 0
			color = 0
			color = 0
			color = 0
		}
	}
}
210010 = {
	name="Kegg"
	culture = crannogman can_appear = no
	coat_of_arms = {
		template = 0
		layer = {
			texture = 18
			texture_internal = 62
			emblem = 0
			color = 0
			color = 0
			color = 0
		}
	}
}
210011 = {
	name="Sloghe"
	culture = crannogman can_appear = no
	coat_of_arms = {
		template = 0
		layer = {
			texture = 18
			texture_internal = 63
			emblem = 0
			color = 0
			color = 0
			color = 0
		}
	}
}
210012 = {
	name="Orm"
	culture = crannogman can_appear = no
	coat_of_arms = {
		template = 0
		layer = {
			texture = 18
			texture_internal = 64
			emblem = 0
			color = 0
			color = 0
			color = 0
		}
	}
}
210013 = {
	name="Flog"
	culture = crannogman can_appear = no
	coat_of_arms = {
		template = 0
		layer = {
			texture = 18
			texture_internal = 65
			emblem = 0
			color = 0
			color = 0
			color = 0
		}
	}
}
210014 = {
	name="Skymm"
	culture = crannogman can_appear = no
	coat_of_arms = {
		template = 0
		layer = {
			texture = 18
			texture_internal = 66
			emblem = 0
			color = 0
			color = 0
			color = 0
		}
	}
}