999300226 = {
	name = "Rynar"
	culture = dothrak_tyroshi
}
999300227 = {
	name = "Nahor"
	culture = dothrak_tyroshi
}
999300228 = {
	name = "Tumor"
	culture = dothrak_tyroshi
}
999300229 = {
	name = "Tumayn"
	culture = dothrak_tyroshi
}

999300231 = {
	name = "Tumdan"
	culture = dothrak_tyroshi
}
999300232 = {
	name = "Tuhor"
	culture = dothrak_tyroshi
}
999300233 = {
	name = "Tadar"
	culture = dothrak_tyroshi
}
999300234 = {
	name = "Qumit"
	culture = dothrak_tyroshi
}
999300235 = {
	name = "Nahi"
	culture = dothrak_tyroshi
}
999300236 = {
	name = "Rymi"
	culture = dothrak_tyroshi
}
999300237 = {
	name = "Amito"
	culture = dothrak_tyroshi
}
999300238 = {
	name = "Aner"
	culture = dothrak_tyroshi
}
999300239 = {
	name = "Breys"
	culture = dothrak_tyroshi
}