999300208 = {
	name = "Xidarys"
	culture = summer_tyroshi
}
999300209 = {
	name = "Quhori"
	culture = summer_tyroshi
}
999300210 = {
	name = "Qudar"
	culture = summer_tyroshi
}
999300211 = {
	name = "Adayni"
	culture = summer_tyroshi
}
999300212 = {
	name = "Odaryha"
	culture = summer_tyroshi
}
999300213 = {
	name = "Ahori"
	culture = summer_tyroshi
}
999300214 = {
	name = "Ruanis"
	culture = summer_tyroshi
}
999300215 = {
	name = "Raddars"
	culture = summer_tyroshi
}
999300216 = {
	name = "Qyndona"
	culture = summer_tyroshi
}
999300217 = {
	name = "Lyndona"
	culture = summer_tyroshi
}
999300218 = {
	name = "Quaydona"
	culture = summer_tyroshi
}
999300219 = {
	name = "Xaharis"
	culture = summer_tyroshi
}
999300220 = {
	name = "Kaharis"
	culture = summer_tyroshi
}
999300221 = {
	name = "Lasaharis"
	culture = summer_tyroshi
}
999300222 = {
	name = "Qasaharis"
	culture = summer_tyroshi
}
999300223 = {
	name = "Ohasaris"
	culture = summer_tyroshi
}
999300224 = {
	name = "Quasoris"
	culture = summer_tyroshi
}
999300225 = {
	name = "Xhasoris"
	culture = summer_tyroshi
}