name = "The Dance of the Dragons"

casus_belli={
	casus_belli=depose_liege
	actor=20859 
	recipient=77013
	landed_title=e_iron_throne
	date=8130.10.22 
}

8130.10.22 = {
	add_defender = 77013 #Aegon
	add_attacker = 20859  #Cregan Stark	
	
}

8131.1.8 = {
	rem_defender = 77013 #Aegon
	rem_attacker = 20859	#Cregan Stark
} 