#######################
###Nightwatch Titles###
#######################
# title_grant_command = {
	# dignity = 0.9
	# grant_limit = 1
	# opinion_effect = 0
	# revoke_allowed = no
	
	# monthly_salary = 0
	# monthly_prestige = 0
	
	# allowed_to_hold = {
		# is_female = no
		# trait = nightswatch
		# age = 16
		# NOT = { trait = incapable }
		# NOT = { trait = maester }
		# NOT = { trait = septon }
		# NOT = { trait = red_priest }
		# prisoner = no
		# is_ruler = no
		# FROM = {
			# OR = {
				# trait = nightswatch
				# has_landed_title = k_nightswatch
			# }	
			# ai = no
			# any_demesne_title = {
				# tier = BARON
				# holding_type = castle
				# NOT = { FROM = { capital_holding = { title = PREVPREV } } }
			# }
		# }
	# }
	
	# gain_effect = {
		# FROM = { character_event = { id = nightswatch.31 } }
	# }
	# lose_effect = {
	# }

	# message = no
# }
title_first_ranger = {
	#dignity = 0.7
	grant_limit = 1
	opinion_effect = 0
	show_as_title = yes
	revoke_allowed = no
	
	#monthly_prestige = 0.75
	
	allowed_to_hold = {
		has_job_title = job_marshal
	}
	allowed_to_grant = {
		has_landed_title = d_nightswatch
	}
	
	gain_effect = {
	}
	lose_effect = {
	}

	message = no
}

title_first_steward = {
	#dignity = 0.7
	grant_limit = 1
	opinion_effect = 0
	show_as_title = yes
	revoke_allowed = no
	
	#monthly_prestige = 0.5
	
	allowed_to_hold = {
		has_job_title = job_castellan
	}
	allowed_to_grant = {
		has_landed_title = d_nightswatch
	}
	
	gain_effect = {
	}
	lose_effect = {
	}

	message = no
}

title_first_builder = {
	#dignity = 0.2
	grant_limit = 1
	opinion_effect = 0
	show_as_title = yes
	revoke_allowed = no
	
	#monthly_prestige = 0.5
	
	allowed_to_hold = {
		has_job_title = job_treasurer
	}
	allowed_to_grant = {
		has_landed_title = d_nightswatch
	}
	
	gain_effect = {
	}
	lose_effect = {
	}

	message = no
}
# title_recruiter = {
	# dignity = 0.33
	# grant_limit = 1
	# opinion_effect = 0
	# show_as_title = yes
	
	# monthly_prestige = 0.25
	
	# allowed_to_hold = {
		# has_job_title = job_chancellor
	# }
	# allowed_to_grant = {
		# has_landed_title = d_nightswatch
	# }
	
	# gain_effect = {
	# }
	# lose_effect = {
	# }

	# message = no
# }

title_personal_steward = {
	dignity = 0.1
	grant_limit = 1
	opinion_effect = 10
	is_high_prio = yes
	
	monthly_prestige = 0.25
	
	allowed_to_hold = {
		trait = nightswatch
		is_ruler = no
		is_councillor = no
	}
	allowed_to_grant = {
		has_landed_title = d_nightswatch
	}
	ai_will_do = {
		factor = 1
		modifier = {
			factor = 0
			OR = {
				age = 30
				NOT = { reverse_opinion = { who = FROM value = 0 } }
				NOR = {
					martial = 10
					stewardship = 10
					diplomacy = 10
					intrigue = 10
				}
			}
		}
	}
	
	gain_effect = {
		set_character_flag = NW_personal_steward
	}
	lose_effect = {
	}

	message = no
}
