#CODE;ENGLISH;FRENCH;GERMAN;;SPANISH;;;;;;;;;x
valyrian_dagger;Valyrian Dagger;;;;;;;;;;;;;x
valyrian_dagger_desc;A simple dagger forged of Valyrian steel.;;;;;;;;;;;;;x
bloodthirst;Bloodthirst;;;;;;;;;;;;;x
bloodthirst_desc;Throats are said to go dry at the mere sight of this Valyrian steel dagger, for its curved blade and handle were specifically designed for clean, effortless throat-slitting. There are four small rubies embedded along the dragonbone and black marble handle, which do little to drive the mind away from its deadliness, but make it a fine luxury item.;;;;;;;;;;;;;x
dragonglass_knife;Dragonglass Knife;;;;;;;;;;;;;x
dragonglass_knife_desc;A knife carved from a chunk of Dragonglass.;;;;;;;;;;;;;x
iceshard;Iceshard;;;;;;;;;;;;;x
iceshard_desc;This dagger has a thin double-edged blade forged of Valyrian steel. Fixed on a rich hilt of shining silver it has a large sapphire cut in a pointy shape resembling a shard of ice, from which the dagger gets its name.;;;;;;;;;;;;;x
littlefingers_dagger;Catspaw;;;;;;;;;;;;;x
littlefingers_dagger_desc;An ornate Valyrian dagger. The Catspaw is notorious in the North for it's use in an attempted assassination of Brandon Stark.;;;;;;;;;;;;;x
nightkiss;Nightkiss;;;;;;;;;;;;;x
nightkiss_desc;A wavy blade of Valyrian steel, elegantly garnished with turquoise stones and silver ornaments. Yet strangely enough, the last thing a victim will feel is the sweet, sweet smell of its damp blade, right before dropping to a painless, never-ending sleep.;;;;;;;;;;;;;x
pride_of_qohor;Pride of Qohor;;;;;;;;;;;;;x
pride_of_qohor_desc;A ceremonial dagger made of pure gold, exclusively forged for ritual sacrifices to The Black Goat of Qohor, whose shape inspires the design of the blade's handle.;;;;;;;;;;;;;x
rosethorn;Rosethorn;;;;;;;;;;;;;x
rosethorn_desc;Wasn't it made of Valyrian steel, there would be nothing special about this blade. But it's handle, made of the finest goldenheart wood from the summer isles and beautifully adorned with vine-shaped ornaments of red gold brings fairytales to life.;;;;;;;;;;;;;x
scalpel;Scalpel;;;;;;;;;;;;;x
scalpel_desc;Fully equipped, with a serrated spine and curved edges, the blade of this Valyrian steel knife is as perfect for skinning as it is practical for hunting. The handle, made of human bone, is barely elaborated. But, of what use are ornaments on a tool made for torture?;;;;;;;;;;;;;x
silencer;Silencer;;;;;;;;;;;;;x
silencer_desc;The handle of this dagger was carved entirely out of dragonbone, and its blade, forged of the finest Valyrian steel is split in two, designed for stabbing rather than slitting.;;;;;;;;;;;;;x
sparrow_and_skylark;Sparrow and Skylark;;;;;;;;;;;;;x
sparrow_and_skylark_desc;These Valyrian steel twin daggers are designed for stealth and agility. Usually held with the blades curving backwards it allows the wielder to punch as well as slash, and since the handles wrap naturally around the hands they're hard to disarm. The wooden handles, inlaid with gold straps, are carved in the shape of innocent-looking songbirds.;;;;;;;;;;;;;x
tigerclaw;Tigerclaw;;;;;;;;;;;;;x
tigerclaw_desc;The handle of this beautiful Valyrian steel dagger was carved out of pure jade by artisans from southern Leng in the shape of a roaring tiger.;;;;;;;;;;;;;x
viper_fang;Viperfang;;;;;;;;;;;;;x
viper_fang_desc;This simply-designed Valyrian steel dagger has a dragonbone handle and a sizable purple Charoite gemstone acting as pommel. Damp with the poison of way too many different snakes to count, even the most insignificant scratch of this unusually dark blade is a painful death sentence.;;;;;;;;;;;;;x
reforge_dagger;Reforge Valyrian Dagger;;;;;;;;;;;;;x
EVTOPT900000;Do not reforge this dagger;;;;;;;;;;;;;x
EVTOPTA900000;Bloodthirst;;;;;;;;;;;;;x
EVTOPTB900000;Iceshard;;;;;;;;;;;;;x
EVTOPTC900000;More...;;;;;;;;;;;;;x
EVTOPT900001;Nightkiss;;;;;;;;;;;;;x
EVTOPTA900001;Pride of Qohor;;;;;;;;;;;;;x
EVTOPTB900001;Rosethorn;;;;;;;;;;;;;x
EVTOPT900002;Scalpel;;;;;;;;;;;;;x
EVTOPTA900002;Silencer;;;;;;;;;;;;;x
EVTOPTB900002;Sparrow and Skylark;;;;;;;;;;;;;x
EVTOPT900003;Tigerclaw;;;;;;;;;;;;;x
EVTOPTA900003;Viperfang;;;;;;;;;;;;;x
EVTDESC900000;Viperfang;;;;;;;;;;;;;x