#CODE;ENGLISH;FRENCH;GERMAN;;SPANISH;;;;;;;;;x
anger;Mother's Grief;Chagrin-des-Mères;;;Duelo de la Madre;;;;;;;;;x
anger_desc;A fine valyrian longsword, blessed by the high septon himself.;Une bonne lame valyrienne, bénie par le Grand Septon lui-même.;;;Una espada larga valyria, bendecida por el mismo Septón Supremo.;;;;;;;;;x
black_death;Black Death;Mort-Noire;;;Muerte Negra;;;;;;;;;x
black_death_desc;A Reforged Valyrian Steel Blade;Une épée en acier valyrien reforgée;;;Una espada de acero valyrio reforjada.;;;;;;;;;x
compassion;Glory;Gloire;;;Gloria;;;;;;;;;x
compassion_desc;A well balanced valyrian steel sword with a hilt decorated in gold.;Une bonne épée en acier valyrien avec une poignée en or.;;;Una espada de acero valyrio bien equilibrada con una empuñadura decorada en oro.;;;;;;;;;x
concession;Skinpeeler;Epluche-peau;;;Desolladora;;;;;;;;;x
concession_desc;A crooked broadsword designed for extra gore yet is surprisingly well balanced.;Une épée à double tranchant conçue pour saigner son adversaire et qui reste étonnamment bien équilibrée.;;;Una espada mellada diseñada para desollar. Todavía está sorprendentemente bien equilibrada.;;;;;;;;;x
del_pino;Pale Mare;Brise-Pin;;;Quebrantapinos;;;;;;;;;x
del_pino_desc;A hybrid of a mace and javelin with a valyrian tip.;Une arme hybride, à mi-chemin entre la masse d'arme et le javelot dont le tranchant est en acier valyrien.;;;Un híbrido entre una maza y una jabalina con una punta de acero valyrio.;;;;;;;;;x
el_swordo;Goodsword;Bonnelame;;;Buenaspada;;;;;;;;;x
el_swordo_desc;A fine valyrian longsword.;Une bonne lame valyrienne.;;;Una buena espada larga valyria.;;;;;;;;;x
gold_sword;Dornish Kiss;Baiser-Dornien;;;Beso Dorniense;;;;;;;;;x
gold_sword_desc;A fine valyrian short sword.;Une petite épée valyrienne.;;;Una buena espada corta valyria.;;;;;;;;;x
happyness;Father's Fury;Furie-des-Pères;;;Furia del Padre;;;;;;;;;x
happyness_desc;A gigantic two-handed sword made of valyrian steel.;Une gigantesque épée à deux mains en acier valyrien.;;;Una gigantesca espada a dos manos de acero valyrio.;;;;;;;;;x
hubris;Talon;Serre;;;Orgullo Desmesurado;;;;;;;;;x
hubris_desc;The pommel of this fine valyrian steel sword is in the shape of a bird of prey.;Le pommeau de cette bonne lame en acier valyrien a la forme d'un oiseau de proie.;;;El pomo de esta espada de acero valyrio tiene forma de un ave de presa.;;;;;;;;;x
justice;Jade;Jade;;;Jade;;;;;;;;;x
justice_desc;The hilt of this fine valyrian steel sword is made out of jade.;La poignée de cette lame en acier valyrien est en jade.;;;La empuñadura de esta espada de acero valyrio está hecha de jade.;;;;;;;;;x
kingmaker;Kingmaker;Faiseuse-de-Roi;;;Hacedora de Reyes;;;;;;;;;x
kingmaker_desc;A fine valyrian longsword.;Une bonne épée longue en acier valyrien.;;;Una buena espada larga valyria.;;;;;;;;;x
passion;Passion;Passion;;;Pasión;;;;;;;;;x
passion_desc;A fine valyrian longsword.;Une bonne épée longue en acier valyrien.;;;Una buena espada larga valyria.;;;;;;;;;x
rage;Stranger's Touch;L'Etranger;;;Toque del Desconocido;;;;;;;;;x
rage_desc;The pommel of this fine valyrian steel two-handed sword is shaped like a human skull with two ruby eyes.;Le pommeau de cette bonne lame en acier valyrien a la forme d'un crâne avec deux rubis à la place des yeux.;;;El pomo de esta espada de acero valyrio tiene la forma de un cráneo con los ojos de rubí.;;;;;;;;;x
sightblinder;Mourning Mace;Masse-de-Deuil;;;Maza del Luto;;;;;;;;;x
sightblinder_desc;A mace made out of valyrian steel.;Une masse d'arme en acier valyrien.;;;Una maza hecha de acero valyrio.;;;;;;;;;x
the_monarchist;Titan's Bite;Morsure-des-Titans;;;Mordisco del Titán;;;;;;;;;x
the_monarchist_desc;A two handed valyrian steel greatsword which with blue gems in its hilt and pommel that emanate an icy chill.;Une épée à deux mains en acier valyrien avec des gemmes bleues incrustées dans le pommeau et la poignée;;;Un mandoble de acero valyrio extrañamente coloreado en azul claro.;;;;;;;;;x
the_usurper;Dragonbane;Fléaudragon;;;Venganza de Dragón;;;;;;;;;x
the_usurper_desc;The guard of this fine valyrian steel sword is wing shaped.;La garde de cette épée en acier valyrien a la forme d'une aile de dragon.;;;El protector de esta espada de acero valyrio tiene forma de ala de dragón.;;;;;;;;;x
worldeater;Finger Eater;Mange-Doigt;;;Comededos;;;;;;;;;x
worldeater_desc;A valyrian steel hand axe.;Une hache en acier valyrien.;;;Una hacha de mano de acero valyrio.;;;;;;;;;x
worlds_envy;Rakh Arakh;Rakh Arakh;;;Rakh Arakh;;;;;;;;;x
worlds_envy_desc;An Arakh made out of valyrian steel.;Un Rakh Arakh en acier valyrien.;;;Un Arakh de acero valyrio.;;;;;;;;;x
give_anger_to_son;Grant Mother's Grief;Donner Ire;;;Ceder Duelo de la Madre;;;;;;;;;x
give_anger_to_son_desc;I will pass on Mother's Grief to [Root.GetFirstName], [Root.GetSheHe] needs it more than I do.;Je vais donner Ire à [Root.GetFirstName], [Root.GetSheHe] en a plus besoin que moi. ;;;Cederé Duelo de la Madre a [Root.GetFirstName], la necesita más que yo.;;;;;;;;;x
give_black_death_to_son;Grant Black Death;Donner Mort-Noire;;;Ceder Muerte Negra;;;;;;;;;x
give_black_death_to_son_desc;I will pass on Black Death to [Root.GetFirstName], [Root.GetSheHe] needs it more than I do.;Je vais donner Mort-Noire à [Root.GetFirstName], [Root.GetSheHe] en a plus besoin que moi. ;;;Cederé Muerte Negra a [Root.GetFirstName], la necesita más que yo.;;;;;;;;;x
give_compassion_to_son;Grant Glory;Donner Compassion;;;Ceder Gloria;;;;;;;;;x
give_compassion_to_son_desc;I will pass on Glory to [Root.GetFirstName], [Root.GetSheHe] needs it more than I do.;Je vais donner Compassion à [Root.GetFirstName], [Root.GetSheHe] en a plus besoin que moi. ;;;Cederé Gloria a [Root.GetFirstName], la necesita más que yo.;;;;;;;;;x
give_concession_to_son;Grant Concession;Donner Concession;;;Ceder Desolladora;;;;;;;;;x
give_concession_to_son_desc;I will pass on Concession to [Root.GetFirstName], [Root.GetSheHe] needs it more than I do.;Je vais donner Concession à [Root.GetFirstName], [Root.GetSheHe] en a plus besoin que moi. ;;;Cederé Desolladora a [Root.GetFirstName], la necesita más que yo.;;;;;;;;;x
give_del_pino_to_son;Grant Pale Mare;Donner Brise-Pin;;;Ceder Quebrantapinos;;;;;;;;;x
give_del_pino_to_son_desc;I will pass on Pale Mare to [Root.GetFirstName], [Root.GetSheHe] needs it more than I do.;Je vais donner Brise-Pin à [Root.GetFirstName], [Root.GetSheHe] en a plus besoin que moi. ;;;Cederé Quebrantapinos a [Root.GetFirstName], la necesita más que yo.;;;;;;;;;x
give_el_swordo_to_son;Grant Goodsword;Donner Fleuret;;;Ceder Buenaspada;;;;;;;;;x
give_el_swordo_to_son_desc;I will pass on Goodsword to [Root.GetFirstName], [Root.GetSheHe] needs it more than I do.;Je vais donner Fleuret à [Root.GetFirstName], [Root.GetSheHe] en a plus besoin que moi. ;;;Cederé Buenaspada a [Root.GetFirstName], la necesita más que yo.;;;;;;;;;x
give_gold_sword_to_son;Grant Dornish Kiss;Donner Or ;;;Ceder Beso Dorniense;;;;;;;;;x
give_gold_sword_to_son_desc;I will pass on Dornish Kiss to [Root.GetFirstName], [Root.GetSheHe] needs it more than I do.;Je vais donner Or à [Root.GetFirstName], [Root.GetSheHe] en a plus besoin que moi. ;;;Cederé Beso Dorniense a [Root.GetFirstName], la necesita más que yo.;;;;;;;;;x
give_happyness_to_son;Grant Father's Fury;Donner Joie;;;Ceder Furia del Padre;;;;;;;;;x
give_happyness_to_son_desc;I will pass on Father's Fury to [Root.GetFirstName], [Root.GetSheHe] needs it more than I do.;Je vais donner Joie à [Root.GetFirstName], [Root.GetSheHe] en a plus besoin que moi. ;;;Cederé Furia del Padre a [Root.GetFirstName], la necesita más que yo.;;;;;;;;;x
give_hubris_to_son;Grant Talon;Donner Hubris;;;Ceder Orgullo Desmesurado;;;;;;;;;x
give_hubris_to_son_desc;I will pass on Talon to [Root.GetFirstName], [Root.GetSheHe] needs it more than I do.;Je vais donner Hubris à [Root.GetFirstName], [Root.GetSheHe] en a plus besoin que moi. ;;;Cederé Orgullo Desmesurado a [Root.GetFirstName], la necesita más que yo.;;;;;;;;;x
give_justice_to_son;Grant Jade;Donner Justice;;;Ceder Jade;;;;;;;;;x
give_justice_to_son_desc;I will pass on Jade to [Root.GetFirstName], [Root.GetSheHe] needs it more than I do.;Je vais donner Justice à [Root.GetFirstName], [Root.GetSheHe] en a plus besoin que moi. ;;;Cederé Jade a [Root.GetFirstName], la necesita más que yo.;;;;;;;;;x
give_kingmaker_to_son;Grant Kingmaker;Donner Faiseuse-de-Roi;;;Ceder Hacedora de Reyes;;;;;;;;;x
give_kingmaker_to_son_desc;I will pass on Kingmaker to [Root.GetFirstName], [Root.GetSheHe] needs it more than I do.;Je vais donner Faiseuse-de-Roi à [Root.GetFirstName], [Root.GetSheHe] en a plus besoin que moi. ;;;Cederé Hacedora de Reyes a [Root.GetFirstName], la necesita más que yo.;;;;;;;;;x
give_passion_to_son;Grant Passion;Donner Passion;;;Ceder Pasión;;;;;;;;;x
give_passion_to_son_desc;I will pass on Passion to [Root.GetFirstName], [Root.GetSheHe] needs it more than I do.;Je vais donner Passion à [Root.GetFirstName], [Root.GetSheHe] en a plus besoin que moi. ;;;Cederé Pasión a [Root.GetFirstName], la necesita más que yo.;;;;;;;;;x
give_rage_to_son;Grant Stranger's Touch;Donner Caresse de l'Etranger;;;Ceder Toque del Desconocido;;;;;;;;;x
give_rage_to_son_desc;I will pass on Stranger's Touch to [Root.GetFirstName], [Root.GetSheHe] needs it more than I do.;Je vais donner Caresse de l'Etranger à [Root.GetFirstName], [Root.GetSheHe] en a plus besoin que moi. ;;;Cederé Toque del Desconocido a [Root.GetFirstName], la necesita más que yo.;;;;;;;;;x
give_sightblinder_to_son;Grant Mourning Mace;Donner Endeuillée;;;Ceder Maza del Luto;;;;;;;;;x
give_sightblinder_to_son_desc;I will pass on Mourning Mace to [Root.GetFirstName], [Root.GetSheHe] needs it more than I do.;Je vais donner Endeuillée à [Root.GetFirstName], [Root.GetSheHe] en a plus besoin que moi. ;;;Cederé Maza del Luto a [Root.GetFirstName], la necesita más que yo.;;;;;;;;;x
give_the_monarchist_to_son;Grant Titan's Bite;Donner la Morsure du Titan;;;Ceder Mordisco del Titán;;;;;;;;;x
give_the_monarchist_to_son_desc;I will pass on Titan's Bite to [Root.GetFirstName], [Root.GetSheHe] needs it more than I do.;Je vais donner la Morsure du Titan à [Root.GetFirstName], [Root.GetSheHe] en a plus besoin que moi. ;;;Cederé Mordisco del Titán a [Root.GetFirstName], la necesita más que yo.;;;;;;;;;x
give_the_usurper_to_son;Grant Dragonbane;Donner Tue-Dragon;;;Ceder Venganza de Dragón;;;;;;;;;x
give_the_usurper_to_son_desc;I will pass on Dragonbane to [Root.GetFirstName], [Root.GetSheHe] needs it more than I do.;Je vais donner Tue-Dragon à [Root.GetFirstName], [Root.GetSheHe] en a plus besoin que moi. ;;;Cederé Venganza de Dragón a[Root.GetFirstName], la necesita más que yo.;;;;;;;;;x
give_worldeater_to_son;Grant Finger Eater;Donner Mangedoigt;;;Ceder Comededos;;;;;;;;;x
give_worldeater_to_son_desc;I will pass on Finger Eater to [Root.GetFirstName], [Root.GetSheHe] needs it more than I do.;Je vais donner Mangedoigt à [Root.GetFirstName], [Root.GetSheHe] en a plus besoin que moi. ;;;Cederé Comededos a [Root.GetFirstName], la necesita más que yo.;;;;;;;;;x
give_worlds_envy_to_son;Grant Rakh Arakh;Donner Rakh Arakh;;;Ceder Rakh Arakh;;;;;;;;;x
give_worlds_envy_to_son_desc;I will pass on Rakh Arakh to [Root.GetFirstName], [Root.GetSheHe] needs it more than I do.;Je vais donner Rakh Arakh à [Root.GetFirstName], [Root.GetSheHe] en a plus besoin que moi. ;;;Cederé Rakh Arakh a [Root.GetFirstName], la necesita más que yo.;;;;;;;;;x
opinion_stole_anger;Stole my Sword;A volé mon épée;;;Ha robado a Duelo de la Madre;;;;;;;;;x
opinion_stole_black_death;Stole my Sword;A volé mon épée;;;Ha robado a Muerte Negra;;;;;;;;;x
opinion_stole_compassion;Stole my Sword;A volé mon épée;;;Ha robado a Gloria;;;;;;;;;x
opinion_stole_concession;Stole my Sword;A volé mon épée;;;Ha robado a Desolladora;;;;;;;;;x
opinion_stole_del_pino;Stole my Sword;A volé mon épée;;;Ha robado a Quebrantapinos;;;;;;;;;x
opinion_stole_el_swordo;Stole my Sword;A volé mon épée;;;Ha robado a Buenaspada;;;;;;;;;x
opinion_stole_gold_sword;Stole my Sword;A volé mon épée;;;Ha robado a Beso Dorniense;;;;;;;;;x
opinion_stole_happyness;Stole my Sword;A volé mon épée;;;Ha robado a Furia del Padre;;;;;;;;;x
opinion_stole_hubris;Stole my Sword;A volé mon épée;;;Ha robado a Orgullo Desmesurado;;;;;;;;;x
opinion_stole_justice;Stole my Sword;A volé mon épée;;;Ha robado a Jade;;;;;;;;;x
opinion_stole_kingmaker;Stole my Sword;A volé mon épée;;;Ha robado a Hacedora de Reyes;;;;;;;;;x
opinion_stole_passion;Stole my Sword;A volé mon épée;;;Ha robado a Pasión;;;;;;;;;x
opinion_stole_rage;Stole my Sword;A volé mon épée;;;Ha robado a Toque del Desconocido;;;;;;;;;x
opinion_stole_sightblinder;Stole my Sword;A volé mon épée;;;Ha robado a Maza del Luto;;;;;;;;;x
opinion_stole_the_monarchist;Stole my Sword;A volé mon épée;;;Ha robado a Mordisco del Titán;;;;;;;;;x
opinion_stole_the_usurper;Stole my Sword;A volé mon épée;;;Ha robado a Venganza de Dragón;;;;;;;;;x
opinion_stole_worldeater;Stole my Sword;A volé mon épée;;;Ha robado a Comededos;;;;;;;;;x
opinion_stole_worlds_envy;Stole my Sword;A volé mon épée;;;Ha robado a Rakh Arakh;;;;;;;;;x
TOOLTIPANGERWIELDER;[This.GetFirstNameWithDynasty] wields §YMother's Grief§!\n;[This.GetFirstNameWithDynasty] manie §YIre§!\n;;;[This.GetFirstNameWithDynasty] blande a §YDuelo de la Madre§!\n;;;;;;;;;x
TOOLTIPBLACK_DEATHWIELDER;[This.GetFirstNameWithDynasty] wields §YBlack Death§!\n;[This.GetFirstNameWithDynasty] manie §YMort-Noire§!\n;;;[This.GetFirstNameWithDynasty] blande a §YMuerte Negra§!\n;;;;;;;;;x
TOOLTIPCOMPASSIONWIELDER;[This.GetFirstNameWithDynasty] wields §YGlory§!\n;[This.GetFirstNameWithDynasty] manie §YCompassion§!\n;;;[This.GetFirstNameWithDynasty] blande a §YGloria§!\n;;;;;;;;;x
TOOLTIPCONCESSIONWIELDER;[This.GetFirstNameWithDynasty] wields §YSkinpeeler§!\n;[This.GetFirstNameWithDynasty] manie §Yepluche-peau§!\n;;;[This.GetFirstNameWithDynasty] blande a §YDesolladora§!\n;;;;;;;;;x
TOOLTIPDEL_PINOWIELDER;[This.GetFirstNameWithDynasty] wields §YPale Mare§!\n;[This.GetFirstNameWithDynasty] manie §YBrise-Pin§!\n;;;[This.GetFirstNameWithDynasty] blande a §YQuebrantapinos§!\n;;;;;;;;;x
TOOLTIPEL_SWORDOWIELDER;[This.GetFirstNameWithDynasty] wields §YGoodsword§!\n;[This.GetFirstNameWithDynasty] manie §YFleuret§!\n;;;[This.GetFirstNameWithDynasty] blande a §YBuenaspada§!\n;;;;;;;;;x
TOOLTIPGOLD_SWORDWIELDER;[This.GetFirstNameWithDynasty] wields §YDornish Kiss§!\n;[This.GetFirstNameWithDynasty] manie §YOr§!\n;;;[This.GetFirstNameWithDynasty] blande a §YBeso Dorniense§!\n;;;;;;;;;x
TOOLTIPHAPPYNESSWIELDER;[This.GetFirstNameWithDynasty] wields §YFather's Fury§!\n;[This.GetFirstNameWithDynasty] manie §YJoie§!\n;;;[This.GetFirstNameWithDynasty]blande a §YFuria del Padre§!\n;;;;;;;;;x
TOOLTIPHUBRISWIELDER;[This.GetFirstNameWithDynasty] wields §YTalon§!\n;[This.GetFirstNameWithDynasty] manie §YHubris§!\n;;;[This.GetFirstNameWithDynasty] blande a §YOrgullo Desmesurado§!\n;;;;;;;;;x
TOOLTIPJUSTICEWIELDER;[This.GetFirstNameWithDynasty] wields §YJade§!\n;[This.GetFirstNameWithDynasty] manie §YJustice§!\n;;;[This.GetFirstNameWithDynasty] blande a §YJade§!\n;;;;;;;;;x
TOOLTIPKINGMAKERWIELDER;[This.GetFirstNameWithDynasty] wields §YKingmaker§!\n;[This.GetFirstNameWithDynasty] manie §YFaiseuse-de-Roi§!\n;;;[This.GetFirstNameWithDynasty] blande a §YHacedora de Reyes§!\n;;;;;;;;;x
TOOLTIPPASSIONWIELDER;[This.GetFirstNameWithDynasty] wields §YPassion§!\n;[This.GetFirstNameWithDynasty] manie §YPassion§!\n;;;[This.GetFirstNameWithDynasty] blande a §YPasión§!\n;;;;;;;;;x
TOOLTIPRAGEWIELDER;[This.GetFirstNameWithDynasty] wields §YStranger's Touch§!\n;[This.GetFirstNameWithDynasty] manie §YRage§!\n;;;[This.GetFirstNameWithDynasty] blande a §YToque del Desconocido§!\n;;;;;;;;;x
TOOLTIPSIGHTBLINDERWIELDER;[This.GetFirstNameWithDynasty] wields §YMourning Mace§!\n;[This.GetFirstNameWithDynasty] manie §YVoyante§!\n;;;[This.GetFirstNameWithDynasty] blande a §YMaza del Luto§!\n;;;;;;;;;x
TOOLTIPTHE_MONARCHISTWIELDER;[This.GetFirstNameWithDynasty] wields §YTitan's Bite§!\n;[This.GetFirstNameWithDynasty] manie §Yla Monarchiste§!\n;;;[This.GetFirstNameWithDynasty] blande a §YMordisco del Titán§!\n;;;;;;;;;x
TOOLTIPTHE_USURPERWIELDER;[This.GetFirstNameWithDynasty] wields §YDragonbane§!\n;[This.GetFirstNameWithDynasty] manie §Yl'Usurpatrice§!\n;;;[This.GetFirstNameWithDynasty] blande a §YVenganza de Dragón§!\n;;;;;;;;;x
TOOLTIPWORLDEATERWIELDER;[This.GetFirstNameWithDynasty] wields §YFinger Eater§!\n;[This.GetFirstNameWithDynasty] manie §YMangemonde§!\n;;;[This.GetFirstNameWithDynasty] blande a §YComededos§!\n;;;;;;;;;x
TOOLTIPWORLDS_ENVYWIELDER;[This.GetFirstNameWithDynasty] wields §YRakh Arakh§!\n;[This.GetFirstNameWithDynasty] manie §YEnvie§!\n;;;[This.GetFirstNameWithDynasty] blande a §YRakh Arakh§!\n;;;;;;;;;x
TOOLTIPKGANGER;Ser [This.GetFirstName] wielded the Valyrian bastard sword Honor.;;;;;;;;;;;;;x;
TOOLTIPKGBLACK_DEATH;Ser [This.GetFirstName] wielded the Valyrian rapier Strangers Promise.;;;;;;;;;;;;;x;
TOOLTIPKGCOMPASSION;Ser [This.GetFirstName] wielded the Valyrian greatsword Compassion.;;;;;;;;;;;;;x;
TOOLTIPKGCONCESSION;Ser [This.GetFirstName] wielded the Valyrian longsword Concession.;;;;;;;;;;;;;x;
TOOLTIPKGDEL_PINO;Ser [This.GetFirstName] wielded the Valyrian longsword Pale Mare.;;;;;;;;;;;;;x;
TOOLTIPKGEL_SWORDO;Ser [This.GetFirstName] wielded the Valyrian curved sword Rosethorn.;;;;;;;;;;;;;x;
TOOLTIPKGGOLD_SWORD;Ser [This.GetFirstName] wielded the Valyrian longsword Winters Bane.;;;;;;;;;;;;;x;
TOOLTIPKGHAPPYNESS;Ser [This.GetFirstName] wielded the Valyrian greatsword Glory.;;;;;;;;;;;;;x;
TOOLTIPKGHUBRIS;Ser [This.GetFirstName] wielded the Valyrian longsword Hubris.;;;;;;;;;;;;;x;
TOOLTIPKGJUSTICE;Ser [This.GetFirstName] wielded the Valyrian sword Justice.;;;;;;;;;;;;;x;
TOOLTIPKGKINGMAKER;Ser [This.GetFirstName] wielded the Valyrian longsword King Maker.;;;;;;;;;;;;;x;
TOOLTIPKGPASSION;Ser [This.GetFirstName] wielded the Valyrian shortsword Passion.;;;;;;;;;;;;;x;
TOOLTIPKGRAGE;Ser [This.GetFirstName] wielded the Valyrian greatsword Rage.;;;;;;;;;;;;;x;
TOOLTIPKGSIGHTBLINDER;Ser [This.GetFirstName] wielded the Valyrian longsword Nightshade.;;;;;;;;;;;;;x;
TOOLTIPKGTHE_MONARCHIST;Ser [This.GetFirstName] wielded the Valyrian curved sword Venom Spitter.;;;;;;;;;;;;;x;
TOOLTIPKGTHE_USURPER;Ser [This.GetFirstName] wielded the Valyrian sword Seal of Power.;;;;;;;;;;;;;x;
TOOLTIPKGWORLDEATER;Ser [This.GetFirstName] wielded the Valyrian longsword Finger Eater.;;;;;;;;;;;;;x;
TOOLTIPKGWORLDS_ENVY;Ser [This.GetFirstName] wielded the Valyrian shortsword Duty.;;;;;;;;;;;;;x;
TOOLTIPRECLAIMANGERWAR;[This.GetFirstName]shall surrender §YMother's Grief§! To §Y[Root.GetFirstName]§!\n;;;;;;;;;;;;;x
TOOLTIPRECLAIMBLACK_DEATHWAR;[This.GetFirstName]shall surrender §YBlack Death§! To §Y[Root.GetFirstName]§!\n;;;;;;;;;;;;;x
TOOLTIPRECLAIMCOMPASSIONWAR;[This.GetFirstName]shall surrender §YGlory§! To §Y[Root.GetFirstName]§!\n;;;;;;;;;;;;;x
TOOLTIPRECLAIMCONCESSIONWAR;[This.GetFirstName]shall surrender §YSkinpeeler§! To §Y[Root.GetFirstName]§!\n;;;;;;;;;;;;;x
TOOLTIPRECLAIMDEL_PINOWAR;[This.GetFirstName]shall surrender §YPale Mare§! To §Y[Root.GetFirstName]§!\n;;;;;;;;;;;;;x
TOOLTIPRECLAIMEL_SWORDOWAR;[This.GetFirstName]shall surrender §YGoodsword§! To §Y[Root.GetFirstName]§!\n;;;;;;;;;;;;;x
TOOLTIPRECLAIMGOLD_SWORDWAR;[This.GetFirstName]shall surrender §YDornish Kiss§! To §Y[Root.GetFirstName]§!\n;;;;;;;;;;;;;x
TOOLTIPRECLAIMHAPPYNESSWAR;[This.GetFirstName]shall surrender §YFather's Fury§! To §Y[Root.GetFirstName]§!\n;;;;;;;;;;;;;x
TOOLTIPRECLAIMHUBRISWAR;[This.GetFirstName]shall surrender §YTalon§! To §Y[Root.GetFirstName]§!\n;;;;;;;;;;;;;x
TOOLTIPRECLAIMJUSTICEWAR;[This.GetFirstName]shall surrender §YJade§! To §Y[Root.GetFirstName]§!\n;;;;;;;;;;;;;x
TOOLTIPRECLAIMKINGMAKERWAR;[This.GetFirstName]shall surrender §YKingmaker§! To §Y[Root.GetFirstName]§!\n;;;;;;;;;;;;;x
TOOLTIPRECLAIMPASSIONWAR;[This.GetFirstName]shall surrender §YPassion§! To §Y[Root.GetFirstName]§!\n;;;;;;;;;;;;;x
TOOLTIPRECLAIMRAGEWAR;[This.GetFirstName]shall surrender §YStranger's Touch§! To §Y[Root.GetFirstName]§!\n;;;;;;;;;;;;;x
TOOLTIPRECLAIMSIGHTBLINDERWAR;[This.GetFirstName]shall surrender §YMourning Mace§! To §Y[Root.GetFirstName]§!\n;;;;;;;;;;;;;x
TOOLTIPRECLAIMTHE_MONARCHISTWAR;[This.GetFirstName]shall surrender §YTitan's Bite§! To §Y[Root.GetFirstName]§!\n;;;;;;;;;;;;;x
TOOLTIPRECLAIMTHE_USURPERWAR;[This.GetFirstName]shall surrender §YDragonbane§! To §Y[Root.GetFirstName]§!\n;;;;;;;;;;;;;x
TOOLTIPRECLAIMWORLDEATERWAR;[This.GetFirstName]shall surrender §YFinger Eater§! To §Y[Root.GetFirstName]§!\n;;;;;;;;;;;;;x
TOOLTIPRECLAIMWORLDS_ENVYWAR;[This.GetFirstName]shall surrender §YRakh Arakh§! To §Y[Root.GetFirstName]§!\n;;;;;;;;;;;;;x
ValyrianSwordanger;Mother's Grief;Chagrin-des-Mères;;;Dolores de Madres;;;;;;;;;x
ValyrianSwordblack_death;Black Death;Mort-Noire;;;Muerte Negra;;;;;;;;;x
ValyrianSwordcompassion;Glory;Gloire;;;Gloria;;;;;;;;;x
ValyrianSwordconcession;Skinpeeler;Epluche-peau;;;Desollador;;;;;;;;;x
ValyrianSworddel_pino;Pale Mare;Brise-Pin;;;Del Pino;;;;;;;;;x
ValyrianSwordel_swordo;Goodsword;Bonnelame;;;Buenaspada;;;;;;;;;x
ValyrianSwordgold_sword;Dornish Kiss;Baiser-Dornien;;;Beso Dorniense;;;;;;;;;x
ValyrianSwordhappyness;Father's Fury;Furie-des-Pères;;;La Furia del Padre;;;;;;;;;x
ValyrianSwordhubris;Talon;Serre;;;Garra;;;;;;;;;x
ValyrianSwordjustice;Jade;Jade;;;Jade;;;;;;;;;x
ValyrianSwordkingmaker;Kingmaker;Faiseuse-de-Roi;;;Hacedor de Reyes;;;;;;;;;x
ValyrianSwordpassion;Passion;Passion;;;Pasión;;;;;;;;;x
ValyrianSwordrage;Stranger's Touch;L'Etranger;;;Toque de Extraños;;;;;;;;;x
ValyrianSwordsightblinder;Mourning Mace;Masse-de-Deuil;;;Maza de luto;;;;;;;;;x
ValyrianSwordthe_monarchist;Titan's Bite;Morsure-des-Titans;;;Mordedura del Titán;;;;;;;;;x
ValyrianSwordthe_usurper;Dragonbane;Fléaudragon;;;Perdición del Dragón;;;;;;;;;x
ValyrianSwordworldeater;Finger Eater;Mange-Doigt;;;Devorador de Dedos;;;;;;;;;x
ValyrianSwordworlds_envy;Rakh Arakh;Rakh Arakh;;;Rakh Arakh;;;;;;;;;x