##Special
death_text_excommunicated = {
	weight_multiplier = {
		factor = 100
	
		modifier = {
			factor = 0
			NOT = { trait = excommunicated }
		}
	}
}
death_text_kinslayer = {
	weight_multiplier = {
		factor = 100
	
		modifier = {
			factor = 0
			NOT = { is_any_kinslayer_trigger = yes }
		}
	}
}
death_text_crazy = {
	weight_multiplier = {
		factor = 100
	
		modifier = {
			factor = 0
			NOT = { 
				calc_true_if = {
					amount = 2
					trait = lunatic
					trait = fire_obsessed
					trait = possessed
					trait = paranoid
				}
			}
		}
	}
}
death_text_good_knight = {
	weight_multiplier = {
		factor = 100
		
		modifier = {
			factor = 0
			NOT = { trait = knight }
		}
		modifier = {
			factor = 0
			NOT = { 
				calc_true_if = {
					amount = 3
					trait = just
					trait = kind
					trait = brave
					trait = diligent
					trait = honorable
					trait = charitable
					trait = honest
				}
			}
		}
		modifier = {
			factor = 0
			is_wicked = yes
		}
	}
}
death_text_virtuous = {
	weight_multiplier = {
		factor = 100
		
		modifier = {
			factor = 0
			trait = knight
		}
		modifier = {
			factor = 0
			NOT = { 
				calc_true_if = {
					amount = 3
					trait = just
					trait = kind
					trait = brave
					trait = diligent
					trait = honorable
					trait = charitable
					trait = honest
				}
			}
		}
		modifier = {
			factor = 0
			is_wicked = yes
		}
	}
}
death_text_chosen_by_rhllor = {
	weight_multiplier = {
		factor = 100
	
		modifier = {
			factor = 0
			NOT = { trait = chosen_by_rhllor }
		}
	}
}
death_text_perfect_specimen = {
	weight_multiplier = {
		factor = 100
	
		modifier = {
			factor = 0
			OR = {
				NOT = { is_smart_incl_genius_trigger = yes }
				NOT = { has_fair_trait_trigger = yes }
				NOT = { is_strong_trigger = yes }
				NOT = { trait = tall }
			}	
		}
	}
}
death_text_brilliant = {
	weight_multiplier = {
		factor = 100
	
		modifier = {
			factor = 0
			OR = {
				NOT = { learning = 12 }
				NOT = { martial = 12 }
				NOT = { diplomacy = 12 }
				NOT = { intrigue = 12 }
				NOT = { stewardship = 12 }
			}	
		}
	}
}
death_text_incompetent = {
	weight_multiplier = {
		factor = 100
	
		modifier = {
			factor = 0
			OR = {
				learning = 5
				martial = 5
				diplomacy = 5
				intrigue = 5
				stewardship = 5
				is_incapable = yes
			}	
		}
	}
}
death_text_monster = {
	weight_multiplier = {
		factor = 100
	
		modifier = {
			factor = 0
			NOT = { 
				calc_true_if = {
					amount = 3
					trait = cruel
					trait = impaler
					trait = ruthless
					trait = lunatic
					trait = wroth
				}
			}
		}
	}
}
##Mid priority
death_text_very_ugly = {
	weight_multiplier = {
		factor = 50
	
		modifier = {
			factor = 0
			NOT = { 
				calc_true_if = {
					amount = 2
					has_ugly_trait_trigger = yes
					has_scarred_trait_trigger = yes
					trait = greyscale_scarred
					trait = clubfooted 
					trait = harelip
					trait = hunchback
					trait = disfigured
				}
			}
		}
	}
}
death_text_very_strong = {
	weight_multiplier = {
		factor = 50
	
		modifier = {
			factor = 0
			OR = {
				NOT = { is_strong_trigger = yes }
				NOT = { trait = tall }
			}	
		}
	}
}
death_text_very_old = {
	weight_multiplier = {
		factor = 50
		
		modifier = {
			factor = 0
			NOT = { age = 90 }
		}
		modifier = {
			factor = 0
			trait = resurrected_by_rhllor
		}		
	}
}
death_text_very_young = {
	weight_multiplier = {
		factor = 50
	
		modifier = {
			factor = 0
			age = 16
		}
	}
}
death_text_great_warrior = {
	weight_multiplier = {
		factor = 50
	
		modifier = {
			factor = 0
			OR = {
				NOT = { martial = 20 }
				NOT = { combat_rating = 100 }
			}
		}
	}
}
death_text_kingsguard = {
	weight_multiplier = {
		factor = 50
	
		modifier = {
			factor = 0
			NOT = { trait = kingsguard }
		}
	}
}
death_text_nightswatch = {
	weight_multiplier = {
		factor = 50
	
		modifier = {
			factor = 0
			NOT = { trait = nightswatch }
		}
	}
}
death_text_tyrant = {
	weight_multiplier = {
		factor = 50
	
		modifier = {
			factor = 0
			OR = {
				NOT = { check_variable = { which = "tyrant" value = 9.9 } }
				trait = tyrannical_stain
			}
		}
	}
}
death_text_dragon_rider = {
	weight_multiplier = {
		factor = 50
		
		modifier = {
			factor = 0.05
			OR = {
				father_even_if_dead = { trait = dragon_rider }
				mother_even_if_dead = { trait = dragon_rider }
				any_sibling = { trait = dragon_rider }
			}	
		}
		modifier = {
			factor = 0
			NOT = { trait = dragon_rider }
		}
	}
}
death_text_dragon_slayer = {
	weight_multiplier = {
		factor = 50
	
		modifier = {
			factor = 0
			NOT = { trait = dragon_slayer }
		}
	}
}
death_text_drowned = {
	weight_multiplier = {
		factor = 50
	
		modifier = {
			factor = 0
			NOT = { trait = drowned }
		}
	}
}
death_text_liberator = {
	weight_multiplier = {
		factor = 50
	
		modifier = {
			factor = 0
			NOT = { trait = liberator }
		}
	}
}
death_text_dragon_dreams = {
	weight_multiplier = {
		factor = 50
	
		modifier = {
			factor = 0
			NOT = { trait = dragon_dreams }
		}
	}
}
death_text_erudite = {
	weight_multiplier = {
		factor = 50
		
		modifier = {
			factor = 0
			NOT = { trait = erudite }
		}
		modifier = {
			factor = 0
			trait = zealous
		}
		modifier = {
			factor = 0
			NOR = {
				trait = sympathy_westerosi
				trait = sympathy_drowned_god
				trait = sympathy_essos_group
				trait = sympathy_ghiscar_rel
				trait = sympathy_valyrian_rel_group
			}
		}
	}
}
death_text_great_reaver = {
	weight_multiplier = {
		factor = 50
		
		modifier = {
			factor = 0
			NOR = { 
				trait = ravager
				trait = seaking
			}
		}
		modifier = {
			factor = 0
			NOT = { martial = 12 }
		}
		modifier = {
			factor = 0
			NOT = { combat_rating = 80 }
		}		
	}
}
death_text_prestige = {
	weight_multiplier = {
		factor = 50
	
		modifier = {
			factor = 0
			NOT = { prestige = 5000 }
		}
	}
}
death_text_piety = {
	weight_multiplier = {
		factor = 50
	
		modifier = {
			factor = 0
			NOT = { piety = 1000 }
		}
	}
}
death_text_popular = {
	weight_multiplier = {
		factor = 50
	
		modifier = {
			factor = 0
			NOT = { num_of_friends = 4 }
		}
	}
}
death_text_unpopular = {
	weight_multiplier = {
		factor = 50
	
		modifier = {
			factor = 0
			NOT = { num_of_rivals = 4 }
		}
	}
}
death_text_prolific = {
	weight_multiplier = {
		factor = 50
	
		modifier = {
			factor = 0
			NOT = { num_of_children = 10 }
		}
	}
}
death_text_barren = {
	weight_multiplier = {
		factor = 50
	
		modifier = {
			factor = 0
			OR = {
				any_child_even_if_dead = { always = yes } 
				NOT = { age = 30 }			
				trait = eunuch
				trait = celibate
			}	
		}
	}
}
##Low Priority
death_text_young = {
	weight_multiplier = {
		factor = 10
	
		modifier = {
			factor = 0
			OR = {
				NOT = { age = 16 }
				age = 30
			}	
		}
	}
}
death_text_nickname = {
	weight_multiplier = {
		factor = 10
	
		modifier = {
			factor = 0
			OR = {
				has_nickname = no
				trait = bastard
			}
		}
	}
}
death_text_diplomacy = {
	weight_multiplier = {
		factor = 10
	
		modifier = {
			factor = 0
			OR = {
				NOT = { diplomacy = 12 }
				NOR = {
					trait = naive_appeaser
					trait = underhanded_rogue
					trait = charismatic_negotiator
					trait = grey_eminence
					trait = socializer
				}
			}
		}
	}
}
death_text_stewardship = {
	weight_multiplier = {
		factor = 10
	
		modifier = {
			factor = 0
			OR = {
				NOT = { stewardship = 12 }
				NOR = {
					trait = indulgent_wastrel
					trait = thrifty_clerk
					trait = fortune_builder
					trait = midas_touched
					trait = administrator
				}
			}
		}
	}
}
death_text_martial = {
	weight_multiplier = {
		factor = 10
	
		modifier = {
			factor = 0
			OR = {
				NOT = { martial = 12 }
				NOR = {
					trait = misguided_warrior
					trait = tough_soldier
					trait = skilled_tactician
					trait = brilliant_strategist
					trait = strategist
				}
			}
		}
	}
}
death_text_intrigue = {
	weight_multiplier = {
		factor = 10
	
		modifier = {
			factor = 0
			OR = {
				NOT = { intrigue = 12 }
				NOR = {
					trait = amateurish_plotter
					trait = flamboyant_schemer
					trait = intricate_webweaver
					trait = elusive_shadow
					trait = schemer
				}
			}
		}
	}
}
death_text_learning = {
	weight_multiplier = {
		factor = 10
	
		modifier = {
			factor = 0
			OR = {
				NOT = { learning = 12 }
				NOR = {
					trait = detached_priest
					trait = martial_cleric
					trait = scholarly_theologian
					trait = mastermind_theologian
					trait = scholar
					trait = theologian
					trait = erudite
				}
			}
		}
	}
}
death_text_lunatic = {
	weight_multiplier = {
		factor = 10
	
		modifier = {
			factor = 0
			NOR = { 
				trait = lunatic 
				trait = possessed
			}
		}
	}
}
death_text_drunkard = {
	weight_multiplier = {
		factor = 10
	
		modifier = {
			factor = 0
			NOT = { trait = drunkard }
		}
	}
}
death_text_deformed = {
	weight_multiplier = {
		factor = 10
	
		modifier = {
			factor = 0
			NOR = { 
				trait = clubfooted 
				trait = harelip
				trait = hunchback
			}
		}
	}
}
death_text_fair = {
	weight_multiplier = {
		factor = 10
	
		modifier = {
			factor = 0
			NOT = { has_fair_trait_trigger = yes }
		}
	}
}
death_text_ugly = {
	weight_multiplier = {
		factor = 10
	
		modifier = {
			factor = 0
			NOT = { has_ugly_trait_trigger = yes }
		}
	}
}
death_text_dwarf = {
	weight_multiplier = {
		factor = 10
	
		modifier = {
			factor = 0
			NOT = { trait = dwarf }
		}
	}
}
death_text_genius = {
	weight_multiplier = {
		factor = 10
	
		modifier = {
			factor = 0
			NOT = { trait = genius }
		}
	}
}
death_text_smart = {
	weight_multiplier = {
		factor = 10
	
		modifier = {
			factor = 0
			NOT = { is_smart_trigger = yes }
		}
	}
}
death_text_dumb = {
	weight_multiplier = {
		factor = 10
	
		modifier = {
			factor = 0
			NOT = { is_dumb_trigger = yes }
		}
	}
}
death_text_strong = {
	weight_multiplier = {
		factor = 10
	
		modifier = {
			factor = 0
			NOT = { is_strong_trigger = yes }
		}
	}
}
death_text_weak = {
	weight_multiplier = {
		factor = 10
	
		modifier = {
			factor = 0
			NOT = { is_weak_trigger = yes }
		}
	}
}
death_text_celibate = {
	weight_multiplier = {
		factor = 10
	
		modifier = {
			factor = 0
			NOT = { trait = celibate }
		}
	}
}
death_text_hedonist = {
	weight_multiplier = {
		factor = 10
	
		modifier = {
			factor = 0
			NOT = { trait = hedonist }
		}
	}
}
death_text_deceitful = {
	weight_multiplier = {
		factor = 10
	
		modifier = {
			factor = 0
			OR = {
				NOT = { trait = deceitful }
				is_wicked = no
			}
		}
	}
}
death_text_honest = {
	weight_multiplier = {
		factor = 10
	
		modifier = {
			factor = 0
			OR = {
				NOT = { trait = honest }
				is_virtous = no
			}
		}
	}
}
death_text_craven = {
	weight_multiplier = {
		factor = 10
	
		modifier = {
			factor = 0
			NOT = { trait = craven }
		}
	}
}
death_text_brave = {
	weight_multiplier = {
		factor = 10
	
		modifier = {
			factor = 0
			NOT = { trait = brave }
		}
	}
}
death_text_ambitious = {
	weight_multiplier = {
		factor = 10
	
		modifier = {
			factor = 0
			NOT = { trait = ambitious }
		}
	}
}
death_text_content = {
	weight_multiplier = {
		factor = 10
	
		modifier = {
			factor = 0
			NOT = { trait = content }
		}
	}
}
death_text_arbitrary = {
	weight_multiplier = {
		factor = 10
	
		modifier = {
			factor = 0
			NOT = { trait = arbitrary }
		}
	}
}
death_text_just = {
	weight_multiplier = {
		factor = 10
	
		modifier = {
			factor = 0
			NOT = { trait = just }
		}
	}
}
death_text_cynical = {
	weight_multiplier = {
		factor = 10
	
		modifier = {
			factor = 0
			NOT = { trait = arbitrary }
		}
	}
}
death_text_zealous = {
	weight_multiplier = {
		factor = 10
	
		modifier = {
			factor = 0
			NOT = { trait = just }
		}
	}
}
death_text_paranoid = {
	weight_multiplier = {
		factor = 10
	
		modifier = {
			factor = 0
			NOT = { trait = paranoid }
		}
	}
}
death_text_trusting = {
	weight_multiplier = {
		factor = 10
	
		modifier = {
			factor = 0
			NOT = { trait = trusting }
		}
	}
}
death_text_cruel = {
	weight_multiplier = {
		factor = 10
	
		modifier = {
			factor = 0
			NOT = { trait = cruel }
		}
	}
}
death_text_elephant = {
	weight_multiplier = {
		factor = 10
	
		modifier = {
			factor = 0
			NOT = { trait = elephant }
		}
	}
}
death_text_tiger = {
	weight_multiplier = {
		factor = 10
	
		modifier = {
			factor = 0
			NOT = { trait = tiger }
		}
	}
}
death_text_fire_obsessed = {
	weight_multiplier = {
		factor = 10
	
		modifier = {
			factor = 0
			NOT = { trait = fire_obsessed }
		}
	}
}
death_text_master_warrior = {
	weight_multiplier = {
		factor = 10
	
		modifier = {
			factor = 0
			NOT = { trait = master_warrior }
		}
	}
}
death_text_fashionable = {
	weight_multiplier = {
		factor = 10
	
		modifier = {
			factor = 0
			NOT = { has_fashionable_groomed_trigger = yes }
		}
	}
}
death_text_tall = {
	weight_multiplier = {
		factor = 10
	
		modifier = {
			factor = 0
			NOT = { trait = tall }
		}
	}
}
death_text_authoritative = {
	weight_multiplier = {
		factor = 10
	
		modifier = {
			factor = 0
			NOT = { trait = authoritative }
		}
	}
}
death_text_familyperson = {
	weight_multiplier = {
		factor = 10
	
		modifier = {
			factor = 0
			NOT = { trait = familyperson }
		}
	}
}
death_text_stubborn = {
	weight_multiplier = {
		factor = 10
	
		modifier = {
			factor = 0
			NOT = { trait = stubborn }
		}
	}
}
death_text_ruthless = {
	weight_multiplier = {
		factor = 10
	
		modifier = {
			factor = 0
			NOT = { trait = ruthless }
		}
	}
}
death_text_honorable = {
	weight_multiplier = {
		factor = 10
	
		modifier = {
			factor = 0
			NOT = { trait = honorable }
		}
	}
}
death_text_favored_by_rhllor = {
	weight_multiplier = {
		factor = 10
	
		modifier = {
			factor = 0
			NOT = { trait = favored_by_rhllor }
		}
	}
}
death_text_viking = {
	weight_multiplier = {
		factor = 10
	
		modifier = {
			factor = 0
			NOT = { trait = viking }
		}
	}
}
death_text_seducer = {
	weight_multiplier = {
		factor = 10
	
		modifier = {
			factor = 0
			NOR = { 
				trait = seducer
				trait = seductress
			}
		}
	}
}
death_text_architect = {
	weight_multiplier = {
		factor = 10
	
		modifier = {
			factor = 0
			NOT = { trait = architect }
		}
	}
}

