##House Morcant


1666015 = {
	name="Jon"
	dynasty=1063
	dna="ccbaf0fbba0"
	properties="ba0c0k0000000000000000000000000000"
		
	martial = 8
	diplomacy = 4
	intrigue = 1
	stewardship = 6 
	learning = 3
	
	religion="old_gods"
	culture="valeman"
	

	
	8221.1.1 = {birth="8221.1.1" }
	8237.1.1 = {
		add_trait="honest"
		add_trait="selfish"
		add_trait="brave"
		add_trait="proud"
		add_trait="rude"
		add_trait="skilled_warrior"		
		add_trait="skilled_tactician"		
		employer = 21169
	}
	8240.1.1 = {
		add_spouse = 1666016
	}
	8262.1.1 = {
		employer = 97 
	}	
}

1666016 = {
	name="Suza"
	female=yes
	dna="a0dfe0abba0"
	properties="br0f0k0000000000000000000000000000"

	
	martial = 3
	diplomacy = 5
	intrigue = 6
	stewardship = 1 
	learning = 7
	
	religion="old_gods"
	culture="valeman"
	

	
	8224.1.1 = {
		birth="8224.1.1" 
		add_trait="fair_1"		
	}
	8240.1.1 = {
		add_spouse = 1666015
		add_trait="fashionable"		
	}
}

1666017 = {
	name="Petyr"
	dynasty=1063
	dna="cgckg0fgea0"
	properties="ba0f0k00000000000000000000000000000"

	
	martial = 8
	diplomacy = 4
	intrigue = 1
	stewardship = 5 
	learning = 7
	
	religion="old_gods"
	culture="northman"
	
	father=1666015
	mother=1666016
	
	8251.1.1 = {birth="8251.1.1" 
		add_trait="quick_1"
	}
	8267.1.1 = {
		add_trait="brave"
		add_trait="proud"
		add_trait="gregarious"		
		add_trait="skilled_warrior"		
		add_trait="fortune_builder"		
		employer = 2058 #Rickard Stark
	}
	8278.1.1 = {
		add_spouse = 1666018
	}
	8282.1.1={
		employer = 97
	}	
}

7787701 = {
	name="Jon"
	dynasty=97
	dna="akcfe0af000"
	properties="ci0j0k00000000000000000000000000000"

	
	martial = 3
	diplomacy = 3
	intrigue = 1
	stewardship = 6 
	learning = 6
	
	religion="old_gods"
	culture="hill_clansman"
	
	father=5097
	
	8227.1.1 = {birth="8227.1.1" }
	8241.1.1 = {
		add_spouse = 7787702
	}
	8243.1.1 = {
		add_trait="selfish"
		add_trait="brave"
		add_trait="wroth"
		add_trait="proud"
		add_trait="rude"
		add_trait="skilled_warrior"		
		add_trait="fortune_builder"		
	}	
}

7787702 = {
	name="Joy"
	female=yes
	dna="bffce0ef0a0"
	properties="ce0j0k0000000000000000000000000000"

	
	martial = 2
	diplomacy = 3
	intrigue = 4
	stewardship = 1 
	learning = 3
	
	religion="old_gods"
	culture="northman"
	

	
	8224.1.1 = {
		birth="8224.1.1" 
	}
	8241.1.1 = {
		add_spouse = 7787701
	}
}
1666018 = {
	name="Katelyn"
	dynasty=97
	female=yes
	dna="be0kd0adi00"
	properties="bl0e0k0000000000000000000000000000"


	martial = 3
	diplomacy = 4
	intrigue = 1
	stewardship = 7 
	learning = 6
	
	religion="old_gods"
	culture="northman"
	
	father=7787701
	mother=7787702
	
	8262.1.1 = {
		birth="8262.1.1" 
		add_trait="fair_1"		
		add_trait="just"		
		add_trait="wroth"		
	}
	8278.1.1 = {
		add_spouse = 1666017
	}
}


1666019 = {
	name="Rolfric"
	dynasty=1063
	dna="cbfac0abib0"
	properties="bm0c0k00000000000000000000000000000"


	martial = 4
	diplomacy = 6
	intrigue = 1
	stewardship = 4
	learning = 8
	
	religion="old_gods"
	culture="northman"
	
	father=1666017
	mother=1666018
	
	8281.1.1 = {
		birth="8281.1.1" 
		add_trait="quick_1"
		add_trait="wroth"		
	}
	8297.1.1 = {
		add_trait="honest"
		add_trait="brave"
		add_trait="proud"
		add_trait="honorable"
		add_trait="charismatic_negotiator"		
		employer = 59 
	}
	8298.11.2 = {
		employer = 97
	}	
}

1666020 = {
	name="Tara"
	dynasty=1063
	female=yes
	dna="bahgd0adi00"
	properties="bb0b0k0000000000000000000000000000"

	
	martial = 3
	diplomacy = 7
	intrigue = 2
	stewardship = 3
	learning = 8
	
	religion="old_gods"
	culture="northman"
	
	father=1666017
	mother=1666018
	
	8284.1.1 = {
		birth="8281.1.1" 
		add_trait="quick_1"
	}
	8297.1.1 = {
		add_trait="honest"
		add_trait="brave"
		add_trait="mystic"
		add_trait="proud"
		add_trait="just"
		add_trait="honorable"
		add_trait="trained_warrior"		
		add_trait="tough_soldier"		
	}
	8298.11.2 = {
		employer = 97
	}	
}


###############Additional GC Exiles###################
#Tarbeck bastard line
201901 = {		
	name="Gerold" # 
	dynasty=1072 # Hillbeck

	father=4225 # Lord Tarbeck
	
	religion="the_seven"	
	culture="westerman"	
	add_trait=bastard
	give_nickname=nick_hill

	8169.1.1 = {
		birth="8169.1.1"
		add_trait=assign_mission_target #cadet dynasty tracker, tarbeck
		effect = {
			if = {
				limit = { NOT = { dynasty = 225 } }
				set_dynasty_flag = is_cadet_house
				c_4225 = { #tarbeck father
					set_dynasty_flag = has_cadet_house
					set_dynasty_flag = owned_cadet_house_@PREV
					ROOT = { set_dynasty_flag = cadet_house_@PREV }
				}
			}	
		}
	}
	8183.1.1 = {add_trait=knight add_trait=skilled_warrior}
    8193.1.1 ={add_spouse=201902} #
	8239.1.1= {death="8239.1.1"}
}

201902 = {		
	name="Jeyne" # 
	female=yes

	
	religion="the_seven"	
	culture="westerman"	

	8169.1.1 = {
		birth="8169.1.1"
	}
    8193.1.1 ={add_spouse=201901} #
	8240.1.1= {death="8240.1.1"}
}
201903 = {		
	name="Kevan" # 
	dynasty=1072 # Hillbeck

	father=201901 # 
	mother=201902 # 

	religion="the_seven"	
	culture="westerman"	

	8194.1.1 = {
		birth="8194.1.1"
	}
	8208.1.1 = {add_trait=knight add_trait=skilled_warrior}
    	8210.1.1 ={add_spouse=201904} #
	8219.6.1 = {	#third blackfyre rebellion - joins the GC
		effect = {
			k_golden_company = {
				holder_scope = {
					ROOT = { move_character = PREV }
				}
			}
		}
	}
	8257.1.1= {death="8257.1.1"}
}

201904 = {		
	name="Jocelyn" # 
	female=yes

	
	religion="the_seven"	
	culture="westerman"	

	8195.1.1 = {
		birth="8195.1.1"
	}
    8210.1.1 ={add_spouse=201903} #
	8256.1.1= {death="8256.1.1"}
}
201905 = {		
	name="Devan" # 
	dynasty=1072 # Hillbeck

	father=201903 # 
	mother=201904 # 

	religion="the_seven"	
	culture="westerman"	

	8220.1.1 = {
		birth="8220.1.1"
	}
	8234.1.1 = {add_trait=knight add_trait=skilled_warrior}
    8235.1.1 ={add_spouse=201906} #
	8236.1.1 = {	
		effect = {
			k_golden_company = {
				holder_scope = {
					ROOT = { move_character = PREV }
				}
			}
		}
	}
	8275.1.1= {death="8275.1.1"}
}

201906 = {		
	name="Margaery" # 
	female=yes

	
	religion="the_seven"	
	culture="westerman"	

	8225.1.1 = {
		birth="8225.1.1"
	}
    8235.1.1 ={add_spouse=201905} #
	8276.1.1= {death="8276.1.1"}
}
201907 = {		
	name="Martyn" # 
	dynasty=1072 # Hillbeck

	father=201905 # 
	mother=201906 # 

	religion="the_seven"	
	culture="westerman"	

	8240.1.1 = {
		birth="8240.1.1"
	}
	8254.1.1 = {add_trait=knight add_trait=skilled_warrior}
	8256.1.1 = {	
		effect = {
			k_golden_company = {
				holder_scope = {
					ROOT = { move_character = PREV }
				}
			}
		}
	}
    8260.1.1 ={add_spouse=201908} #
    8261.1.1 ={
		add_claim=c_tarbeck_hall
		add_claim=b_tarbeck_hall
	}
	8293.1.1= {death="8293.1.1"}
}

201908 = {		
	name="Lynelle" # 
	female=yes

	
	religion="the_seven"	
	culture="westerman"	

	8243.1.1 = {
		birth="8243.1.1"
	}
    8260.1.1 ={
		add_spouse=201907
	}
	8293.1.1= {death="8293.1.1"}
}
201909 = {		
	name="Harys" # 
	dynasty=1072 # Hillbeck

	father=201907 # 
	mother=201908 # 

	religion="the_seven"	
	culture="westerman"	

	8270.1.1 = {
		birth="8270.1.1"
	}
	8284.1.1 = {add_trait=knight add_trait=skilled_warrior}
	8286.1.1 = {	
		effect = {
			k_golden_company = {
				holder_scope = {
					ROOT = { move_character = PREV }
				}
			}
		}
	}
    8293.1.1 ={
		add_claim=c_tarbeck_hall
		add_claim=b_tarbeck_hall
	}
}
#Reyne bastard line
202901 = {		
	name="Daemon" # 
	dynasty=1071 # Rainhill

	father=7197 # Robb Reyne
	
	religion="the_seven"	
	culture="westerman"	
	add_trait=bastard
	give_nickname=nick_hill

	8196.1.1 = {
		birth="8196.1.1"
		add_trait=assign_mission_target #cadet dynasty tracker, reyne
		effect = {
			if = {
				limit = { NOT = { dynasty = 197 } }
				set_dynasty_flag = is_cadet_house
				c_7197 = { #reyne father
					set_dynasty_flag = has_cadet_house
					set_dynasty_flag = owned_cadet_house_@PREV
					ROOT = { set_dynasty_flag = cadet_house_@PREV }
				}
			}	
		}
	}
	8210.1.1 = {add_trait=knight add_trait=skilled_warrior}
    8214.1.1 ={add_spouse=202902} #
	8245.1.1= {death="8245.1.1"}
}

202902 = {		
	name="Olarra" # 
	female=yes

	
	religion="the_seven"	
	culture="westerman"	

	8199.1.1 = {
		birth="8199.1.1"
	}
    8214.1.1 ={add_spouse=202901} #
	8240.1.1= {death="8240.1.1"}
}
202903 = {		
	name="Hosteen" # 
	dynasty=1071 # Rainhill

	father=202901 # 
	mother=202902 # 

	religion="the_seven"	
	culture="westerman"	

	8215.1.1 = {
		birth="8215.1.1"
	}
	8229.1.1 = {add_trait=knight add_trait=skilled_warrior}
    8230.1.1 ={add_spouse=202904} #
	8231.1.1 = {	#third blackfyre rebellion - joins the GC
		effect = {
			k_golden_company = {
				holder_scope = {
					ROOT = { move_character = PREV }
				}
			}
		}
	}
	8257.1.1= {death="8257.1.1"}
}

202904 = {		
	name="Genna" # 
	female=yes

	
	religion="the_seven"	
	culture="westerman"	

	8215.1.1 = {
		birth="8215.1.1"
	}
    8230.1.1 ={add_spouse=202903} #
	8263.1.1= {death="8256.1.1"}
}
202905 = {		
	name="Kevan" # 
	dynasty=1071 # Rainhill

	father=202903 # 
	mother=202904 # 

	religion="the_seven"	
	culture="westerman"	

	8232.1.1 = {
		birth="8232.1.1"
	}
	8246.1.1 = {add_trait=knight add_trait=skilled_warrior}
    8248.1.1 ={add_spouse=202906} #
	8249.1.1 = {	
		effect = {
			k_golden_company = {
				holder_scope = {
					ROOT = { move_character = PREV }
				}
			}
		}
	}
	8279.1.1= {death="8275.1.1"}
}

202906 = {		
	name="Margaery" # 
	female=yes

	
	religion="the_seven"	
	culture="westerman"	

	8235.1.1 = {
		birth="8235.1.1"
	}
    8248.1.1 ={add_spouse=202905} #
	8276.1.1= {death="8276.1.1"}
}
202907 = {		
	name="Aegor" # 
	dynasty=1071 # Rainhill

	father=202905 # 
	mother=202906 # 

	religion="the_seven"	
	culture="westerman"	

	8248.1.1 = {
		birth="8248.1.1"
	}
	8262.1.1 = {add_trait=knight add_trait=skilled_warrior}
	8264.1.1 = {	
		effect = {
			k_golden_company = {
				holder_scope = {
					ROOT = { move_character = PREV }
				}
			}
		}
	}
    8269.1.1 ={add_spouse=202908} #
	8293.1.1= {death="8293.1.1"}
}

202908 = {		
	name="Lynelle" # 
	female=yes

	
	religion="the_seven"	
	culture="westerman"	

	8249.1.1 = {
		birth="8249.1.1"
	}
    8269.1.1 ={
		add_spouse=202907
	}
	8292.1.1= {death="8292.1.1"}
}
202909 = {		
	name="Malcolm" # 
	dynasty=1071 # Rainhill

	father=202907 # 
	mother=202908 # 

	religion="the_seven"	
	culture="westerman"	

	8271.1.1 = {
		birth="8271.1.1"
	}
	8285.1.1 = {add_trait=knight add_trait=skilled_warrior}
	8287.1.1 = {	
		effect = {
			k_golden_company = {
				holder_scope = {
					ROOT = { move_character = PREV }
				}
			}
		}
	}
}
#Darke exiles
203901 = {		
	name="Denys" # 
	dynasty=174804

	father=110174804 # Ryger Darke
	mother=410174804
	
	religion="the_seven"
	culture="riverlander"

	8254.1.1 = {
		birth="8254.1.1"
	}
	8268.1.1 = {add_trait=knight add_trait=trained_warrior}
    8270.1.1 ={add_spouse=203902} #
	8276.10.10 = {	#defiance of Duskendale
		effect = {
			k_golden_company = {
				holder_scope = {
					ROOT = { move_character = PREV }
				}
			}
		}
	}
}

203902 = {		
	name="Mynessa" # 
	female=yes

	
	religion="the_seven"
	culture="riverlander"

	8254.3.1 = {
		birth="8254.3.1"
	}
    8270.1.1 ={add_spouse=203901} #
}
203903 = {		
	name="Hosteen" # 
	dynasty=174804

	father=203901 # 
	mother=203902 # 

	religion="the_seven"
	culture="riverlander"

	8274.1.1 = {
		birth="8274.1.1"
	}
	8288.1.1 = {add_trait=knight add_trait=trained_warrior}
	8290.1.1 = {	
		effect = {
			k_golden_company = {
				holder_scope = {
					ROOT = { move_character = PREV }
				}
			}
		}
	}
}
#Line of Fireball
205904 = {		
	name="Elissa" # 
	female=yes

	
	religion="the_seven"	
	culture="reachman"	

	8195.1.1 = {
		birth="8195.1.1"
	}
    8218.1.1 ={add_spouse=10088187} #
	8256.1.1= {death="8256.1.1"}
}
205905 = {		
	name="Mace" # 
	dynasty=1073 # Fireball

	father=10088187 # 
	mother=205904 # 

	religion="the_seven"	
	culture="reachman"	

	8220.1.1 = {
		birth="8220.1.1"
	}
	8234.1.1 = {add_trait=knight add_trait=skilled_warrior}
    8235.1.1 ={add_spouse=205906} #
	8236.1.1 = {	
		effect = {
			k_golden_company = {
				holder_scope = {
					ROOT = { move_character = PREV }
				}
			}
		}
	}
	8275.1.1= {death="8275.1.1"}
}
205906 = {		
	name="Olenna" # 
	female=yes

	
	religion="the_seven"	
	culture="reachman"	

	8225.1.1 = {
		birth="8225.1.1"
	}
    8235.1.1 ={add_spouse=205905} #
	8276.1.1= {death="8276.1.1"}
}
205907 = {		
	name="Quentyn" # 
	dynasty=1073 # Fireball

	father=205905 # 
	mother=205906 # 

	religion="the_seven"	
	culture="reachman"	

	8240.1.1 = {
		birth="8240.1.1"
	}
	8254.1.1 = {add_trait=knight add_trait=skilled_warrior}
	8256.1.1 = {	
		effect = {
			k_golden_company = {
				holder_scope = {
					ROOT = { move_character = PREV }
				}
			}
		}
	}
    8260.1.1 ={add_spouse=205908} #
	8293.1.1= {death="8293.1.1"}
}

205908 = {		
	name="Mordane" # 
	female=yes

	
	religion="the_seven"	
	culture="reachman"	

	8243.1.1 = {
		birth="8243.1.1"
	}
    8260.1.1 ={
		add_spouse=205907
	}
	8293.1.1= {death="8293.1.1"}
}
205909 = {		
	name="Glendon" # 
	dynasty=1073 # Fireball

	father=205907 # 
	mother=205908 # 

	religion="the_seven"	
	culture="reachman"	

	8270.1.1 = {
		birth="8270.1.1"
	}
	8284.1.1 = {add_trait=knight add_trait=skilled_warrior}
	8286.1.1 = {	
		effect = {
			k_golden_company = {
				holder_scope = {
					ROOT = { move_character = PREV }
				}
			}
		}
	}
}
#Line of Marq Mandrake
206901 = {
	name="Marq"
	dynasty=1438

	religion="the_seven"
	culture="riverlander"

	father=2001438
	
	8175.1.1 = {birth="8175.1.1"}
	8189.1.1 = {add_trait=knight add_trait=trained_warrior}
    8195.1.1 ={add_spouse=206902} #
	8196.1.1 = {	
		effect = {
			k_golden_company = {
				holder_scope = {
					ROOT = { move_character = PREV }
				}
			}
		}
	}
	8225.1.1= {death="8225.1.1"}
}
206902 = {		
	name="Marissa" # 
	female=yes

	
	religion="the_seven"	
	culture="riverlander"	

	8175.2.1 = {
		birth="8175.2.1"
	}
    8195.1.1 ={add_spouse=206901} #
	8230.1.1= {death="8230.1.1"}
}
206903 = {
	name="Harrold"
	dynasty=1438

	religion="the_seven"
	culture="riverlander"

	father=206901
	mother=206902 # 
	
	8200.1.1 = {birth="8200.1.1"}
	8215.1.1 = {add_trait=knight add_trait=trained_warrior}
	8216.1.1 = {	
		effect = {
			k_golden_company = {
				holder_scope = {
					ROOT = { move_character = PREV }
				}
			}
		}
	}
    8218.1.1 ={add_spouse=206904} #
	8258.1.1= {death="8258.1.1"}
}
206904 = {		
	name="Lemore" # 
	female=yes

	
	religion="the_seven"	
	culture="riverlander"	

	8201.2.1 = {
		birth="8201.2.1"
	}
    8218.1.1 ={add_spouse=206903} #
	8257.1.1= {death="8257.1.1"}
}
206905 = {
	name="Martyn"
	dynasty=1438

	religion="the_seven"
	culture="riverlander"

	father=206903
	mother=206904 # 
	
	8236.1.1 = {birth="8236.1.1"}
	8250.1.1 = {add_trait=knight add_trait=trained_warrior}
	8252.1.1 = {	
		effect = {
			k_golden_company = {
				holder_scope = {
					ROOT = { move_character = PREV }
				}
			}
		}
	}
    8253.1.1 ={add_spouse=206906} #
	8279.1.1= {death="8279.1.1"}
}
206906 = {		
	name="Alys" # 
	female=yes

	
	religion="the_seven"	
	culture="riverlander"	

	8235.2.1 = {
		birth="8235.2.1"
	}
    8253.1.1 = { add_spouse=206905 } #
	8282.1.1= {death="8282.1.1"}
}

########################################Robert Baratheon Bastards
1648001 = { #
	name = "Larra"
	female = yes
	dna = 0klhh0je000
	properties = 0i0b
	
	religion="the_seven"	
	culture="stone_dornish"
	
	martial = 5
	diplomacy = 2
	intrigue = 3
	stewardship = 4
	learning = 3
	
	add_trait="bastard"
	add_trait="fair_1"
	add_trait="strong_2"
	add_trait="tall_1"
	add_trait="lustful"
	add_trait="brave"
	add_trait="ambitious"
	add_trait="zealous"
	give_nickname = nick_sand
	
	#father=317
	mother = 1649001
	
	8283.9.1 = { 
		birth ="8283.9.1" 
		effect = { 
			set_graphical_culture="Baratheon_dyn"
			set_character_flag = secret_baratheon_bastard 		
			set_immune_to_pruning = yes
			b_dedworth = {
				holder_scope = { ROOT = { move_character = PREV } }
			}
			dynasty = none
			c_317 = {
				ROOT = { set_real_father = PREV }
			}
		}
	}
	8295.9.1 = { 
		add_trait = poor_warrior
	}
	8297.9.1 = { 
		remove_trait = poor_warrior
		add_trait = trained_warrior
	}
}
1649001 = { #random mother to prevent culling
	name = "Ynys"
	female = yes
	
	religion="the_seven"	
	culture="stone_dornish"
	
	add_trait = fair_1
	
	8263.1.1 = { 
		birth ="8263.1.1"	
		effect = { 
			b_dedworth = {
				holder_scope = { ROOT = { move_character = PREV } }
			}
			dynasty = none
		}	
	}
	8280.1.1 = { 
		effect = { 
			c_fawnton = {
				holder_scope = { ROOT = { move_character = PREV } }
			}
		}	
	}
	8283.1.1 = { 
		effect = { 
			b_dedworth = {
				holder_scope = { ROOT = { move_character = PREV } }
			}
		}	
	}
}
1648002 = { #
	name = "Jon"
	dna = cgcgd0cf000
	properties = 0j00i
	
	religion="the_seven"	
	culture="riverlander"
	
	martial = 4
	diplomacy = 3
	intrigue = 2
	stewardship = 5
	learning = 4
	
	add_trait="bastard"
	add_trait="strong_2"
	add_trait="tall_1"
	add_trait="stubborn"
	add_trait="brave"
	add_trait="authoritative"
	give_nickname = nick_rivers
	
	#father=317
	mother = 1649002
	
	8283.11.1 = { 
		birth ="8283.11.1" 
		effect = { 
			set_graphical_culture="Baratheon_dyn"
			set_character_flag = secret_baratheon_bastard 		
			set_immune_to_pruning = yes
			b_goodbrooktown = {
				holder_scope = { ROOT = { move_character = PREV } }
			}
			dynasty = none
			c_317 = {
				ROOT = { set_real_father = PREV }
			}
		}
	}
	8291.11.1 = { 
		add_trait = squire
	}
	8295.9.1 = { 
		add_trait = poor_warrior
	}
	8297.9.1 = { 
		remove_trait = poor_warrior
		add_trait = trained_warrior
		add_trait="hunter"
	}
}
1649002 = { #random mother to prevent culling
	name = "Lynysa"
	female = yes
	
	religion="the_seven"	
	culture="riverlander"
	
	add_trait = fair_1
	
	8265.5.1 = { 
		birth ="8265.5.1"	
		effect = { 
			b_goodbrooktown = {
				holder_scope = { ROOT = { move_character = PREV } }
			}
			dynasty = none
		}	
	}
}
1648003 = { #
	name = "Martin"
	dna = ckbgd00e000
	properties = 0t00m
	
	religion="the_seven"	
	culture="reachman"
	
	martial = 5
	diplomacy = 2
	intrigue = 2
	stewardship = 3
	learning = 4
	
	add_trait="bastard"
	add_trait="strong_2"
	add_trait="tall_1"
	add_trait="gregarious"
	add_trait="lustful"
	add_trait="duelist"
	add_trait="honorable"
	give_nickname = nick_flowers
	
	#father=317
	mother = 1649003
	
	8284.9.1 = { 
		birth ="8284.9.1" 
		effect = { 
			set_graphical_culture="Baratheon_dyn"
			set_character_flag = secret_baratheon_bastard 		
			set_immune_to_pruning = yes
			c_smallwood = {
				holder_scope = { ROOT = { move_character = PREV } }
			}
			dynasty = none
			c_317 = {
				ROOT = { set_real_father = PREV }
			}
		}
	}
	8291.11.1 = { 
		add_trait = squire
	}
	8295.9.1 = { 
		add_trait = poor_warrior
	}
	8297.9.1 = { 
		remove_trait = poor_warrior
		remove_trait = squire
		add_trait = trained_warrior
		add_trait = knight
		add_trait="hunter"
	}
}
1649003 = { #random mother to prevent culling
	name = "Arysa"
	female = yes
	
	religion="the_seven"	
	culture="reachman"
	
	add_trait = fair_1
	
	8266.5.1 = { 
		birth ="8266.5.1"	
		effect = { 
			c_smallwood = {
				holder_scope = { ROOT = { move_character = PREV } }
			}
			dynasty = none
		}	
	}
	8280.1.1 = { 
		effect = { 
			b_kl_flea_bottom = {
				holder_scope = { ROOT = { move_character = PREV } }
			}
		}	
	}
	8284.9.1 = { 
		effect = { 
			c_smallwood = {
				holder_scope = { ROOT = { move_character = PREV } }
			}
		}	
	}
}
1648004 = { #
	name = "Ballar"
	dna = cklcb0ee000
	properties = 0n0b
	
	religion="the_seven"	
	culture="crownlander"
	
	martial = 4
	diplomacy = 3
	intrigue = 1
	stewardship = 2
	learning = 4
	
	add_trait="bastard"
	add_trait="strong_2"
	add_trait="tall_1"
	add_trait="stubborn"
	add_trait="wroth"
	add_trait="brave"
	add_trait="just"
	add_trait="liberator"
	add_trait="fair_1"
	give_nickname = nick_waters
	
	#father=317
	mother = 1649004
	
	8285.9.1 = { 
		birth ="8285.9.1" 
		effect = { 
			set_graphical_culture="Baratheon_dyn"
			set_immune_to_pruning = yes
			set_character_flag = secret_baratheon_bastard 		
			b_maidenpool = {
				holder_scope = { ROOT = { move_character = PREV } }
			}
			dynasty = none
			c_317 = {
				ROOT = { set_real_father = PREV }
			}
		}
	}
	8296.11.1 = { 
		add_trait = squire
		add_trait = poor_warrior
	}

	8298.9.1 = { 
		remove_trait = poor_warrior
		add_trait = trained_warrior
	}
}
1649004 = { #random mother to prevent culling
	name = "Myrella"
	female = yes
	
	religion="weeping_lady"	
	culture="lysene"
	
	add_trait = fair_1
	add_trait = fashionable
	
	8269.1.1 = { 
		birth ="8269.1.1"	
		add_trait = slave
		effect = { 
			b_pleasuregardens = {
				holder_scope = { ROOT = { move_character = PREV } }
			}
			dynasty = none
		}	
	}
	8285.1.1 = { 
		religion="the_seven"	
		remove_trait = slave
		add_trait = former_slave
		effect = { 
			b_kl_flea_bottom = {
				holder_scope = { ROOT = { move_character = PREV } }
			}
		}	
	}
	8285.9.1 = { 
		effect = { 
			b_maidenpool = {
				holder_scope = { ROOT = { move_character = PREV } }
			}
		}	
	}
}
1648005 = { #
	name = "Ronnal"
	dna = blakd00e000
	properties = 0r00h
	
	religion="the_seven"	
	culture="crownlander"
	
	martial = 3
	diplomacy = 3
	intrigue = 1
	stewardship = 3
	learning = 6
	
	add_trait="bastard"
	add_trait="strong_2"
	add_trait="tall_1"
	add_trait="quick_1"
	add_trait="erudite"
	add_trait="gregarious"
	add_trait="just"
	add_trait="honorable"
	add_trait="fair_1"
	give_nickname = nick_waters
	
	#father=317
	mother = 1649005
	
	8286.9.1 = { 
		birth ="8286.9.1" 
		effect = { 
			set_graphical_culture="Baratheon_dyn"
			set_immune_to_pruning = yes
			set_character_flag = secret_baratheon_bastard 		
			b_duskendale = {
				holder_scope = { ROOT = { move_character = PREV } }
			}
			dynasty = none
			c_317 = {
				ROOT = { set_real_father = PREV }
			}
		}
	}
	8297.11.1 = { 
		add_trait = squire
		add_trait = poor_warrior
	}

	8298.9.1 = { 
		remove_trait = poor_warrior
		add_trait = trained_warrior
	}
}
1649005 = { #random mother to prevent culling
	name = "Jeyne"
	female = yes
	
	religion="the_seven"	
	culture="crownlander"
	
	add_trait = fair_1
	
	8270.1.1 = { 
		birth ="8270.1.1"	
		effect = { 
			b_duskendale = {
				holder_scope = { ROOT = { move_character = PREV } }
			}
			dynasty = none
		}	
	}
	8285.1.1 = { 
		effect = { 
			b_kl_flea_bottom = {
				holder_scope = { ROOT = { move_character = PREV } }
			}
		}	
	}
	8286.9.1 = { 
		effect = { 
			b_duskendale = {
				holder_scope = { ROOT = { move_character = PREV } }
			}
		}	
	}
}
1648006 = { #
	name = "Lynarra"
	female = yes
	dna = 00fl00ga000
	properties = 0h0b
	
	religion="old_gods"	
	culture="northman"
	
	martial = 4
	diplomacy = 3
	intrigue = 1
	stewardship = 2
	learning = 3
	
	add_trait="bastard"
	add_trait="strong_2"
	add_trait="tall_1"
	add_trait="mystic"
	add_trait="deer"
	add_trait="gregarious"
	add_trait="just"
	add_trait="charitable"
	add_trait="kind"
	add_trait="fair_1"
	give_nickname = nick_snow
	
	#father=317
	mother = 1649006
	
	8290.1.1 = { 
		birth ="8290.1.1" 
		effect = { 
			set_graphical_culture="Baratheon_dyn"
			set_immune_to_pruning = yes
			set_character_flag = secret_baratheon_bastard 		
			b_barrowton = {
				holder_scope = { ROOT = { move_character = PREV } }
			}
			dynasty = none
			c_317 = {
				ROOT = { set_real_father = PREV }
			}
		}
	}
	8298.11.1 = { 
		add_trait = poor_warrior
	}

}
1649006 = { #random mother to prevent culling
	name = "Sarra"
	female = yes
	
	religion="old_gods"	
	culture="northman"
	
	add_trait = fair_1
	
	8274.1.1 = { 
		birth ="8274.1.1"	
		effect = { 
			b_barrowton = {
				holder_scope = { ROOT = { move_character = PREV } }
			}
			dynasty = none
		}	
	}
}
1648007 = { #
	name = "Jeyne"
	female = yes
	dna = bgcc00l0000
	properties = 0h0b
	
	religion="the_seven"	
	culture="riverlander"
	
	martial = 3
	diplomacy = 3
	intrigue = 1
	stewardship = 4
	learning = 3
	
	add_trait="bastard"
	add_trait="strong_2"
	add_trait="tall_1"
	add_trait="lustful"
	add_trait="brave"
	add_trait="ambitious"
	add_trait="honest"
	add_trait="administrator"
	add_trait="fair_1"
	give_nickname = nick_rivers
	
	#father=317
	mother = 1649007
	
	8290.2.1 = { 
		birth ="8290.2.1" 
		effect = { 
			set_graphical_culture="Baratheon_dyn"
			set_immune_to_pruning = yes
			set_character_flag = secret_baratheon_bastard 		
			b_seagard = {
				holder_scope = { ROOT = { move_character = PREV } }
			}
			dynasty = none
			c_317 = {
				ROOT = { set_real_father = PREV }
			}
		}
	}
}
1649007 = { #random mother to prevent culling
	name = "Marissa"
	female = yes
	
	religion="the_seven"	
	culture="riverlander"
	
	add_trait = fair_1
	
	8274.1.1 = { 
		birth ="8274.1.1"	
		effect = { 
			b_seagard = {
				holder_scope = { ROOT = { move_character = PREV } }
			}
			dynasty = none
		}	
	}
}
1648008 = { #
	name = "Rodrik"
	dna = addab0ee000
	properties = 0c00i
	
	religion="drowned_god"	
	culture="ironborn"
	
	martial = 5
	diplomacy = 2
	intrigue = 1
	stewardship = 2
	learning = 3
	
	add_trait="bastard"
	add_trait="strong_2"
	add_trait="tall_1"
	add_trait="lustful"
	add_trait="brave"
	add_trait="wroth"
	add_trait="ruthless"
	add_trait="stubborn"
	add_trait="gregarious"
	add_trait="hedonist"
	give_nickname = nick_pyke
	
	#father=317
	mother = 1649008
	
	8290.6.1 = { 
		birth ="8290.6.1" 
		effect = { 
			set_graphical_culture="Baratheon_dyn"
			set_immune_to_pruning = yes
			set_character_flag = secret_baratheon_bastard 		
			b_lordsport = {
				holder_scope = { ROOT = { move_character = PREV } }
			}
			dynasty = none
			c_317 = {
				ROOT = { set_real_father = PREV }
			}
		}
	}
	8298.1.1 = { 
		add_trait="poor_warrior"
	}
}
1649008 = { #random mother to prevent culling
	name = "Gwyneth"
	female = yes
	
	religion="drowned_god"	
	culture="ironborn"
	
	add_trait = fair_1
	
	8274.1.1 = { 
		birth ="8274.1.1"	
		effect = { 
			b_lordsport = {
				holder_scope = { ROOT = { move_character = PREV } }
			}
			dynasty = none
		}	
	}
}
1648009 = { #
	name = "Lyonel"
	dna = clkdd0jd000
	properties = 0d0bb
	
	religion="the_seven"	
	culture="stormlander"
	
	martial = 4
	diplomacy = 2
	intrigue = 1
	stewardship = 3
	learning = 3
	
	add_trait="bastard"
	add_trait="strong_2"
	add_trait="tall_1"
	add_trait="gregarious"
	add_trait="brave"
	add_trait="honorable"
	add_trait="fair_1"
	add_trait="stubborn"
	add_trait="just"
	give_nickname = nick_storm
	
	#father=317
	mother = 1649009
	
	8291.1.1 = { 
		birth ="8291.1.1" 
		effect = { 
			set_graphical_culture="Baratheon_dyn"
			set_immune_to_pruning = yes
			set_character_flag = secret_baratheon_bastard 		
			b_purple_fields = {
				holder_scope = { ROOT = { move_character = PREV } }
			}
			dynasty = none
			c_317 = {
				ROOT = { set_real_father = PREV }
			}
		}
	}
	8299.1.1 = { 
		add_trait="poor_warrior"
		add_trait="squire"
	}
}
1649009 = { #random mother to prevent culling
	name = "Jocelyn"
	female = yes
	
	religion="the_seven"	
	culture="stormlander"
	
	add_trait = fair_1
	
	8276.1.1 = { 
		birth ="8276.1.1"	
		effect = { 
			b_purple_fields = {
				holder_scope = { ROOT = { move_character = PREV } }
			}
			dynasty = none
		}	
	}
	8289.1.1 = { 
		effect = { 
			b_kl_flea_bottom = {
				holder_scope = { ROOT = { move_character = PREV } }
			}
		}	
	}
	8291.1.1 = { 
		effect = { 
			b_purple_fields = {
				holder_scope = { ROOT = { move_character = PREV } }
			}
		}	
	}
}
#stark cadets- barrowton starks
1359002 = {
	name="Barthogan"
	dynasty=18874
	
	religion="old_gods"
	culture="northman"

	father=622059
	mother=1359001
	
	give_nickname=nick_barstark
	
	8241.1.1 = {
		birth="8241.1.1"
		effect = {
			set_graphical_culture="Stark_dyn"
			if = {
				limit = { NOT = { dynasty = 59 } }
				set_dynasty_flag = is_cadet_house
				c_622059 = { #barstark father
					set_dynasty_flag = has_cadet_house
					set_dynasty_flag = owned_cadet_house_@PREV
					ROOT = { set_dynasty_flag = cadet_house_@PREV }
				}
			}	
		}
	}
	8249.1.1 = { 
		add_trait="poor_warrior"
		add_trait="dog"
		add_trait="brave"
	}
	8252.1.1 = { 
		remove_trait="poor_warrior"
		add_trait="trained_warrior"
		add_trait="just"
	}
	8257.1.1 = { add_spouse = 1359003 }
	8260.1.1 = {
		effect = { 
			b_barrowton = {
				holder_scope = { ROOT = { move_character = PREV } }
			}
		}
	}
	8286.1.1 = {death="8286.1.1"}
}
1359003 = {
	name="Lysa"
	female = yes
	
	religion="old_gods"
	culture="northman"
	
	add_trait = fair_1
	
	8242.1.1 = {
		birth="8242.1.1"
	}
	8257.1.1 = { add_spouse = 1359002 }
	8295.1.1 = {death="8295.1.1"}
}
1359004 = {
	name="Edwyle"
	dynasty=18874
	
	religion="old_gods"
	culture="northman"

	father=1359002
	mother=1359003
	
	give_nickname=nick_barstark
	
	8258.1.1 = {
		birth="8258.1.1"
		effect = {
			set_graphical_culture="Stark_dyn"
			b_barrowton = {
				holder_scope = { ROOT = { move_character = PREV } }
			}
		}
	}
	8266.1.1 = { 
		add_trait="poor_warrior"
	}
	8269.1.1 = { 
		remove_trait="poor_warrior"
		add_trait="trained_warrior"
		add_trait="just"
	}
	8280.1.1 = { add_spouse = 1359007 }
}
1359005 = {
	name="Duncan"
	dynasty=18874
	
	religion="old_gods"
	culture="northman"

	father=1359002
	mother=1359003
	
	give_nickname=nick_barstark
	
	8260.1.1 = {
		birth="8260.1.1"
		effect = {
			set_graphical_culture="Stark_dyn"
			b_barrowton = {
				holder_scope = { ROOT = { move_character = PREV } }
			}
		}
	}
	8268.1.1 = { 
		add_trait="poor_warrior"
	}
	8271.1.1 = { 
		remove_trait="poor_warrior"
		add_trait="trained_warrior"
		add_trait="just"
	}
}
1359006 = {
	name="Marna"
	dynasty=18874
	female = yes
	
	religion="old_gods"
	culture="northman"

	father=1359002
	mother=1359003
	
	give_nickname=nick_barstark
	
	add_trait="mystic"

	8265.1.1 = {
		birth="8265.1.1"
		effect = {
			set_graphical_culture="Stark_dyn"
			b_barrowton = {
				holder_scope = { ROOT = { move_character = PREV } }
			}
		}
	}
	8268.1.1 = { 
		add_trait="kind"
	}
}
1359007 = {
	name="Larra"
	female = yes
	
	religion="old_gods"
	culture="northman"
	

	8265.1.1 = {
		birth="8265.1.1"
		effect = {
			b_barrowton = {
				holder_scope = { ROOT = { move_character = PREV } }
			}
		}
	}
	8268.1.1 = { 
		add_trait="kind"
	}
	8280.1.1 = { add_spouse = 1359004 }
}
1359008 = {
	name="Lyanna"
	dynasty=18874
	female = yes
	
	religion="old_gods"
	culture="northman"

	father=1359004
	mother=1359007
	
	give_nickname=nick_barstark
	
	8285.1.1 = {
		birth="8285.1.1"
		effect = {
			set_graphical_culture="Stark_dyn"
			b_barrowton = {
				holder_scope = { ROOT = { move_character = PREV } }
			}
		}
	}
}
1359009 = {
	name="Rickard"
	dynasty=18874
	
	religion="old_gods"
	culture="northman"

	father=1359004
	mother=1359007
	
	add_trait="mystic"

	give_nickname=nick_barstark
	
	8288.1.1 = {
		birth="8288.1.1"
		effect = {
			set_graphical_culture="Stark_dyn"
			b_barrowton = {
				holder_scope = { ROOT = { move_character = PREV } }
			}
		}
	}
	8296.1.1 = { 
		add_trait="poor_warrior"
	}
	8298.1.1 = { 
		remove_trait="poor_warrior"
		add_trait="trained_warrior"
		add_trait="just"
	}
}
#stark cadets- white harbour starks
1358002 = {
	name="Harrion"
	dynasty=18875
	
	religion="old_gods"
	culture="northman"

	father=621059
	mother=1025080
	
	give_nickname=nick_harstark

	8240.9.1 = {
		birth="8240.9.1"
		effect = {
			set_graphical_culture="Stark_dyn"
			if = {
				limit = { NOT = { dynasty = 59 } }
				set_dynasty_flag = is_cadet_house
				c_621059 = { #barstark father
					set_dynasty_flag = has_cadet_house
					set_dynasty_flag = owned_cadet_house_@PREV
					ROOT = { set_dynasty_flag = cadet_house_@PREV }
				}
			}	
		}
	}
	8249.1.1 = { 
		add_trait="poor_warrior"
		add_trait="squire"
		add_trait="brave"
	}
	8253.1.1 = { 
		remove_trait="poor_warrior"
		remove_trait="squire"
		add_trait="trained_warrior"
		add_trait="knight"
		add_trait="kind"
	}
	8259.1.1 = { add_spouse = 1358003 }
	8260.1.1 = {
		effect = { 
			b_whiteharbor = {
				holder_scope = { ROOT = { move_character = PREV } }
			}
		}
	}
	8289.1.1 = {death="8289.1.1"}
}
1358003 = {
	name="Donella"
	female = yes
	
	religion="old_gods"
	culture="northman"
	
	add_trait = fair_1
	
	8241.1.1 = {
		birth="8241.1.1"
	}
	8257.1.1 = { add_spouse = 1358002 }
	8295.1.1 = {death="8295.1.1"}
}
1358004 = {
	name="Artos"
	dynasty=18875
	
	religion="old_gods"
	culture="northman"

	father=1358002
	mother=1358003
	
	give_nickname=nick_harstark

	8259.1.1 = {
		birth="8259.1.1"
		effect = {
			set_graphical_culture="Stark_dyn"
			b_whiteharbor = {
				holder_scope = { ROOT = { move_character = PREV } }
			}
		}
	}
	8266.1.1 = { 
		add_trait="poor_warrior"
	}
	8269.1.1 = { 
		remove_trait="poor_warrior"
		add_trait="trained_warrior"
		add_trait="knight"
		add_trait="just"
	}
	8285.1.1 = { add_spouse = 1358007 }
}
1358005 = {
	name="Jeyne"
	dynasty=18875
	female = yes
	
	religion="old_gods"
	culture="northman"

	father=1358002
	mother=1358003
	
	give_nickname=nick_harstark

	8260.1.1 = {
		birth="8260.1.1"
		effect = {
			set_graphical_culture="Stark_dyn"
			b_whiteharbor = {
				holder_scope = { ROOT = { move_character = PREV } }
			}
		}
	}
	8268.1.1 = { 
		add_trait="poor_warrior"
	}
	8271.1.1 = { 
		add_trait="just"
	}
}
1358006 = {
	name="Torrhen"
	dynasty=18875
	
	religion="old_gods"
	culture="northman"

	father=1358002
	mother=1358003
	
	give_nickname=nick_harstark

	8265.1.1 = {
		birth="8265.1.1"
		effect = {
			set_graphical_culture="Stark_dyn"
			b_whiteharbor = {
				holder_scope = { ROOT = { move_character = PREV } }
			}
		}
	}
	8279.1.1 = { 
		add_trait="poor_warrior"
		add_trait="squire"
	}
	8283.1.1 = { 
		remove_trait="poor_warrior"
		remove_trait="squire"
		add_trait="trained_warrior"
		add_trait="just"
		add_trait="knight"
	}
}
1358007 = {
	name="Jocelyn"
	female = yes
	
	religion="the_seven"
	culture="half_southron"
	

	8265.1.1 = {
		birth="8265.1.1"
		effect = {
			b_barrowton = {
				holder_scope = { ROOT = { move_character = PREV } }
			}
		}
	}
	8268.1.1 = { 
		add_trait="kind"
	}
	8285.1.1 = { add_spouse = 1358004 }
}
1358008 = {
	name="Eddard"
	dynasty=18875
	
	religion="old_gods"
	culture="northman"

	father=1358004
	mother=1358007
	
	give_nickname=nick_harstark

	8288.1.1 = {
		birth="8288.1.1"
		effect = {
			set_graphical_culture="Stark_dyn"
			b_whiteharbor = {
				holder_scope = { ROOT = { move_character = PREV } }
			}
		}
	}
	8297.1.1 = { 
		add_trait="poor_warrior"
		add_trait="squire"
	}
}
1993001 = {
	name="Branch"
	
	religion="beyond_wall_old_gods"
	culture="children_forest"
	add_trait="greensight"
	add_trait="greenseer"
	add_trait="mystic"
	add_trait="crow"
	add_trait="cotf"
	add_trait="zealous"
	add_trait="greenseer_weirwood"


	1.1.1 = { birth="1.1.1" }
	8252.6.1 = { death="8252.6.1" }
}
1993002 = {
	name="The Three-Eyed Crow"
	
	dna="djbmhqgjacs"
	properties="aj00ib0000000a"	

	martial=12
	diplomacy=5
	intrigue=7
	stewardship=13
	
	religion="old_gods"
	culture="old_first_man"
		
	disallow_random_traits = yes
	
	
	8175.6.1={
		birth="8175.6.1"
		effect = {
			set_immune_to_pruning = yes
			set_graphical_culture = high_valyrian
			if = {
				limit = { NOT = { trait = greenseer } }
				death = yes
			}
			dynasty = none
		}
	}
	8252.6.1={ 
		add_trait="patient"
		add_trait="crow"
		add_trait="greensight"
		add_trait="greenseer"
		add_trait="mystic" 		#Was called a sorcerer for a reason...
		add_trait=flanker
		add_trait="deceitful"
		add_trait = one_eyed
		add_trait = kinslayer 
		add_trait="ruthless"
		add_trait="hunter"
		add_trait="just"
		add_trait="crow"
		add_trait="greensight"
		add_trait="greenseer"
		add_trait="mystic" 		#Was called a sorcerer for a reason...
		add_trait="trained_warrior"
		add_trait=flanker
		add_trait="deceitful"
		add_trait="greenseer_weirwood"
		create_bloodline = {
			type = greenseer_bloodline
			has_dlc = "Holy Fury"
		}
	} 
}
1993003 = {
	name="Leaf"
	female=yes
	
	religion="beyond_wall_old_gods"
	culture="children_forest"
	add_trait="mystic"
	add_trait="cotf"
	add_trait="zealous"
	add_trait="just"
	add_trait="honorable"
	add_trait="brave"
	add_trait="intricate_webweaver"

	disallow_random_traits = yes

	8092.1.1 = {
		birth="8092.1.1"
		effect = {
			set_immune_to_pruning = yes
			dynasty = none
		}
		employer = 1993001
	}
	8252.6.1 = {
		employer = 1993002
	}
}
1993004 = {
	name="Leaf"
	female=yes
	
	religion="beyond_wall_old_gods"
	culture="children_forest"
	add_trait="mystic"
	add_trait="cotf"
	add_trait="intricate_webweaver"

	1.1.1 = { birth="1.1.1" }
}
#######House Greywolf
848001 = {
	name="Gaven"

	dynasty=18774
	
	religion="old_gods"
	culture="northman"
	add_trait="mystic"
	add_trait="zealous"
	add_trait="wolf"
	add_trait="direwolf"
	add_trait="dog"
	add_trait="greensight"
	give_nickname=nick_warg_king


	6402.1.1 = {
		birth="6402.1.1"
		create_bloodline = {
			type = great_warg
			has_dlc = "Holy Fury"
		}
	}
	6442.1.1 = {
		death = {
			death_reason = death_battle
			killer=8115059
		}
	}
}
848002 = {
	name="Larra"
	female=yes

	dynasty=18774
	
	
	religion="old_gods"
	culture="northman"
	add_trait="mystic"
	add_trait="zealous"
	add_trait="wolf"
	add_trait="greensight"

	father=848001

	6422.1.1 = {
		birth="6422.1.1"
	}
	6442.1.1 = { add_spouse = 8115059 } #
	6460.1.1 = { death="6460.1.1" }
}
8480021 = {
	name="Lyanna"
	female=yes

	dynasty=18774
	
	
	religion="old_gods"
	culture="northman"
	add_trait="mystic"
	add_trait="zealous"
	add_trait="wolf"
	add_trait="greensight"

	father=848001

	6424.1.1 = {
		birth="6424.1.1"
	}
	6442.1.1 = { add_spouse = 8480049 } #
	6463.1.1 = { death="6463.1.1" }
}
8480022 = {
	name="Garlan"

	dynasty=18774
	
	
	religion="old_gods"
	culture="northman"
	add_trait="mystic"
	add_trait="zealous"
	add_trait="wolf"
	add_trait="greensight"
	add_trait="direwolf"
	add_trait="dog"
	add_trait="greensight"
	give_nickname=nick_warg_prince

	father=848001

	6419.1.1 = {
		birth="6424.1.1"
	}
	6442.1.1 = {
		death = {
			death_reason = death_battle
			killer=8115059
		}
	}
}
#######House Dustin
848003 = {
	name="Rolfric"

	dynasty=79
	
	
	religion="old_gods"
	culture="northman"
	add_trait="zealous"

	father = 1051079 #Line of the Barrow kings


	6422.1.1 = {
		birth="6422.1.1"
	}
	6489.1.1 = { death="6489.1.1" }
}
848004 = {
	name="Morna"
	female=yes

	dynasty=79
		
	religion="old_gods"
	culture="northman"
	add_trait="zealous"

	father=848003

	6444.1.1 = {
		birth="6444.1.1"
	}
	6476.1.1 = { add_spouse = 815059 } #Daughter of Barrow king
	6505.1.1 = { death="6505.1.1" }
}
8480041 = {
	name="Jory"

	dynasty=79
	
	add_trait="zealous"
	
	religion="old_gods"
	culture="northman"
	father=848003

	6442.1.1 = {
		birth="6442.1.1"
	}
	6503.1.1 = { death="6503.1.1" }

}
8480042 = {
	name="Line of The Dustins of Barrowton"	#
	
	occluded=yes

	dynasty=79

	father=8480041
	religion="old_gods"
	culture="old_first_man"

	6503.1.1 = {birth="6503.1.1"}
	7935.1.1 = {death="yes"}
}
#######House Greystark
8480070 = {
	name="Rory" 

	dynasty=63859
	
	martial=12
	stewardship=17
	
	religion="old_gods"
	culture="northman"
	
	add_trait="diligent"

	father=8480049
	mother=8480021
		
	6443.1.1 = { birth="6443.1.1"}
	6503.1.1 = { death="6503.1.1" }
}
8480071 = {
	name="Rodrik" 

	dynasty=63859
	
	martial=15
	diplomacy=14
	
	religion="old_gods"
	culture="northman"
	
	add_trait="ambitious"
	add_trait="diligent"
	add_trait="gregarious"

	father=8480070
		
	6478.1.1 = { birth="6478.1.1"}
	6531.1.1 = { death="6531.1.1" }
}

8480072 = {
	name="Line of Rodrik" 

	dynasty=63859
	
	religion="old_gods"
	culture="northman"
	
	father=8480071
	
	occluded=yes
		
	6531.1.1 = { birth="6531.1.1"}
	6968.1.1 = { death="6968.1.1" }
}
8480073 = {
	name="Benjicot" 

	dynasty=63859
	
	martial=8
	stewardship=4
	diplomacy=4
	
	father=8480072
	
	religion="old_gods"
	culture="old_first_man"

	add_trait="ruthless"
	add_trait="wroth"
	add_trait="proud"
	add_trait="rebel_leader"
	add_trait="cruel"
		
	6968.1.1 = { birth="6968.1.1"}
	7003.1.1 = {
		death = {
			death_reason = death_execution_beheading
			killer = 8480074
		}
	}
}
#########House Arryn of Eastwald
8480100 = {
	name="Malcolm" # 
	dynasty=178

	religion="the_seven"
	culture="valeman"
	
	father=214178
	mother=3202187

	7939.1.1 = {birth="7939.1.1"}
	7951.1.1 = { add_trait="knight" add_trait="trained_warrior"  add_spouse=8480101}
	7998.1.1 = {death="7998.1.1"}
}
8480101 = {
	name="Teona"	# a lord
	dynasty=177
	female=yes

	religion="the_seven"
	culture="valeman"

	father=3100177
	mother=4200177

	7939.1.1 = {birth="7939.1.1"}
	7951.1.1 = {add_spouse=8480100}
	7996.1.1 = {death="7996.1.1"}
}
8480102 = {
	name="Ronald" #progenitor of Eastwald line
	dynasty=18873
	
	
	father=8480100
	mother=8480101

	religion="the_seven"
	culture="valeman"

	7976.1.1 = {
		birth="7976.1.1"
		effect = {
			set_dynasty_flag = is_cadet_house
			c_8480100 = { #arryn founder
				set_dynasty_flag = has_cadet_house
				ROOT = { set_dynasty_flag = cadet_house_@PREV }
			}
			c_8480102 = { #founder
				c_the_eyrie = { holder_scope = { set_dynasty_flag = owned_cadet_house_@PREVPREV } }
			}
		}
	}
	7992.1.1 = {add_trait=humble add_trait=content add_trait=trained_warrior add_trait=knight add_spouse=8480103}
	8017.1.1 = {remove_trait=humble add_trait=ambitious}
	8039.1.1 = {death=8039.1.1}
}
8480103 = {
	name="Jeyne" 
	female=yes
	
	religion="the_seven"
	culture="valeman"

	7974.1.1 = {birth="7974.1.1"}
	7992.1.1 = {add_spouse=8480102}
	8030.1.1 = {death="8030.1.1"}
}
8480104 = {
	name="Jon" #
	dynasty=18873
	
	father=8480102
	mother=8480103

	religion="the_seven"
	culture="valeman"
	add_trait=bastard #to prevent them from inheriting

	7996.10.1 = {birth="7996.10.1"}
	8012.1.1 = {add_trait=trained_warrior add_trait=knight add_spouse=8480105}
	8017.1.1 = {remove_trait=humble add_trait=ambitious}
	8049.1.1 = {death="8049.1.1"}
}
8480105 = {
	name="Sarra" 
	female=yes

	religion="the_seven"
	culture="valeman"
	
	7995.1.1 = {birth="7995.1.1"}
	8050.1.1 = {death="8050.1.1"}	
}
8480106 = {
	name="Osgood"
	dynasty=18873
	
	father=8480104
	mother=8480105

	religion="the_seven"
	culture="valeman"

	8020.10.1 = {birth="8020.10.1"}
	8036.1.1 = {add_trait=trained_warrior add_trait=knight add_spouse=8480107}
	8050.1.1 = {death="8050.1.1" add_trait = assign_mission_target}
}
8480107 = {
	name="Marsella" 
	female=yes

	religion="the_seven"
	culture="valeman"
	
	8020.1.1 = {birth="8020.1.1"}
	8050.1.1 = {death="8050.1.1"}	
}
8480108 = {
	name="Yohn" #
	dynasty=18873
	
	father=8480106
	mother=8480107

	religion="the_seven"
	culture="valeman"


	8050.1.1 = {
		birth="8050.1.1"
	}
	8066.1.1 = {add_trait=trained_warrior add_trait=knight add_spouse=8480109}
	8080.1.1 = {death="8080.1.1"}
}
8480109 = {
	name="Aemma" 
	female=yes

	religion="the_seven"
	culture="valeman"
	
	8050.1.1 = {birth="8050.1.1"}
	8100.1.1 = {death="8100.1.1"}	
}
8480110 = {
	name="Alester" 
	dynasty=18873
	
	father=8480108
	mother=8480109

	religion="the_seven"
	culture="valeman"

	8070.1.1 = {
		birth="8070.1.1"
	}
	8086.1.1 = {add_spouse=8480111}
	8120.1.1 = {death="8120.1.1"}
}
8480111 = {
	name="Arwen" 
	female=yes

	religion="the_seven"
	culture="valeman"
	
	8070.1.1 = {birth="8070.1.1"}
	8120.1.1 = {death="8120.1.1"}	
}
8480112 = {
	name="Mortimer" #
	dynasty=18873

	stewardship=10
	
	father=8480110
	mother=8480111

	religion="the_seven"
	culture="valeman"


	8090.1.1 = {
		birth="8090.1.1"
	}
	8110.1.1 = {add_spouse=8480113}
	8120.1.1 = {effect={wealth=600}}
	8163.1.1 = {death="8163.1.1"}
}
8480113 = {
	name="Alayne" 
	female=yes

	religion="the_seven"
	culture="valeman"
	
	8090.1.1 = {birth="8090.1.1"}
	8140.1.1 = {death="8140.1.1"}	
}
8480114 = {
	name="Harrold" #first son of Isembard
	dynasty=18873
	
	father=8480112
	mother=8480113

	religion="the_seven"
	culture="valeman"

	8111.1.1 = {
		birth="8111.1.1"
	}
	8136.1.1 = {add_spouse=8480115}
	8170.1.1 = {death="8170.1.1"}
}
8480115 = {
	name="Anya" 
	female=yes

	religion="the_seven"
	culture="valeman"
	
	8118.1.1 = {birth="8118.1.1"}
	8180.1.1 = {death="8180.1.1"}	
}
8480116 = {
	name="Petyr"
	dynasty=18873
	
	father=8480114
	mother=8480115

	religion="the_seven"
	culture="valeman"

	8140.1.1 = {
		birth="8140.1.1"
	}
	8170.1.1={
		add_spouse=8480117
	}
	8188.1.1 = {death="8188.1.1"}
}

8480117 = {
	name="Ysilla" 
	female=yes

	religion="the_seven"
	culture="valeman"
	
	8140.1.1 = {birth="8140.1.1"}
	8180.1.1 = {death="8180.1.1"}	
}
8480118 = {
	name="Jon"
	dynasty=18873
	
	father=8480116
	mother=8480117

	religion="the_seven"
	culture="valeman"

	8160.1.1 = {
		birth="8160.1.1"
	}
	8170.1.1={
		add_spouse=8480119
	}
	8210.1.1 = {death="8210.1.1"}
}
8480119 = {
	name="Perianne" 
	female=yes

	religion="the_seven"
	culture="valeman"
	
	8160.1.1 = {birth="8160.1.1"}
	8230.1.1 = {death="8230.1.1"}	
}
8480120 = {
	name="Ned"	# a lord
	dynasty=18873

	religion="the_seven"
	culture="valeman"
	
	father=8480118
	mother=8480119

	8178.1.1 = {
		birth="8178.1.1"
	}
	8193.1.1 = {add_spouse=8480121}
	8194.1.1 = {add_trait=knight add_trait=poor_warrior}
	8234.1.1 = {
		death="8234.1.1"	
	}
}
8480121 = {
	name="Barbara"	# not a lord
	female=yes

	religion="the_seven"
	culture="valeman"
	

	8175.1.1 = {birth="8175.1.1"} 
	8234.1.1 = {death="8234.1.1"}
}
8480122 = {
	name="Osric"	# a lord
	dynasty=18873

	religion="the_seven"
	culture="valeman"

	father=8480120
	mother=8480121
	
	
	8209.1.1 = {birth="8209.1.1"}
	8225.1.1 = {add_trait=trained_warrior}
	8227.1.1 = {add_spouse=8480123}
	8268.1.1 = {death="8268.1.1"}
}
8480123 = {
	name="Mya"	# not a lord
	female=yes
	religion="the_seven"
	culture="valeman"
	

	8209.1.1 = {birth="8209.1.1"}

	8268.1.1 = {death="8268.1.1"}
}
8480124 = {
	name="Oswald"
	dynasty=18873

	religion="the_seven"
	culture="valeman"

	father=8480122
	mother=8480123
	

	8230.1.1 = {birth="8230.1.1"}
	8246.1.1 = {add_trait=poor_warrior}
	8248.1.1 = {
		add_spouse=8480125
	}
	8278.1.1 = {death="8278.1.1"}
}
8480125 = {
	name="Arwyn"
	female=yes

	religion="the_seven"
	culture="valeman"
	

	8230.1.1 = {birth="8230.1.1"}
	8290.1.1 = {death="8290.1.1"}
}
8480126 = {
	name="Creighton"	# a lord
	dynasty=18873

	religion="the_seven"
	culture="valeman"

	father=8480124
	mother=8480125
	

	8257.1.1 = {birth="8257.1.1"}
	8279.1.1 = {add_trait=trained_warrior}
	8281.1.1 = {add_spouse=8480127}
}
8480127 = {
	name="Olenna"	# not a lord
	female=yes

	religion="the_seven"
	culture="valeman"
	

	8263.1.1 = {birth="8263.1.1"}
}
8480128 = {
	name="Triston"	# not a lord
	dynasty=18873

	religion="the_seven"
	culture="valeman"

	father=8480126
	mother=8480127
	

	8282.1.1 = {birth="8281.1.1"}
	8292.1.1 = {add_trait=trained_warrior}
}


#########House Arryn of the Fingers
9580100 = {
	name="Alester" # 
	dynasty=178

	religion="the_seven"
	culture="valeman"
	
	father=214178
	mother=3202187

	7940.1.1 = {birth="7940.1.1"}
	7951.1.1 = { add_trait="knight" add_trait="trained_warrior"  add_spouse=9580101}
	7998.1.1 = {death="7998.1.1"}
}
9580101 = {
	name="Larra"	# a lord
	female=yes

	religion="the_seven"
	culture="valeman"


	7939.1.1 = {birth="7939.1.1"}
	7951.1.1 = {add_spouse=9580100}
	7996.1.1 = {death="7996.1.1"}
}
9580102 = {
	name="Jon" #progenitor of Eastwald line
	dynasty=18872
	
	
	father=9580100
	mother=9580101

	religion="the_seven"
	culture="valeman"

	7976.1.1 = {
		birth="7976.1.1"
		effect = {
			set_dynasty_flag = is_cadet_house
			c_9580100 = { #arryn founder
				set_dynasty_flag = has_cadet_house
				ROOT = { set_dynasty_flag = cadet_house_@PREV }
			}
			c_9580102 = { #founder
				c_the_eyrie = { holder_scope = { set_dynasty_flag = owned_cadet_house_@PREVPREV } }
			}
		}
	}
	7992.1.1 = {add_trait=humble add_trait=content add_trait=trained_warrior add_trait=knight add_spouse=9580103}
	8017.1.1 = {remove_trait=humble add_trait=ambitious}
	8039.1.1 = {death=8039.1.1}
}
9580103 = {
	name="Jeyne" 
	female=yes
	
	religion="the_seven"
	culture="valeman"

	7974.1.1 = {birth="7974.1.1"}
	7992.1.1 = {add_spouse=9580102}
	8030.1.1 = {death="8030.1.1"}
}
9580104 = {
	name="Yohn" #
	dynasty=18872
	
	father=9580102
	mother=9580103

	religion="the_seven"
	culture="valeman"
	add_trait=bastard #to prevent them from inheriting

	7996.10.1 = {birth="7996.10.1"}
	8012.1.1 = {add_trait=trained_warrior add_trait=knight add_spouse=9580105}
	8017.1.1 = {remove_trait=humble add_trait=ambitious}
	8049.1.1 = {death="8049.1.1"}
}
9580105 = {
	name="Sarra" 
	female=yes

	religion="the_seven"
	culture="valeman"
	
	7995.1.1 = {birth="7995.1.1"}
	8050.1.1 = {death="8050.1.1"}	
}
9580106 = {
	name="Osric"
	dynasty=18872
	
	father=9580104
	mother=9580105

	religion="the_seven"
	culture="valeman"

	8020.10.1 = {birth="8020.10.1"}
	8036.1.1 = {add_trait=trained_warrior add_trait=knight add_spouse=9580107}
	8050.1.1 = {death="8050.1.1" add_trait = assign_mission_target}
}
9580107 = {
	name="Marsella" 
	female=yes

	religion="the_seven"
	culture="valeman"
	
	8020.1.1 = {birth="8020.1.1"}
	8050.1.1 = {death="8050.1.1"}	
}
9580108 = {
	name="Petyr" #
	dynasty=18872
	
	father=9580106
	mother=9580107

	religion="the_seven"
	culture="valeman"


	8050.1.1 = {
		birth="8050.1.1"
	}
	8066.1.1 = {add_trait=trained_warrior add_trait=knight add_spouse=9580109}
	8080.1.1 = {death="8080.1.1"}
}
9580109 = {
	name="Aemma" 
	female=yes

	religion="the_seven"
	culture="valeman"
	
	8050.1.1 = {birth="8050.1.1"}
	8100.1.1 = {death="8100.1.1"}	
}
9580110 = {
	name="Jon" 
	dynasty=18872
	
	father=9580108
	mother=9580109

	religion="the_seven"
	culture="valeman"

	8070.1.1 = {
		birth="8070.1.1"
	}
	8086.1.1 = {add_spouse=9580111}
	8120.1.1 = {death="8120.1.1"}
}
9580111 = {
	name="Arwen" 
	female=yes

	religion="the_seven"
	culture="valeman"
	
	8070.1.1 = {birth="8070.1.1"}
	8120.1.1 = {death="8120.1.1"}	
}
9580112 = {
	name="Osgood" #
	dynasty=18872

	stewardship=10
	
	father=9580110
	mother=9580111

	religion="the_seven"
	culture="valeman"


	8090.1.1 = {
		birth="8090.1.1"
	}
	8110.1.1 = {add_spouse=9580113}
	8120.1.1 = {effect={wealth=600}}
	8163.1.1 = {death="8163.1.1"}
}
9580113 = {
	name="Alayne" 
	female=yes

	religion="the_seven"
	culture="valeman"
	
	8090.1.1 = {birth="8090.1.1"}
	8140.1.1 = {death="8140.1.1"}	
}
9580114 = {
	name="Artys" #first son of Isembard
	dynasty=18872
	
	father=9580112
	mother=9580113

	religion="the_seven"
	culture="valeman"

	8111.1.1 = {
		birth="8111.1.1"
	}
	8136.1.1 = {add_spouse=9580115}
	8170.1.1 = {death="8170.1.1"}
}
9580115 = {
	name="Anya" 
	female=yes

	religion="the_seven"
	culture="valeman"
	
	8118.1.1 = {birth="8118.1.1"}
	8180.1.1 = {death="8180.1.1"}	
}
9580116 = {
	name="Jon"
	dynasty=18872
	
	father=9580114
	mother=9580115

	religion="the_seven"
	culture="valeman"

	8140.1.1 = {
		birth="8140.1.1"
	}
	8170.1.1={
		add_spouse=9580117
	}
	8188.1.1 = {death="8188.1.1"}
}

9580117 = {
	name="Ysilla" 
	female=yes

	religion="the_seven"
	culture="valeman"
	
	8140.1.1 = {birth="8140.1.1"}
	8180.1.1 = {death="8180.1.1"}	
}
9580118 = {
	name="Mortimer"
	dynasty=18872
	
	father=9580116
	mother=9580117

	religion="the_seven"
	culture="valeman"

	8160.1.1 = {
		birth="8160.1.1"
	}
	8170.1.1={
		add_spouse=9580119
	}
	8210.1.1 = {death="8210.1.1"}
}
9580119 = {
	name="Perianne" 
	female=yes

	religion="the_seven"
	culture="valeman"
	
	8160.1.1 = {birth="8160.1.1"}
	8230.1.1 = {death="8230.1.1"}	
}
9580120 = {
	name="Mychel"	# a lord
	dynasty=18872

	religion="the_seven"
	culture="valeman"
	
	father=9580118
	mother=9580119

	8178.1.1 = {
		birth="8178.1.1"
	}
	8193.1.1 = {add_spouse=9580121}
	8194.1.1 = {add_trait=knight add_trait=poor_warrior}
	8234.1.1 = {
		death="8234.1.1"	
	}
}
9580121 = {
	name="Barbara"	# not a lord
	female=yes

	religion="the_seven"
	culture="valeman"
	

	8175.1.1 = {birth="8175.1.1"} 
	8234.1.1 = {death="8234.1.1"}
}
9580122 = {
	name="Jon"	# a lord
	dynasty=18872

	religion="the_seven"
	culture="valeman"

	father=9580120
	mother=9580121
	
	
	8209.1.1 = {birth="8209.1.1"}
	8225.1.1 = {add_trait=trained_warrior}
	8227.1.1 = {add_spouse=9580123}
	8268.1.1 = {death="8268.1.1"}
}
9580123 = {
	name="Mya"	# not a lord
	female=yes
	religion="the_seven"
	culture="valeman"
	

	8209.1.1 = {birth="8209.1.1"}

	8268.1.1 = {death="8268.1.1"}
}
9580124 = {
	name="Gwayne"
	dynasty=18872

	religion="the_seven"
	culture="valeman"

	father=9580122
	mother=9580123
	

	8230.1.1 = {birth="8230.1.1"}
	8246.1.1 = {add_trait=poor_warrior}
	8248.1.1 = {
		add_spouse=9580125
	}
	8278.1.1 = {death="8278.1.1"}
}
9580125 = {
	name="Arwyn"
	female=yes

	religion="the_seven"
	culture="valeman"
	

	8230.1.1 = {birth="8230.1.1"}
	8290.1.1 = {death="8290.1.1"}
}
9580126 = {
	name="Lucas"	# a lord
	dynasty=18872

	religion="the_seven"
	culture="valeman"

	father=9580124
	mother=9580125
	

	8257.1.1 = {birth="8257.1.1"}
	8279.1.1 = {add_trait=trained_warrior}
	8281.1.1 = {add_spouse=9580127}
}
9580127 = {
	name="Olenna"	# not a lord
	female=yes

	religion="the_seven"
	culture="valeman"
	

	8263.1.1 = {birth="8263.1.1"}
}
9580128 = {
	name="Rodrik"	# not a lord
	dynasty=18872

	religion="the_seven"
	culture="valeman"

	father=9580126
	mother=9580127
	

	8282.1.1 = {birth="8281.1.1"}
	8292.1.1 = {add_trait=trained_warrior}
}
9580129 = {
	name="Ronald"	# not a lord
	dynasty=174

	religion="the_seven"
	culture="valeman"

	father=3000174
	mother=4000174

	7985.1.1 = {birth="7985.1.1"}
	7998.1.1 = {
		add_trait=humble 
		add_trait=content 
		add_trait=trained_warrior 
		add_trait=knight
		effect={
			add_rival=5052178
		}
	}
	8008.1.1 = {
		death = {
			death_reason = death_duel
			killer=8480102
		}
	}
}
##########green king
5521905 = {
	name="The Green King"	# a lord
	dynasty=5521905

	religion="old_gods"
	culture="old_first_man"

	4219.1.1 = {
		birth="4219.1.1"
	}
	4236.1.1 = {
		add_trait=skilled_tactician 
		add_trait=master_warrior 
		add_trait=mystic
		add_trait=greensight 
		}
	4301.1.1 = {death="4301.1.1"}
}
8889381 = {
	name="Fredros"
	dynasty=5578391
		
	martial = 3
	diplomacy = 4
	intrigue = 1
	stewardship = 6 
	learning = 10
	
	religion="the_seven"
	culture="crownlander"
	
	add_trait=mastermind_theologian
	
	8167.1.1 = {birth="8167.1.1" }
	8185.1.1 = {
		add_trait="linguist"	
		add_trait="kind"	
		add_trait="honorable"	
		add_trait = administrator
	}
	8202.1.1 = {
		add_spouse = 8889382
	}
	8253.1.1 = {death="8253.1.1"}	
}
8889382 = {
	name="Mariam"
	female=yes
		 
	
	religion="the_seven"
	culture="crownlander"
	
	
	8167.1.1 = {birth="8167.1.1" }
	8185.1.1 = {
		add_trait="kind"	
	}
	8202.1.1 = {
		add_spouse = 8889382
	}
	8253.1.1 = {death="8253.1.1"}	
}
8889383 = {
	name="Rickard"
	dynasty=5578391
	dna="bcggbelffai"
	properties="wl0eck00000000ca"

	father=8889381
	mother=8889382
		
	martial = 4
	diplomacy = 5
	intrigue = 1
	stewardship = 6 
	learning = 8
	
	religion="the_seven"
	culture="crownlander"
	
	add_trait=mastermind_theologian
	
	8203.1.1 = {birth="8203.1.1" }
	8220.1.1 = {
		add_trait="trained_warrior"	
		add_trait="linguist"	
		add_trait="kind"	
		add_trait="honorable"	
		add_trait="knight"	
		add_trait="traveller"	
	}
	8294.1.1 = {death="8294.1.1"}	
}
8889384 = {
	name="Davos"
	dynasty=5578391
	dna="bcggbelffai"
	properties="wk0e0k00000000ca"

	father=8889381
	mother=8889382
		
	martial = 4
	diplomacy = 5
	intrigue = 1
	stewardship = 6 
	learning = 8
	
	religion="the_seven"
	culture="crownlander"
	
	add_trait=mastermind_theologian
	
	8206.1.1 = {birth="8206.1.1" }
	8224.1.1 = {
		add_trait="trained_warrior"	
		add_trait="kind"	
		add_trait="honorable"	
		add_trait="knight"	
		add_trait="traveller"	
		add_trait="maester"	
		add_trait="raven"	
		add_trait="herbologist"	
		add_trait="cartographer"	
	}
	8250.1.1 = {
		remove_trait="maester"	
		add_trait="archmaester"	
		effect = {
			set_character_flag = choosing_hermetic_art
			add_artifact = black_iron_link
			add_artifact = black_iron_link
			add_artifact = black_iron_link
			add_artifact = brass_link
			add_artifact = pewter_link
			add_artifact = tin_link
			add_artifact = brass_link
			add_artifact = pewter_link
			add_artifact = tin_link
			add_artifact = brass_link
			add_artifact = pewter_link
			add_artifact = tin_link
		}
	}
	8278.1.1={
		employer=88129
	}
	8292.1.1={
		employer=88124
	}
	8298.1.1={
		employer=88130
	}
}
8889385 = {
	name="Jon"
	dynasty=5578391

	father=8889381
	mother=8889382
		
	martial = 2
	diplomacy = 6
	intrigue = 1
	stewardship = 8 
	learning = 8
	
	religion="the_seven"
	culture="crownlander"
	
	add_trait=midas_touched
	
	8206.1.1 = {birth="8206.1.1" }
	8230.1.1 = {
		add_trait="trained_warrior"	
		add_trait="kind"	
		add_trait="honorable"	
		add_trait="traveller"	
		add_trait="maester"	
		add_trait="linguist"	
		add_trait="metallurgist"	
		add_trait = administrator
	}
	8292.1.1 = {death="8292.1.1"}	
}

77620011 = { #random mother to prevent culling
	name = "Jeyne"
	female = yes
	
	religion="old_gods"
	culture="half_southron"
	
	add_trait = fair_1
	
	8262.1.1 = { 
		birth ="8262.1.1"	
		effect = { 
			b_white_firth_2 = {
				holder_scope = { ROOT = { move_character = PREV } }
			}
			dynasty = none
		}	
	}
}
7762001 = { #
	name = "Marna"
	female = yes
	dna="cdicj0da000"
	properties="0g0b0k0000000000000000000000000000"
	
	religion="old_gods"
	culture="half_southron"
	
	martial = 2
	diplomacy = 3
	intrigue = 1
	stewardship = 2
	learning = 3
	
	add_trait="bastard"
	add_trait="fair_1"
	add_trait="brave"
	add_trait="proud"
	add_trait="stubborn"
	add_trait="gregarious"
	give_nickname = nick_snow
	
	#father=3058
	mother = 77620011
	
	8281.1.1 = { 
		birth ="8281.1.1" 
		effect = { 
			set_graphical_culture="Stark_dyn"
			set_immune_to_pruning = yes
			set_character_flag = secret_stark_bastard 		
			b_white_firth_2 = {
				holder_scope = { ROOT = { move_character = PREV } }
			}
			dynasty = none
			c_3058 = {
				ROOT = { set_real_father = PREV }
			}
		}
	}
}
77620021 = { #random mother to prevent culling
	name = "Sarya"
	female = yes
	
	religion="old_gods"
	culture="riverlander"
	
	add_trait = fair_1
	
	8263.1.1 = { 
		birth ="8263.1.1"	
		effect = { 
			b_eaglestown = {
				holder_scope = { ROOT = { move_character = PREV } }
			}
			dynasty = none
		}	
	}
}
7762002 = { #
	name = "Melantha"
	female = yes
	dna="bgdda0ff000"
	properties="0o0c0k0000000000000000000000000000"
	
	religion="old_gods"
	culture="riverlander"
	
	martial = 2
	diplomacy = 4
	intrigue = 0
	stewardship = 3
	learning = 2
	
	add_trait="bastard"
	add_trait="fair_1"
	add_trait="honorable"
	add_trait="brave"
	add_trait="wroth"
	add_trait="authoritative"
	give_nickname = nick_rivers
	
	#father=3058
	mother = 77620021
	
	8281.7.1 = { 
		birth ="8281.7.1" 
		effect = { 
			set_graphical_culture="Stark_dyn"
			set_immune_to_pruning = yes
			set_character_flag = secret_stark_bastard 		
			b_eaglestown = {
				holder_scope = { ROOT = { move_character = PREV } }
			}
			dynasty = none
			c_3058 = {
				ROOT = { set_real_father = PREV }
			}
		}
	}
}
77620031 = { #random mother to prevent culling
	name = "Alicent"
	female = yes
	
	religion="the_seven"
	culture="riverlander"
	
	add_trait = fair_1
	
	8263.8.1 = { 
		birth ="8263.1.1"	
		effect = { 
			b_cowstone = {
				holder_scope = { ROOT = { move_character = PREV } }
			}
			dynasty = none
		}	
	}
}
7762003 = { #
	name = "Lorra"
	female = yes
	dna="bgjfc0ef000"
	properties="0g0b0k0000000000000000000000000000"
	
	religion="the_seven"
	culture="riverlander"
	
	martial = 3
	diplomacy = 2
	intrigue = 1
	stewardship = 4
	learning = 1
	
	add_trait="bastard"
	add_trait="fair_1"
	add_trait="honest"
	add_trait="just"
	add_trait="wroth"
	add_trait="gregarious"
	give_nickname = nick_rivers
	
	#father=3058
	mother = 77620031
	
	8282.3.1={
		birth ="8282.3.1" 
		effect = { 
			set_graphical_culture="Stark_dyn"
			set_immune_to_pruning = yes
			set_character_flag = secret_stark_bastard 		
			b_cowstone = {
				holder_scope = { ROOT = { move_character = PREV } }
			}
			dynasty = none
			c_3058 = {
				ROOT = { set_real_father = PREV }
			}
		}
	}
}
889901 = {		
	name=""	# 

	religion="the_seven"
	culture="riverlander"
	
	6000.1.1 = {birth="6000.1.1"}
	6020.1.1 = {
		add_trait = brave
		add_trait = just
		add_trait = charitable
		add_trait = honorable
		add_trait = honest
		add_trait = humble
		add_trait = kind
		add_trait = zealous
		add_trait = septon
	}
	6060.1.1 = {death="6060.1.1"}
}
889902 = {
	name="Jon"
	dynasty=1528

	father=1101528
	mother=4101528

	religion="the_seven"
	culture="riverlander"

	8251.1.1 = {birth="8251.1.1"}
	8267.1.1 = {add_trait=knight add_trait=trained_warrior}	
}
889903 = {
	name="Marq"
	dynasty=1528
	dna="cklaj0hcad0"
	properties="0a0e0k0c00000000000000000000000000"

	religion="the_seven"
	culture="riverlander"

	father=1101528
	mother=4101528

	martial = 1
	diplomacy = 1
	intrigue = 1
	stewardship = 1
	learning = 1

	8255.1.1 = {birth="8255.1.1"}
	8271.1.1 = {add_trait=knight add_trait=trained_warrior add_trait=proud }	
	8283.3.1 = {
		name=""
		add_trait = content
		add_trait = just
		add_trait = charitable
		add_trait = honest
		add_trait = humble
		add_trait = kind
		add_trait = zealous
		add_trait = septon
		add_trait = scarred
		add_trait = herbologist
		remove_trait = proud
		add_trait = scholarly_theologian
		add_trait = smith_fos
	}
}
889904 = {
	name="Karolyn"
	female = yes

	religion="the_seven"
	culture="reachman"



	7994.1.1 = {
		birth="7994.1.1"
		add_trait = just
		add_trait = brave
		add_trait = deceitful
		add_trait = humble
		add_trait = kind
		add_trait = zealous
		add_trait = quick_1
		add_trait = mother_fos
	}
	8010.1.1 = {
		add_trait = septa
	}
	8080.1.1= {death="8070.1.1"}
}
##################
564321 = {
	name="Farlen"

	religion="old_gods"
	culture="northman"



	8259.1.1 = {
		birth="8259.1.1"
		effect = {	
			dynasty = none
			set_immune_to_pruning = yes
		}
		employer=2058
		add_trait = brave
		add_trait = honorable
		add_trait = hunter
		add_trait = content
	}
	8279.1.1 = {
		effect = {
			give_minor_title = title_kennelmaster_mbs
		}
	}
	8282.1.1 = {
		employer=59
	}
	8298.11.2 = {
		employer=2059
	}
	8299.6.29 = {
		death = {
			death_reason = death_execution_beheading 
			killer = 8107
		}
	} 
}
564322 = {
	name="Palla"
	female = yes

	religion="old_gods"
	culture="northman"

	father=564321


	8283.1.1 = {
		birth="8259.1.1"
		effect = {	
			dynasty = none
			set_immune_to_pruning = yes
		}
		employer=59
		add_trait = brave
		add_trait = gregarious
		add_trait = hunter
		add_trait = content
	}
	8298.11.2 = {
		employer=2059
	}
	8299.7.3 = {
		employer=2087 #Captured by Ramsay
		effect = { 
			prisoner = yes
			set_character_flag = captured_in_battle
		}
	}
}
564323 = {
	name="Ben"

	religion="old_gods"
	culture="northman"

	give_nickname=nick_mbs_bones


	8256.1.1 = {
		birth="8256.1.1"
		effect = {	
			dynasty = none
			set_immune_to_pruning = yes
		}
		employer=87
		add_trait = cruel
		add_trait = wroth
		add_trait = hunter
		add_trait = ruthless
	}
	8279.1.1 = {
		effect = {
			give_minor_title = title_kennelmaster_mbs
		}
	}
}
564324 = {
	name="Bass"

	religion="old_gods"
	culture="northman"


	8255.1.1 = {
		birth="8255.1.1"
		effect = {	
			dynasty = none
			set_immune_to_pruning = yes
		}
		add_trait = hunter
	}
	8270.1.1 = {add_trait=trained_warrior}
	8276.1.1 = {	
		add_trait="nightswatch"
		employer=121000
		effect = {
			give_minor_title = title_kennelmaster_mbs
		}
	}
	8288.1.1 = {	
		employer=121000
		effect = {
			give_minor_title = title_kennelmaster_mbs
		}
	}
	8299.7.8 = {	
		employer=200353
		effect = {
			give_minor_title = title_kennelmaster_mbs
		}
	}
	8300.3.1 = {	
		employer=1002059
		effect = {
			give_minor_title = title_kennelmaster_mbs
		}
	}
}
7799201 = {
	name="Neyela"
	dynasty=496	
	female=yes
	
	religion="the_seven"
	culture="western_valyrian"
	
	father=77020
	mother=26143

	add_trait="bastard"
	give_nickname ="nick_rivers"
	
	8180.9.9 = {birth="8180.9.9"}
	8184.1.1={
		remove_trait="bastard"
		add_trait="legit_bastard"
	}
	8243.1.1 = {death="8243.1.1"}
}
7799202 = {
	name="Wynafrei"
	dynasty=496	
	female=yes
	
	religion="the_seven"
	culture="western_valyrian"
	
	father=77020
	mother=15143

	add_trait="bastard"
	give_nickname ="nick_rivers"
	
	8180.9.9 = {birth="8180.9.9"}
	8184.1.1={
		remove_trait="bastard"
		add_trait="legit_bastard"
	}
	8250.1.1 = {death="8250.1.1"}
}
7799203 = {
	name="Rosamund"
	dynasty=496	
	female=yes
	
	religion="the_seven"
	culture="western_valyrian"
	
	father=77020
	mother=16143

	add_trait="bastard"
	give_nickname ="nick_rivers"
	
	8180.9.9 = {birth="8180.9.9"}
	8184.1.1={
		remove_trait="bastard"
		add_trait="legit_bastard"
	}
	8221.1.1 = {death="8221.1.1"}
}
