600.1.1={
	liege="d_yongchun"
}
7995.1.1 = { holder=10069194 }
8041.1.1 = { holder=10269194 }
8047.1.1 = { holder=10469194 }
8072.1.1 = { holder=10569194 }
8098.1.1 = { holder=10869194 }
8150.1.1 = { holder=11069194 }
8178.1.1 = { holder=11169194 }
8181.1.1 = { holder=11369194 }
8205.1.1 = { holder=11769194 }
8247.1.1 = { holder=11869194 }
8280.1.1 = { holder=12469194 }


