600.1.1={
	liege="d_ruanfu"
}
7995.1.1 = { holder=10069169 }
8026.1.1 = { holder=10269169 }
8046.1.1 = { holder=10569169 }
8098.1.1 = { holder=10869169 }
8121.1.1 = { holder=11369169 }
8123.1.1 = { holder=11869169 }
8147.1.1 = { holder=12069169 }
8200.1.1 = { holder=12169169 }
8205.1.1 = { holder=12669169 }
8249.1.1 = { holder=12969169 }
8271.1.1 = { holder=13169169 }
8293.1.1 = { holder=13469169 }

