name = "The North's Invasion of the Dreadfort"

casus_belli={
	casus_belli=dejure_kingdom_claim
	actor=815059
	recipient=1055087
	landed_title=k_dreadfortTK
	date=6478.1.1
}

6478.1.1 = {
	add_defender = 1055087
	add_attacker = 815059
}

6479.1.1 = {
	rem_defender = 1055087
	rem_attacker = 815059
}                                                                                                                                                                                                                                                                                                                