name = "Argos Sevenstar's Invasion of White Harbor"

casus_belli={
	casus_belli=dejure_duchy_claim
	actor=820059
	recipient=10174918
	landed_title=d_whiteharbor
	date=6600.1.1
}

6600.1.1 = {
	add_defender = 10174918
	add_attacker = 820059
}

6601.1.1 = {
	rem_defender = 10174918
	rem_attacker = 820059
}                                                                                                                                                                                                                                                                                                                