name = "The Second Turtle War"

casus_belli={
	casus_belli=embargo_cb
	actor=105174372
	recipient=1006015
	landed_title=c_sar_mell
	date=7158.1.1
}

7158.1.1 = {
	add_defender = 1006015 # Sar Mell
	add_attacker = 105174372 # Volantis
}

7159.1.1 = {
	rem_defender = 1006015 # Sar Mell
	rem_attacker = 105174372 # Volantis
}                                                                                                                                                                                                                                                                                                                