name = "The Fisherman's War"

casus_belli={
	casus_belli=embargo_cb
	actor=111174371
	recipient=10586017
	landed_title=k_chroyane
	date=7182.1.1
}

7182.1.1 = {
	add_defender = 10586017 # Chroyane
	add_attacker = 111174371 # Volantis
}

7183.1.1 = {
	rem_defender = 10586017 # Chroyane
	rem_attacker = 111174371 # Volantis
}                                                                                                                                                                                                                                                                                                                