name = "The Third Turtle War"

casus_belli={
	casus_belli=embargo_cb
	actor=115174373
	recipient=1014015
	landed_title=c_sar_mell
	date=7230.1.1
}

7230.1.1 = {
	add_defender = 1014015 # Sar Mell
	add_attacker = 115174373 # Volantis
}

7231.1.1 = {
	rem_defender = 1014015 # Sar Mell
	rem_attacker = 115174373 # Volantis
}                                                                                                                                                                                                                                                                                                                