name = "The War on Dagger Lake"

casus_belli={
	casus_belli=embargo_cb
	actor=125174397
	recipient=12086004
	landed_title=k_sarhoy
	date=7276.1.1
}

7276.1.1 = {
	add_defender = 12086004 # Ar Noy
	add_attacker = 125174397 # Volantis
}

7277.1.1 = {
	rem_defender = 12086004 # Ar Noy
	rem_attacker = 125174397 # Volantis
}                                                                                                                                                                                                                                                                                                                