##Astapor

##House Nakloz

150360001 = {
	name="Gazdhor"	# a lord
	dynasty=360001

	religion="harpy"
	culture="ghiscari"

	6434.1.1 = {birth="6434.1.1"}
	6455.1.1 = {add_spouse=250360001}
	6484.1.1 = {death="6484.1.1"}
}
250360001 = {
	name="Ezzara"
	female=yes

	religion="harpy"
	culture="ghiscari"

	6440.1.1 = {birth="6440.1.1"}
	6488.1.1 = {death="6488.1.1"}
}
100360001 = {
	name="Gorzhak"	# a lord
	dynasty=360001

	religion="harpy"
	culture="ghiscari"

	father=150360001
	mother=250360001

	6457.1.1 = {birth="6457.1.1"}
	6473.1.1 = {add_trait=poor_warrior}
	6484.1.1 = {}
	6485.1.1 = {add_spouse=200360001}
	6513.1.1 = {death="6513.1.1"}
}
200360001 = {
	name="Qezza"
	female=yes

	religion="harpy"
	culture="ghiscari"

	6458.1.1 = {birth="6458.1.1"}
	6513.1.1 = {death="6513.1.1"}
}
101360001 = {
	name="Grazdan"	# a lord
	dynasty=360001

	religion="harpy"
	culture="ghiscari"

	father=100360001
	mother=200360001

	6493.1.1 = {birth="6493.1.1"}
	6513.1.1 = {}
	6515.1.1 = {add_trait=poor_warrior}
	6517.1.1 = {add_spouse=201360001}
	6549.1.1 = {death="6549.1.1"}
}
201360001 = {
	name="Barezza"
	female=yes

	religion="harpy"
	culture="ghiscari"

	6499.1.1 = {birth="6499.1.1"}
	6549.1.1 = {death="6549.1.1"}
}
102360001 = {
	name="Hazzea"	# not a lord
	female=yes
	dynasty=360001

	religion="harpy"
	culture="ghiscari"

	father=100360001
	mother=200360001

	6500.1.1 = {birth="6500.1.1"}
	6529.1.1 = {death="6529.1.1"}
}
103360001 = {
	name="Paezdhar"	# not a lord
	dynasty=360001

	religion="harpy"
	culture="ghiscari"

	father=100360001
	mother=200360001

	6503.1.1 = {birth="6503.1.1"}
	6519.1.1 = {add_trait=poor_warrior}
	6521.1.1 = {add_spouse=203360001}
	6582.1.1 = {death="6582.1.1"}
}
203360001 = {
	name="Mezzara"
	female=yes

	religion="harpy"
	culture="ghiscari"

	6503.1.1 = {birth="6503.1.1"}
	6582.1.1 = {death="6582.1.1"}
}
104360001 = {
	name="Kraznys"	# not a lord
	dynasty=360001

	religion="harpy"
	culture="ghiscari"

	father=100360001
	mother=200360001

	6506.1.1 = {birth="6506.1.1"}
	6522.1.1 = {add_trait=poor_warrior}
	6524.1.1 = {add_spouse=204360001}
	6554.1.1 = {death="6554.1.1"}
}
204360001 = {
	name="Qezza"
	female=yes

	religion="harpy"
	culture="ghiscari"

	6506.1.1 = {birth="6506.1.1"}
	6554.1.1 = {death="6554.1.1"}
}
105360001 = {
	name="Skahaz"	# not a lord
	dynasty=360001

	religion="harpy"
	culture="ghiscari"

	father=100360001
	mother=200360001

	6507.1.1 = {birth="6507.1.1"}
	6523.1.1 = {add_trait=trained_warrior}
	6575.1.1 = {death="6575.1.1"}
}
106360001 = {
	name="Grazdhan"	# a lord
	dynasty=360001

	religion="harpy"
	culture="ghiscari"

	father=101360001
	mother=201360001

	6518.1.1 = {birth="6518.1.1"}
	6534.1.1 = {add_trait=poor_warrior}
	6536.1.1 = {add_spouse=206360001}
	6549.1.1 = {}
	6583.1.1 = {death="6583.1.1"}
}
206360001 = {
	name="Sezka"
	female=yes

	religion="harpy"
	culture="ghiscari"

	6518.1.1 = {birth="6518.1.1"}
	6583.1.1 = {death="6583.1.1"}
}
107360001 = {
	name="Gazdhor"	# not a lord
	dynasty=360001

	religion="harpy"
	culture="ghiscari"

	father=101360001
	mother=201360001

	6521.1.1 = {birth="6521.1.1"}
	6537.1.1 = {add_trait=skilled_warrior}
	6570.1.1 = {death="6570.1.1"}
}
108360001 = {
	name="Reznak"	# not a lord
	dynasty=360001

	religion="harpy"
	culture="ghiscari"

	father=101360001
	mother=201360001

	6522.1.1 = {birth="6522.1.1"}
	6538.1.1 = {add_trait=poor_warrior}
	6577.1.1 = {death="6577.1.1"}
}
109360001 = {
	name="Azzea"	# not a lord
	female=yes
	dynasty=360001

	religion="harpy"
	culture="ghiscari"

	father=106360001
	mother=206360001

	6546.1.1 = {birth="6546.1.1"}
	6623.1.1 = {death="6623.1.1"}
}
110360001 = {
	name="Yezzan"	# a lord
	dynasty=360001

	religion="harpy"
	culture="ghiscari"

	father=106360001
	mother=206360001

	6549.1.1 = {birth="6549.1.1"}
	6565.1.1 = {add_trait=poor_warrior}
	6567.1.1 = {add_spouse=210360001}
	6583.1.1 = {}
	6624.1.1 = {death="6624.1.1"}
}
210360001 = {
	name="Ezzara"
	female=yes

	religion="harpy"
	culture="ghiscari"

	6549.1.1 = {birth="6549.1.1"}
	6624.1.1 = {death="6624.1.1"}
}
111360001 = {
	name="Melezzara"	# not a lord
	female=yes
	dynasty=360001

	religion="harpy"
	culture="ghiscari"

	father=106360001
	mother=206360001

	6551.1.1 = {birth="6551.1.1"}
	6605.1.1 = {death="6605.1.1"}
}
112360001 = {
	name="Azzaq"	# not a lord
	dynasty=360001

	religion="harpy"
	culture="ghiscari"

	father=106360001
	mother=206360001

	6554.1.1 = {birth="6554.1.1"}
	6570.1.1 = {add_trait=trained_warrior}
	6599.1.1 = {death = {death_reason = death_murder}}
}
113360001 = {
	name="Telezza"	# not a lord
	female=yes
	dynasty=360001

	religion="harpy"
	culture="ghiscari"

	father=110360001
	mother=210360001

	6568.1.1 = {birth="6568.1.1"}
	6641.1.1 = {death="6641.1.1"}
}
114360001 = {
	name="Yezzara"	# not a lord
	female=yes
	dynasty=360001

	religion="harpy"
	culture="ghiscari"

	father=110360001
	mother=210360001

	6569.1.1 = {birth="6569.1.1"}
	6632.1.1 = {death="6632.1.1"}
}
115360001 = {
	name="Grazdan"	# a lord
	dynasty=360001

	religion="harpy"
	culture="ghiscari"

	father=110360001
	mother=210360001

	6570.1.1 = {birth="6570.1.1"}
	6586.1.1 = {add_trait=poor_warrior}
	6588.1.1 = {add_spouse=215360001}
	6624.1.1 = {}
	6630.1.1 = {death="6630.1.1"}
}
215360001 = {
	name="Dhazzar"
	female=yes

	religion="harpy"
	culture="ghiscari"

	6570.1.1 = {birth="6570.1.1"}
	6630.1.1 = {death="6630.1.1"}
}
116360001 = {
	name="Marghaz"	# a lord
	dynasty=360001

	religion="harpy"
	culture="ghiscari"

	father=115360001
	mother=215360001

	6599.1.1 = {birth="6599.1.1"}
	6615.1.1 = {add_trait=trained_warrior}
	6617.1.1 = {add_spouse=216360001}
	6630.1.1 = {}
	6648.1.1 = {death="6648.1.1"}
}
216360001 = {
	name="Dezzara"
	female=yes

	religion="harpy"
	culture="ghiscari"

	6599.1.1 = {birth="6599.1.1"}
	6648.1.1 = {death="6648.1.1"}
}
117360001 = {
	name="Orghaz"	# not a lord
	dynasty=360001

	religion="harpy"
	culture="ghiscari"

	father=115360001
	mother=215360001

	6600.1.1 = {birth="6600.1.1"}
	6616.1.1 = {add_trait=trained_warrior}
	6618.1.1 = {add_spouse=217360001}
	6652.1.1 = {death="6652.1.1"}
}
217360001 = {
	name="Gezza"
	female=yes

	religion="harpy"
	culture="ghiscari"

	6600.1.1 = {birth="6600.1.1"}
	6652.1.1 = {death="6652.1.1"}
}
118360001 = {
	name="Hizdhar"	# not a lord
	dynasty=360001

	religion="harpy"
	culture="ghiscari"

	father=115360001
	mother=215360001

	6601.1.1 = {birth="6601.1.1"}
	6617.1.1 = {add_trait=poor_warrior}
	6681.1.1 = {death="6681.1.1"}
}
119360001 = {
	name="Galazza"	# not a lord
	female=yes
	dynasty=360001

	religion="harpy"
	culture="ghiscari"

	father=115360001
	mother=215360001

	6603.1.1 = {birth="6603.1.1"}
	6607.1.1 = {death="6607.1.1"}
}
120360001 = {
	name="Sharkhaz"	# not a lord
	dynasty=360001

	religion="harpy"
	culture="ghiscari"

	father=115360001
	mother=215360001

	6605.1.1 = {birth="6605.1.1"}
	6621.1.1 = {add_trait=poor_warrior}
	6673.1.1 = {death="6673.1.1"}
}
121360001 = {
	name="Maezon"	# a lord
	dynasty=360001

	religion="harpy"
	culture="ghiscari"

	father=116360001
	mother=216360001

	6620.1.1 = {birth="6620.1.1"}
	6648.1.1 = {}
	6649.1.1 = {add_trait=trained_warrior}
	6651.1.1 = {add_spouse=221360001}
	6701.1.1 = {death="6701.1.1"}
}
221360001 = {
	name="Pezzara"
	female=yes

	religion="harpy"
	culture="ghiscari"

	6633.1.1 = {birth="6633.1.1"}
	6701.1.1 = {death="6701.1.1"}
}
122360001 = {
	name="Prendahl"	# not a lord
	dynasty=360001

	religion="harpy"
	culture="ghiscari"

	father=116360001
	mother=216360001

	6635.1.1 = {birth="6635.1.1"}
	6651.1.1 = {add_trait=skilled_warrior}
	6679.1.1 = {death="6679.1.1"}
}
123360001 = {
	name="Qezza"	# not a lord
	female=yes
	dynasty=360001

	religion="harpy"
	culture="ghiscari"

	father=116360001
	mother=216360001

	6636.1.1 = {birth="6636.1.1"}
	6704.1.1 = {death="6704.1.1"}
}
124360001 = {
	name="Dhazzea"	# not a lord
	female=yes
	dynasty=360001

	religion="harpy"
	culture="ghiscari"

	father=116360001
	mother=216360001

	6637.1.1 = {birth="6637.1.1"}
	6661.1.1 = {death="6661.1.1"}
}
125360001 = {
	name="Hazzeama"	# not a lord
	female=yes
	dynasty=360001

	religion="harpy"
	culture="ghiscari"

	father=121360001
	mother=221360001

	6651.1.1 = {birth="6651.1.1"}
	6686.1.1 = {death="6686.1.1"}
}
126360001 = {
	name="Delezza"	# not a lord
	female=yes
	dynasty=360001

	religion="harpy"
	culture="ghiscari"

	father=121360001
	mother=221360001

	6653.1.1 = {birth="6653.1.1"}
	6709.1.1 = {death="6709.1.1"}
}
127360001 = {
	name="Grazdhan"	# a lord
	dynasty=360001

	religion="harpy"
	culture="ghiscari"

	father=121360001
	mother=221360001

	6656.1.1 = {birth="6656.1.1"}
	6672.1.1 = {add_trait=skilled_warrior}
	6674.1.1 = {add_spouse=227360001}
	6701.1.1 = {}
	6716.1.1 = {death="6716.1.1"}
}
227360001 = {
	name="Azzara"
	female=yes

	religion="harpy"
	culture="ghiscari"

	6656.1.1 = {birth="6656.1.1"}
	6716.1.1 = {death="6716.1.1"}
}
128360001 = {
	name="Galazza"	# not a lord
	female=yes
	dynasty=360001

	religion="harpy"
	culture="ghiscari"

	father=121360001
	mother=221360001

	6657.1.1 = {birth="6657.1.1"}
	6704.1.1 = {death="6704.1.1"}
}
129360001 = {
	name="Hizdhar"	# not a lord
	dynasty=360001

	religion="harpy"
	culture="ghiscari"

	father=121360001
	mother=221360001

	6659.1.1 = {birth="6659.1.1"}
	6675.1.1 = {add_trait=master_warrior}
	6732.1.1 = {death="6732.1.1"}
}
130360001 = {
	name="Skahaz"	# a lord
	dynasty=360001

	religion="harpy"
	culture="ghiscari"

	father=127360001
	mother=227360001

	6682.1.1 = {birth="6682.1.1"}
	6698.1.1 = {add_trait=poor_warrior}
	6700.1.1 = {add_spouse=230360001}
	6716.1.1 = {}
	6724.1.1 = {death="6724.1.1"}
}
230360001 = {
	name="Qezza"
	female=yes

	religion="harpy"
	culture="ghiscari"

	6682.1.1 = {birth="6682.1.1"}
	6724.1.1 = {death="6724.1.1"}
}
131360001 = {
	name="Hazzea"	# not a lord
	female=yes
	dynasty=360001

	religion="harpy"
	culture="ghiscari"

	father=127360001
	mother=227360001

	6684.1.1 = {birth="6684.1.1"}
	6718.1.1 = {death="6718.1.1"}
}
132360001 = {
	name="Mezzara"	# not a lord
	female=yes
	dynasty=360001

	religion="harpy"
	culture="ghiscari"

	father=130360001
	mother=230360001

	6702.1.1 = {birth="6702.1.1"}
	6760.1.1 = {death="6760.1.1"}
}
134360001 = {
	name="Yurkhaz"	# a lord
	dynasty=360001

	religion="harpy"
	culture="ghiscari"

	father=130360001
	mother=230360001

	6705.1.1 = {birth="6705.1.1"}
	6721.1.1 = {add_trait=skilled_warrior}
	6723.1.1 = {add_spouse=234360001}
	6724.1.1 = {}
	6763.1.1 = {death="6763.1.1"}
}
234360001 = {
	name="Qezzala"
	female=yes

	religion="harpy"
	culture="ghiscari"

	6705.1.1 = {birth="6705.1.1"}
	6763.1.1 = {death="6763.1.1"}
}

6571000 = {
	name="Kraznys"  # Canon, gets his eyeballs melted by Drogon
	dynasty = 360001 

	martial = 8
	culture = astapori
	religion = harpy  

	father=134360001
	mother=234360001		
	
	add_trait="cruel"
	add_trait="proud"
	add_trait="rude"
	add_trait="greedy"
	add_trait="authoritative"
	
	6734.1.1 = {
		birth="6734.1.1"
	}
	6750.1.1 = {
		add_spouse=20436001
	}
	6763.1.1 = {}

}
20436001 = {
	name="Azzara"
	female=yes

	religion="harpy"
	culture="ghiscari"

	6734.1.1 = {
		birth="6734.1.1"
	}

}
10036001 = {
	name="Ghazdor"
	dynasty=360001 
	
	religion="harpy"
	culture="ghiscari"
	
	father=6571000
	mother=20436001

	6760.1.1 = {
		birth="6760.1.1"
	}
}
10136001 = {
	name="Prendahl"
	dynasty=360001 
	
	religion="harpy"
	culture="ghiscari"
	
	father=6571000
	mother=20436001

	6762.1.1 = {
		birth="6762.1.1"
	}
}
10236001 = {
	name="Qazella"
	dynasty=360001 
	female=yes
	
	religion="harpy"
	culture="ghiscari"
	
	father=6571000
	mother=20436001

	6763.1.1 = {
		birth="6763.1.1"
	}
}
10336001 = {
	name="Faezdhar"
	dynasty=360001
	
	religion="harpy"
	culture="ghiscari"
	
	father=6571000
	mother=20436001

	6764.1.1 = {
		birth="6764.1.1"
	}
}
##House Ullhor


150360000 = {
	name="Marghaz"	# a lord
	dynasty=360000

	religion="harpy"
	culture="ghiscari"

	6433.1.1 = {birth="6433.1.1"}
	6451.1.1 = {add_spouse=250360000}
	6493.1.1 = {death="6493.1.1"}
}
250360000 = {
	name="Qezza"
	female=yes

	religion="harpy"
	culture="ghiscari"

	6437.1.1 = {birth="6437.1.1"}
	6489.1.1 = {death="6489.1.1"}
}
100360000 = {
	name="Barghaz"	# a lord
	dynasty=360000

	religion="harpy"
	culture="ghiscari"

	father=150360000
	mother=250360000

	6463.1.1 = {birth="6463.1.1"}
	6493.1.1 = {}
	6494.1.1 = {add_trait=poor_warrior}	
	6496.1.1 = {add_spouse=200360000}
	6520.1.1 = {death="6520.1.1"}
}
200360000 = {
	name="Qezza"
	female=yes

	religion="harpy"
	culture="ghiscari"

	6469.1.1 = {birth="6469.1.1"}
	6520.1.1 = {death="6520.1.1"}
}
101360000 = {
	name="Grazdan"	# a lord
	dynasty=360000

	religion="harpy"
	culture="ghiscari"

	father=100360000
	mother=200360000

	6500.1.1 = {birth="6500.1.1"}
	6519.1.1 = {add_trait=skilled_warrior}
	6520.1.1 = {}
	6521.1.1 = {add_spouse=201360000}
	6540.1.1 = {death="6540.1.1"}
}
201360000 = {
	name="Mezzara"
	female=yes

	religion="harpy"
	culture="ghiscari"

	6504.1.1 = {birth="6504.1.1"}
	6540.1.1 = {death="6540.1.1"}
}
102360000 = {
	name="Uzzara"	# not a lord
	female=yes
	dynasty=360000

	religion="harpy"
	culture="ghiscari"

	father=100360000
	mother=200360000

	6506.1.1 = {birth="6506.1.1"}
	6547.1.1 = {death="6547.1.1"}
}
103360000 = {
	name="Yezza"	# not a lord
	female=yes
	dynasty=360000

	religion="harpy"
	culture="ghiscari"

	father=100360000
	mother=200360000

	6507.1.1 = {birth="6507.1.1"}
	6551.1.1 = {death="6551.1.1"}
}
104360000 = {
	name="Marghaz"	# a lord
	dynasty=360000

	religion="harpy"
	culture="ghiscari"

	father=101360000
	mother=201360000

	6522.1.1 = {birth="6522.1.1"}
	6540.1.1 = {}
	6546.1.1 = {add_trait=skilled_warrior}
	6548.1.1 = {add_spouse=204360000}
	6578.1.1 = {death="6578.1.1"}
}
204360000 = {
	name="Delezzara"
	female=yes

	religion="harpy"
	culture="ghiscari"

	6530.1.1 = {birth="6530.1.1"}
	6578.1.1 = {death="6578.1.1"}
}
105360000 = {
	name="Grazdan"	# not a lord
	dynasty=360000

	religion="harpy"
	culture="ghiscari"

	father=101360000
	mother=201360000

	6531.1.1 = {birth="6531.1.1"}
	6547.1.1 = {add_trait=trained_warrior}
	6564.1.1 = {death="6564.1.1"}
}
106360000 = {
	name="Skahaz"	# not a lord
	dynasty=360000

	religion="harpy"
	culture="ghiscari"

	father=101360000
	mother=201360000

	6534.1.1 = {birth="6534.1.1"}
	6550.1.1 = {add_trait=skilled_warrior}
	6576.1.1 = {death="6576.1.1"}
}
107360000 = {
	name="Yurkhaz"	# not a lord
	dynasty=360000

	religion="harpy"
	culture="ghiscari"

	father=101360000
	mother=201360000

	6536.1.1 = {birth="6536.1.1"}
	6552.1.1 = {add_trait=trained_warrior}
	6616.1.1 = {death="6616.1.1"}
}
108360000 = {
	name="Nella"	# not a lord
	female=yes
	dynasty=360000

	religion="harpy"
	culture="ghiscari"

	father=104360000
	mother=204360000

	6557.1.1 = {birth="6557.1.1"}
	6590.1.1 = {death="6590.1.1"}
}
109360000 = {
	name="Zarraq"	# a lord
	dynasty=360000

	religion="harpy"
	culture="ghiscari"

	father=104360000
	mother=204360000

	6560.1.1 = {birth="6560.1.1"}
	6576.1.1 = {add_trait=trained_warrior}
	6577.1.1 = {add_spouse=209360000}
	6578.1.1 = {}
	6613.1.1 = {death="6613.1.1"}
}
209360000 = {
	name="Mellezza"
	female=yes

	religion="harpy"
	culture="ghiscari"

	6560.1.1 = {birth="6560.1.1"}
	6613.1.1 = {death="6613.1.1"}
}
110360000 = {
	name="Hazzea"	# not a lord
	female=yes
	dynasty=360000

	religion="harpy"
	culture="ghiscari"

	father=109360000
	mother=209360000

	6585.1.1 = {birth="6585.1.1"}
	6628.1.1 = {death="6628.1.1"}
}
111360000 = {
	name="Gazdhor"	# a lord
	dynasty=360000

	religion="harpy"
	culture="ghiscari"

	father=109360000
	mother=209360000

	6587.1.1 = {birth="6587.1.1"}
	6603.1.1 = {add_trait=trained_warrior}
	6605.1.1 = {add_spouse=211360000}
	6613.1.1 = {}
	6648.1.1 = {death="6648.1.1"}
}
211360000 = {
	name="Galazza"
	female=yes

	religion="harpy"
	culture="ghiscari"

	6587.1.1 = {birth="6587.1.1"}
	6648.1.1 = {death="6648.1.1"}
}
112360000 = {
	name="Qezza"	# not a lord
	female=yes
	dynasty=360000

	religion="harpy"
	culture="ghiscari"

	father=109360000
	mother=209360000

	6590.1.1 = {birth="6590.1.1"}
	6667.1.1 = {death="6667.1.1"}
}
113360000 = {
	name="Azzea"	# not a lord
	female=yes
	dynasty=360000

	religion="harpy"
	culture="ghiscari"

	father=109360000
	mother=209360000

	6592.1.1 = {birth="6592.1.1"}
	6626.1.1 = {death="6626.1.1"}
}
114360000 = {
	name="Ezzara"	# not a lord
	female=yes
	dynasty=360000

	religion="harpy"
	culture="ghiscari"

	father=111360000
	mother=211360000

	6612.1.1 = {birth="6612.1.1"}
	6660.1.1 = {death="6660.1.1"}
}
115360000 = {
	name="Grazdan"	# a lord
	dynasty=360000

	religion="harpy"
	culture="ghiscari"

	father=111360000
	mother=211360000

	6614.1.1 = {birth="6614.1.1"}
	6630.1.1 = {add_trait=trained_warrior}
	6632.1.1 = {add_spouse=215360000}
	6648.1.1 = {}
	6674.1.1 = {death="6674.1.1"}
}
215360000 = {
	name="Azzara"
	female=yes

	religion="harpy"
	culture="ghiscari"

	6614.1.1 = {birth="6614.1.1"}
	6674.1.1 = {death="6674.1.1"}
}
116360000 = {
	name="Prendahl"	# a lord
	dynasty=360000

	religion="harpy"
	culture="ghiscari"

	father=115360000
	mother=215360000

	6635.1.1 = {birth="6635.1.1"}
	6651.1.1 = {add_trait=trained_warrior}
	6653.1.1 = {add_spouse=216360000}
	6674.1.1 = {}
	6705.1.1 = {death="6705.1.1"}
}
216360000 = {
	name="Ezzara"
	female=yes

	religion="harpy"
	culture="ghiscari"

	6635.1.1 = {birth="6635.1.1"}
	6705.1.1 = {death="6705.1.1"}
}
117360000 = {
	name="Azzea"	# not a lord
	female=yes
	dynasty=360000

	religion="harpy"
	culture="ghiscari"

	father=115360000
	mother=215360000

	6638.1.1 = {birth="6638.1.1"}
	6684.1.1 = {death="6684.1.1"}
}
118360000 = {
	name="Paezdhar"	# not a lord
	dynasty=360000

	religion="harpy"
	culture="ghiscari"

	father=115360000
	mother=215360000

	6641.1.1 = {birth="6641.1.1"}
	6657.1.1 = {add_trait=skilled_warrior}
	6690.1.1 = {death="6690.1.1"}
}
119360000 = {
	name="Hizdhar"	# not a lord
	dynasty=360000

	religion="harpy"
	culture="ghiscari"

	father=115360000
	mother=215360000

	6644.1.1 = {birth="6644.1.1"}
	6660.1.1 = {add_trait=poor_warrior}
	6672.1.1 = {death="6672.1.1"}
}
120360000 = {
	name="Sezza"	# not a lord
	female=yes
	dynasty=360000

	religion="harpy"
	culture="ghiscari"

	father=115360000
	mother=215360000

	6646.1.1 = {birth="6646.1.1"}
	6706.1.1 = {death="6706.1.1"}
}
121360000 = {
	name="Mezzara"	# not a lord
	female=yes
	dynasty=360000

	religion="harpy"
	culture="ghiscari"

	father=116360000
	mother=216360000

	6656.1.1 = {birth="6656.1.1"}
	6714.1.1 = {death="6714.1.1"}
}
122360000 = {
	name="Hazzea"	# not a lord
	female=yes
	dynasty=360000

	religion="harpy"
	culture="ghiscari"

	father=116360000
	mother=216360000

	6658.1.1 = {birth="6658.1.1"}
	6717.1.1 = {death="6717.1.1"}
}
123360000 = {
	name="Grazdhan"	# a lord
	dynasty=360000

	religion="harpy"
	culture="ghiscari"

	father=116360000
	mother=216360000

	6659.1.1 = {birth="6659.1.1"}
	6675.1.1 = {add_trait=skilled_warrior}
	6677.1.1 = {add_spouse=223360000}
	6705.1.1 = {}
	6715.1.1 = {death="6715.1.1"}
}
223360000 = {
	name="Galazza"
	female=yes

	religion="harpy"
	culture="ghiscari"

	6659.1.1 = {birth="6659.1.1"}
	6715.1.1 = {death="6715.1.1"}
}
124360000 = {
	name="Telezza"	# not a lord
	female=yes
	dynasty=360000

	religion="harpy"
	culture="ghiscari"

	father=116360000
	mother=216360000

	6661.1.1 = {birth="6661.1.1"}
	6695.1.1 = {death="6695.1.1"}
}
125360000 = {
	name="Qezza"	# not a lord
	female=yes
	dynasty=360000

	religion="harpy"
	culture="ghiscari"

	father=123360000
	mother=223360000

	6682.1.1 = {birth="6682.1.1"}
	6722.1.1 = {death="6722.1.1"}
}
126360000 = {
	name="Yezzan"	# a lord
	dynasty=360000

	religion="harpy"
	culture="ghiscari"

	father=123360000
	mother=223360000

	6685.1.1 = {birth="6685.1.1"}
	6701.1.1 = {add_trait=trained_warrior}
	6703.1.1 = {add_spouse=226360000}
	6715.1.1 = {}
	6731.1.1 = {death="6731.1.1"}
}
226360000 = {
	name="Dhazzar"
	female=yes

	religion="harpy"
	culture="ghiscari"

	6685.1.1 = {birth="6685.1.1"}
	6731.1.1 = {death="6731.1.1"}
}
127360000 = {
	name="Grazdan"	# not a lord
	dynasty=360000

	religion="harpy"
	culture="ghiscari"

	father=123360000
	mother=223360000

	6687.1.1 = {birth="6687.1.1"}
	6703.1.1 = {add_trait=poor_warrior}
	6725.1.1 = {death="6725.1.1"}
}
128360000 = {
	name="Reznak"	# not a lord
	dynasty=360000

	religion="harpy"
	culture="ghiscari"

	father=126360000
	mother=226360000

	6710.1.1 = {birth="6710.1.1"}
	6726.1.1 = {add_trait=poor_warrior}
	6729.1.1 = {death="6729.1.1"}
}
129360000 = {
	name="Marghaz"	# a lord
	dynasty=360000

	religion="harpy"
	culture="ghiscari"

	father=126360000
	mother=226360000

	6713.1.1 = {birth="6713.1.1"}
	6729.1.1 = {add_trait=master_warrior}
	6730.1.1 = {add_spouse=475360000}
	6731.1.1 = {}
	6767.1.1 = {death="6767.1.1"}
}
475360000 = {
	name="Qazzara"
	female=yes

	religion="harpy"
	culture="ghiscari"

	6713.1.1 = {birth="6713.1.1"}
	6767.1.1 = {death="6767.1.1"}
}
130360000 = {
	name="Sezza"	# not a lord
	female=yes
	dynasty=360000

	religion="harpy"
	culture="ghiscari"

	father=126360000
	mother=226360000

	6714.1.1 = {birth="6714.1.1"}
	6743.1.1 = {death="6743.1.1"}
}
131360000 = {
	name="Mezzea"	# not a lord
	female=yes
	dynasty=360000

	religion="harpy"
	culture="ghiscari"

	father=126360000
	mother=226360000

	6716.1.1 = {birth="6716.1.1"}
	6742.1.1 = {death="6742.1.1"}
}

6571001 = {
	name="Grazdan"  ## Canon
	dynasty = 360000

	martial = 8
	culture = astapori
	religion = harpy  

	father=129360000
	mother=475360000		
	
	add_trait="cruel"
	add_trait="proud"
	add_trait="deceitful"
	
	6737.1.1 = {
		birth="6737.1.1"
	}
	6753.1.1 = {
		add_spouse=476360000
	}
	6753.1.1 = {add_trait=poor_warrior}
	6767.1.1 = {}

}
476360000 = {
	name="Sezqa"	# not a lord
	female=yes

	religion="harpy"
	culture="ghiscari"

	6737.1.1 = {
		birth="6737.1.1"
	}

}
177360000 = {
	name="Mezzara"	# not a lord
	female=yes
	dynasty=360000

	religion="harpy"
	culture="ghiscari"

	father=129360000
	mother=475360000

	6740.1.1 = {birth="6740.1.1"}
}
178360000 = {
	name="Harghaz"	# not a lord
	dynasty=360000

	religion="harpy"
	culture="ghiscari"

	father=129360000
	mother=475360000

	6743.1.1 = {birth="6743.1.1"}
	6759.1.1 = {add_trait=poor_warrior}
}

179360000 = {
	name="Ellezzara"	# not a lord
	female=yes
	dynasty=360000

	religion="harpy"
	culture="ghiscari"

	father=6571001
	mother=476360000

	6757.1.1 = {birth="6757.1.1"}
}
180360000 = {
	name="Reznak"	# not a lord
	dynasty=360000

	religion="harpy"
	culture="ghiscari"

	father=6571001
	mother=476360000

	6758.1.1 = {birth="6758.1.1"}
	6774.1.1 = {add_trait=skilled_warrior}
	6776.1.1 = {add_spouse=480360000}
}
480360000 = {
	name="Mezzara"
	female=yes

	religion="harpy"
	culture="ghiscari"

	6758.1.1 = {birth="6758.1.1"}
}
181360000 = {
	name="Tezza"	# not a lord
	female=yes
	dynasty=360000

	religion="harpy"
	culture="ghiscari"

	father=6571001
	mother=476360000

	6759.1.1 = {birth="6759.1.1"}
}
182360000 = {
	name="Yezzan"	# not a lord
	dynasty=360000

	religion="harpy"
	culture="ghiscari"

	father=6571001
	mother=476360000

	6762.1.1 = {birth="6762.1.1"}
	6778.1.1 = {add_trait=skilled_warrior}
}
183360000 = {
	name="Yurkhaz"	# not a lord
	dynasty=360000

	religion="harpy"
	culture="ghiscari"

	father=6571001
	mother=480360000

	6776.1.1 = {birth="6776.1.1"}
	6792.1.1 = {add_trait=skilled_warrior}
}

##House Grazdhan

150360002 = {
	name="Grazdan"	# a lord
	dynasty=360002

	religion="harpy"
	culture="ghiscari"

	6428.1.1 = {birth="6428.1.1"}
	6450.1.1 = {add_spouse=250360002}
	6501.1.1 = {death="6501.1.1"}
}
250360002 = {
	name="Pezzara"
	female=yes

	religion="harpy"
	culture="ghiscari"

	6435.1.1 = {birth="6435.1.1"}
	6505.1.1 = {death="6505.1.1"}
}
100360002 = {
	name="Grazdhan"	# a lord
	dynasty=360002

	religion="harpy"
	culture="ghiscari"

	father=150360002
	mother=250360002

	6464.1.1 = {birth="6464.1.1"}
	6482.1.1 = {add_trait=poor_warrior}
	6488.1.1 = {add_spouse=200360002}
	6501.1.1 = {}
	6524.1.1 = {death="6524.1.1"}
}
200360002 = {
	name="Pezzara"
	female=yes

	religion="harpy"
	culture="ghiscari"

	6462.1.1 = {birth="6462.1.1"}
	6524.1.1 = {death="6524.1.1"}
}
101360002 = {
	name="Grazdhor"	# a lord
	dynasty=360002

	religion="harpy"
	culture="ghiscari"

	father=100360002
	mother=200360002

	6491.1.1 = {birth="6491.1.1"}
	6507.1.1 = {add_trait=trained_warrior}
	6524.1.1 = {}
	6527.1.1 = {add_spouse=201360002}
	6577.1.1 = {death="6577.1.1"}
}
201360002 = {
	name="Mezzara"
	female=yes

	religion="harpy"
	culture="ghiscari"

	6509.1.1 = {birth="6509.1.1"}
	6577.1.1 = {death="6577.1.1"}
}
102360002 = {
	name="Grazdan"	# not a lord
	dynasty=360002

	religion="harpy"
	culture="ghiscari"

	father=100360002
	mother=200360002

	6510.1.1 = {birth="6510.1.1"}
	6526.1.1 = {add_trait=trained_warrior}
	6570.1.1 = {death="6570.1.1"}
}
103360002 = {
	name="Qezza"	# not a lord
	female=yes
	dynasty=360002

	religion="harpy"
	culture="ghiscari"

	father=101360002
	mother=201360002

	6537.1.1 = {birth="6537.1.1"}
	6570.1.1 = {death="6570.1.1"}
}
104360002 = {
	name="Ezzara"	# not a lord
	female=yes
	dynasty=360002

	religion="harpy"
	culture="ghiscari"

	father=101360002
	mother=201360002

	6538.1.1 = {birth="6538.1.1"}
	6594.1.1 = {death="6594.1.1"}
}
105360002 = {
	name="Skahaz"	# a lord
	dynasty=360002

	religion="harpy"
	culture="ghiscari"

	father=101360002
	mother=201360002

	6539.1.1 = {birth="6539.1.1"}
	6555.1.1 = {add_trait=trained_warrior}
	6557.1.1 = {add_spouse=205360002}
	6577.1.1 = {}
	6591.1.1 = {death="6591.1.1"}
}
205360002 = {
	name="Tezza"
	female=yes

	religion="harpy"
	culture="ghiscari"

	6539.1.1 = {birth="6539.1.1"}
	6591.1.1 = {death="6591.1.1"}
}
106360002 = {
	name="Hazzea"	# not a lord
	female=yes
	dynasty=360002

	religion="harpy"
	culture="ghiscari"

	father=105360002
	mother=205360002

	6565.1.1 = {birth="6565.1.1"}
	6635.1.1 = {death="6635.1.1"}
}
107360002 = {
	name="Gorkhaz"	# a lord
	dynasty=360002

	religion="harpy"
	culture="ghiscari"

	father=105360002
	mother=205360002

	6558.1.1 = {birth="6558.1.1"}
	6577.1.1 = {add_spouse=207360002}
	6582.1.1 = {add_trait=poor_warrior}	
	6591.1.1 = {}
	6596.1.1 = {death="6596.1.1"}
}
207360002 = {
	name="Qezza"
	female=yes

	religion="harpy"
	culture="ghiscari"

	6558.1.1 = {birth="6558.1.1"}
	6596.1.1 = {death="6596.1.1"}
}
108360002 = {
	name="Azzara"	# not a lord
	female=yes
	dynasty=360002

	religion="harpy"
	culture="ghiscari"

	father=107360002
	mother=207360002

	6588.1.1 = {birth="6588.1.1"}
	6642.1.1 = {death="6642.1.1"}
}
109360002 = {
	name="Barkhaz"	# a lord
	dynasty=360002

	religion="harpy"
	culture="ghiscari"

	father=107360002
	mother=207360002

	6578.1.1 = {birth="6578.1.1"}
	6596.1.1 = {}
	6607.1.1 = {add_trait=trained_warrior}
	6608.1.1 = {add_spouse=209360002}
	6632.1.1 = {death="6632.1.1"}
}
209360002 = {
	name="Sezqa"
	female=yes

	religion="harpy"
	culture="ghiscari"

	6591.1.1 = {birth="6591.1.1"}
	6632.1.1 = {death="6632.1.1"}
}
110360002 = {
	name="Hazzea"	# not a lord
	female=yes
	dynasty=360002

	religion="harpy"
	culture="ghiscari"

	father=109360002
	mother=209360002

	6608.1.1 = {birth="6608.1.1"}
	6653.1.1 = {death="6653.1.1"}
}
111360002 = {
	name="Mezzara"	# not a lord
	female=yes
	dynasty=360002

	religion="harpy"
	culture="ghiscari"

	father=109360002
	mother=209360002

	6609.1.1 = {birth="6609.1.1"}
	6672.1.1 = {death="6672.1.1"}
}
112360002 = {
	name="Grazdan"	# a lord
	dynasty=360002

	religion="harpy"
	culture="ghiscari"

	father=109360002
	mother=209360002

	6610.1.1 = {birth="6610.1.1"}
	6632.1.1 = {}
	6642.1.1 = {add_trait=trained_warrior}
	6644.1.1 = {add_spouse=212360002}
	6683.1.1 = {death="6683.1.1"}
}
212360002 = {
	name="Tellezara"
	female=yes

	religion="harpy"
	culture="ghiscari"

	6626.1.1 = {birth="6626.1.1"}
	6683.1.1 = {death="6683.1.1"}
}
113360002 = {
	name="Hizdhar"	# not a lord
	dynasty=360002

	religion="harpy"
	culture="ghiscari"

	father=112360002
	mother=212360002

	6648.1.1 = {birth="6648.1.1"}
	6664.1.1 = {add_trait=trained_warrior}
	6682.1.1 = {death="6682.1.1"}
}
114360002 = {
	name="Kraznys"	# a lord
	dynasty=360002

	religion="harpy"
	culture="ghiscari"

	father=112360002
	mother=212360002

	6649.1.1 = {birth="6649.1.1"}
	6665.1.1 = {add_trait=trained_warrior}
	6667.1.1 = {add_spouse=214360002}
	6683.1.1 = {}
	6713.1.1 = {death="6713.1.1"}
}
214360002 = {
	name="Ezzara"
	female=yes

	religion="harpy"
	culture="ghiscari"

	6649.1.1 = {birth="6649.1.1"}
	6713.1.1 = {death="6713.1.1"}
}
115360002 = {
	name="Grazdhan"	# not a lord
	dynasty=360002

	religion="harpy"
	culture="ghiscari"

	father=112360002
	mother=212360002

	6650.1.1 = {birth="6650.1.1"}
	6666.1.1 = {add_trait=poor_warrior}
	6709.1.1 = {death="6709.1.1"}
}
116360002 = {
	name="Grazdan"	# a lord
	dynasty=360002

	religion="harpy"
	culture="ghiscari"

	father=114360002
	mother=214360002

	6678.1.1 = {birth="6678.1.1"}
	6694.1.1 = {add_trait=trained_warrior}
	6696.1.1 = {add_spouse=216360002}
	6713.1.1 = {}
	6738.1.1 = {death="6738.1.1"}
}
216360002 = {
	name="Tellezara"
	female=yes

	religion="harpy"
	culture="ghiscari"

	6678.1.1 = {birth="6678.1.1"}
	6738.1.1 = {death="6738.1.1"}
}
117360002 = {
	name="Dezza"	# not a lord
	female=yes
	dynasty=360002

	religion="harpy"
	culture="ghiscari"

	father=114360002
	mother=214360002

	6680.1.1 = {birth="6680.1.1"}
	6738.1.1 = {death="6738.1.1"}
}
118360002 = {
	name="Jezhane"	# not a lord
	female=yes
	dynasty=360002

	religion="harpy"
	culture="ghiscari"

	father=116360002
	mother=216360002

	6697.1.1 = {birth="6697.1.1"}
	6755.1.1 = {death="6755.1.1"}
}
119360002 = {
	name="Marghaz"	# a lord
	dynasty=360002

	religion="harpy"
	culture="ghiscari"

	father=116360002
	mother=216360002

	6699.1.1 = {birth="6699.1.1"}
	6715.1.1 = {add_trait=poor_warrior}
	6717.1.1 = {add_spouse=219360002}
	6738.1.1 = {}
	6750.1.1 = {death="6750.1.1"}
}
219360002 = {
	name="Qezza"
	female=yes

	religion="harpy"
	culture="ghiscari"

	6699.1.1 = {birth="6699.1.1"}
	6750.1.1 = {death="6750.1.1"}
}

6571002 = {
	name="Grazdan"  ## Canon
	dynasty = 360002 

	martial = 8
	culture = astapori
	religion = harpy 

	father=119360002
	mother=219360002		
	
	add_trait="cruel"
	add_trait="proud"
	add_trait="gluttonous"
	
	6729.1.1 = {
		birth="6729.1.1"
	}
	6745.1.1 = {add_trait=poor_warrior}
	6760.1.1 = {add_spouse=475360002}

}
475360002 = {
	name="Tellezzara"
	female=yes

	religion="harpy"
	culture="ghiscari"
	

	6729.1.1 = {birth="6729.1.1"}
}
180360002 = {
	name="Zaraq" 
	dynasty = 360002 
	
	father=119360002
	mother=219360002		
	
	religion="harpy"
	culture="ghiscari"
	
	6733.1.1 = {
		birth="6733.1.1"
	}
	6748.1.1 = {add_trait=poor_warrior}
}
181360002 = {
	name="Galazza" 
	female = yes
	dynasty = 360002 
	
	father=119360002
	mother=219360002	

	religion="harpy"
	culture="ghiscari"	
	
	6743.1.1 = {
		birth="6743.1.1"
	}
}

175360002 = {
	name="Grazdan"	# not a lord
	dynasty=360002

	religion="harpy"
	culture="ghiscari"

	father=6571002
	mother=475360002

	6760.1.1 = {birth="6760.1.1"}
	6776.1.1 = {add_trait=skilled_warrior}
}
176360002 = {
	name="Hazzaara"	# not a lord
	female=yes
	dynasty=360002

	religion="harpy"
	culture="ghiscari"

	father=6571002
	mother=475360002

	6762.1.1 = {birth="6762.1.1"}
}
177360002 = {
	name="Grazdhar"	# not a lord
	dynasty=360002

	religion="harpy"
	culture="ghiscari"

	father=6571002
	mother=475360002

	6766.1.1 = {birth="6766.1.1"}
	6782.1.1 = {add_trait=poor_warrior}
}
178360002 = {
	name="Mazdhan"	# not a lord
	dynasty=360002

	religion="harpy"
	culture="ghiscari"

	father=6571002
	mother=475360002

	6768.1.1 = {birth="6768.1.1"}
	6784.1.1 = {add_trait=poor_warrior}
}
179360002 = {
	name="Paezhar"	# not a lord
	dynasty=360002

	religion="harpy"
	culture="ghiscari"

	father=6571002
	mother=475360002

	6770.1.1 = {birth="6770.1.1"}
	6786.1.1 = {add_trait=trained_warrior}
}


####  House Grazlar

150360026 = {
	name="Mizlaq"	# a lord
	dynasty=360026

	religion="harpy"
	culture="ghiscari"

	6436.1.1 = {birth="6436.1.1"}
	6461.1.1 = {add_spouse=250360026}
	6499.1.1 = {death="6499.1.1"}
}
250360026 = {
	name="Ezzara"
	female=yes

	religion="harpy"
	culture="ghiscari"

	6442.1.1 = {birth="6442.1.1"}
	6510.1.1 = {death="6510.1.1"}
}
100360026 = {
	name="Faezdhar"	# a lord
	dynasty=360026

	religion="harpy"
	culture="ghiscari"

	father=150360026
	mother=250360026

	6470.1.1 = {birth="6470.1.1"}
	6494.1.1 = {add_trait=poor_warrior}
	6496.1.1 = {add_spouse=200360026}
	6499.1.1 = {}
	6527.1.1 = {death="6527.1.1"}
}
200360026 = {
	name="Mezzara"
	female=yes

	religion="harpy"
	culture="ghiscari"

	6471.1.1 = {birth="6471.1.1"}
	6527.1.1 = {death="6527.1.1"}
}
101360026 = {
	name="Grazdan"	# a lord
	dynasty=360026

	religion="harpy"
	culture="ghiscari"

	father=100360026
	mother=200360026

	6499.1.1 = {birth="6499.1.1"}
	6515.1.1 = {add_trait=master_warrior}
	6517.1.1 = {add_spouse=201360026}
	6527.1.1 = {}
	6548.1.1 = {death="6548.1.1"}
}
201360026 = {
	name="Qezza"
	female=yes

	religion="harpy"
	culture="ghiscari"

	6499.1.1 = {birth="6499.1.1"}
	6548.1.1 = {death="6548.1.1"}
}
102360026 = {
	name="Vaezdhar"	# not a lord
	dynasty=360026

	religion="harpy"
	culture="ghiscari"

	father=100360026
	mother=200360026

	6500.1.1 = {birth="6500.1.1"}
	6516.1.1 = {add_trait=poor_warrior}
	6518.1.1 = {add_spouse=202360026}
	6532.1.1 = {death="6532.1.1"}
}
202360026 = {
	name="Jezhane"
	female=yes

	religion="harpy"
	culture="ghiscari"

	6500.1.1 = {birth="6500.1.1"}
	6532.1.1 = {death="6532.1.1"}
}
103360026 = {
	name="Telezza"	# not a lord
	female=yes
	dynasty=360026

	religion="harpy"
	culture="ghiscari"

	father=101360026
	mother=201360026

	6517.1.1 = {birth="6517.1.1"}
	6562.1.1 = {death="6562.1.1"}
}
104360026 = {
	name="Hizdhar"	# a lord
	dynasty=360026

	religion="harpy"
	culture="ghiscari"

	father=101360026
	mother=201360026

	6520.1.1 = {birth="6520.1.1"}
	6536.1.1 = {add_trait=poor_warrior}
	6538.1.1 = {add_spouse=204360026}
	6548.1.1 = {}
	6574.1.1 = {death="6574.1.1"}
}
204360026 = {
	name="Azzara"
	female=yes

	religion="harpy"
	culture="ghiscari"

	6520.1.1 = {birth="6520.1.1"}
	6574.1.1 = {death="6574.1.1"}
}
105360026 = {
	name="Galazza"	# not a lord
	female=yes
	dynasty=360026

	religion="harpy"
	culture="ghiscari"

	father=101360026
	mother=201360026

	6521.1.1 = {birth="6521.1.1"}
	6578.1.1 = {death="6578.1.1"}
}
106360026 = {
	name="Sezza"	# not a lord
	female=yes
	dynasty=360026

	religion="harpy"
	culture="ghiscari"

	father=104360026
	mother=204360026

	6547.1.1 = {birth="6547.1.1"}
	6625.1.1 = {death="6625.1.1"}
}
107360026 = {
	name="Gazdhor"	# a lord
	dynasty=360026

	religion="harpy"
	culture="ghiscari"

	father=104360026
	mother=204360026

	6549.1.1 = {birth="6549.1.1"}
	6565.1.1 = {add_trait=trained_warrior}
	6567.1.1 = {add_spouse=207360026}
	6574.1.1 = {}
	6607.1.1 = {death="6607.1.1"}
}
207360026 = {
	name="Ezzara"
	female=yes

	religion="harpy"
	culture="ghiscari"

	6549.1.1 = {birth="6549.1.1"}
	6607.1.1 = {death="6607.1.1"}
}
108360026 = {
	name="Hazzea"	# not a lord
	female=yes
	dynasty=360026

	religion="harpy"
	culture="ghiscari"

	father=104360026
	mother=204360026

	6551.1.1 = {birth="6551.1.1"}
	6597.1.1 = {death="6597.1.1"}
}
109360026 = {
	name="Sharkhaz"	# not a lord
	dynasty=360026

	religion="harpy"
	culture="ghiscari"

	father=104360026
	mother=204360026

	6553.1.1 = {birth="6553.1.1"}
	6569.1.1 = {add_trait=poor_warrior}
	6621.1.1 = {death="6621.1.1"}
}
110360026 = {
	name="Mizlaq"	# a lord
	dynasty=360026

	religion="harpy"
	culture="ghiscari"

	father=107360026
	mother=207360026

	6570.1.1 = {birth="6570.1.1"}
	6586.1.1 = {add_trait=master_warrior}
	6588.1.1 = {add_spouse=210360026}
	6607.1.1 = {}
	6629.1.1 = {death="6629.1.1"}
}
210360026 = {
	name="Mezzara"
	female=yes

	religion="harpy"
	culture="ghiscari"

	6570.1.1 = {birth="6570.1.1"}
	6629.1.1 = {death="6629.1.1"}
}
111360026 = {
	name="Qezza"	# not a lord
	female=yes
	dynasty=360026

	religion="harpy"
	culture="ghiscari"

	father=107360026
	mother=207360026

	6573.1.1 = {birth="6573.1.1"}
	6633.1.1 = {death="6633.1.1"}
}
112360026 = {
	name="Zaraq"	# not a lord
	dynasty=360026

	religion="harpy"
	culture="ghiscari"

	father=107360026
	mother=207360026

	6574.1.1 = {birth="6574.1.1"}
	6588.1.1 = {death="6588.1.1"}
}
113360026 = {
	name="Skahazro"	# not a lord
	dynasty=360026

	religion="harpy"
	culture="ghiscari"

	father=107360026
	mother=207360026

	6575.1.1 = {birth="6575.1.1"}
	6591.1.1 = {add_trait=poor_warrior}
	6617.1.1 = {death="6617.1.1"}
}
114360026 = {
	name="Kraznys"	# a lord
	dynasty=360026

	religion="harpy"
	culture="ghiscari"

	father=110360026
	mother=210360026

	6589.1.1 = {birth="6589.1.1"}
	6605.1.1 = {add_trait=skilled_warrior}
	6607.1.1 = {add_spouse=214360026}
	6629.1.1 = {}
	6650.1.1 = {death="6650.1.1"}
}
214360026 = {
	name="Bezzella"
	female=yes

	religion="harpy"
	culture="ghiscari"

	6589.1.1 = {birth="6589.1.1"}
	6650.1.1 = {death="6650.1.1"}
}
115360026 = {
	name="Qezza"	# not a lord
	female=yes
	dynasty=360026

	religion="harpy"
	culture="ghiscari"

	father=114360026
	mother=214360026

	6607.1.1 = {birth="6607.1.1"}
	6673.1.1 = {death="6673.1.1"}
}
116360026 = {
	name="Grazdan"	# not a lord
	dynasty=360026

	religion="harpy"
	culture="ghiscari"

	father=114360026
	mother=214360026

	6610.1.1 = {birth="6610.1.1"}
	6626.1.1 = {add_trait=trained_warrior}
	6628.1.1 = {add_spouse=216360026}
	6629.1.1 = {death = {death_reason = death_battle}}
}
216360026 = {
	name="Ezzara"
	female=yes

	religion="harpy"
	culture="ghiscari"

	6610.1.1 = {birth="6610.1.1"}
	6629.1.1 = {death="6629.1.1"}
}
117360026 = {
	name="Yurkhaz"	# a lord
	dynasty=360026

	religion="harpy"
	culture="ghiscari"

	father=114360026
	mother=214360026

	6612.1.1 = {birth="6612.1.1"}
	6628.1.1 = {add_trait=skilled_warrior}
	6630.1.1 = {add_spouse=217360026}
	6650.1.1 = {}
	6680.1.1 = {death="6680.1.1"}
}
217360026 = {
	name="Hazzea"
	female=yes

	religion="harpy"
	culture="ghiscari"

	6612.1.1 = {birth="6612.1.1"}
	6680.1.1 = {death="6680.1.1"}
}
118360026 = {
	name="Telezzara"	# not a lord
	female=yes
	dynasty=360026

	religion="harpy"
	culture="ghiscari"

	father=114360026
	mother=214360026

	6615.1.1 = {birth="6615.1.1"}
	6647.1.1 = {death="6647.1.1"}
}
119360026 = {
	name="Reznak"	# a lord
	dynasty=360026

	religion="harpy"
	culture="ghiscari"

	father=117360026
	mother=217360026

	6640.1.1 = {birth="6640.1.1"}
	6656.1.1 = {add_trait=poor_warrior}
	6657.1.1 = {add_spouse=219360026}
	6680.1.1 = {}
	6686.1.1 = {death="6686.1.1"}
}
219360026 = {
	name="Dezzala"
	female=yes

	religion="harpy"
	culture="ghiscari"

	6640.1.1 = {birth="6640.1.1"}
	6686.1.1 = {death="6686.1.1"}
}
120360026 = {
	name="Yezzan"	# not a lord
	dynasty=360026

	religion="harpy"
	culture="ghiscari"

	father=117360026
	mother=217360026

	6641.1.1 = {birth="6641.1.1"}
	6657.1.1 = {add_trait=trained_warrior}
	6697.1.1 = {death="6697.1.1"}
}
121360026 = {
	name="Prendahl"	# a lord
	dynasty=360026

	religion="harpy"
	culture="ghiscari"

	father=119360026
	mother=219360026

	6659.1.1 = {birth="6659.1.1"}
	6686.1.1 = {}
	6690.1.1 = {add_trait=trained_warrior}
	6692.1.1 = {add_spouse=221360026}
	6727.1.1 = {death="6727.1.1"}
}
221360026 = {
	name="Galazzama"
	female=yes

	religion="harpy"
	culture="ghiscari"

	6674.1.1 = {birth="6674.1.1"}
	6727.1.1 = {death="6727.1.1"}
}
122360026 = {
	name="Maezon"	# not a lord
	dynasty=360026

	religion="harpy"
	culture="ghiscari"

	father=119360026
	mother=219360026

	6676.1.1 = {birth="6676.1.1"}
	6692.1.1 = {add_trait=skilled_warrior}
	6710.1.1 = {death="6710.1.1"}
}
123360026 = {
	name="Grazdan"	# not a lord
	dynasty=360026

	religion="harpy"
	culture="ghiscari"

	father=119360026
	mother=219360026

	6679.1.1 = {birth="6679.1.1"}
	6695.1.1 = {add_trait=trained_warrior}
	6741.1.1 = {death="6741.1.1"}
}
124360026 = {
	name="Grazdan"	# not a lord
	dynasty=360026

	religion="harpy"
	culture="ghiscari"

	father=119360026
	mother=219360026

	6680.1.1 = {birth="6680.1.1"}
	6696.1.1 = {add_trait=poor_warrior}
	6717.1.1 = {death="6717.1.1"}
}
125360026 = {
	name="Yezza"	# not a lord
	female=yes
	dynasty=360026

	religion="harpy"
	culture="ghiscari"

	father=121360026
	mother=221360026

	6695.1.1 = {birth="6695.1.1"}
	6755.1.1 = {death="6755.1.1"}
}
126360026 = {
	name="Marghaz"	# a lord
	dynasty=360026

	religion="harpy"
	culture="ghiscari"

	father=121360026
	mother=221360026

	6697.1.1 = {birth="6697.1.1"}
	6713.1.1 = {add_trait=trained_warrior}
	6715.1.1 = {add_spouse=226360026}
	6727.1.1 = {}
	6733.1.1 = {death = {death_reason = death_battle}}
}
226360026 = {
	name="Mezzara"
	female=yes

	religion="harpy"
	culture="ghiscari"

	6697.1.1 = {birth="6697.1.1"}
	6733.1.1 = {death="6733.1.1"}
}
127360026 = {
	name="Azzlaq"	# a lord
	dynasty=360026

	religion="harpy"
	culture="ghiscari"

	father=126360026
	mother=226360026

	6715.1.1 = {birth="6715.1.1"}
	6731.1.1 = {add_trait=poor_warrior}
	6732.1.1 = {add_spouse=227360026}
	6733.1.1 = {}
	6765.1.1 = {death="6765.1.1"}
}
227360026 = {
	name="Hazzea"
	female=yes

	religion="harpy"
	culture="ghiscari"

	6715.1.1 = {birth="6715.1.1"}
	6765.1.1 = {death="6765.1.1"}
}
128360026 = {
	name="Barkhaz"	# not a lord
	dynasty=360026

	religion="harpy"
	culture="ghiscari"

	father=126360026
	mother=226360026

	6718.1.1 = {birth="6718.1.1"}
	6734.1.1 = {add_trait=trained_warrior}
	6736.1.1 = {add_spouse=228360026}
	6747.1.1 = {death="6747.1.1"}
}
228360026 = {
	name="Leqqa"
	female=yes

	religion="harpy"
	culture="ghiscari"

	6718.1.1 = {birth="6718.1.1"}
	6747.1.1 = {death="6747.1.1"}
}
129360026 = {
	name="Grazdan"	# not a lord
	dynasty=360026

	religion="harpy"
	culture="ghiscari"

	father=126360026
	mother=226360026

	6720.1.1 = {birth="6720.1.1"}
	6736.1.1 = {add_trait=trained_warrior}
	6761.1.1 = {death="6761.1.1"}
}
130360026 = {
	name="Tezza"	# not a lord
	female=yes
	dynasty=360026

	religion="harpy"
	culture="ghiscari"

	father=127360026
	mother=227360026

	6733.1.1 = {birth="6733.1.1"}
}
132360026 = {
	name="Hizdhar"	# a lord
	dynasty=360026

	religion="harpy"
	culture="ghiscari"

	father=127360026
	mother=227360026

	6737.1.1 = {birth="6737.1.1"}
	6753.1.1 = {add_trait=trained_warrior}
	6764.1.1 = {add_spouse=475360026}	

}
475360026 = {
	name="Yezza"
	female=yes

	religion="harpy"
	culture="ghiscari"

	6737.1.1 = {birth="6737.1.1"}
}
131360026 = {
	name="Grazdan"	# not a lord
	dynasty=360026

	religion="harpy"
	culture="ghiscari"

	father=127360026
	mother=227360026

	6740.1.1 = {birth="6740.1.1"}
}
176360026 = {
	name="Azzak"	# not a lord
	dynasty=360026

	religion="harpy"
	culture="ghiscari"

	father=132360026
	mother=475360026

	6764.1.1 = {birth="6764.1.1"}
	6780.1.1 = {add_trait=poor_warrior}
}
177360026 = {
	name="Galazza"	# not a lord
	female=yes
	dynasty=360026

	religion="harpy"
	culture="ghiscari"

	father=132360026
	mother=475360026

	6765.1.1 = {birth="6765.1.1"}
}
178360026 = {
	name="Grazdan"	# not a lord
	dynasty=360026

	religion="harpy"
	culture="ghiscari"

	father=132360026
	mother=475360026

	6768.1.1 = {birth="6768.1.1"}
	6784.1.1 = {add_trait=poor_warrior}
}
179360026 = {
	name="Jezhane"	# not a lord
	female=yes
	dynasty=360026

	religion="harpy"
	culture="ghiscari"

	father=132360026
	mother=475360026

	6769.1.1 = {birth="6769.1.1"}
}
180360026 = {
	name="Kraznys"	# not a lord
	dynasty=360026

	religion="harpy"
	culture="ghiscari"

	father=132360026
	mother=475360026

	6772.1.1 = {birth="6772.1.1"}
	6788.1.1 = {add_trait=poor_warrior}
}

#####  House Mazlaq

150360027 = {
	name="Grazdan"	# a lord
	dynasty=360027

	religion="harpy"
	culture="ghiscari"

	6435.1.1 = {birth="6435.1.1"}
	6462.1.1 = {add_spouse=250360027}
	6499.1.1 = {death="6499.1.1"}
}
250360027 = {
	name="Hazzea"
	female=yes

	religion="harpy"
	culture="ghiscari"

	6441.1.1 = {birth="6441.1.1"}
	6513.1.1 = {death="6513.1.1"}
}
100360027 = {
	name="Barghaz"	# a lord
	dynasty=360027

	religion="harpy"
	culture="ghiscari"

	father=150360027
	mother=250360027

	6467.1.1 = {birth="6467.1.1"}
	6494.1.1 = {add_trait=poor_warrior}
	6496.1.1 = {add_spouse=200360027}
	6499.1.1 = {}
	6524.1.1 = {death="6524.1.1"}
}
200360027 = {
	name="Mezzela"
	female=yes

	religion="harpy"
	culture="ghiscari"

	6470.1.1 = {birth="6470.1.1"}
	6524.1.1 = {death="6524.1.1"}
}
101360027 = {
	name="Qezza"	# not a lord
	female=yes
	dynasty=360027

	religion="harpy"
	culture="ghiscari"

	father=100360027
	mother=200360027

	6499.1.1 = {birth="6499.1.1"}
	6530.1.1 = {death = {death_reason = death_execution}}
}
102360027 = {
	name="Ezzara"	# not a lord
	female=yes
	dynasty=360027

	religion="harpy"
	culture="ghiscari"

	father=100360027
	mother=200360027

	6500.1.1 = {birth="6500.1.1"}
	6529.1.1 = {death="6529.1.1"}
}
103360027 = {
	name="Hizdhar"	# a lord
	dynasty=360027

	religion="harpy"
	culture="ghiscari"

	father=100360027
	mother=200360027

	6503.1.1 = {birth="6503.1.1"}
	6519.1.1 = {add_trait=poor_warrior}
	6524.1.1 = {}
	6531.1.1 = {add_spouse=203360027}
	6563.1.1 = {death="6563.1.1"}
}
203360027 = {
	name="Sezqa"
	female=yes

	religion="harpy"
	culture="ghiscari"

	6513.1.1 = {birth="6513.1.1"}
	6563.1.1 = {death="6563.1.1"}
}
104360027 = {
	name="Jezhane"	# not a lord
	female=yes
	dynasty=360027

	religion="harpy"
	culture="ghiscari"

	father=103360027
	mother=203360027

	6531.1.1 = {birth="6531.1.1"}
	6551.1.1 = {death="6551.1.1"}
}
105360027 = {
	name="Grazdan"	# a lord
	dynasty=360027

	religion="harpy"
	culture="ghiscari"

	father=103360027
	mother=203360027

	6534.1.1 = {birth="6534.1.1"}
	6550.1.1 = {add_trait=trained_warrior}
	6552.1.1 = {add_spouse=205360027}
	6563.1.1 = {}
	6611.1.1 = {death="6611.1.1"}
}
205360027 = {
	name="Mezzara"
	female=yes

	religion="harpy"
	culture="ghiscari"

	6534.1.1 = {birth="6534.1.1"}
	6611.1.1 = {death="6611.1.1"}
}
106360027 = {
	name="Galazza"	# not a lord
	female=yes
	dynasty=360027

	religion="harpy"
	culture="ghiscari"

	father=103360027
	mother=203360027

	6536.1.1 = {birth="6536.1.1"}
	6590.1.1 = {death="6590.1.1"}
}
107360027 = {
	name="Skahaz"	# not a lord
	dynasty=360027

	religion="harpy"
	culture="ghiscari"

	father=103360027
	mother=203360027

	6539.1.1 = {birth="6539.1.1"}
	6555.1.1 = {add_trait=poor_warrior}
	6590.1.1 = {death="6590.1.1"}
}
108360027 = {
	name="Qezza"	# not a lord
	female=yes
	dynasty=360027

	religion="harpy"
	culture="ghiscari"

	father=103360027
	mother=203360027

	6541.1.1 = {birth="6541.1.1"}
	6597.1.1 = {death="6597.1.1"}
}
109360027 = {
	name="Fezzara"	# not a lord
	female=yes
	dynasty=360027

	religion="harpy"
	culture="ghiscari"

	father=105360027
	mother=205360027

	6552.1.1 = {birth="6552.1.1"}
	6616.1.1 = {death="6616.1.1"}
}
110360027 = {
	name="Marghaz"	# a lord
	dynasty=360027

	religion="harpy"
	culture="ghiscari"

	father=105360027
	mother=205360027

	6553.1.1 = {birth="6553.1.1"}
	6569.1.1 = {add_trait=trained_warrior}
	6571.1.1 = {add_spouse=210360027}
	6611.1.1 = {}
	6615.1.1 = {death="6615.1.1"}
}
210360027 = {
	name="Galazza"
	female=yes

	religion="harpy"
	culture="ghiscari"

	6553.1.1 = {birth="6553.1.1"}
	6615.1.1 = {death="6615.1.1"}
}
111360027 = {
	name="Telezzara"	# not a lord
	female=yes
	dynasty=360027

	religion="harpy"
	culture="ghiscari"

	father=105360027
	mother=205360027

	6555.1.1 = {birth="6555.1.1"}
	6626.1.1 = {death="6626.1.1"}
}
112360027 = {
	name="Paezdharhos"	# not a lord
	dynasty=360027

	religion="harpy"
	culture="ghiscari"

	father=105360027
	mother=205360027

	6556.1.1 = {birth="6556.1.1"}
	6572.1.1 = {add_trait=poor_warrior}
	6578.1.1 = {death = {death_reason = death_battle}}
}
113360027 = {
	name="Zarraq"	# not a lord
	dynasty=360027

	religion="harpy"
	culture="ghiscari"

	father=110360027
	mother=210360027

	6575.1.1 = {birth="6575.1.1"}
	6591.1.1 = {add_trait=poor_warrior}
	6599.1.1 = {death="6599.1.1"}
}
114360027 = {
	name="Jezhane"	# not a lord
	female=yes
	dynasty=360027

	religion="harpy"
	culture="ghiscari"

	father=110360027
	mother=210360027

	6576.1.1 = {birth="6576.1.1"}
	6620.1.1 = {death="6620.1.1"}
}
115360027 = {
	name="Grazdan"	# a lord
	dynasty=360027

	religion="harpy"
	culture="ghiscari"

	father=110360027
	mother=210360027

	6579.1.1 = {birth="6579.1.1"}
	6595.1.1 = {add_trait=poor_warrior}
	6597.1.1 = {add_spouse=215360027}
	6615.1.1 = {}
	6621.1.1 = {death="6621.1.1"}
}
215360027 = {
	name="Ezzara"
	female=yes

	religion="harpy"
	culture="ghiscari"

	6579.1.1 = {birth="6579.1.1"}
	6621.1.1 = {death="6621.1.1"}
}
116360027 = {
	name="Azzara"	# not a lord
	female=yes
	dynasty=360027

	religion="harpy"
	culture="ghiscari"

	father=110360027
	mother=210360027

	6580.1.1 = {birth="6580.1.1"}
	6602.1.1 = {death="6602.1.1"}
}
117360027 = {
	name="Qezza"	# not a lord
	female=yes
	dynasty=360027

	religion="harpy"
	culture="ghiscari"

	father=115360027
	mother=215360027

	6598.1.1 = {birth="6598.1.1"}
	6619.1.1 = {death="6619.1.1"}
}
118360027 = {
	name="Reznak"	# a lord
	dynasty=360027

	religion="harpy"
	culture="ghiscari"

	father=115360027
	mother=215360027

	6601.1.1 = {birth="6601.1.1"}
	6621.1.1 = {}
	6627.1.1 = {add_trait=skilled_warrior}
	6629.1.1 = {add_spouse=218360027}
	6668.1.1 = {death="6668.1.1"}
}
218360027 = {
	name="Mellezzara"
	female=yes

	religion="harpy"
	culture="ghiscari"

	6611.1.1 = {birth="6611.1.1"}
	6668.1.1 = {death="6668.1.1"}
}
119360027 = {
	name="Yurkhaz"	# not a lord
	dynasty=360027

	religion="harpy"
	culture="ghiscari"

	father=115360027
	mother=215360027

	6613.1.1 = {birth="6613.1.1"}
	6629.1.1 = {add_trait=poor_warrior}
	6652.1.1 = {death="6652.1.1"}
}
120360027 = {
	name="Gorlaq"	# a lord
	dynasty=360027

	religion="harpy"
	culture="ghiscari"

	father=118360027
	mother=218360027

	6645.1.1 = {birth="6645.1.1"}
	6661.1.1 = {add_trait=skilled_warrior}
	6663.1.1 = {add_spouse=220360027}
	6668.1.1 = {}
	6708.1.1 = {death="6708.1.1"}
}
220360027 = {
	name="Gazzea"
	female=yes

	religion="harpy"
	culture="ghiscari"

	6645.1.1 = {birth="6645.1.1"}
	6708.1.1 = {death="6708.1.1"}
}
121360027 = {
	name="Prendahl"	# not a lord
	dynasty=360027

	religion="harpy"
	culture="ghiscari"

	father=118360027
	mother=218360027

	6648.1.1 = {birth="6648.1.1"}
	6664.1.1 = {add_trait=trained_warrior}
	6690.1.1 = {death="6690.1.1"}
}
122360027 = {
	name="Marghaz"	# not a lord
	dynasty=360027

	religion="harpy"
	culture="ghiscari"

	father=118360027
	mother=218360027

	6649.1.1 = {birth="6649.1.1"}
	6665.1.1 = {add_trait=master_warrior}
	6718.1.1 = {death="6718.1.1"}
}
123360027 = {
	name="Skahaz"	# a lord
	dynasty=360027

	religion="harpy"
	culture="ghiscari"

	father=120360027
	mother=220360027

	6666.1.1 = {birth="6666.1.1"}
	6682.1.1 = {add_trait=poor_warrior}
	6684.1.1 = {add_spouse=223360027}
	6708.1.1 = {}
	6715.1.1 = {death="6715.1.1"}
}
223360027 = {
	name="Jezhane"
	female=yes

	religion="harpy"
	culture="ghiscari"

	6666.1.1 = {birth="6666.1.1"}
	6715.1.1 = {death="6715.1.1"}
}
124360027 = {
	name="Mizlaq"	# not a lord
	dynasty=360027

	religion="harpy"
	culture="ghiscari"

	father=120360027
	mother=220360027

	6668.1.1 = {birth="6668.1.1"}
	6669.1.1 = {death="6669.1.1"}
}
125360027 = {
	name="Telleza"	# not a lord
	female=yes
	dynasty=360027

	religion="harpy"
	culture="ghiscari"

	father=120360027
	mother=220360027

	6674.1.1 = {birth="6674.1.1"}
	6731.1.1 = {death = {death_reason = death_accident}}
}
126360027 = {
	name="Nezza"	# not a lord
	female=yes
	dynasty=360027

	religion="harpy"
	culture="ghiscari"

	father=120360027
	mother=220360027

	6676.1.1 = {birth="6676.1.1"}
	6724.1.1 = {death="6724.1.1"}
}
127360027 = {
	name="Gunzak"	# a lord
	dynasty=360027

	religion="harpy"
	culture="ghiscari"

	father=123360027
	mother=223360027

	6684.1.1 = {birth="6684.1.1"}
	6700.1.1 = {add_trait=skilled_warrior}
	6702.1.1 = {add_spouse=227360027}
	6715.1.1 = {}
	6740.1.1 = {death = {death_reason = death_accident}}
}
227360027 = {
	name="Hazzea"
	female=yes

	religion="harpy"
	culture="ghiscari"

	6684.1.1 = {birth="6684.1.1"}
	6740.1.1 = {death="6740.1.1"}
}
128360027 = {
	name="Azzarah"	# not a lord
	female=yes
	dynasty=360027

	religion="harpy"
	culture="ghiscari"

	father=127360027
	mother=227360027

	6713.1.1 = {birth="6713.1.1"}
	6777.1.1 = {death="6777.1.1"}
}
129360027 = {
	name="Grazdhan"	# a lord
	dynasty=360027

	religion="harpy"
	culture="ghiscari"

	father=127360027
	mother=227360027

	6714.1.1 = {birth="6714.1.1"}
	6730.1.1 = {add_trait=poor_warrior}
	6732.1.1 = {add_spouse=229360027}
	6740.1.1 = {}
	6756.1.1 = {death="6756.1.1"}
}
229360027 = {
	name="Hazzea"
	female=yes

	religion="harpy"
	culture="ghiscari"

	6714.1.1 = {birth="6714.1.1"}
	6756.1.1 = {death="6756.1.1"}
}
130360027 = {
	name="Prendahl"	# not a lord
	dynasty=360027

	religion="harpy"
	culture="ghiscari"

	father=127360027
	mother=227360027

	6716.1.1 = {birth="6716.1.1"}
	6732.1.1 = {add_trait=skilled_warrior}
	6773.1.1 = {death="6773.1.1"}
}
131360027 = {
	name="Yezzan"	# not a lord
	dynasty=360027

	religion="harpy"
	culture="ghiscari"

	father=127360027
	mother=227360027

	6717.1.1 = {birth="6717.1.1"}
	6733.1.1 = {add_trait=trained_warrior}
	6776.1.1 = {death="6776.1.1"}
}
132360027 = {
	name="Marghaz"	# a lord
	dynasty=360027

	religion="harpy"
	culture="ghiscari"

	father=129360027
	mother=229360027

	6737.1.1 = {birth="6737.1.1"}
	6753.1.1 = {add_trait=poor_warrior}
	6766.1.1 = {add_spouse=475360027}

}
475360027 = {
	name="Hazzaara"
	female=yes

	religion="harpy"
	culture="ghiscari"

	6737.1.1 = {birth="6737.1.1"}
}
133360027 = {
	name="Sharkhaz"	# not a lord
	dynasty=360027

	religion="harpy"
	culture="ghiscari"

	father=129360027
	mother=229360027

	6739.1.1 = {birth="6739.1.1"}
	6755.1.1 = {add_trait=poor_warrior}
}
176360027 = {
	name="Haznak"	# not a lord
	dynasty=360027

	religion="harpy"
	culture="ghiscari"

	father=132360027
	mother=475360027

	6766.1.1 = {birth="6766.1.1"}
	6782.1.1 = {add_trait=poor_warrior}
}
177360027 = {
	name="Sezqa"	# not a lord
	female=yes
	dynasty=360027

	religion="harpy"
	culture="ghiscari"

	father=132360027
	mother=475360027

	6767.1.1 = {birth="6767.1.1"}
}
178360027 = {
	name="Yarkhaz"	# not a lord
	dynasty=360027

	religion="harpy"
	culture="ghiscari"

	father=132360027
	mother=475360027

	6769.1.1 = {birth="6769.1.1"}
	6785.1.1 = {add_trait=skilled_warrior}
}
179360027 = {
	name="Qezza"	# not a lord
	female=yes
	dynasty=360027

	religion="harpy"
	culture="ghiscari"

	father=132360027
	mother=475360027

	6770.1.1 = {birth="6770.1.1"}
}
180360027 = {
	name="Yezzan"	# not a lord
	dynasty=360027

	religion="harpy"
	culture="ghiscari"

	father=132360027
	mother=475360027

	6772.1.1 = {birth="6772.1.1"}
	6788.1.1 = {add_trait=poor_warrior}
}

