###zo Hazdahn###Ruler of Hazdahn

100069190 = {
	name="Yarkhaz"	# a lord
	dynasty=69190

	religion="harpy"
	culture="ghiscari"

	6443.1.1 = {birth="6443.1.1"}
	6459.1.1 = {add_trait=poor_warrior}
	6461.1.1 = {add_spouse=400069190}
	6508.1.1 = {death="6508.1.1"}
}
400069190 = {
	name="Gezzella"
	female=yes

	religion="harpy"
	culture="ghiscari"

	6443.1.1 = {birth="6443.1.1"}
	6508.1.1 = {death="6508.1.1"}
}
100169190 = {
	name="Qezza"	# not a lord
	female=yes
	dynasty=69190

	religion="harpy"
	culture="ghiscari"

	father=100069190
	mother=400069190

	6469.1.1 = {birth="6469.1.1"}
	6490.1.1 = {death="6490.1.1"}
}
100269190 = {
	name="Yurkhaz"	# a lord
	dynasty=69190

	religion="harpy"
	culture="ghiscari"

	father=100069190
	mother=400069190

	6471.1.1 = {birth="6471.1.1"}
	6487.1.1 = {add_trait=poor_warrior}
	6489.1.1 = {add_spouse=400269190}
	6527.1.1 = {death="6527.1.1"}
}
400269190 = {
	name="Tezza"
	female=yes

	religion="harpy"
	culture="ghiscari"

	6471.1.1 = {birth="6471.1.1"}
	6527.1.1 = {death="6527.1.1"}
}
100369190 = {
	name="Tezza"	# not a lord
	female=yes
	dynasty=69190

	religion="harpy"
	culture="ghiscari"

	father=100269190
	mother=400269190

	6489.1.1 = {birth="6489.1.1"}
	6533.1.1 = {death="6533.1.1"}
}
100469190 = {
	name="Yezza"	# not a lord
	female=yes
	dynasty=69190

	religion="harpy"
	culture="ghiscari"

	father=100269190
	mother=400269190

	6492.1.1 = {birth="6492.1.1"}
	6519.1.1 = {death="6519.1.1"}
}
100569190 = {
	name="Faezdhar"	# not a lord
	dynasty=69190

	religion="harpy"
	culture="ghiscari"

	father=100269190
	mother=400269190

	6494.1.1 = {birth="6494.1.1"}
	6510.1.1 = {add_trait=poor_warrior}
	6527.1.1 = {death="6527.1.1"}
}
100669190 = {
	name="Gezzella"	# not a lord
	female=yes
	dynasty=69190

	religion="harpy"
	culture="ghiscari"

	father=100269190
	mother=400269190

	6497.1.1 = {birth="6497.1.1"}
	6538.1.1 = {death="6538.1.1"}
}
100769190 = {
	name="Barkhaz"	# a lord
	dynasty=69190

	religion="harpy"
	culture="ghiscari"

	father=100269190
	mother=400269190

	6499.1.1 = {birth="6499.1.1"}
	6515.1.1 = {add_trait=trained_warrior}
	6517.1.1 = {add_spouse=400769190}
	6556.1.1 = {death="6556.1.1"}
}
400769190 = {
	name="Selezzqa"
	female=yes

	religion="harpy"
	culture="ghiscari"

	6499.1.1 = {birth="6499.1.1"}
	6556.1.1 = {death="6556.1.1"}
}
100869190 = {
	name="Grazdan"	# a lord
	dynasty=69190

	religion="harpy"
	culture="ghiscari"

	father=100769190
	mother=400769190

	6527.1.1 = {birth="6527.1.1"}
	6543.1.1 = {add_trait=poor_warrior}
	6545.1.1 = {add_spouse=400869190}
	6601.1.1 = {death="6601.1.1"}
}
400869190 = {
	name="Jezhane"
	female=yes

	religion="harpy"
	culture="ghiscari"

	6527.1.1 = {birth="6527.1.1"}
	6601.1.1 = {death="6601.1.1"}
}
100969190 = {
	name="Tezza"	# not a lord
	female=yes
	dynasty=69190

	religion="harpy"
	culture="ghiscari"

	father=100769190
	mother=400769190

	6529.1.1 = {birth="6529.1.1"}
	6589.1.1 = {death="6589.1.1"}
}
101069190 = {
	name="Yezza"	# not a lord
	female=yes
	dynasty=69190

	religion="harpy"
	culture="ghiscari"

	father=100769190
	mother=400769190

	6532.1.1 = {birth="6532.1.1"}
	6587.1.1 = {death="6587.1.1"}
}
101169190 = {
	name="Ezzara"	# not a lord
	female=yes
	dynasty=69190

	religion="harpy"
	culture="ghiscari"

	father=100769190
	mother=400769190

	6535.1.1 = {birth="6535.1.1"}
	6592.1.1 = {death="6592.1.1"}
}
101269190 = {
	name="Prendahl"	# not a lord
	dynasty=69190

	religion="harpy"
	culture="ghiscari"

	father=100769190
	mother=400769190

	6537.1.1 = {birth="6537.1.1"}
	6553.1.1 = {add_trait=skilled_warrior}
	6570.1.1 = {death="6570.1.1"}
}
101369190 = {
	name="Yezza"	# not a lord
	female=yes
	dynasty=69190

	religion="harpy"
	culture="ghiscari"

	father=100869190
	mother=400869190

	6547.1.1 = {birth="6547.1.1"}
	6598.1.1 = {death="6598.1.1"}
}
101469190 = {
	name="Grazdhar"	# a lord
	dynasty=69190

	religion="harpy"
	culture="ghiscari"

	father=100869190
	mother=400869190

	6549.1.1 = {birth="6549.1.1"}
	6565.1.1 = {add_trait=poor_warrior}
	6567.1.1 = {add_spouse=401469190}
	6606.1.1 = {death="6606.1.1"}
}
401469190 = {
	name="Yezza"
	female=yes

	religion="harpy"
	culture="ghiscari"

	6549.1.1 = {birth="6549.1.1"}
	6606.1.1 = {death="6606.1.1"}
}
101569190 = {
	name="Dhazzar"	# not a lord
	female=yes
	dynasty=69190

	religion="harpy"
	culture="ghiscari"

	father=100869190
	mother=400869190

	6550.1.1 = {birth="6550.1.1"}
	6576.1.1 = {death="6576.1.1"}
}
101669190 = {
	name="Zaraq"	# not a lord
	dynasty=69190

	religion="harpy"
	culture="ghiscari"

	father=100869190
	mother=400869190

	6551.1.1 = {birth="6551.1.1"}
	6567.1.1 = {add_trait=poor_warrior}
	6596.1.1 = {death="6596.1.1"}
}
101769190 = {
	name="Barghaz"	# a lord
	dynasty=69190

	religion="harpy"
	culture="ghiscari"

	father=101469190
	mother=401469190

	6577.1.1 = {birth="6577.1.1"}
	6593.1.1 = {add_trait=poor_warrior}
	6595.1.1 = {add_spouse=401769190}
	6624.1.1 = {death="6624.1.1"}
}
401769190 = {
	name="Gezzella"
	female=yes

	religion="harpy"
	culture="ghiscari"

	6577.1.1 = {birth="6577.1.1"}
	6624.1.1 = {death="6624.1.1"}
}
101869190 = {
	name="Mazdhan"	# not a lord
	dynasty=69190

	religion="harpy"
	culture="ghiscari"

	father=101769190
	mother=401769190

	6612.1.1 = {birth="6612.1.1"}
	6613.1.1 = {death="6613.1.1"}
}
101969190 = {
	name="Barghaz"	# a lord
	dynasty=69190

	religion="harpy"
	culture="ghiscari"

	father=101769190
	mother=401769190

	6615.1.1 = {birth="6615.1.1"}
	6631.1.1 = {add_trait=trained_warrior}
	6633.1.1 = {add_spouse=401969190}
	6681.1.1 = {death="6681.1.1"}
}
401969190 = {
	name="Hazzea"
	female=yes

	religion="harpy"
	culture="ghiscari"

	6615.1.1 = {birth="6615.1.1"}
	6681.1.1 = {death="6681.1.1"}
}
102069190 = {
	name="Tellezzara"	# not a lord
	female=yes
	dynasty=69190

	religion="harpy"
	culture="ghiscari"

	father=101969190
	mother=401969190

	6638.1.1 = {birth="6638.1.1"}
	6717.1.1 = {death="6717.1.1"}
}
102169190 = {
	name="Faezdhar"	# a lord
	dynasty=69190

	religion="harpy"
	culture="ghiscari"

	father=101969190
	mother=401969190

	6640.1.1 = {birth="6640.1.1"}
	6656.1.1 = {add_trait=poor_warrior}
	6658.1.1 = {add_spouse=402169190}
	6685.1.1 = {death="6685.1.1"}
}
402169190 = {
	name="Galazza"
	female=yes

	religion="harpy"
	culture="ghiscari"

	6640.1.1 = {birth="6640.1.1"}
	6685.1.1 = {death="6685.1.1"}
}
102269190 = {
	name="Tellezzara"	# not a lord
	female=yes
	dynasty=69190

	religion="harpy"
	culture="ghiscari"

	father=101969190
	mother=401969190

	6643.1.1 = {birth="6643.1.1"}
	6710.1.1 = {death="6710.1.1"}
}
102369190 = {
	name="Grazdhan"	# not a lord
	dynasty=69190

	religion="harpy"
	culture="ghiscari"

	father=101969190
	mother=401969190

	6644.1.1 = {birth="6644.1.1"}
	6660.1.1 = {add_trait=poor_warrior}
	6676.1.1 = {death="6676.1.1"}
}
102469190 = {
	name="Selezzqa"	# not a lord
	female=yes
	dynasty=69190

	religion="harpy"
	culture="ghiscari"

	father=102169190
	mother=402169190

	6660.1.1 = {birth="6660.1.1"}
	6729.1.1 = {death="6729.1.1"}
}
102569190 = {
	name="Morghaz"	# a lord
	dynasty=69190

	religion="harpy"
	culture="ghiscari"

	father=102169190
	mother=402169190

	6663.1.1 = {birth="6663.1.1"}
	6679.1.1 = {add_trait=trained_warrior}
	6681.1.1 = {add_spouse=402569190}
	6710.1.1 = {death="6710.1.1"}
}
402569190 = {
	name="Ezzara"
	female=yes

	religion="harpy"
	culture="ghiscari"

	6663.1.1 = {birth="6663.1.1"}
	6710.1.1 = {death="6710.1.1"}
}
102669190 = {
	name="Mazdhan"	# a lord
	dynasty=69190

	religion="harpy"
	culture="ghiscari"

	father=102569190
	mother=402569190

	6681.1.1 = {birth="6681.1.1"}
	6697.1.1 = {add_trait=trained_warrior}
	6699.1.1 = {add_spouse=402669190}
	6747.1.1 = {death="6747.1.1"}
}
402669190 = {
	name="Hazzea"
	female=yes

	religion="harpy"
	culture="ghiscari"

	6681.1.1 = {birth="6681.1.1"}
	6747.1.1 = {death="6747.1.1"}
}
102769190 = {
	name="Azzea"	# not a lord
	female=yes
	dynasty=69190

	religion="harpy"
	culture="ghiscari"

	father=102569190
	mother=402569190

	6684.1.1 = {birth="6684.1.1"}
	6739.1.1 = {death="6739.1.1"}
}
102869190 = {
	name="Hizdhar"	# not a lord
	dynasty=69190

	religion="harpy"
	culture="ghiscari"

	father=102569190
	mother=402569190

	6685.1.1 = {birth="6685.1.1"}
	6701.1.1 = {add_trait=trained_warrior}
	6721.1.1 = {death="6721.1.1"}
}
102969190 = {
	name="Yezza"	# not a lord
	female=yes
	dynasty=69190

	religion="harpy"
	culture="ghiscari"

	father=102569190
	mother=402569190

	6686.1.1 = {birth="6686.1.1"}
	6762.1.1 = {death = {death_reason = death_accident}}
}
103069190 = {
	name="Barghaz"	# not a lord
	dynasty=69190

	religion="harpy"
	culture="ghiscari"

	father=102569190
	mother=402569190

	6687.1.1 = {birth="6687.1.1"}
	6703.1.1 = {add_trait=trained_warrior}
	6742.1.1 = {death="6742.1.1"}
}
103169190 = {
	name="Miklaz"	# a lord
	dynasty=69190

	religion="harpy"
	culture="ghiscari"

	father=102669190
	mother=402669190

	6712.1.1 = {birth="6712.1.1"}
	6728.1.1 = {add_trait=skilled_warrior}
	6730.1.1 = {add_spouse=403169190}
	6756.1.1 = {death="6756.1.1"}
}
403169190 = {
	name="Mezzala"
	female=yes

	religion="harpy"
	culture="ghiscari"

	6712.1.1 = {birth="6712.1.1"}
	6756.1.1 = {death="6756.1.1"}
}
103269190 = {
	name="Grazdhan"	# not a lord
	dynasty=69190

	religion="harpy"
	culture="ghiscari"

	father=102669190
	mother=402669190

	6715.1.1 = {birth="6715.1.1"}
	6731.1.1 = {add_trait=skilled_warrior}
	6759.1.1 = {death="6759.1.1"}
}
103369190 = {
	name="Miklaz"	# not a lord
	dynasty=69190

	religion="harpy"
	culture="ghiscari"

	father=102669190
	mother=402669190

	6716.1.1 = {birth="6716.1.1"}
	6732.1.1 = {add_trait=trained_warrior}
	6771.1.1 = {death="6771.1.1"}
}
103469190 = {
	name="Azzea"	# not a lord
	female=yes
	dynasty=69190

	religion="harpy"
	culture="ghiscari"

	father=102669190
	mother=402669190

	6718.1.1 = {birth="6718.1.1"}
	6769.1.1 = {death="6769.1.1"}
}
103569190 = {
	name="Sezqa"	# not a lord
	female=yes
	dynasty=69190

	religion="harpy"
	culture="ghiscari"

	father=102669190
	mother=402669190

	6720.1.1 = {birth="6720.1.1"}
	6771.1.1 = {death="6771.1.1"}
}
103669190 = {
	name="Faezdhar"	# a lord
	dynasty=69190

	religion="harpy"
	culture="ghiscari"

	father=103169190
	mother=403169190

	6738.1.1 = {birth="6738.1.1"}
	6754.1.1 = {add_trait=trained_warrior}
	6781.1.1 = {death = {death_reason = death_accident}}
}
103769190 = {
	name="Yarkhaz"	# not a lord
	dynasty=69190

	religion="harpy"
	culture="ghiscari"

	father=103169190
	mother=403169190

	6740.1.1 = {birth="6740.1.1"}
	6756.1.1 = {add_trait=master_warrior}
	6766.1.1 = {death="6766.1.1"}
}
103869190 = {
	name="Grazdhar"	# not a lord
	dynasty=69190

	religion="harpy"
	culture="ghiscari"

	father=103169190
	mother=403169190

	6742.1.1 = {birth="6742.1.1"}
	6758.1.1 = {add_trait=trained_warrior}
	6783.1.1 = {death="6783.1.1"}
}



####  House Tazraaq

100069200 = {
	name="Maezon"	# a lord
	dynasty=69200

	religion="harpy"
	culture="ghiscari"

	6451.1.1 = {birth="6451.1.1"}
	6467.1.1 = {add_trait=poor_warrior}
	6469.1.1 = {add_spouse=400069200}
	6524.1.1 = {death="6524.1.1"}
}
400069200 = {
	name="Qezza"
	female=yes

	religion="harpy"
	culture="ghiscari"

	6451.1.1 = {birth="6451.1.1"}
	6524.1.1 = {death="6524.1.1"}
}
100169200 = {
	name="Barkhaz"	# a lord
	dynasty=69200

	religion="harpy"
	culture="ghiscari"

	father=100069200
	mother=400069200

	6480.1.1 = {birth="6480.1.1"}
	6496.1.1 = {add_trait=poor_warrior}
	6498.1.1 = {add_spouse=400169200}
	6537.1.1 = {death="6537.1.1"}
}
400169200 = {
	name="Ezzara"
	female=yes

	religion="harpy"
	culture="ghiscari"

	6480.1.1 = {birth="6480.1.1"}
	6537.1.1 = {death="6537.1.1"}
}
100269200 = {
	name="Hazzaara"	# not a lord
	female=yes
	dynasty=69200

	religion="harpy"
	culture="ghiscari"

	father=100069200
	mother=400069200

	6481.1.1 = {birth="6481.1.1"}
	6522.1.1 = {death="6522.1.1"}
}
100369200 = {
	name="Fendahl"	# not a lord
	dynasty=69200

	religion="harpy"
	culture="ghiscari"

	father=100069200
	mother=400069200

	6484.1.1 = {birth="6484.1.1"}
	6500.1.1 = {add_trait=poor_warrior}
	6535.1.1 = {death="6535.1.1"}
}
100469200 = {
	name="Qezza"	# not a lord
	female=yes
	dynasty=69200

	religion="harpy"
	culture="ghiscari"

	father=100069200
	mother=400069200

	6486.1.1 = {birth="6486.1.1"}
	6537.1.1 = {death="6537.1.1"}
}
100569200 = {
	name="Mazdhan"	# a lord
	dynasty=69200

	religion="harpy"
	culture="ghiscari"

	father=100169200
	mother=400169200

	6509.1.1 = {birth="6509.1.1"}
	6525.1.1 = {add_trait=skilled_warrior}
	6527.1.1 = {add_spouse=400569200}
	6553.1.1 = {death="6553.1.1"}
}
400569200 = {
	name="Mezzara"
	female=yes

	religion="harpy"
	culture="ghiscari"

	6509.1.1 = {birth="6509.1.1"}
	6553.1.1 = {death="6553.1.1"}
}
100669200 = {
	name="Grazdan"	# not a lord
	dynasty=69200

	religion="harpy"
	culture="ghiscari"

	father=100169200
	mother=400169200

	6510.1.1 = {birth="6510.1.1"}
	6526.1.1 = {add_trait=poor_warrior}
	6565.1.1 = {death="6565.1.1"}
}
100769200 = {
	name="Gorzhak"	# a lord
	dynasty=69200

	religion="harpy"
	culture="ghiscari"

	father=100569200
	mother=400569200

	6541.1.1 = {birth="6541.1.1"}
	6557.1.1 = {add_trait=poor_warrior}
	6559.1.1 = {add_spouse=400769200}
	6601.1.1 = {death="6601.1.1"}
}
400769200 = {
	name="Selezzqa"
	female=yes

	religion="harpy"
	culture="ghiscari"

	6541.1.1 = {birth="6541.1.1"}
	6601.1.1 = {death="6601.1.1"}
}
100869200 = {
	name="Barkhaz"	# a lord
	dynasty=69200

	religion="harpy"
	culture="ghiscari"

	father=100769200
	mother=400769200

	6568.1.1 = {birth="6568.1.1"}
	6584.1.1 = {add_trait=skilled_warrior}
	6586.1.1 = {add_spouse=400869200}
	6605.1.1 = {death="6605.1.1"}
}
400869200 = {
	name="Selezzqa"
	female=yes

	religion="harpy"
	culture="ghiscari"

	6568.1.1 = {birth="6568.1.1"}
	6605.1.1 = {death="6605.1.1"}
}
100969200 = {
	name="Gezzella"	# not a lord
	female=yes
	dynasty=69200

	religion="harpy"
	culture="ghiscari"

	father=100869200
	mother=400869200

	6594.1.1 = {birth="6594.1.1"}
	6630.1.1 = {death="6630.1.1"}
}
101069200 = {
	name="Zaraq"	# a lord
	dynasty=69200

	religion="harpy"
	culture="ghiscari"

	father=100869200
	mother=400869200

	6595.1.1 = {birth="6595.1.1"}
	6611.1.1 = {add_trait=trained_warrior}
	6613.1.1 = {add_spouse=401069200}
	6617.1.1 = {death="6617.1.1"}
}
401069200 = {
	name="Ezzara"
	female=yes

	religion="harpy"
	culture="ghiscari"

	6595.1.1 = {birth="6595.1.1"}
	6617.1.1 = {death="6617.1.1"}
}
101169200 = {
	name="Jezhane"	# not a lord
	female=yes
	dynasty=69200

	religion="harpy"
	culture="ghiscari"

	father=100869200
	mother=400869200

	6597.1.1 = {birth="6597.1.1"}
	6667.1.1 = {death="6667.1.1"}
}
101269200 = {
	name="Maezon"	# a lord
	dynasty=69200

	religion="harpy"
	culture="ghiscari"

	father=101069200
	mother=401069200

	6617.1.1 = {birth="6617.1.1"}
	6633.1.1 = {add_trait=skilled_warrior}
	6648.1.1 = {add_spouse=401269200}
	6673.1.1 = {death="6673.1.1"}
}
401269200 = {
	name="Zellazara"
	female=yes

	religion="harpy"
	culture="ghiscari"

	6630.1.1 = {birth="6630.1.1"}
	6673.1.1 = {death="6673.1.1"}
}
101369200 = {
	name="Yarkhaz"	# a lord
	dynasty=69200

	religion="harpy"
	culture="ghiscari"

	father=101269200
	mother=401269200

	6663.1.1 = {birth="6663.1.1"}
	6679.1.1 = {add_trait=skilled_warrior}
	6681.1.1 = {add_spouse=401369200}
	6697.1.1 = {death="6697.1.1"}
}
401369200 = {
	name="Azzea"
	female=yes

	religion="harpy"
	culture="ghiscari"

	6663.1.1 = {birth="6663.1.1"}
	6697.1.1 = {death="6697.1.1"}
}
101469200 = {
	name="Hazzea"	# not a lord
	female=yes
	dynasty=69200

	religion="harpy"
	culture="ghiscari"

	father=101269200
	mother=401269200

	6664.1.1 = {birth="6664.1.1"}
	6705.1.1 = {death="6705.1.1"}
}
101569200 = {
	name="Reznak"	# a lord
	dynasty=69200

	religion="harpy"
	culture="ghiscari"

	father=101369200
	mother=401369200

	6692.1.1 = {birth="6692.1.1"}
	6708.1.1 = {add_trait=trained_warrior}
	6710.1.1 = {add_spouse=401569200}
	6725.1.1 = {death="6725.1.1"}
}
401569200 = {
	name="Hazzaara"
	female=yes

	religion="harpy"
	culture="ghiscari"

	6692.1.1 = {birth="6692.1.1"}
	6725.1.1 = {death="6725.1.1"}
}
101669200 = {
	name="Mezzara"	# not a lord
	female=yes
	dynasty=69200

	religion="harpy"
	culture="ghiscari"

	father=101369200
	mother=401369200

	6694.1.1 = {birth="6694.1.1"}
	6747.1.1 = {death="6747.1.1"}
}
101769200 = {
	name="Mazdhan"	# not a lord
	dynasty=69200

	religion="harpy"
	culture="ghiscari"

	father=101369200
	mother=401369200

	6695.1.1 = {birth="6695.1.1"}
	6711.1.1 = {add_trait=poor_warrior}
	6742.1.1 = {death="6742.1.1"}
}
101869200 = {
	name="Yurkhaz"	# not a lord
	dynasty=69200

	religion="harpy"
	culture="ghiscari"

	father=101369200
	mother=401369200

	6697.1.1 = {birth="6697.1.1"}
	6713.1.1 = {add_trait=skilled_warrior}
	6756.1.1 = {death="6756.1.1"}
}
101969200 = {
	name="Grazdhar"	# a lord
	dynasty=69200

	religion="harpy"
	culture="ghiscari"

	father=101569200
	mother=401569200

	6713.1.1 = {birth="6713.1.1"}
	6729.1.1 = {add_trait=skilled_warrior}
	6731.1.1 = {add_spouse=401969200}
	6777.1.1 = {death="6777.1.1"}
}
401969200 = {
	name="Gezzella"
	female=yes

	religion="harpy"
	culture="ghiscari"

	6713.1.1 = {birth="6713.1.1"}
	6777.1.1 = {death="6777.1.1"}
}
102069200 = {
	name="Paezhar"	# not a lord
	dynasty=69200

	religion="harpy"
	culture="ghiscari"

	father=101569200
	mother=401569200

	6714.1.1 = {birth="6714.1.1"}
	6730.1.1 = {add_trait=poor_warrior}
	6781.1.1 = {death="6781.1.1"}
}
102169200 = {
	name="Azzea"	# not a lord
	female=yes
	dynasty=69200

	religion="harpy"
	culture="ghiscari"

	father=101569200
	mother=401569200

	6715.1.1 = {birth="6715.1.1"}
	6780.1.1 = {death="6780.1.1"}
}
102269200 = {
	name="Skahaz"	# not a lord
	dynasty=69200

	religion="harpy"
	culture="ghiscari"

	father=101569200
	mother=401569200

	6717.1.1 = {birth="6717.1.1"}
	6733.1.1 = {add_trait=trained_warrior}
	6768.1.1 = {death="6768.1.1"}
}
102369200 = {
	name="Zaraq"	# a lord
	dynasty=69200

	religion="harpy"
	culture="ghiscari"

	father=101969200
	mother=401969200

	6731.1.1 = {birth="6731.1.1"}
	6747.1.1 = {add_trait=trained_warrior}
	6796.1.1 = {death="6796.1.1"}
}
102469200 = {
	name="Ghazdor"	# not a lord
	dynasty=69200

	religion="harpy"
	culture="ghiscari"

	father=101969200
	mother=401969200

	6734.1.1 = {birth="6734.1.1"}
	6750.1.1 = {add_trait=poor_warrior}
	6757.1.1 = {death="6757.1.1"}
}



####  House Bahraz

100069201 = {
	name="Fendahl"	# a lord
	dynasty=69201

	religion="harpy"
	culture="ghiscari"

	6444.1.1 = {birth="6444.1.1"}
	6460.1.1 = {add_trait=poor_warrior}
	6462.1.1 = {add_spouse=400069201}
	6530.1.1 = {death="6530.1.1"}
}
400069201 = {
	name="Dhazzar"
	female=yes

	religion="harpy"
	culture="ghiscari"

	6444.1.1 = {birth="6444.1.1"}
	6530.1.1 = {death="6530.1.1"}
}
100169201 = {
	name="Mezzala"	# not a lord
	female=yes
	dynasty=69201

	religion="harpy"
	culture="ghiscari"

	father=100069201
	mother=400069201

	6471.1.1 = {birth="6471.1.1"}
	6495.1.1 = {death="6495.1.1"}
}
100269201 = {
	name="Zaraq"	# a lord
	dynasty=69201

	religion="harpy"
	culture="ghiscari"

	father=100069201
	mother=400069201

	6474.1.1 = {birth="6474.1.1"}
	6490.1.1 = {add_trait=trained_warrior}
	6492.1.1 = {add_spouse=400269201}
	6534.1.1 = {death = {death_reason = death_accident}}
}
400269201 = {
	name="Qazella"
	female=yes

	religion="harpy"
	culture="ghiscari"

	6474.1.1 = {birth="6474.1.1"}
	6534.1.1 = {death="6534.1.1"}
}
100369201 = {
	name="Qazella"	# not a lord
	female=yes
	dynasty=69201

	religion="harpy"
	culture="ghiscari"

	father=100069201
	mother=400069201

	6477.1.1 = {birth="6477.1.1"}
	6525.1.1 = {death="6525.1.1"}
}
100469201 = {
	name="Tezza"	# not a lord
	female=yes
	dynasty=69201

	religion="harpy"
	culture="ghiscari"

	father=100069201
	mother=400069201

	6479.1.1 = {birth="6479.1.1"}
	6532.1.1 = {death = {death_reason = death_murder}}
}
100569201 = {
	name="Paezhar"	# not a lord
	dynasty=69201

	religion="harpy"
	culture="ghiscari"

	father=100269201
	mother=400269201

	6495.1.1 = {birth="6495.1.1"}
	6511.1.1 = {add_trait=trained_warrior}
	6534.1.1 = {death="6534.1.1"}
}
100669201 = {
	name="Yezza"	# not a lord
	female=yes
	dynasty=69201

	religion="harpy"
	culture="ghiscari"

	father=100269201
	mother=400269201

	6497.1.1 = {birth="6497.1.1"}
	6543.1.1 = {death="6543.1.1"}
}
100769201 = {
	name="Hazzaara"	# not a lord
	female=yes
	dynasty=69201

	religion="harpy"
	culture="ghiscari"

	father=100269201
	mother=400269201

	6499.1.1 = {birth="6499.1.1"}
	6577.1.1 = {death="6577.1.1"}
}
100869201 = {
	name="Barghaz"	# a lord
	dynasty=69201

	religion="harpy"
	culture="ghiscari"

	father=100269201
	mother=400269201

	6500.1.1 = {birth="6500.1.1"}
	6516.1.1 = {add_trait=poor_warrior}
	6518.1.1 = {add_spouse=400869201}
	6575.1.1 = {death="6575.1.1"}
}
400869201 = {
	name="Mellezzara"
	female=yes

	religion="harpy"
	culture="ghiscari"

	6500.1.1 = {birth="6500.1.1"}
	6575.1.1 = {death="6575.1.1"}
}
100969201 = {
	name="Mazdhan"	# not a lord
	dynasty=69201

	religion="harpy"
	culture="ghiscari"

	father=100269201
	mother=400269201

	6502.1.1 = {birth="6502.1.1"}
	6518.1.1 = {add_trait=poor_warrior}
	6553.1.1 = {death="6553.1.1"}
}
101069201 = {
	name="Paezhar"	# a lord
	dynasty=69201

	religion="harpy"
	culture="ghiscari"

	father=100869201
	mother=400869201

	6528.1.1 = {birth="6528.1.1"}
	6544.1.1 = {add_trait=poor_warrior}
	6546.1.1 = {add_spouse=401069201}
	6590.1.1 = {death="6590.1.1"}
}
401069201 = {
	name="Tezza"
	female=yes

	religion="harpy"
	culture="ghiscari"

	6528.1.1 = {birth="6528.1.1"}
	6590.1.1 = {death="6590.1.1"}
}
101169201 = {
	name="Hazzaara"	# not a lord
	female=yes
	dynasty=69201

	religion="harpy"
	culture="ghiscari"

	father=100869201
	mother=400869201

	6530.1.1 = {birth="6530.1.1"}
	6563.1.1 = {death="6563.1.1"}
}
101269201 = {
	name="Mazdhan"	# a lord
	dynasty=69201

	religion="harpy"
	culture="ghiscari"

	father=101069201
	mother=401069201

	6550.1.1 = {birth="6550.1.1"}
	6566.1.1 = {add_trait=trained_warrior}
	6568.1.1 = {add_spouse=401269201}
	6596.1.1 = {death="6596.1.1"}
}
401269201 = {
	name="Dhazzar"
	female=yes

	religion="harpy"
	culture="ghiscari"

	6550.1.1 = {birth="6550.1.1"}
	6596.1.1 = {death="6596.1.1"}
}
101369201 = {
	name="Maezon"	# not a lord
	dynasty=69201

	religion="harpy"
	culture="ghiscari"

	father=101069201
	mother=401069201

	6551.1.1 = {birth="6551.1.1"}
	6567.1.1 = {add_trait=trained_warrior}
	6592.1.1 = {death="6592.1.1"}
}
101469201 = {
	name="Yarkhaz"	# not a lord
	dynasty=69201

	religion="harpy"
	culture="ghiscari"

	father=101069201
	mother=401069201

	6554.1.1 = {birth="6554.1.1"}
	6570.1.1 = {add_trait=poor_warrior}
	6610.1.1 = {death="6610.1.1"}
}
101569201 = {
	name="Dhazzar"	# not a lord
	female=yes
	dynasty=69201

	religion="harpy"
	culture="ghiscari"

	father=101269201
	mother=401269201

	6571.1.1 = {birth="6571.1.1"}
	6637.1.1 = {death="6637.1.1"}
}
101669201 = {
	name="Azzak"	# a lord
	dynasty=69201

	religion="harpy"
	culture="ghiscari"

	father=101269201
	mother=401269201

	6574.1.1 = {birth="6574.1.1"}
	6590.1.1 = {add_trait=poor_warrior}
	6592.1.1 = {add_spouse=401669201}
	6621.1.1 = {death="6621.1.1"}
}
401669201 = {
	name="Tezza"
	female=yes

	religion="harpy"
	culture="ghiscari"

	6574.1.1 = {birth="6574.1.1"}
	6621.1.1 = {death="6621.1.1"}
}
101769201 = {
	name="Reznak"	# a lord
	dynasty=69201

	religion="harpy"
	culture="ghiscari"

	father=101669201
	mother=401669201

	6598.1.1 = {birth="6598.1.1"}
	6614.1.1 = {add_trait=skilled_warrior}
	6616.1.1 = {add_spouse=401769201}
	6644.1.1 = {death="6644.1.1"}
}
401769201 = {
	name="Ellezzara"
	female=yes

	religion="harpy"
	culture="ghiscari"

	6598.1.1 = {birth="6598.1.1"}
	6644.1.1 = {death="6644.1.1"}
}
101869201 = {
	name="Harghaz"	# a lord
	dynasty=69201

	religion="harpy"
	culture="ghiscari"

	father=101769201
	mother=401769201

	6616.1.1 = {birth="6616.1.1"}
	6632.1.1 = {add_trait=poor_warrior}
	6634.1.1 = {add_spouse=401869201}
	6696.1.1 = {death="6696.1.1"}
}
401869201 = {
	name="Sezqa"
	female=yes

	religion="harpy"
	culture="ghiscari"

	6616.1.1 = {birth="6616.1.1"}
	6696.1.1 = {death="6696.1.1"}
}
101969201 = {
	name="Hazzea"	# not a lord
	female=yes
	dynasty=69201

	religion="harpy"
	culture="ghiscari"

	father=101769201
	mother=401769201

	6619.1.1 = {birth="6619.1.1"}
	6680.1.1 = {death="6680.1.1"}
}
102069201 = {
	name="Tellezzara"	# not a lord
	female=yes
	dynasty=69201

	religion="harpy"
	culture="ghiscari"

	father=101769201
	mother=401769201

	6620.1.1 = {birth="6620.1.1"}
	6688.1.1 = {death="6688.1.1"}
}
102169201 = {
	name="Mezzara"	# not a lord
	female=yes
	dynasty=69201

	religion="harpy"
	culture="ghiscari"

	father=101869201
	mother=401869201

	6644.1.1 = {birth="6644.1.1"}
	6690.1.1 = {death="6690.1.1"}
}
102269201 = {
	name="Azzea"	# not a lord
	female=yes
	dynasty=69201

	religion="harpy"
	culture="ghiscari"

	father=101869201
	mother=401869201

	6647.1.1 = {birth="6647.1.1"}
	6687.1.1 = {death="6687.1.1"}
}
102369201 = {
	name="Skahaz"	# a lord
	dynasty=69201

	religion="harpy"
	culture="ghiscari"

	father=101869201
	mother=401869201

	6649.1.1 = {birth="6649.1.1"}
	6665.1.1 = {add_trait=poor_warrior}
	6667.1.1 = {add_spouse=402369201}
	6710.1.1 = {death="6710.1.1"}
}
402369201 = {
	name="Galazza"
	female=yes

	religion="harpy"
	culture="ghiscari"

	6649.1.1 = {birth="6649.1.1"}
	6710.1.1 = {death="6710.1.1"}
}
102469201 = {
	name="Selezzqa"	# not a lord
	female=yes
	dynasty=69201

	religion="harpy"
	culture="ghiscari"

	father=101869201
	mother=401869201

	6650.1.1 = {birth="6650.1.1"}
	6701.1.1 = {death="6701.1.1"}
}
102569201 = {
	name="Grazdan"	# a lord
	dynasty=69201

	religion="harpy"
	culture="ghiscari"

	father=102369201
	mother=402369201

	6678.1.1 = {birth="6678.1.1"}
	6694.1.1 = {add_trait=poor_warrior}
	6696.1.1 = {add_spouse=402569201}
	6731.1.1 = {death = {death_reason = death_murder}}
}
402569201 = {
	name="Hazzea"
	female=yes

	religion="harpy"
	culture="ghiscari"

	6678.1.1 = {birth="6678.1.1"}
	6731.1.1 = {death="6731.1.1"}
}
102669201 = {
	name="Selezzqa"	# not a lord
	female=yes
	dynasty=69201

	religion="harpy"
	culture="ghiscari"

	father=102569201
	mother=402569201

	6702.1.1 = {birth="6702.1.1"}
	6744.1.1 = {death="6744.1.1"}
}
102769201 = {
	name="Selezzqa"	# not a lord
	female=yes
	dynasty=69201

	religion="harpy"
	culture="ghiscari"

	father=102569201
	mother=402569201

	6705.1.1 = {birth="6705.1.1"}
	6754.1.1 = {death="6754.1.1"}
}
102869201 = {
	name="Haznak"	# a lord
	dynasty=69201

	religion="harpy"
	culture="ghiscari"

	father=102569201
	mother=402569201

	6707.1.1 = {birth="6707.1.1"}
	6723.1.1 = {add_trait=master_warrior}
	6725.1.1 = {add_spouse=402869201}
	6748.1.1 = {death="6748.1.1"}
}
402869201 = {
	name="Sezqa"
	female=yes

	religion="harpy"
	culture="ghiscari"

	6707.1.1 = {birth="6707.1.1"}
	6748.1.1 = {death="6748.1.1"}
}
102969201 = {
	name="Tezza"	# not a lord
	female=yes
	dynasty=69201

	religion="harpy"
	culture="ghiscari"

	father=102569201
	mother=402569201

	6708.1.1 = {birth="6708.1.1"}
	6759.1.1 = {death="6759.1.1"}
}
103069201 = {
	name="Grazdhan"	# a lord
	dynasty=69201

	religion="harpy"
	culture="ghiscari"

	father=102869201
	mother=402869201

	6730.1.1 = {birth="6730.1.1"}
	6746.1.1 = {add_trait=skilled_warrior}
	6798.1.1 = {death="6798.1.1"}
}
103169201 = {
	name="Dhazzar"	# not a lord
	female=yes
	dynasty=69201

	religion="harpy"
	culture="ghiscari"

	father=102869201
	mother=402869201

	6733.1.1 = {birth="6733.1.1"}
	6793.1.1 = {death="6793.1.1"}
}
103269201 = {
	name="Yarkhaz"	# not a lord
	dynasty=69201

	religion="harpy"
	culture="ghiscari"

	father=102869201
	mother=402869201

	6734.1.1 = {birth="6734.1.1"}
	6750.1.1 = {add_trait=poor_warrior}
	6786.1.1 = {death="6786.1.1"}
}


####  House Larghaz

100069202 = {
	name="Barkhaz"	# a lord
	dynasty=69202

	religion="harpy"
	culture="ghiscari"

	6441.1.1 = {birth="6441.1.1"}
	6457.1.1 = {add_trait=poor_warrior}
	6459.1.1 = {add_spouse=400069202}
	6508.1.1 = {death="6508.1.1"}
}
400069202 = {
	name="Mezzara"
	female=yes

	religion="harpy"
	culture="ghiscari"

	6441.1.1 = {birth="6441.1.1"}
	6508.1.1 = {death="6508.1.1"}
}
100169202 = {
	name="Bharkaz"	# a lord
	dynasty=69202

	religion="harpy"
	culture="ghiscari"

	father=100069202
	mother=400069202

	6469.1.1 = {birth="6469.1.1"}
	6485.1.1 = {add_trait=poor_warrior}
	6487.1.1 = {add_spouse=400169202}
	6520.1.1 = {death="6520.1.1"}
}
400169202 = {
	name="Qezza"
	female=yes

	religion="harpy"
	culture="ghiscari"

	6469.1.1 = {birth="6469.1.1"}
	6520.1.1 = {death="6520.1.1"}
}
100269202 = {
	name="Ghazdor"	# a lord
	dynasty=69202

	religion="harpy"
	culture="ghiscari"

	father=100169202
	mother=400169202

	6501.1.1 = {birth="6501.1.1"}
	6517.1.1 = {add_trait=trained_warrior}
	6519.1.1 = {add_spouse=400269202}
	6550.1.1 = {death="6550.1.1"}
}
400269202 = {
	name="Azzara"
	female=yes

	religion="harpy"
	culture="ghiscari"

	6501.1.1 = {birth="6501.1.1"}
	6550.1.1 = {death="6550.1.1"}
}
100369202 = {
	name="Hazzaara"	# not a lord
	female=yes
	dynasty=69202

	religion="harpy"
	culture="ghiscari"

	father=100169202
	mother=400169202

	6504.1.1 = {birth="6504.1.1"}
	6553.1.1 = {death="6553.1.1"}
}
100469202 = {
	name="Grazdhar"	# a lord
	dynasty=69202

	religion="harpy"
	culture="ghiscari"

	father=100269202
	mother=400269202

	6521.1.1 = {birth="6521.1.1"}
	6537.1.1 = {add_trait=poor_warrior}
	6539.1.1 = {add_spouse=400469202}
	6557.1.1 = {death="6557.1.1"}
}
400469202 = {
	name="Azzea"
	female=yes

	religion="harpy"
	culture="ghiscari"

	6521.1.1 = {birth="6521.1.1"}
	6557.1.1 = {death="6557.1.1"}
}
100569202 = {
	name="Azzea"	# not a lord
	female=yes
	dynasty=69202

	religion="harpy"
	culture="ghiscari"

	father=100269202
	mother=400269202

	6523.1.1 = {birth="6523.1.1"}
	6570.1.1 = {death="6570.1.1"}
}
100669202 = {
	name="Galazza"	# not a lord
	female=yes
	dynasty=69202

	religion="harpy"
	culture="ghiscari"

	father=100269202
	mother=400269202

	6525.1.1 = {birth="6525.1.1"}
	6582.1.1 = {death="6582.1.1"}
}
100769202 = {
	name="Hizdhar"	# a lord
	dynasty=69202

	religion="harpy"
	culture="ghiscari"

	father=100469202
	mother=400469202

	6539.1.1 = {birth="6539.1.1"}
	6555.1.1 = {add_trait=skilled_warrior}
	6557.1.1 = {add_spouse=400769202}
	6598.1.1 = {death="6598.1.1"}
}
400769202 = {
	name="Ellezzara"
	female=yes

	religion="harpy"
	culture="ghiscari"

	6539.1.1 = {birth="6539.1.1"}
	6598.1.1 = {death="6598.1.1"}
}
100869202 = {
	name="Dhazzar"	# not a lord
	female=yes
	dynasty=69202

	religion="harpy"
	culture="ghiscari"

	father=100469202
	mother=400469202

	6540.1.1 = {birth="6540.1.1"}
	6606.1.1 = {death="6606.1.1"}
}
100969202 = {
	name="Yarkhaz"	# not a lord
	dynasty=69202

	religion="harpy"
	culture="ghiscari"

	father=100469202
	mother=400469202

	6541.1.1 = {birth="6541.1.1"}
	6557.1.1 = {add_trait=poor_warrior}
	6620.1.1 = {death="6620.1.1"}
}
101069202 = {
	name="Reznak"	# a lord
	dynasty=69202

	religion="harpy"
	culture="ghiscari"

	father=100769202
	mother=400769202

	6564.1.1 = {birth="6564.1.1"}
	6580.1.1 = {add_trait=poor_warrior}
	6582.1.1 = {add_spouse=401069202}
	6614.1.1 = {death="6614.1.1"}
}
401069202 = {
	name="Galazza"
	female=yes

	religion="harpy"
	culture="ghiscari"

	6564.1.1 = {birth="6564.1.1"}
	6614.1.1 = {death="6614.1.1"}
}
101169202 = {
	name="Morghaz"	# a lord
	dynasty=69202

	religion="harpy"
	culture="ghiscari"

	father=101069202
	mother=401069202

	6588.1.1 = {birth="6588.1.1"}
	6604.1.1 = {add_trait=trained_warrior}
	6606.1.1 = {add_spouse=401169202}
	6643.1.1 = {death="6643.1.1"}
}
401169202 = {
	name="Yezza"
	female=yes

	religion="harpy"
	culture="ghiscari"

	6588.1.1 = {birth="6588.1.1"}
	6643.1.1 = {death="6643.1.1"}
}
101269202 = {
	name="Hazzea"	# not a lord
	female=yes
	dynasty=69202

	religion="harpy"
	culture="ghiscari"

	father=101069202
	mother=401069202

	6590.1.1 = {birth="6590.1.1"}
	6664.1.1 = {death="6664.1.1"}
}
101369202 = {
	name="Zellazara"	# not a lord
	female=yes
	dynasty=69202

	religion="harpy"
	culture="ghiscari"

	father=101069202
	mother=401069202

	6592.1.1 = {birth="6592.1.1"}
	6661.1.1 = {death="6661.1.1"}
}
101469202 = {
	name="Yezzan"	# a lord
	dynasty=69202

	religion="harpy"
	culture="ghiscari"

	father=101169202
	mother=401169202

	6606.1.1 = {birth="6606.1.1"}
	6622.1.1 = {add_trait=poor_warrior}
	6624.1.1 = {add_spouse=401469202}
	6664.1.1 = {death="6664.1.1"}
}
401469202 = {
	name="Gezzella"
	female=yes

	religion="harpy"
	culture="ghiscari"

	6606.1.1 = {birth="6606.1.1"}
	6664.1.1 = {death="6664.1.1"}
}
101569202 = {
	name="Jezhane"	# not a lord
	female=yes
	dynasty=69202

	religion="harpy"
	culture="ghiscari"

	father=101469202
	mother=401469202

	6629.1.1 = {birth="6629.1.1"}
	6690.1.1 = {death="6690.1.1"}
}
101669202 = {
	name="Yezzan"	# a lord
	dynasty=69202

	religion="harpy"
	culture="ghiscari"

	father=101469202
	mother=401469202

	6632.1.1 = {birth="6632.1.1"}
	6648.1.1 = {add_trait=trained_warrior}
	6650.1.1 = {add_spouse=401669202}
	6701.1.1 = {death="6701.1.1"}
}
401669202 = {
	name="Ellezzara"
	female=yes

	religion="harpy"
	culture="ghiscari"

	6632.1.1 = {birth="6632.1.1"}
	6701.1.1 = {death="6701.1.1"}
}
101769202 = {
	name="Dhazzar"	# not a lord
	female=yes
	dynasty=69202

	religion="harpy"
	culture="ghiscari"

	father=101469202
	mother=401469202

	6634.1.1 = {birth="6634.1.1"}
	6687.1.1 = {death="6687.1.1"}
}
101869202 = {
	name="Ezzara"	# not a lord
	female=yes
	dynasty=69202

	religion="harpy"
	culture="ghiscari"

	father=101669202
	mother=401669202

	6659.1.1 = {birth="6659.1.1"}
	6701.1.1 = {death="6701.1.1"}
}
101969202 = {
	name="Zaraq"	# a lord
	dynasty=69202

	religion="harpy"
	culture="ghiscari"

	father=101669202
	mother=401669202

	6661.1.1 = {birth="6661.1.1"}
	6677.1.1 = {add_trait=poor_warrior}
	6679.1.1 = {add_spouse=401969202}
	6718.1.1 = {death="6718.1.1"}
}
401969202 = {
	name="Sezqa"
	female=yes

	religion="harpy"
	culture="ghiscari"

	6661.1.1 = {birth="6661.1.1"}
	6718.1.1 = {death="6718.1.1"}
}
102069202 = {
	name="Qazella"	# not a lord
	female=yes
	dynasty=69202

	religion="harpy"
	culture="ghiscari"

	father=101969202
	mother=401969202

	6679.1.1 = {birth="6679.1.1"}
	6704.1.1 = {death="6704.1.1"}
}
102169202 = {
	name="Azzak"	# a lord
	dynasty=69202

	religion="harpy"
	culture="ghiscari"

	father=101969202
	mother=401969202

	6680.1.1 = {birth="6680.1.1"}
	6696.1.1 = {add_trait=poor_warrior}
	6698.1.1 = {add_spouse=402169202}
	6738.1.1 = {death="6738.1.1"}
}
402169202 = {
	name="Hazzaara"
	female=yes

	religion="harpy"
	culture="ghiscari"

	6680.1.1 = {birth="6680.1.1"}
	6738.1.1 = {death="6738.1.1"}
}
102269202 = {
	name="Mezzara"	# not a lord
	female=yes
	dynasty=69202

	religion="harpy"
	culture="ghiscari"

	father=102169202
	mother=402169202

	6698.1.1 = {birth="6698.1.1"}
	6769.1.1 = {death = {death_reason = death_murder}}
}
102369202 = {
	name="Barghaz"	# a lord
	dynasty=69202

	religion="harpy"
	culture="ghiscari"

	father=102169202
	mother=402169202

	6701.1.1 = {birth="6701.1.1"}
	6717.1.1 = {add_trait=poor_warrior}
	6719.1.1 = {add_spouse=402369202}
	6763.1.1 = {death="6763.1.1"}
}
402369202 = {
	name="Azzara"
	female=yes

	religion="harpy"
	culture="ghiscari"

	6701.1.1 = {birth="6701.1.1"}
	6763.1.1 = {death="6763.1.1"}
}
102469202 = {
	name="Grazdhan"	# not a lord
	dynasty=69202

	religion="harpy"
	culture="ghiscari"

	father=102169202
	mother=402169202

	6704.1.1 = {birth="6704.1.1"}
	6720.1.1 = {add_trait=skilled_warrior}
	6766.1.1 = {death="6766.1.1"}
}
102569202 = {
	name="Tezza"	# not a lord
	female=yes
	dynasty=69202

	religion="harpy"
	culture="ghiscari"

	father=102369202
	mother=402369202

	6730.1.1 = {birth="6730.1.1"}
	6789.1.1 = {death="6789.1.1"}
}
102669202 = {
	name="Ghazdor"	# a lord
	dynasty=69202

	religion="harpy"
	culture="ghiscari"

	father=102369202
	mother=402369202

	6731.1.1 = {birth="6731.1.1"}
	6747.1.1 = {add_trait=master_warrior}
	6781.1.1 = {death="6781.1.1"}
}
102769202 = {
	name="Sezqa"	# not a lord
	female=yes
	dynasty=69202

	religion="harpy"
	culture="ghiscari"

	father=102369202
	mother=402369202

	6733.1.1 = {birth="6733.1.1"}
	6780.1.1 = {death="6780.1.1"}
}
102869202 = {
	name="Haznak"	# not a lord
	dynasty=69202

	religion="harpy"
	culture="ghiscari"

	father=102369202
	mother=402369202

	6735.1.1 = {birth="6735.1.1"}
	6751.1.1 = {add_trait=poor_warrior}
	6785.1.1 = {death="6785.1.1"}
}
102969202 = {
	name="Miklaz"	# not a lord
	dynasty=69202

	religion="harpy"
	culture="ghiscari"

	father=102369202
	mother=402369202

	6736.1.1 = {birth="6736.1.1"}
	6752.1.1 = {add_trait=poor_warrior}
	6793.1.1 = {death = {death_reason = death_accident}}
}



####  House Hiznhak

100069205 = {
	name="Zaraq"	# a lord
	dynasty=69205

	religion="harpy"
	culture="ghiscari"

	6438.1.1 = {birth="6438.1.1"}
	6454.1.1 = {add_trait=poor_warrior}
	6456.1.1 = {add_spouse=400069205}
	6510.1.1 = {death="6510.1.1"}
}
400069205 = {
	name="Ezzara"
	female=yes

	religion="harpy"
	culture="ghiscari"

	6438.1.1 = {birth="6438.1.1"}
	6510.1.1 = {death="6510.1.1"}
}
100169205 = {
	name="Ghazdor"	# a lord
	dynasty=69205

	religion="harpy"
	culture="ghiscari"

	father=100069205
	mother=400069205

	6466.1.1 = {birth="6466.1.1"}
	6482.1.1 = {add_trait=trained_warrior}
	6484.1.1 = {add_spouse=400169205}
	6535.1.1 = {death="6535.1.1"}
}
400169205 = {
	name="Hazzea"
	female=yes

	religion="harpy"
	culture="ghiscari"

	6466.1.1 = {birth="6466.1.1"}
	6535.1.1 = {death="6535.1.1"}
}
100269205 = {
	name="Maezon"	# a lord
	dynasty=69205

	religion="harpy"
	culture="ghiscari"

	father=100169205
	mother=400169205

	6499.1.1 = {birth="6499.1.1"}
	6515.1.1 = {add_trait=skilled_warrior}
	6517.1.1 = {add_spouse=400269205}
	6541.1.1 = {death="6541.1.1"}
}
400269205 = {
	name="Ezzara"
	female=yes

	religion="harpy"
	culture="ghiscari"

	6499.1.1 = {birth="6499.1.1"}
	6541.1.1 = {death="6541.1.1"}
}
100369205 = {
	name="Skahaz"	# a lord
	dynasty=69205

	religion="harpy"
	culture="ghiscari"

	father=100269205
	mother=400269205

	6531.1.1 = {birth="6531.1.1"}
	6547.1.1 = {add_trait=poor_warrior}
	6549.1.1 = {add_spouse=400369205}
	6589.1.1 = {death="6589.1.1"}
}
400369205 = {
	name="Tezza"
	female=yes

	religion="harpy"
	culture="ghiscari"

	6531.1.1 = {birth="6531.1.1"}
	6589.1.1 = {death="6589.1.1"}
}
100469205 = {
	name="Maezon"	# not a lord
	dynasty=69205

	religion="harpy"
	culture="ghiscari"

	father=100269205
	mother=400269205

	6533.1.1 = {birth="6533.1.1"}
	6549.1.1 = {add_trait=trained_warrior}
	6591.1.1 = {death="6591.1.1"}
}
100569205 = {
	name="Yezza"	# not a lord
	female=yes
	dynasty=69205

	religion="harpy"
	culture="ghiscari"

	father=100269205
	mother=400269205

	6534.1.1 = {birth="6534.1.1"}
	6589.1.1 = {death="6589.1.1"}
}
100669205 = {
	name="Mezzala"	# not a lord
	female=yes
	dynasty=69205

	religion="harpy"
	culture="ghiscari"

	father=100369205
	mother=400369205

	6556.1.1 = {birth="6556.1.1"}
	6603.1.1 = {death="6603.1.1"}
}
100769205 = {
	name="Selezzqa"	# not a lord
	female=yes
	dynasty=69205

	religion="harpy"
	culture="ghiscari"

	father=100369205
	mother=400369205

	6558.1.1 = {birth="6558.1.1"}
	6608.1.1 = {death="6608.1.1"}
}
100869205 = {
	name="Yurkhaz"	# a lord
	dynasty=69205

	religion="harpy"
	culture="ghiscari"

	father=100369205
	mother=400369205

	6559.1.1 = {birth="6559.1.1"}
	6575.1.1 = {add_trait=trained_warrior}
	6577.1.1 = {add_spouse=400869205}
	6612.1.1 = {death="6612.1.1"}
}
400869205 = {
	name="Qazella"
	female=yes

	religion="harpy"
	culture="ghiscari"

	6559.1.1 = {birth="6559.1.1"}
	6612.1.1 = {death="6612.1.1"}
}
100969205 = {
	name="Selezzqa"	# not a lord
	female=yes
	dynasty=69205

	religion="harpy"
	culture="ghiscari"

	father=100369205
	mother=400369205

	6562.1.1 = {birth="6562.1.1"}
	6608.1.1 = {death="6608.1.1"}
}
101069205 = {
	name="Ghazdor"	# not a lord
	dynasty=69205

	religion="harpy"
	culture="ghiscari"

	father=100369205
	mother=400369205

	6563.1.1 = {birth="6563.1.1"}
	6579.1.1 = {add_trait=poor_warrior}
	6637.1.1 = {death = {death_reason = death_murder}}
}
101169205 = {
	name="Grazdhan"	# not a lord
	dynasty=69205

	religion="harpy"
	culture="ghiscari"

	father=100869205
	mother=400869205

	6583.1.1 = {birth="6583.1.1"}
	6599.1.1 = {add_trait=poor_warrior}
	6605.1.1 = {death="6605.1.1"}
}
101269205 = {
	name="Grazdhar"	# a lord
	dynasty=69205

	religion="harpy"
	culture="ghiscari"

	father=100869205
	mother=400869205

	6584.1.1 = {birth="6584.1.1"}
	6600.1.1 = {add_trait=poor_warrior}
	6602.1.1 = {add_spouse=401269205}
	6640.1.1 = {death="6640.1.1"}
}
401269205 = {
	name="Azzea"
	female=yes

	religion="harpy"
	culture="ghiscari"

	6584.1.1 = {birth="6584.1.1"}
	6640.1.1 = {death="6640.1.1"}
}
101369205 = {
	name="Grazdan"	# not a lord
	dynasty=69205

	religion="harpy"
	culture="ghiscari"

	father=100869205
	mother=400869205

	6587.1.1 = {birth="6587.1.1"}
	6603.1.1 = {add_trait=poor_warrior}
	6643.1.1 = {death="6643.1.1"}
}
101469205 = {
	name="Bharkaz"	# not a lord
	dynasty=69205

	religion="harpy"
	culture="ghiscari"

	father=100869205
	mother=400869205

	6588.1.1 = {birth="6588.1.1"}
	6604.1.1 = {add_trait=trained_warrior}
	6648.1.1 = {death="6648.1.1"}
}
101569205 = {
	name="Azzea"	# not a lord
	female=yes
	dynasty=69205

	religion="harpy"
	culture="ghiscari"

	father=101269205
	mother=401269205

	6605.1.1 = {birth="6605.1.1"}
	6665.1.1 = {death="6665.1.1"}
}
101669205 = {
	name="Paezhar"	# a lord
	dynasty=69205

	religion="harpy"
	culture="ghiscari"

	father=101269205
	mother=401269205

	6608.1.1 = {birth="6608.1.1"}
	6624.1.1 = {add_trait=poor_warrior}
	6626.1.1 = {add_spouse=401669205}
	6652.1.1 = {death="6652.1.1"}
}
401669205 = {
	name="Dhazzar"
	female=yes

	religion="harpy"
	culture="ghiscari"

	6608.1.1 = {birth="6608.1.1"}
	6652.1.1 = {death="6652.1.1"}
}
101769205 = {
	name="Tezza"	# not a lord
	female=yes
	dynasty=69205

	religion="harpy"
	culture="ghiscari"

	father=101269205
	mother=401269205

	6609.1.1 = {birth="6609.1.1"}
	6686.1.1 = {death="6686.1.1"}
}
101869205 = {
	name="Sezqa"	# not a lord
	female=yes
	dynasty=69205

	religion="harpy"
	culture="ghiscari"

	father=101269205
	mother=401269205

	6610.1.1 = {birth="6610.1.1"}
	6653.1.1 = {death="6653.1.1"}
}
101969205 = {
	name="Gorzhak"	# a lord
	dynasty=69205

	religion="harpy"
	culture="ghiscari"

	father=101669205
	mother=401669205

	6627.1.1 = {birth="6627.1.1"}
	6643.1.1 = {add_trait=poor_warrior}
	6645.1.1 = {add_spouse=401969205}
	6695.1.1 = {death = {death_reason = death_murder}}
}
401969205 = {
	name="Ezzara"
	female=yes

	religion="harpy"
	culture="ghiscari"

	6627.1.1 = {birth="6627.1.1"}
	6695.1.1 = {death="6695.1.1"}
}
102069205 = {
	name="Hazzaara"	# not a lord
	female=yes
	dynasty=69205

	religion="harpy"
	culture="ghiscari"

	father=101669205
	mother=401669205

	6628.1.1 = {birth="6628.1.1"}
	6669.1.1 = {death="6669.1.1"}
}
102169205 = {
	name="Yarkhaz"	# a lord
	dynasty=69205

	religion="harpy"
	culture="ghiscari"

	father=101969205
	mother=401969205

	6646.1.1 = {birth="6646.1.1"}
	6662.1.1 = {add_trait=poor_warrior}
	6664.1.1 = {add_spouse=402169205}
	6707.1.1 = {death = {death_reason = death_murder}}
}
402169205 = {
	name="Mezzala"
	female=yes

	religion="harpy"
	culture="ghiscari"

	6646.1.1 = {birth="6646.1.1"}
	6707.1.1 = {death="6707.1.1"}
}
102269205 = {
	name="Zellazara"	# not a lord
	female=yes
	dynasty=69205

	religion="harpy"
	culture="ghiscari"

	father=101969205
	mother=401969205

	6648.1.1 = {birth="6648.1.1"}
	6701.1.1 = {death="6701.1.1"}
}
102369205 = {
	name="Zellazara"	# not a lord
	female=yes
	dynasty=69205

	religion="harpy"
	culture="ghiscari"

	father=102169205
	mother=402169205

	6665.1.1 = {birth="6665.1.1"}
	6704.1.1 = {death="6704.1.1"}
}
102469205 = {
	name="Azzara"	# not a lord
	female=yes
	dynasty=69205

	religion="harpy"
	culture="ghiscari"

	father=102169205
	mother=402169205

	6667.1.1 = {birth="6667.1.1"}
	6714.1.1 = {death="6714.1.1"}
}
102569205 = {
	name="Ghazdor"	# a lord
	dynasty=69205

	religion="harpy"
	culture="ghiscari"

	father=102169205
	mother=402169205

	6670.1.1 = {birth="6670.1.1"}
	6686.1.1 = {add_trait=skilled_warrior}
	6688.1.1 = {add_spouse=402569205}
	6725.1.1 = {death="6725.1.1"}
}
402569205 = {
	name="Ezzara"
	female=yes

	religion="harpy"
	culture="ghiscari"

	6670.1.1 = {birth="6670.1.1"}
	6725.1.1 = {death="6725.1.1"}
}
102669205 = {
	name="Fendahl"	# not a lord
	dynasty=69205

	religion="harpy"
	culture="ghiscari"

	father=102169205
	mother=402169205

	6672.1.1 = {birth="6672.1.1"}
	6688.1.1 = {add_trait=poor_warrior}
	6703.1.1 = {death="6703.1.1"}
}
102769205 = {
	name="Qazella"	# not a lord
	female=yes
	dynasty=69205

	religion="harpy"
	culture="ghiscari"

	father=102169205
	mother=402169205

	6674.1.1 = {birth="6674.1.1"}
	6734.1.1 = {death="6734.1.1"}
}
102869205 = {
	name="Yurkhaz"	# a lord
	dynasty=69205

	religion="harpy"
	culture="ghiscari"

	father=102569205
	mother=402569205

	6692.1.1 = {birth="6692.1.1"}
	6708.1.1 = {add_trait=poor_warrior}
	6710.1.1 = {add_spouse=402869205}
	6736.1.1 = {death="6736.1.1"}
}
402869205 = {
	name="Tellezzara"
	female=yes

	religion="harpy"
	culture="ghiscari"

	6692.1.1 = {birth="6692.1.1"}
	6736.1.1 = {death="6736.1.1"}
}
102969205 = {
	name="Tezza"	# not a lord
	female=yes
	dynasty=69205

	religion="harpy"
	culture="ghiscari"

	father=102569205
	mother=402569205

	6693.1.1 = {birth="6693.1.1"}
	6727.1.1 = {death="6727.1.1"}
}
103069205 = {
	name="Galazza"	# not a lord
	female=yes
	dynasty=69205

	religion="harpy"
	culture="ghiscari"

	father=102569205
	mother=402569205

	6696.1.1 = {birth="6696.1.1"}
	6756.1.1 = {death="6756.1.1"}
}
103169205 = {
	name="Gorzhak"	# not a lord
	dynasty=69205

	religion="harpy"
	culture="ghiscari"

	father=102569205
	mother=402569205

	6698.1.1 = {birth="6698.1.1"}
	6714.1.1 = {add_trait=master_warrior}
	6732.1.1 = {death = {death_reason = death_accident}}
}
103269205 = {
	name="Hazzea"	# not a lord
	female=yes
	dynasty=69205

	religion="harpy"
	culture="ghiscari"

	father=102869205
	mother=402869205

	6715.1.1 = {birth="6715.1.1"}
	6772.1.1 = {death="6772.1.1"}
}
103369205 = {
	name="Barkhaz"	# a lord
	dynasty=69205

	religion="harpy"
	culture="ghiscari"

	father=102869205
	mother=402869205

	6718.1.1 = {birth="6718.1.1"}
	6734.1.1 = {add_trait=poor_warrior}
	6736.1.1 = {add_spouse=403369205}
	6767.1.1 = {death="6767.1.1"}
}
403369205 = {
	name="Tellezzara"
	female=yes

	religion="harpy"
	culture="ghiscari"

	6718.1.1 = {birth="6718.1.1"}
	6767.1.1 = {death="6767.1.1"}
}
103469205 = {
	name="Skahaz"	# not a lord
	dynasty=69205

	religion="harpy"
	culture="ghiscari"

	father=102869205
	mother=402869205

	6721.1.1 = {birth="6721.1.1"}
	6737.1.1 = {add_trait=trained_warrior}
	6777.1.1 = {death="6777.1.1"}
}
103569205 = {
	name="Zellazara"	# not a lord
	female=yes
	dynasty=69205

	religion="harpy"
	culture="ghiscari"

	father=102869205
	mother=402869205

	6722.1.1 = {birth="6722.1.1"}
	6774.1.1 = {death="6774.1.1"}
}
103669205 = {
	name="Maezon"	# a lord
	dynasty=69205

	religion="harpy"
	culture="ghiscari"

	father=103369205
	mother=403369205

	6750.1.1 = {birth="6750.1.1"}
	6766.1.1 = {add_trait=trained_warrior}
	6809.1.1 = {death="6809.1.1"}
}
103769205 = {
	name="Ellezzara"	# not a lord
	female=yes
	dynasty=69205

	religion="harpy"
	culture="ghiscari"

	father=103369205
	mother=403369205

	6753.1.1 = {birth="6753.1.1"}
	6792.1.1 = {death="6792.1.1"}
}
103869205 = {
	name="Harghaz"	# not a lord
	dynasty=69205

	religion="harpy"
	culture="ghiscari"

	father=103369205
	mother=403369205

	6756.1.1 = {birth="6756.1.1"}
	6772.1.1 = {add_trait=master_warrior}
	6792.1.1 = {death="6792.1.1"}
}
103969205 = {
	name="Maezon"	# not a lord
	dynasty=69205

	religion="harpy"
	culture="ghiscari"

	father=103369205
	mother=403369205

	6758.1.1 = {birth="6758.1.1"}
	6774.1.1 = {add_trait=trained_warrior}
	6811.1.1 = {death="6811.1.1"}
}
