##  House Ramesh
10055960 = {
	name="Danh"	# not a lord
	dynasty=55960

	religion="yiti_gods"
	culture="yi_ti"

	6436.1.1 = {birth="6436.1.1"}
	6452.1.1 = {add_trait=poor_warrior}
	6454.1.1 = {add_spouse=40055960}
	6509.1.1 = {death="6509.1.1"}
}
40055960 = {
	name="Hoa"
	female=yes

	religion="yiti_gods"
	culture="yi_ti"

	6436.1.1 = {birth="6436.1.1"}
	6509.1.1 = {death="6509.1.1"}
}
10155960 = {
	name="Mu"	# not a lord
	female=yes
	dynasty=55960

	religion="yiti_gods"
	culture="yi_ti"

	father=10055960
	mother=40055960

	6462.1.1 = {birth="6462.1.1"}
	6497.1.1 = {death="6497.1.1"}
}
10255960 = {
	name="Vien"	# a lord
	dynasty=55960

	religion="yiti_gods"
	culture="yi_ti"

	father=10055960
	mother=40055960

	6465.1.1 = {birth="6465.1.1"}
	6481.1.1 = {add_trait=poor_warrior}
	6483.1.1 = {add_spouse=40255960}
	6533.1.1 = {death="6533.1.1"}
}
40255960 = {
	name="Zu"
	female=yes

	religion="yiti_gods"
	culture="yi_ti"

	6465.1.1 = {birth="6465.1.1"}
	6533.1.1 = {death="6533.1.1"}
}
10355960 = {
	name="Kim Cuc"	# not a lord
	female=yes
	dynasty=55960

	religion="yiti_gods"
	culture="yi_ti"

	father=10055960
	mother=40055960

	6466.1.1 = {birth="6466.1.1"}
	6521.1.1 = {death="6521.1.1"}
}
10455960 = {
	name="Huan"	# not a lord
	dynasty=55960

	religion="yiti_gods"
	culture="yi_ti"

	father=10255960
	mother=40255960

	6487.1.1 = {birth="6487.1.1"}
	6503.1.1 = {add_trait=poor_warrior}
	6518.1.1 = {death="6518.1.1"}
}
10555960 = {
	name="Xhe"	# a lord
	dynasty=55960

	religion="yiti_gods"
	culture="yi_ti"

	father=10255960
	mother=40255960

	6490.1.1 = {birth="6490.1.1"}
	6506.1.1 = {add_trait=poor_warrior}
	6508.1.1 = {add_spouse=40555960}
	6548.1.1 = {death="6548.1.1"}
}
40555960 = {
	name="Chi"
	female=yes

	religion="yiti_gods"
	culture="yi_ti"

	6490.1.1 = {birth="6490.1.1"}
	6548.1.1 = {death="6548.1.1"}
}
10655960 = {
	name="Truc"	# not a lord
	dynasty=55960

	religion="yiti_gods"
	culture="yi_ti"

	father=10255960
	mother=40255960

	6491.1.1 = {birth="6491.1.1"}
	6507.1.1 = {add_trait=trained_warrior}
	6545.1.1 = {death="6545.1.1"}
}
10755960 = {
	name="Ming"	# not a lord
	female=yes
	dynasty=55960

	religion="yiti_gods"
	culture="yi_ti"

	father=10255960
	mother=40255960

	6492.1.1 = {birth="6492.1.1"}
	6541.1.1 = {death="6541.1.1"}
}
10855960 = {
	name="Xun"	# a lord
	dynasty=55960

	religion="yiti_gods"
	culture="yi_ti"

	father=10555960
	mother=40555960

	6522.1.1 = {birth="6522.1.1"}
	6538.1.1 = {add_trait=poor_warrior}
	6540.1.1 = {add_spouse=40855960}
	6569.1.1 = {death = {death_reason = death_murder}}
}
40855960 = {
	name="Ling"
	female=yes

	religion="yiti_gods"
	culture="yi_ti"

	6522.1.1 = {birth="6522.1.1"}
	6569.1.1 = {death="6569.1.1"}
}
10955960 = {
	name="Mai"	# not a lord
	female=yes
	dynasty=55960

	religion="yiti_gods"
	culture="yi_ti"

	father=10555960
	mother=40555960

	6525.1.1 = {birth="6525.1.1"}
	6570.1.1 = {death="6570.1.1"}
}
11055960 = {
	name="Vinh"	# not a lord
	dynasty=55960

	religion="yiti_gods"
	culture="yi_ti"

	father=10555960
	mother=40555960

	6527.1.1 = {birth="6527.1.1"}
	6543.1.1 = {add_trait=poor_warrior}
	6585.1.1 = {death="6585.1.1"}
}
11155960 = {
	name="Quan"	# a lord
	dynasty=55960

	religion="yiti_gods"
	culture="yi_ti"

	father=10855960
	mother=40855960

	6550.1.1 = {birth="6550.1.1"}
	6566.1.1 = {add_trait=trained_warrior}
	6568.1.1 = {add_spouse=41155960}
	6603.1.1 = {death="6603.1.1"}
}
41155960 = {
	name="Tu"
	female=yes

	religion="yiti_gods"
	culture="yi_ti"

	6550.1.1 = {birth="6550.1.1"}
	6603.1.1 = {death="6603.1.1"}
}
11255960 = {
	name="Sang"	# not a lord
	dynasty=55960

	religion="yiti_gods"
	culture="yi_ti"

	father=10855960
	mother=40855960

	6553.1.1 = {birth="6553.1.1"}
	6569.1.1 = {add_trait=skilled_warrior}
	6604.1.1 = {death="6604.1.1"}
}
11355960 = {
	name="Huan"	# a lord
	dynasty=55960

	religion="yiti_gods"
	culture="yi_ti"

	father=11155960
	mother=41155960

	6572.1.1 = {birth="6572.1.1"}
	6588.1.1 = {add_trait=skilled_warrior}
	6590.1.1 = {add_spouse=41355960}
	6609.1.1 = {death = {death_reason = death_execution}}
}
41355960 = {
	name="Hong"
	female=yes

	religion="yiti_gods"
	culture="yi_ti"

	6572.1.1 = {birth="6572.1.1"}
	6609.1.1 = {death="6609.1.1"}
}
11455960 = {
	name="Ba"	# not a lord
	dynasty=55960

	religion="yiti_gods"
	culture="yi_ti"

	father=11155960
	mother=41155960

	6575.1.1 = {birth="6575.1.1"}
	6591.1.1 = {add_trait=master_warrior}
	6602.1.1 = {death = {death_reason = death_murder}}
}
11555960 = {
	name="Hao"	# not a lord
	dynasty=55960

	religion="yiti_gods"
	culture="yi_ti"

	father=11155960
	mother=41155960

	6576.1.1 = {birth="6576.1.1"}
	6592.1.1 = {add_trait=poor_warrior}
	6631.1.1 = {death="6631.1.1"}
}
11655960 = {
	name="Thi"	# not a lord
	female=yes
	dynasty=55960

	religion="yiti_gods"
	culture="yi_ti"

	father=11355960
	mother=41355960

	6591.1.1 = {birth="6591.1.1"}
	6646.1.1 = {death="6646.1.1"}
}
11755960 = {
	name="Hong"	# not a lord
	female=yes
	dynasty=55960

	religion="yiti_gods"
	culture="yi_ti"

	father=11355960
	mother=41355960

	6592.1.1 = {birth="6592.1.1"}
	6627.1.1 = {death="6627.1.1"}
}
11855960 = {
	name="Chun"	# a lord
	dynasty=55960

	religion="yiti_gods"
	culture="yi_ti"

	father=11355960
	mother=41355960

	6593.1.1 = {birth="6593.1.1"}
	6609.1.1 = {add_trait=poor_warrior}
	6611.1.1 = {add_spouse=41855960}
	6620.1.1 = {death="6620.1.1"}
}
41855960 = {
	name="Cam"
	female=yes

	religion="yiti_gods"
	culture="yi_ti"

	6593.1.1 = {birth="6593.1.1"}
	6620.1.1 = {death="6620.1.1"}
}
11955960 = {
	name="Phong"	# not a lord
	dynasty=55960

	religion="yiti_gods"
	culture="yi_ti"

	father=11355960
	mother=41355960

	6596.1.1 = {birth="6596.1.1"}
	6612.1.1 = {add_trait=poor_warrior}
	6653.1.1 = {death="6653.1.1"}
}
12055960 = {
	name="Dai"	# a lord
	dynasty=55960

	religion="yiti_gods"
	culture="yi_ti"

	father=11855960
	mother=41855960

	6612.1.1 = {birth="6612.1.1"}
	6628.1.1 = {add_trait=poor_warrior}
	6630.1.1 = {add_spouse=42055960}
	6660.1.1 = {death="6660.1.1"}
}
42055960 = {
	name="Shi"
	female=yes

	religion="yiti_gods"
	culture="yi_ti"

	6612.1.1 = {birth="6612.1.1"}
	6660.1.1 = {death="6660.1.1"}
}
12155960 = {
	name="Chi"	# not a lord
	female=yes
	dynasty=55960

	religion="yiti_gods"
	culture="yi_ti"

	father=12055960
	mother=42055960

	6633.1.1 = {birth="6633.1.1"}
	6710.1.1 = {death="6710.1.1"}
}
12255960 = {
	name="Hai"	# a lord
	dynasty=55960

	religion="yiti_gods"
	culture="yi_ti"

	father=12055960
	mother=42055960

	6635.1.1 = {birth="6635.1.1"}
	6651.1.1 = {add_trait=skilled_warrior}
	6653.1.1 = {add_spouse=42255960}
	6713.1.1 = {death="6713.1.1"}
}
42255960 = {
	name="Chau"
	female=yes

	religion="yiti_gods"
	culture="yi_ti"

	6635.1.1 = {birth="6635.1.1"}
	6713.1.1 = {death="6713.1.1"}
}
12355960 = {
	name="Chinh"	# not a lord
	dynasty=55960

	religion="yiti_gods"
	culture="yi_ti"

	father=12055960
	mother=42055960

	6637.1.1 = {birth="6637.1.1"}
	6653.1.1 = {add_trait=poor_warrior}
	6710.1.1 = {death="6710.1.1"}
}
12455960 = {
	name="Quy"	# not a lord
	dynasty=55960

	religion="yiti_gods"
	culture="yi_ti"

	father=12055960
	mother=42055960

	6638.1.1 = {birth="6638.1.1"}
	6654.1.1 = {add_trait=skilled_warrior}
	6676.1.1 = {death="6676.1.1"}
}
12555960 = {
	name="Qi"	# not a lord
	female=yes
	dynasty=55960

	religion="yiti_gods"
	culture="yi_ti"

	father=12255960
	mother=42255960

	6656.1.1 = {birth="6656.1.1"}
	6717.1.1 = {death="6717.1.1"}
}
12655960 = {
	name="Shi"	# not a lord
	female=yes
	dynasty=55960

	religion="yiti_gods"
	culture="yi_ti"

	father=12255960
	mother=42255960

	6659.1.1 = {birth="6659.1.1"}
	6738.1.1 = {death="6738.1.1"}
}
12755960 = {
	name="Zuang"	# a lord
	dynasty=55960

	religion="yiti_gods"
	culture="yi_ti"

	father=12255960
	mother=42255960

	6662.1.1 = {birth="6662.1.1"}
	6678.1.1 = {add_trait=trained_warrior}
	6680.1.1 = {add_spouse=42755960}
	6716.1.1 = {death="6716.1.1"}
}
42755960 = {
	name="Thi"
	female=yes

	religion="yiti_gods"
	culture="yi_ti"

	6662.1.1 = {birth="6662.1.1"}
	6716.1.1 = {death="6716.1.1"}
}
12855960 = {
	name="Ngon"	# not a lord
	female=yes
	dynasty=55960

	religion="yiti_gods"
	culture="yi_ti"

	father=12255960
	mother=42255960

	6664.1.1 = {birth="6664.1.1"}
	6709.1.1 = {death="6709.1.1"}
}
12955960 = {
	name="Trai"	# a lord
	dynasty=55960

	religion="yiti_gods"
	culture="yi_ti"

	father=12755960
	mother=42755960

	6681.1.1 = {birth="6681.1.1"}
	6697.1.1 = {add_trait=trained_warrior}
	6699.1.1 = {add_spouse=42955960}
	6740.1.1 = {death="6740.1.1"}
}
42955960 = {
	name="Xiu"
	female=yes

	religion="yiti_gods"
	culture="yi_ti"

	6681.1.1 = {birth="6681.1.1"}
	6740.1.1 = {death="6740.1.1"}
}
13055960 = {
	name="Huan"	# not a lord
	dynasty=55960

	religion="yiti_gods"
	culture="yi_ti"

	father=12755960
	mother=42755960

	6682.1.1 = {birth="6682.1.1"}
	6698.1.1 = {add_trait=poor_warrior}
	6742.1.1 = {death="6742.1.1"}
}
13155960 = {
	name="Zu"	# not a lord
	female=yes
	dynasty=55960

	religion="yiti_gods"
	culture="yi_ti"

	father=12755960
	mother=42755960

	6684.1.1 = {birth="6684.1.1"}
	6728.1.1 = {death="6728.1.1"}
}
13255960 = {
	name="Hai"	# not a lord
	dynasty=55960

	religion="yiti_gods"
	culture="yi_ti"

	father=12755960
	mother=42755960

	6685.1.1 = {birth="6685.1.1"}
	6701.1.1 = {add_trait=poor_warrior}
	6727.1.1 = {death = {death_reason = death_accident}}
}
13355960 = {
	name="Bai"	# a lord
	dynasty=55960

	religion="yiti_gods"
	culture="yi_ti"

	father=12955960
	mother=42955960

	6700.1.1 = {birth="6700.1.1"}
	6716.1.1 = {add_trait=poor_warrior}
	6764.1.1 = {death = {death_reason = death_accident}}
}
13455960 = {
	name="Ling"	# not a lord
	female=yes
	dynasty=55960

	religion="yiti_gods"
	culture="yi_ti"

	father=12955960
	mother=42955960

	6702.1.1 = {birth="6702.1.1"}
	6756.1.1 = {death="6756.1.1"}
}
13555960 = {
	name="Chien"	# not a lord
	dynasty=55960

	religion="yiti_gods"
	culture="yi_ti"

	father=12955960
	mother=42955960

	6703.1.1 = {birth="6703.1.1"}
	6719.1.1 = {add_trait=skilled_warrior}
	6735.1.1 = {death="6735.1.1"}
}
13655960 = {
	name="Bu"	# a lord
	dynasty=55960

	religion="yiti_gods"
	culture="yi_ti"

	father=12955960
	mother=42955960

	6705.1.1 = {birth="6705.1.1"}
	6721.1.1 = {add_trait=trained_warrior}
	6723.1.1 = {add_spouse=43655960}
	6755.1.1 = {death="6755.1.1"}
}
43655960 = {
	name="Hong"
	female=yes

	religion="yiti_gods"
	culture="yi_ti"

	6705.1.1 = {birth="6705.1.1"}
	6755.1.1 = {death="6755.1.1"}
}
13755960 = {
	name="Bao"	# a lord
	dynasty=55960

	religion="yiti_gods"
	culture="yi_ti"

	father=13655960
	mother=43655960

	6732.1.1 = {birth="6732.1.1"}
	6748.1.1 = {add_trait=skilled_warrior}
	6750.1.1 = {add_spouse=43755960}
}
43755960 = {
	name="Nguyet"
	female=yes

	religion="yiti_gods"
	culture="yi_ti"

	6732.1.1 = {birth="6732.1.1"}
}
13855960 = {
	name="Minh"	# not a lord
	dynasty=55960

	religion="yiti_gods"
	culture="yi_ti"

	father=13655960
	mother=43655960

	6733.1.1 = {birth="6733.1.1"}
	6749.1.1 = {add_trait=poor_warrior}
}
13955960 = {
	name="Cho"	# a lord
	dynasty=55960

	religion="yiti_gods"
	culture="yi_ti"

	father=13755960
	mother=43755960

	6753.1.1 = {birth="6753.1.1"}
	6769.1.1 = {add_trait=trained_warrior}
}


####  House Alhazred - Empresses of Leng
15055963 = {
	name="Khiara"	# The great
	female=yes
	dynasty=55963
	
	martial = 5
	diplomacy = 8
	stewardship = 8
	intrigue = 7
	learning = 6

	religion="yiti_gods"
	culture="lengi"
	
	add_trait = fair
	add_trait = tall
	add_trait = grey_eminence
	add_trait = just
	add_trait = humble
	add_trait = diligent
	
	6353.1.1 = {birth="6353.1.1"}
	6380.1.1 = {add_matrilineal_spouse=45055963}
	6398.1.1 = {give_nickname = nick_the_great}
	6419.1.1 = {death="6419.1.1"}
}
45055963 = {
	name="Gang"

	religion="yiti_gods"
	culture="yi_ti"

	6353.1.1 = {birth="6353.1.1"}
	6369.1.1 = {add_trait=trained_warrior}
	6419.1.1 = {death="6419.1.1"}
}
15155963 = {
	name="Turua"	# a lord
	female=yes
	dynasty=55963

	religion="yiti_gods"
	culture="lengi"
	
	mother=15055963
	father=45055963

	6383.1.1 = {birth="6383.1.1"}
	6404.1.1 = {add_matrilineal_spouse=45155963}
	6440.1.1 = {death="6440.1.1"}
}
45155963 = {
	name="Chinh"

	religion="yiti_gods"
	culture="yi_ti"

	6383.1.1 = {birth="6383.1.1"}
	6399.1.1 = {add_trait=trained_warrior}
	6440.1.1 = {death="6440.1.1"}
}
15255963 = {
	name="Lavinia"	# a lord
	female=yes
	dynasty=55963

	religion="yiti_gods"
	culture="lengi"
	
	mother=15155963
	father=45155963
	
	add_trait = tall

	6409.1.1 = {birth="6409.1.1"}
	6429.1.1 = {add_matrilineal_spouse=45255963}
	6473.1.1 = {death="6473.1.1"}
}
45255963 = {
	name="Van"

	religion="yiti_gods"
	culture="yi_ti"

	6409.1.1 = {birth="6409.1.1"}
	6425.1.1 = {add_trait=trained_warrior}
	6473.1.1 = {death="6473.1.1"}
}
10055963 = {
	name="Kassogtha"	# a lord
	female=yes
	dynasty=55963

	religion="yiti_gods"
	culture="lengi"
	
	mother=15255963
	father=45255963
	
	add_trait = tall

	6443.1.1 = {birth="6443.1.1"}
	6461.1.1 = {add_matrilineal_spouse=40055963}
	6509.1.1 = {death="6509.1.1"}
}
40055963 = {
	name="Tu"

	religion="yiti_gods"
	culture="yi_ti"

	6443.1.1 = {birth="6443.1.1"}
	6459.1.1 = {add_trait=poor_warrior}
	6509.1.1 = {death="6509.1.1"}
}
10155963 = {
	name="Gzxtyos"	# not a lord
	female=yes
	dynasty=55963

	religion="yiti_gods"
	culture="lengi"

	mother=10055963
	father=40055963
	
	add_trait = tall

	6467.1.1 = {birth="6467.1.1"}
	6510.1.1 = {death="6510.1.1"}
}
10255963 = {
	name="Khiara"	# a lord
	female=yes
	dynasty=55963

	religion="yiti_gods"
	culture="lengi"

	mother=10055963
	father=40055963

	6469.1.1 = {birth="6469.1.1"}
	6487.1.1 = {add_matrilineal_spouse=40255963}
	6517.1.1 = {death="6517.1.1"}
}
40255963 = {
	name="Truc"

	religion="yiti_gods"
	culture="yi_ti"

	6469.1.1 = {birth="6469.1.1"}
	6485.1.1 = {add_trait=poor_warrior}
	6517.1.1 = {death="6517.1.1"}
}
10355963 = {
	name="Gleetha"	# not a lord
	female=yes
	dynasty=55963

	religion="yiti_gods"
	culture="lengi"

	mother=10055963
	father=40055963

	6471.1.1 = {birth="6471.1.1"}
	6506.1.1 = {death="6506.1.1"}
}
10455963 = {
	name="Voltiyiga"	# not a lord
	female=yes
	dynasty=55963

	religion="yiti_gods"
	culture="lengi"

	mother=10255963
	father=40255963
	
	add_trait = tall

	6490.1.1 = {birth="6490.1.1"}
	6526.1.1 = {death="6526.1.1"}
}
10555963 = {
	name="Abigail"	# not a lord
	female=yes
	dynasty=55963

	religion="yiti_gods"
	culture="lengi"

	mother=10255963
	father=40255963

	6491.1.1 = {birth="6491.1.1"}
	6541.1.1 = {death="6541.1.1"}
}
10655963 = {
	name="Dzewa"	# a lord
	female=yes
	dynasty=55963

	religion="yiti_gods"
	culture="lengi"

	mother=10255963
	father=40255963
	
	add_trait = tall

	6494.1.1 = {birth="6494.1.1"}
	6512.1.1 = {add_matrilineal_spouse=40655963}
	6553.1.1 = {death="6553.1.1"}
}
40655963 = {
	name="Hai"

	religion="yiti_gods"
	culture="yi_ti"

	6494.1.1 = {birth="6494.1.1"}
	6510.1.1 = {add_trait=poor_warrior}
	6553.1.1 = {death="6553.1.1"}
}
10755963 = {
	name="Lavinia"
	female=yes
	dynasty=55963

	religion="yiti_gods"
	culture="lengi"

	mother=10655963
	father=40655963

	6518.1.1 = {birth="6518.1.1"}
	6534.1.1 = {add_trait=poor_warrior}
	6536.1.1 = {add_spouse=40755963}
	6574.1.1 = {death = {death_reason = death_murder}}
}
40755963 = {
	name="Sang"	# a lord

	religion="yiti_gods"
	culture="yi_ti"

	6518.1.1 = {birth="6518.1.1"}
	6574.1.1 = {death="6574.1.1"}
}
10855963 = {
	name="Cthylla"	# a lord
	female=yes
	dynasty=55963

	religion="yiti_gods"
	culture="lengi"

	mother=10755963
	father=40755963

	6550.1.1 = {birth="6550.1.1"}
	6568.1.1 = {add_matrilineal_spouse=40855963}
	6604.1.1 = {death = {death_reason = death_murder}}
}
40855963 = {
	name="Duc"

	religion="yiti_gods"
	culture="yi_ti"

	6550.1.1 = {birth="6550.1.1"}
	6566.1.1 = {add_trait=poor_warrior}
	6604.1.1 = {death="6604.1.1"}
}
10955963 = {
	name="Ei'lor"	# not a lord
	dynasty=55963

	religion="yiti_gods"
	culture="lengi"

	mother=10755963
	father=40755963

	6551.1.1 = {birth="6551.1.1"}
	6567.1.1 = {add_trait=poor_warrior}
	6610.1.1 = {death="6610.1.1"}
}
11055963 = {
	name="Obed"	# not a lord
	dynasty=55963

	religion="yiti_gods"
	culture="lengi"

	mother=10755963
	father=40755963

	6553.1.1 = {birth="6553.1.1"}
	6569.1.1 = {add_trait=poor_warrior}
	6605.1.1 = {death="6605.1.1"}
}
11155963 = {
	name="Mynoghra"	# not a lord
	female=yes
	dynasty=55963

	religion="yiti_gods"
	culture="lengi"

	mother=10855963
	father=40855963
	
	add_trait = tall

	6568.1.1 = {birth="6568.1.1"}
	6601.1.1 = {death="6601.1.1"}
}
11255963 = {
	name="Khiara"	# a lord
	female=yes
	dynasty=55963

	religion="yiti_gods"
	culture="lengi"

	mother=10855963
	father=40855963
	
	add_trait = tall

	6570.1.1 = {birth="6570.1.1"}
	6588.1.1 = {add_matrilineal_spouse=41255963}
	6625.1.1 = {death="6625.1.1"}
}
41255963 = {
	name="Bo"

	religion="yiti_gods"
	culture="yi_ti"

	6570.1.1 = {birth="6570.1.1"}
	6586.1.1 = {add_trait=poor_warrior}
	6625.1.1 = {death="6625.1.1"}
}
11355963 = {
	name="Zanthu"	# not a lord
	dynasty=55963

	religion="yiti_gods"
	culture="lengi"

	mother=10855963
	father=40855963
	
	add_trait = tall

	6572.1.1 = {birth="6572.1.1"}
	6588.1.1 = {add_trait=skilled_warrior}
	6642.1.1 = {death="6642.1.1"}
}
11455963 = {
	name="Dhumin"	# not a lord
	dynasty=55963

	religion="yiti_gods"
	culture="lengi"

	mother=10855963
	father=40855963

	6573.1.1 = {birth="6573.1.1"}
	6589.1.1 = {add_trait=poor_warrior}
	6626.1.1 = {death="6626.1.1"}
}
11555963 = {
	name="Byatis"	# not a lord
	dynasty=55963

	religion="yiti_gods"
	culture="lengi"

	mother=11255963
	father=41255963

	6591.1.1 = {birth="6591.1.1"}
	6607.1.1 = {add_trait=poor_warrior}
	6625.1.1 = {death = {death_reason = death_murder}}
}
11655963 = {
	name="Zanthu"	# a lord
	female=yes
	dynasty=55963

	religion="yiti_gods"
	culture="lengi"

	mother=11255963
	father=41255963
	
	add_trait = tall

	6592.1.1 = {birth="6592.1.1"}
	6610.1.1 = {add_matrilineal_spouse=41655963}
	6655.1.1 = {death="6655.1.1"}
}
41655963 = {
	name="Trang"

	religion="yiti_gods"
	culture="yi_ti"

	6592.1.1 = {birth="6592.1.1"}
	6608.1.1 = {add_trait=poor_warrior}
	6655.1.1 = {death="6655.1.1"}
}
11755963 = {
	name="Exior"	# not a lord
	dynasty=55963

	religion="yiti_gods"
	culture="lengi"

	mother=11255963
	father=41255963

	6593.1.1 = {birth="6593.1.1"}
	6609.1.1 = {add_trait=trained_warrior}
	6640.1.1 = {death="6640.1.1"}
}
11855963 = {
	name="Turua"	# a lord
	female=yes
	dynasty=55963

	religion="yiti_gods"
	culture="lengi"

	mother=11655963
	father=41655963
	
	add_trait = tall

	6621.1.1 = {birth="6621.1.1"}
	6639.1.1 = {add_matrilineal_spouse=41855963}
	6675.1.1 = {death="6675.1.1"}
}
41855963 = {
	name="Sang"

	religion="yiti_gods"
	culture="yi_ti"

	6621.1.1 = {birth="6621.1.1"}
	6637.1.1 = {add_trait=poor_warrior}
	6675.1.1 = {death="6675.1.1"}
}
11955963 = {
	name="Quyagen"	# not a lord
	dynasty=55963

	religion="yiti_gods"
	culture="lengi"

	mother=11655963
	father=41655963
	
	add_trait = tall

	6624.1.1 = {birth="6624.1.1"}
	6640.1.1 = {add_trait=poor_warrior}
	6645.1.1 = {death="6645.1.1"}
}
12055963 = {
	name="Thanaroa"	# a lord
	female=yes
	dynasty=55963

	religion="yiti_gods"
	culture="lengi"

	mother=11855963
	father=41855963

	6648.1.1 = {birth="6648.1.1"}
	6666.1.1 = {add_matrilineal_spouse=42055963}
	6699.1.1 = {death="6699.1.1"}
}
42055963 = {
	name="Zong"

	religion="yiti_gods"
	culture="yi_ti"

	6648.1.1 = {birth="6648.1.1"}
	6664.1.1 = {add_trait=poor_warrior}
	6699.1.1 = {death="6699.1.1"}
}
12155963 = {
	name="Ruhtra"	# not a lord
	dynasty=55963

	religion="yiti_gods"
	culture="lengi"

	mother=11855963
	father=41855963

	6650.1.1 = {birth="6650.1.1"}
	6666.1.1 = {add_trait=poor_warrior}
	6702.1.1 = {death="6702.1.1"}
}
12255963 = {
	name="Dygra"	# a lord
	female=yes
	dynasty=55963

	religion="yiti_gods"
	culture="lengi"

	mother=12055963
	father=42055963

	6682.1.1 = {birth="6682.1.1"}
	6700.1.1 = {add_matrilineal_spouse=42255963}
	6743.1.1 = {death="6743.1.1"}
}
42255963 = {
	name="Han"

	religion="yiti_gods"
	culture="yi_ti"

	6682.1.1 = {birth="6682.1.1"}
	6698.1.1 = {add_trait=poor_warrior}
	6743.1.1 = {death="6743.1.1"}
}
12355963 = {
	name="Istasha"	# not a lord
	female=yes
	dynasty=55963

	religion="yiti_gods"
	culture="lengi"

	mother=12055963
	father=42055963
	
	add_trait = tall

	6684.1.1 = {birth="6684.1.1"}
	6758.1.1 = {death="6758.1.1"}
}
12455963 = {
	name="Lavinia"	# not a lord
	female=yes
	dynasty=55963

	religion="yiti_gods"
	culture="lengi"

	mother=12255963
	father=42255963
	
	add_trait = tall

	6713.1.1 = {birth="6713.1.1"}
	6760.1.1 = {death="6760.1.1"}
}
12555963 = {
	name="Inpesca"	# a lord
	female=yes
	dynasty=55963

	religion="yiti_gods"
	culture="lengi"

	mother=12255963
	father=42255963
	
	add_trait = tall

	6715.1.1 = {birth="6715.1.1"}
	6733.1.1 = {add_matrilineal_spouse=42555963}
}
42555963 = {
	name="Truc"

	religion="yiti_gods"
	culture="yi_ti"

	6715.1.1 = {birth="6715.1.1"}
	6731.1.1 = {add_trait=poor_warrior}
}
12655963 = {
	name="Khiara"	# not a lord
	female=yes
	dynasty=55963

	religion="yiti_gods"
	culture="lengi"

	mother=12255963
	father=42255963

	6716.1.1 = {birth="6716.1.1"}
}
12755963 = {
	name="Ragnalla"	# not a lord
	female=yes
	dynasty=55963

	religion="yiti_gods"
	culture="lengi"

	mother=12255963
	father=42255963
	
	add_trait = tall

	6719.1.1 = {birth="6719.1.1"}
}
12855963 = {
	name="Xotli"	# not a lord
	female=yes
	dynasty=55963

	religion="yiti_gods"
	culture="lengi"

	mother=12555963
	father=42555963

	6739.1.1 = {birth="6739.1.1"}
	6774.1.1 = {death="6774.1.1"}
}
42855963 = {
	name="Trai"

	religion="yiti_gods"
	culture="yi_ti"

	6739.1.1 = {birth="6739.1.1"}
	6755.1.1 = {add_trait=poor_warrior}
	6757.1.1 = {add_matrilineal_spouse=12855963}
	6774.1.1 = {death="6774.1.1"}
}
12955963 = {
	name="Saa'itii"	# not a lord
	female=yes
	dynasty=55963

	religion="yiti_gods"
	culture="lengi"

	mother=12555963
	father=42555963
	
	add_trait = tall

	6740.1.1 = {birth="6740.1.1"}
	6775.1.1 = {death="6775.1.1"}
}
13055963 = {
	name="Xirdneth"	# not a lord
	dynasty=55963

	religion="yiti_gods"
	culture="lengi"

	mother=12555963
	father=42555963

	6741.1.1 = {birth="6741.1.1"}
	6757.1.1 = {add_trait=poor_warrior}
}
13155963 = {
	name="Khiara"	# not a lord
	female=yes
	dynasty=55963

	religion="yiti_gods"
	culture="lengi"

	father=42855963
	mother=12855963
	
	add_trait = tall

	6761.1.1 = {birth="6761.1.1"}
}


###  House Chandesh
100055962 = {
	name="Yusuf"	# a lord
	dynasty=55962

	religion="yiti_gods"
	culture="lengi"
	
	add_trait=tall

	6431.1.1 = {birth="6431.1.1"}
	6447.1.1 = {add_trait=poor_warrior}
	6449.1.1 = {add_spouse=400055962}
	6516.1.1 = {death="6516.1.1"}
}
400055962 = {
	name="Paymaneh"
	female=yes

	religion="yiti_gods"
	culture="lengi"
	
	add_trait=tall

	6431.1.1 = {birth="6431.1.1"}
	6516.1.1 = {death="6516.1.1"}
}
100155962 = {
	name="Mirza"	# a lord
	dynasty=55962

	religion="yiti_gods"
	culture="lengi"

	father=100055962
	mother=400055962
	
	add_trait=tall

	6456.1.1 = {birth="6456.1.1"}
	6472.1.1 = {add_trait=poor_warrior}
	6474.1.1 = {add_spouse=400155962}
	6531.1.1 = {death="6531.1.1"}
}
400155962 = {
	name="Nyawela"
	female=yes

	religion="yiti_gods"
	culture="lengi"
	
	add_trait=tall

	6456.1.1 = {birth="6456.1.1"}
	6531.1.1 = {death="6531.1.1"}
}
100255962 = {
	name="Azam"	# not a lord
	dynasty=55962

	religion="yiti_gods"
	culture="lengi"
	
	add_trait=tall

	father=100055962
	mother=400055962

	6457.1.1 = {birth="6457.1.1"}
	6473.1.1 = {add_trait=skilled_warrior}
	6516.1.1 = {death="6516.1.1"}
}
100355962 = {
	name="Hussayn"	# not a lord
	dynasty=55962

	religion="yiti_gods"
	culture="lengi"
	
	add_trait=tall

	father=100055962
	mother=400055962

	6459.1.1 = {birth="6459.1.1"}
	6474.1.1 = {add_trait=trained_warrior}
	6484.1.1 = {death="6484.1.1"}
}
100455962 = {
	name="Paywand"	# not a lord
	female=yes
	dynasty=55962

	religion="yiti_gods"
	culture="lengi"
	
	add_trait=tall

	father=100055962
	mother=400055962

	6461.1.1 = {birth="6461.1.1"}
	6507.1.1 = {death="6507.1.1"}
}
100555962 = {
	name="Sajida"	# not a lord
	female=yes
	dynasty=55962

	religion="yiti_gods"
	culture="lengi"
	
	add_trait=tall

	father=100055962
	mother=400055962

	6462.1.1 = {birth="6462.1.1"}
	6516.1.1 = {death="6516.1.1"}
}
100655962 = {
	name="Mukhtar"	# a lord
	dynasty=55962

	religion="yiti_gods"
	culture="lengi"
	
	add_trait=tall

	father=100155962
	mother=400155962

	6490.1.1 = {birth="6490.1.1"}
	6506.1.1 = {add_trait=trained_warrior}
	6508.1.1 = {add_spouse=400655962}
	6554.1.1 = {death="6554.1.1"}
}
400655962 = {
	name="Zaynab"
	female=yes

	religion="yiti_gods"
	culture="lengi"
	
	add_trait=tall

	6490.1.1 = {birth="6490.1.1"}
	6554.1.1 = {death="6554.1.1"}
}
100755962 = {
	name="Uways"	# not a lord
	dynasty=55962

	religion="yiti_gods"
	culture="lengi"

	father=100155962
	mother=400155962

	6492.1.1 = {birth="6492.1.1"}
	6508.1.1 = {add_trait=trained_warrior}
	6570.1.1 = {death="6570.1.1"}
}
100855962 = {
	name="Saaman"	# not a lord
	female=yes
	dynasty=55962

	religion="yiti_gods"
	culture="lengi"
	
	add_trait=tall

	father=100655962
	mother=400655962

	6523.1.1 = {birth="6523.1.1"}
	6570.1.1 = {death="6570.1.1"}
}
100955962 = {
	name="Husam"	# a lord
	dynasty=55962

	religion="yiti_gods"
	culture="lengi"
	
	add_trait=tall

	father=100655962
	mother=400655962

	6525.1.1 = {birth="6525.1.1"}
	6541.1.1 = {add_trait=skilled_warrior}
	6543.1.1 = {add_spouse=400955962}
	6595.1.1 = {death = {death_reason = death_accident}}
}
400955962 = {
	name="Sheeftah"
	female=yes

	religion="yiti_gods"
	culture="lengi"
	
	add_trait=tall

	6525.1.1 = {birth="6525.1.1"}
	6595.1.1 = {death="6595.1.1"}
}
101055962 = {
	name="Tanaz"	# not a lord
	female=yes
	dynasty=55962

	religion="yiti_gods"
	culture="lengi"

	father=100955962
	mother=400955962

	6547.1.1 = {birth="6547.1.1"}
	6598.1.1 = {death="6598.1.1"}
}
101155962 = {
	name="Mubarak"	# not a lord
	dynasty=55962

	religion="yiti_gods"
	culture="lengi"

	father=100955962
	mother=400955962

	6550.1.1 = {birth="6550.1.1"}
	6566.1.1 = {add_trait=trained_warrior}
	6586.1.1 = {death="6586.1.1"}
}
101255962 = {
	name="Yusuf"	# a lord
	dynasty=55962

	religion="yiti_gods"
	culture="lengi"

	father=100955962
	mother=400955962
	
	add_trait=tall

	6551.1.1 = {birth="6551.1.1"}
	6567.1.1 = {add_trait=poor_warrior}
	6569.1.1 = {add_spouse=401255962}
	6596.1.1 = {death="6596.1.1"}
}
401255962 = {
	name="Sabba"
	female=yes

	religion="yiti_gods"
	culture="lengi"
	
	add_trait=tall

	6551.1.1 = {birth="6551.1.1"}
	6596.1.1 = {death="6596.1.1"}
}
101355962 = {
	name="Youkhanna"	# a lord
	dynasty=55962

	religion="yiti_gods"
	culture="lengi"

	father=101255962
	mother=401255962
	
	add_trait=tall

	6575.1.1 = {birth="6575.1.1"}
	6591.1.1 = {add_trait=poor_warrior}
	6593.1.1 = {add_spouse=401355962}
	6645.1.1 = {death="6645.1.1"}
}
401355962 = {
	name="Shogofa"
	female=yes

	religion="yiti_gods"
	culture="lengi"
	
	add_trait=tall

	6575.1.1 = {birth="6575.1.1"}
	6645.1.1 = {death="6645.1.1"}
}
101455962 = {
	name="Rasa"	# not a lord
	female=yes
	dynasty=55962

	religion="yiti_gods"
	culture="lengi"

	father=101255962
	mother=401255962
	
	add_trait=tall

	6578.1.1 = {birth="6578.1.1"}
	6609.1.1 = {death="6609.1.1"}
}
101555962 = {
	name="Najib"	# a lord
	dynasty=55962

	religion="yiti_gods"
	culture="lengi"

	father=101355962
	mother=401355962
	
	add_trait=tall

	6599.1.1 = {birth="6599.1.1"}
	6615.1.1 = {add_trait=poor_warrior}
	6617.1.1 = {add_spouse=401555962}
	6655.1.1 = {death="6655.1.1"}
}
401555962 = {
	name="Saghar"
	female=yes

	religion="yiti_gods"
	culture="lengi"
	
	add_trait=tall

	6599.1.1 = {birth="6599.1.1"}
	6655.1.1 = {death="6655.1.1"}
}
101655962 = {
	name="Adila"	# not a lord
	female=yes
	dynasty=55962

	religion="yiti_gods"
	culture="lengi"

	father=101355962
	mother=401355962

	6601.1.1 = {birth="6601.1.1"}
	6630.1.1 = {death = {death_reason = death_accident}}
}
101755962 = {
	name="Fadl"	# not a lord
	dynasty=55962

	religion="yiti_gods"
	culture="lengi"

	father=101355962
	mother=401355962
	
	add_trait=tall

	6603.1.1 = {birth="6603.1.1"}
	6619.1.1 = {add_trait=poor_warrior}
	6645.1.1 = {death="6645.1.1"}
}
101855962 = {
	name="Uways"	# a lord
	dynasty=55962

	religion="yiti_gods"
	culture="lengi"

	father=101555962
	mother=401555962
	
	add_trait=tall

	6622.1.1 = {birth="6622.1.1"}
	6638.1.1 = {add_trait=trained_warrior}
	6640.1.1 = {add_spouse=401855962}
	6657.1.1 = {death="6657.1.1"}
}
401855962 = {
	name="Faghira"
	female=yes

	religion="yiti_gods"
	culture="lengi"

	6622.1.1 = {
		birth="6622.1.1"
		effect = { set_character_flag = no_tallness }
	}
	6668.1.1 = {death="6668.1.1"}
}
101955962 = {
	name="Halil"	# not a lord
	dynasty=55962

	religion="yiti_gods"
	culture="lengi"

	father=101555962
	mother=401555962
	
	add_trait=tall

	6623.1.1 = {birth="6623.1.1"}
	6639.1.1 = {add_trait=trained_warrior}
	6679.1.1 = {death="6679.1.1"}
}
102055962 = {
	name="Jahaira"	# not a lord
	female=yes
	dynasty=55962

	religion="yiti_gods"
	culture="lengi"

	father=101555962
	mother=401555962
	
	add_trait=tall

	6626.1.1 = {birth="6626.1.1"}
	6686.1.1 = {death="6686.1.1"}
}
102155962 = {
	name="Uways"	# a lord
	dynasty=55962

	religion="yiti_gods"
	culture="lengi"

	father=101855962
	mother=401855962

	6642.1.1 = {birth="6642.1.1"}
	6658.1.1 = {add_trait=poor_warrior}
	6673.1.1 = {add_spouse=402155962}
	6700.1.1 = {death = {death_reason = death_accident}}
}
402155962 = {
	name="Semeah"
	female=yes

	religion="yiti_gods"
	culture="lengi"
	
	add_trait=tall

	6655.1.1 = {birth="6655.1.1"}
	6700.1.1 = {death="6700.1.1"}
}
102255962 = {
	name="Muzaffaraddin"	# not a lord
	dynasty=55962

	religion="yiti_gods"
	culture="lengi"

	father=101855962
	mother=401855962
	
	add_trait=tall

	6647.1.1 = {birth="6647.1.1"}
	6663.1.1 = {add_trait=skilled_warrior}
	6712.1.1 = {death="6712.1.1"}
}
102355962 = {
	name="Uways"	# not a lord
	dynasty=55962

	religion="yiti_gods"
	culture="lengi"

	father=101855962
	mother=401855962
	
	add_trait=tall

	6650.1.1 = {birth="6650.1.1"}
	6666.1.1 = {add_trait=trained_warrior}
	6706.1.1 = {death="6706.1.1"}
}
102455962 = {
	name="Sami"	# a lord
	dynasty=55962

	religion="yiti_gods"
	culture="lengi"

	father=102155962
	mother=402155962
	
	add_trait=tall

	6684.1.1 = {birth="6684.1.1"}
	6700.1.1 = {add_trait=skilled_warrior}
	6702.1.1 = {add_spouse=402455962}
	6754.1.1 = {death="6754.1.1"}
}
402455962 = {
	name="Sajida"
	female=yes

	religion="yiti_gods"
	culture="lengi"
	
	add_trait=tall

	6684.1.1 = {birth="6684.1.1"}
	6754.1.1 = {death="6754.1.1"}
}
102555962 = {
	name="Shokouh"	# not a lord
	female=yes
	dynasty=55962

	religion="yiti_gods"
	culture="lengi"

	father=102155962
	mother=402155962
	
	add_trait=tall

	6686.1.1 = {birth="6686.1.1"}
	6718.1.1 = {death="6718.1.1"}
}
102655962 = {
	name="Rashida"	# not a lord
	female=yes
	dynasty=55962

	religion="yiti_gods"
	culture="lengi"

	father=102155962
	mother=402155962
	
	add_trait=tall

	6687.1.1 = {birth="6687.1.1"}
	6737.1.1 = {death="6737.1.1"}
}
102755962 = {
	name="Shamir"	# not a lord
	dynasty=55962

	religion="yiti_gods"
	culture="lengi"

	father=102155962
	mother=402155962

	6690.1.1 = {birth="6690.1.1"}
	6706.1.1 = {add_trait=trained_warrior}
	6733.1.1 = {death="6733.1.1"}
}
102855962 = {
	name="Kamala"	# not a lord
	female=yes
	dynasty=55962

	religion="yiti_gods"
	culture="lengi"

	father=102455962
	mother=402455962
	
	add_trait=tall

	6719.1.1 = {birth="6719.1.1"}
	6754.1.1 = {death="6754.1.1"}
}
102955962 = {
	name="Alim"	# a lord
	dynasty=55962

	religion="yiti_gods"
	culture="lengi"

	father=102455962
	mother=402455962
	
	add_trait=tall

	6720.1.1 = {birth="6720.1.1"}
	6736.1.1 = {add_trait=skilled_warrior}
	6738.1.1 = {add_spouse=402955962}
	6766.1.1 = {death="6766.1.1"}
}
402955962 = {
	name="Shararah"
	female=yes

	religion="yiti_gods"
	culture="lengi"

	6720.1.1 = {
		birth="6720.1.1"
		effect = { set_character_flag = no_tallness }
	}
	6766.1.1 = {death="6766.1.1"}
}
103055962 = {
	name="Bakr"	# not a lord
	dynasty=55962

	religion="yiti_gods"
	culture="lengi"

	father=102455962
	mother=402455962
	
	add_trait=tall

	6721.1.1 = {birth="6721.1.1"}
	6737.1.1 = {add_trait=poor_warrior}
	6769.1.1 = {death="6769.1.1"}
}
103155962 = {
	name="Shokouh"	# not a lord
	female=yes
	dynasty=55962

	religion="yiti_gods"
	culture="lengi"

	father=102955962
	mother=402955962
	
	add_trait=tall

	6743.1.1 = {birth="6743.1.1"}
	6789.1.1 = {death="6789.1.1"}
}
103255962 = {
	name="Jaleel"	# a lord
	dynasty=55962

	religion="yiti_gods"
	culture="lengi"

	father=102955962
	mother=402955962
	
	add_trait=tall

	6746.1.1 = {birth="6746.1.1"}
	6762.1.1 = {add_trait=poor_warrior}
	6764.1.1 = {add_spouse=403255962}
}
403255962 = {
	name="Taneen"
	female=yes

	religion="yiti_gods"
	culture="lengi"
	
	add_trait=tall

	6746.1.1 = {birth="6746.1.1"}
}
103355962 = {
	name="Adila"	# not a lord
	female=yes
	dynasty=55962

	religion="yiti_gods"
	culture="lengi"

	father=103255962
	mother=403255962
	
	add_trait=tall

	6766.1.1 = {birth="6766.1.1"}
}
103455962 = {
	name="Khaireddin"	# not a lord
	dynasty=55962

	religion="yiti_gods"
	culture="lengi"

	father=103255962
	mother=403255962
	
	add_trait=tall

	6769.1.1 = {birth="6769.1.1"}
	6785.1.1 = {add_trait=poor_warrior}
}

## House Xu Lo
10065971 = {
	name="Yu"	# a lord
	dynasty=65971

	religion="yiti_gods"
	culture="yi_ti"

	6422.1.1 = {birth="6422.1.1"}
	6438.1.1 = {add_trait=trained_warrior}
	6440.1.1 = {add_spouse=40065971}
	6501.1.1 = {death="6501.1.1"}
}
40065971 = {
	name="Kim"
	female=yes

	religion="yiti_gods"
	culture="yi_ti"

	6422.1.1 = {birth="6422.1.1"}
	6501.1.1 = {death="6501.1.1"}
}
10165971 = {
	name="Xuan"	# a lord
	dynasty=65971

	religion="yiti_gods"
	culture="yi_ti"

	father=10065971
	mother=40065971

	6449.1.1 = {birth="6449.1.1"}
	6465.1.1 = {add_trait=trained_warrior}
	6467.1.1 = {add_spouse=40165971}
	6508.1.1 = {death = {death_reason = death_accident}}
}
40165971 = {
	name="Shu"
	female=yes

	religion="yiti_gods"
	culture="yi_ti"

	6449.1.1 = {birth="6449.1.1"}
	6508.1.1 = {death="6508.1.1"}
}
10265971 = {
	name="Xhe"	# not a lord
	dynasty=65971

	religion="yiti_gods"
	culture="yi_ti"

	father=10065971
	mother=40065971

	6451.1.1 = {birth="6451.1.1"}
	6467.1.1 = {add_trait=trained_warrior}
	6486.1.1 = {death="6486.1.1"}
}
10365971 = {
	name="Mai"	# not a lord
	female=yes
	dynasty=65971

	religion="yiti_gods"
	culture="yi_ti"

	father=10065971
	mother=40065971

	6453.1.1 = {birth="6453.1.1"}
	6509.1.1 = {death="6509.1.1"}
}
10465971 = {
	name="Doq"	# not a lord
	dynasty=65971

	religion="yiti_gods"
	culture="yi_ti"

	father=10065971
	mother=40065971

	6455.1.1 = {birth="6455.1.1"}
	6471.1.1 = {add_trait=poor_warrior}
	6512.1.1 = {death="6512.1.1"}
}
10565971 = {
	name="Bai"	# a lord
	dynasty=65971

	religion="yiti_gods"
	culture="yi_ti"

	father=10165971
	mother=40165971

	6477.1.1 = {birth="6477.1.1"}
	6493.1.1 = {add_trait=skilled_warrior}
	6495.1.1 = {add_spouse=40565971}
	6529.1.1 = {death="6529.1.1"}
}
40565971 = {
	name="Bich"
	female=yes

	religion="yiti_gods"
	culture="yi_ti"

	6477.1.1 = {birth="6477.1.1"}
	6529.1.1 = {death="6529.1.1"}
}
10665971 = {
	name="Dai"	# not a lord
	dynasty=65971

	religion="yiti_gods"
	culture="yi_ti"

	father=10165971
	mother=40165971

	6479.1.1 = {birth="6479.1.1"}
	6495.1.1 = {add_trait=trained_warrior}
	6525.1.1 = {death="6525.1.1"}
}
10765971 = {
	name="Yu"	# a lord
	dynasty=65971

	religion="yiti_gods"
	culture="yi_ti"

	father=10565971
	mother=40565971

	6500.1.1 = {birth="6500.1.1"}
	6516.1.1 = {add_trait=trained_warrior}
	6518.1.1 = {add_spouse=40765971}
	6570.1.1 = {death="6570.1.1"}
}
40765971 = {
	name="Tu"
	female=yes

	religion="yiti_gods"
	culture="yi_ti"

	6500.1.1 = {birth="6500.1.1"}
	6570.1.1 = {death="6570.1.1"}
}
10865971 = {
	name="Zong"	# not a lord
	dynasty=65971

	religion="yiti_gods"
	culture="yi_ti"

	father=10565971
	mother=40565971

	6503.1.1 = {birth="6503.1.1"}
	6519.1.1 = {add_trait=poor_warrior}
	6521.1.1 = {add_spouse=40865971}
	6563.1.1 = {death="6563.1.1"}
}
40865971 = {
	name="Xiu"
	female=yes

	religion="yiti_gods"
	culture="yi_ti"

	6503.1.1 = {birth="6503.1.1"}
	6563.1.1 = {death="6563.1.1"}
}
10965971 = {
	name="Cuc"	# not a lord
	female=yes
	dynasty=65971

	religion="yiti_gods"
	culture="yi_ti"

	father=10765971
	mother=40765971

	6532.1.1 = {birth="6532.1.1"}
	6570.1.1 = {death="6570.1.1"}
}
11065971 = {
	name="Ya"	# not a lord
	female=yes
	dynasty=65971

	religion="yiti_gods"
	culture="yi_ti"

	father=10865971
	mother=40865971

	6530.1.1 = {birth="6530.1.1"}
	6581.1.1 = {death="6581.1.1"}
}
11165971 = {
	name="Gai"	# a lord
	dynasty=65971

	religion="yiti_gods"
	culture="yi_ti"

	father=10865971
	mother=40865971

	6533.1.1 = {birth="6533.1.1"}
	6549.1.1 = {add_trait=poor_warrior}
	6551.1.1 = {add_spouse=41165971}
	6578.1.1 = {death="6578.1.1"}
}
41165971 = {
	name="Ngoc"
	female=yes

	religion="yiti_gods"
	culture="yi_ti"

	6533.1.1 = {birth="6533.1.1"}
	6578.1.1 = {death="6578.1.1"}
}
11265971 = {
	name="Ly"	# not a lord
	female=yes
	dynasty=65971

	religion="yiti_gods"
	culture="yi_ti"

	father=11165971
	mother=41165971

	6553.1.1 = {birth="6553.1.1"}
	6599.1.1 = {death="6599.1.1"}
}
11365971 = {
	name="Peng"	# not a lord
	female=yes
	dynasty=65971

	religion="yiti_gods"
	culture="yi_ti"

	father=11165971
	mother=41165971

	6554.1.1 = {birth="6554.1.1"}
	6600.1.1 = {death="6600.1.1"}
}
11465971 = {
	name="Xiu"	# not a lord
	female=yes
	dynasty=65971

	religion="yiti_gods"
	culture="yi_ti"

	father=11165971
	mother=41165971

	6556.1.1 = {birth="6556.1.1"}
	6580.1.1 = {death="6580.1.1"}
}
11565971 = {
	name="Thinh"	# a lord
	dynasty=65971

	religion="yiti_gods"
	culture="yi_ti"

	father=11165971
	mother=41165971

	6559.1.1 = {birth="6559.1.1"}
	6575.1.1 = {add_trait=trained_warrior}
	6577.1.1 = {add_spouse=41565971}
	6612.1.1 = {death="6612.1.1"}
}
41565971 = {
	name="Linh"
	female=yes

	religion="yiti_gods"
	culture="yi_ti"

	6559.1.1 = {birth="6559.1.1"}
	6612.1.1 = {death="6612.1.1"}
}
11665971 = {
	name="Bu"	# a lord
	dynasty=65971

	religion="yiti_gods"
	culture="yi_ti"

	father=11565971
	mother=41565971

	6578.1.1 = {birth="6578.1.1"}
	6594.1.1 = {add_trait=poor_warrior}
	6596.1.1 = {add_spouse=41665971}
	6614.1.1 = {death="6614.1.1"}
}
41665971 = {
	name="Hoa"
	female=yes

	religion="yiti_gods"
	culture="yi_ti"

	6578.1.1 = {birth="6578.1.1"}
	6614.1.1 = {death="6614.1.1"}
}
11765971 = {
	name="Nguyet"	# not a lord
	female=yes
	dynasty=65971

	religion="yiti_gods"
	culture="yi_ti"

	father=11565971
	mother=41565971

	6579.1.1 = {birth="6579.1.1"}
	6633.1.1 = {death="6633.1.1"}
}
11865971 = {
	name="An"	# a lord
	dynasty=65971

	religion="yiti_gods"
	culture="yi_ti"

	father=11665971
	mother=41665971

	6600.1.1 = {birth="6600.1.1"}
	6616.1.1 = {add_trait=skilled_warrior}
	6618.1.1 = {add_spouse=41865971}
	6666.1.1 = {death="6666.1.1"}
}
41865971 = {
	name="Tu"
	female=yes

	religion="yiti_gods"
	culture="yi_ti"

	6600.1.1 = {birth="6600.1.1"}
	6666.1.1 = {death="6666.1.1"}
}
11965971 = {
	name="Fai"	# a lord
	dynasty=65971

	religion="yiti_gods"
	culture="yi_ti"

	father=11865971
	mother=41865971

	6622.1.1 = {birth="6622.1.1"}
	6638.1.1 = {add_trait=trained_warrior}
	6640.1.1 = {add_spouse=41965971}
	6676.1.1 = {death="6676.1.1"}
}
41965971 = {
	name="Linh"
	female=yes

	religion="yiti_gods"
	culture="yi_ti"

	6622.1.1 = {birth="6622.1.1"}
	6676.1.1 = {death="6676.1.1"}
}
12065971 = {
	name="Tien"	# not a lord
	female=yes
	dynasty=65971

	religion="yiti_gods"
	culture="yi_ti"

	father=11865971
	mother=41865971

	6625.1.1 = {birth="6625.1.1"}
	6676.1.1 = {death="6676.1.1"}
}
12165971 = {
	name="Gang"	# not a lord
	dynasty=65971

	religion="yiti_gods"
	culture="yi_ti"

	father=11865971
	mother=41865971

	6628.1.1 = {birth="6628.1.1"}
	6644.1.1 = {add_trait=poor_warrior}
	6681.1.1 = {death="6681.1.1"}
}
12265971 = {
	name="Nguyet"	# not a lord
	female=yes
	dynasty=65971

	religion="yiti_gods"
	culture="yi_ti"

	father=11865971
	mother=41865971

	6631.1.1 = {birth="6631.1.1"}
	6700.1.1 = {death="6700.1.1"}
}
12365971 = {
	name="Hieu"	# not a lord
	dynasty=65971

	religion="yiti_gods"
	culture="yi_ti"

	father=11865971
	mother=41865971

	6634.1.1 = {birth="6634.1.1"}
	6650.1.1 = {add_trait=trained_warrior}
	6687.1.1 = {death="6687.1.1"}
}
12465971 = {
	name="Mo"	# a lord
	dynasty=65971

	religion="yiti_gods"
	culture="yi_ti"

	father=11965971
	mother=41965971

	6647.1.1 = {birth="6647.1.1"}
	6663.1.1 = {add_trait=skilled_warrior}
	6665.1.1 = {add_spouse=42465971}
	6685.1.1 = {death = {death_reason = death_battle}}
}
42465971 = {
	name="Ya"
	female=yes

	religion="yiti_gods"
	culture="yi_ti"

	6647.1.1 = {birth="6647.1.1"}
	6685.1.1 = {death="6685.1.1"}
}
12565971 = {
	name="Ru"	# not a lord
	dynasty=65971

	religion="yiti_gods"
	culture="yi_ti"

	father=11965971
	mother=41965971

	6648.1.1 = {birth="6648.1.1"}
	6664.1.1 = {add_trait=skilled_warrior}
	6666.1.1 = {add_spouse=42565971}
	6692.1.1 = {death="6692.1.1"}
}
42565971 = {
	name="Cuc"
	female=yes

	religion="yiti_gods"
	culture="yi_ti"

	6648.1.1 = {birth="6648.1.1"}
	6692.1.1 = {death="6692.1.1"}
}
12665971 = {
	name="Hao"	# a lord
	dynasty=65971

	religion="yiti_gods"
	culture="yi_ti"

	father=12465971
	mother=42465971

	6665.1.1 = {birth="6665.1.1"}
	6681.1.1 = {add_trait=poor_warrior}
	6683.1.1 = {add_spouse=42665971}
	6725.1.1 = {death="6725.1.1"}
}
42665971 = {
	name="Shu"
	female=yes

	religion="yiti_gods"
	culture="yi_ti"

	6665.1.1 = {birth="6665.1.1"}
	6725.1.1 = {death="6725.1.1"}
}
12765971 = {
	name="Ngon"	# not a lord
	female=yes
	dynasty=65971

	religion="yiti_gods"
	culture="yi_ti"

	father=12465971
	mother=42465971

	6668.1.1 = {birth="6668.1.1"}
	6747.1.1 = {death="6747.1.1"}
}
12865971 = {
	name="Hue"	# not a lord
	female=yes
	dynasty=65971

	religion="yiti_gods"
	culture="yi_ti"

	father=12665971
	mother=42665971

	6691.1.1 = {birth="6691.1.1"}
	6750.1.1 = {death="6750.1.1"}
}
12965971 = {
	name="Han"	# a lord
	dynasty=65971

	religion="yiti_gods"
	culture="yi_ti"

	father=12565971
	mother=42565971

	6669.1.1 = {birth="6669.1.1"}
	6685.1.1 = {add_trait=skilled_warrior}
	6687.1.1 = {add_spouse=42965971}
	6746.1.1 = {death = {death_reason = death_battle}}
}
42965971 = {
	name="Shu"
	female=yes

	religion="yiti_gods"
	culture="yi_ti"

	6669.1.1 = {birth="6669.1.1"}
	6746.1.1 = {death="6746.1.1"}
}
13065971 = {
	name="Peng"	# not a lord
	female=yes
	dynasty=65971

	religion="yiti_gods"
	culture="yi_ti"

	father=12565971
	mother=42565971

	6672.1.1 = {birth="6672.1.1"}
	6723.1.1 = {death="6723.1.1"}
}
13165971 = {
	name="Ning"	# not a lord
	female=yes
	dynasty=65971

	religion="yiti_gods"
	culture="yi_ti"

	father=12965971
	mother=42965971

	6703.1.1 = {birth="6703.1.1"}
	6758.1.1 = {death="6758.1.1"}
}
13265971 = {
	name="Joq"	# not a lord
	dynasty=65971

	religion="yiti_gods"
	culture="yi_ti"

	father=12965971
	mother=42965971

	6706.1.1 = {birth="6706.1.1"}
	6722.1.1 = {add_trait=poor_warrior}
	6724.1.1 = {add_spouse=43265971}
	6740.1.1 = {death="6740.1.1"}
}
43265971 = {
	name="Kim"
	female=yes

	religion="yiti_gods"
	culture="yi_ti"

	6706.1.1 = {birth="6706.1.1"}
	6740.1.1 = {death="6740.1.1"}
}
13365971 = {
	name="Ba"	# not a lord
	dynasty=65971

	religion="yiti_gods"
	culture="yi_ti"

	father=12965971
	mother=42965971

	6708.1.1 = {birth="6708.1.1"}
	6724.1.1 = {add_trait=poor_warrior}
	6744.1.1 = {death="6744.1.1"}
}
13465971 = {
	name="Loi"	# a lord
	dynasty=65971

	religion="yiti_gods"
	culture="yi_ti"

	father=13265971
	mother=43265971

	6727.1.1 = {birth="6727.1.1"}
	6743.1.1 = {add_trait=poor_warrior}
	6745.1.1 = {add_spouse=43465971}
}
43465971 = {
	name="Ngon"
	female=yes

	religion="yiti_gods"
	culture="yi_ti"

	6727.1.1 = {birth="6727.1.1"}
}
13565971 = {
	name="Huynh"	# not a lord
	dynasty=65971

	religion="yiti_gods"
	culture="yi_ti"

	father=13265971
	mother=43265971

	6730.1.1 = {birth="6730.1.1"}
	6746.1.1 = {add_trait=trained_warrior}
}
13665971 = {
	name="Chinh"	# not a lord
	dynasty=65971

	religion="yiti_gods"
	culture="yi_ti"

	father=13465971
	mother=43465971

	6745.1.1 = {birth="6745.1.1"}
	6761.1.1 = {add_trait=poor_warrior}
}
13765971 = {
	name="Shi"	# not a lord
	female=yes
	dynasty=65971

	religion="yiti_gods"
	culture="yi_ti"

	father=13465971
	mother=43465971

	6746.1.1 = {birth="6746.1.1"}
}
### House Son
10065977 = {
	name="Minh"	# a lord
	dynasty=65977

	religion="yiti_gods"
	culture="yi_ti"

	6443.1.1 = {birth="6443.1.1"}
	6459.1.1 = {add_trait=poor_warrior}
	6461.1.1 = {add_spouse=40065977}
	6518.1.1 = {death="6518.1.1"}
}
40065977 = {
	name="Thu"
	female=yes

	religion="yiti_gods"
	culture="yi_ti"

	6443.1.1 = {birth="6443.1.1"}
	6518.1.1 = {death="6518.1.1"}
}
10165977 = {
	name="Shu"	# not a lord
	female=yes
	dynasty=65977

	religion="yiti_gods"
	culture="yi_ti"

	father=10065977
	mother=40065977

	6475.1.1 = {birth="6475.1.1"}
	6523.1.1 = {death="6523.1.1"}
}
10265977 = {
	name="Xun"	# a lord
	dynasty=65977

	religion="yiti_gods"
	culture="yi_ti"

	father=10065977
	mother=40065977

	6477.1.1 = {birth="6477.1.1"}
	6493.1.1 = {add_trait=skilled_warrior}
	6495.1.1 = {add_spouse=40265977}
	6535.1.1 = {death="6535.1.1"}
}
40265977 = {
	name="Qi"
	female=yes

	religion="yiti_gods"
	culture="yi_ti"

	6477.1.1 = {birth="6477.1.1"}
	6535.1.1 = {death="6535.1.1"}
}
10365977 = {
	name="Huynh"	# not a lord
	dynasty=65977

	religion="yiti_gods"
	culture="yi_ti"

	father=10065977
	mother=40065977

	6480.1.1 = {birth="6480.1.1"}
	6496.1.1 = {add_trait=trained_warrior}
	6522.1.1 = {death="6522.1.1"}
}
10465977 = {
	name="Phuong"	# not a lord
	female=yes
	dynasty=65977

	religion="yiti_gods"
	culture="yi_ti"

	father=10265977
	mother=40265977

	6496.1.1 = {birth="6496.1.1"}
	6544.1.1 = {death="6544.1.1"}
}
10565977 = {
	name="Gai"	# not a lord
	dynasty=65977

	religion="yiti_gods"
	culture="yi_ti"

	father=10265977
	mother=40265977

	6497.1.1 = {birth="6497.1.1"}
	6513.1.1 = {add_trait=skilled_warrior}
	6515.1.1 = {add_spouse=40565977}
	6535.1.1 = {death = {death_reason = death_murder}}
}
40565977 = {
	name="Chau"
	female=yes

	religion="yiti_gods"
	culture="yi_ti"

	6497.1.1 = {birth="6497.1.1"}
	6535.1.1 = {death="6535.1.1"}
}
10665977 = {
	name="Xhe"	# a lord
	dynasty=65977

	religion="yiti_gods"
	culture="yi_ti"

	father=10565977
	mother=40565977

	6521.1.1 = {birth="6521.1.1"}
	6537.1.1 = {add_trait=skilled_warrior}
	6539.1.1 = {add_spouse=40665977}
	6579.1.1 = {death="6579.1.1"}
}
40665977 = {
	name="Hanh"
	female=yes

	religion="yiti_gods"
	culture="yi_ti"

	6521.1.1 = {birth="6521.1.1"}
	6579.1.1 = {death="6579.1.1"}
}
10765977 = {
	name="Phuc"	# a lord
	dynasty=65977

	religion="yiti_gods"
	culture="yi_ti"

	father=10565977
	mother=40565977

	6522.1.1 = {birth="6522.1.1"}
	6538.1.1 = {add_trait=trained_warrior}
	6540.1.1 = {add_spouse=40765977}
	6591.1.1 = {death="6591.1.1"}
}
40765977 = {
	name="Chau"
	female=yes

	religion="yiti_gods"
	culture="yi_ti"

	6522.1.1 = {birth="6522.1.1"}
	6591.1.1 = {death="6591.1.1"}
}
10865977 = {
	name="Ly"	# not a lord
	female=yes
	dynasty=65977

	religion="yiti_gods"
	culture="yi_ti"

	father=10665977
	mother=40665977

	6549.1.1 = {birth="6549.1.1"}
	6611.1.1 = {death="6611.1.1"}
}
10965977 = {
	name="Thao"	# a lord
	dynasty=65977

	religion="yiti_gods"
	culture="yi_ti"

	father=10765977
	mother=40765977

	6545.1.1 = {birth="6545.1.1"}
	6561.1.1 = {add_trait=trained_warrior}
	6563.1.1 = {add_spouse=40965977}
	6604.1.1 = {death="6604.1.1"}
}
40965977 = {
	name="Ngoc"
	female=yes

	religion="yiti_gods"
	culture="yi_ti"

	6545.1.1 = {birth="6545.1.1"}
	6604.1.1 = {death="6604.1.1"}
}
11065977 = {
	name="Hieu"	# a lord
	dynasty=65977

	religion="yiti_gods"
	culture="yi_ti"

	father=10965977
	mother=40965977

	6578.1.1 = {birth="6578.1.1"}
	6594.1.1 = {add_trait=master_warrior}
	6596.1.1 = {add_spouse=41065977}
	6638.1.1 = {death="6638.1.1"}
}
41065977 = {
	name="Thuy"
	female=yes

	religion="yiti_gods"
	culture="yi_ti"

	6578.1.1 = {birth="6578.1.1"}
	6638.1.1 = {death="6638.1.1"}
}
11165977 = {
	name="Phuong"	# not a lord
	female=yes
	dynasty=65977

	religion="yiti_gods"
	culture="yi_ti"

	father=10965977
	mother=40965977

	6580.1.1 = {birth="6580.1.1"}
	6613.1.1 = {death="6613.1.1"}
}
11265977 = {
	name="Chen"	# not a lord
	dynasty=65977

	religion="yiti_gods"
	culture="yi_ti"

	father=10965977
	mother=40965977

	6581.1.1 = {birth="6581.1.1"}
	6597.1.1 = {add_trait=trained_warrior}
	6661.1.1 = {death="6661.1.1"}
}
11365977 = {
	name="Kim"	# not a lord
	female=yes
	dynasty=65977

	religion="yiti_gods"
	culture="yi_ti"

	father=10965977
	mother=40965977

	6583.1.1 = {birth="6583.1.1"}
	6614.1.1 = {death="6614.1.1"}
}
11465977 = {
	name="Shu"	# not a lord
	female=yes
	dynasty=65977

	religion="yiti_gods"
	culture="yi_ti"

	father=10965977
	mother=40965977

	6585.1.1 = {birth="6585.1.1"}
	6635.1.1 = {death="6635.1.1"}
}
11565977 = {
	name="Xuan"	# a lord
	dynasty=65977

	religion="yiti_gods"
	culture="yi_ti"

	father=11065977
	mother=41065977

	6601.1.1 = {birth="6601.1.1"}
	6617.1.1 = {add_trait=trained_warrior}
	6619.1.1 = {add_spouse=41565977}
	6654.1.1 = {death="6654.1.1"}
}
41565977 = {
	name="Kim"
	female=yes

	religion="yiti_gods"
	culture="yi_ti"

	6601.1.1 = {birth="6601.1.1"}
	6654.1.1 = {death="6654.1.1"}
}
11665977 = {
	name="Cuc"	# not a lord
	female=yes
	dynasty=65977

	religion="yiti_gods"
	culture="yi_ti"

	father=11065977
	mother=41065977

	6602.1.1 = {birth="6602.1.1"}
	6678.1.1 = {death="6678.1.1"}
}
11765977 = {
	name="Tien"	# not a lord
	female=yes
	dynasty=65977

	religion="yiti_gods"
	culture="yi_ti"

	father=11065977
	mother=41065977

	6605.1.1 = {birth="6605.1.1"}
	6641.1.1 = {death="6641.1.1"}
}
11865977 = {
	name="Huynh"	# not a lord
	dynasty=65977

	religion="yiti_gods"
	culture="yi_ti"

	father=11065977
	mother=41065977

	6607.1.1 = {birth="6607.1.1"}
	6623.1.1 = {add_trait=trained_warrior}
	6630.1.1 = {death="6630.1.1"}
}
11965977 = {
	name="Hoa"	# not a lord
	female=yes
	dynasty=65977

	religion="yiti_gods"
	culture="yi_ti"

	father=11565977
	mother=41565977

	6630.1.1 = {birth="6630.1.1"}
	6684.1.1 = {death="6684.1.1"}
}
12065977 = {
	name="Quan"	# a lord
	dynasty=65977

	religion="yiti_gods"
	culture="yi_ti"

	father=11565977
	mother=41565977

	6633.1.1 = {birth="6633.1.1"}
	6649.1.1 = {add_trait=skilled_warrior}
	6651.1.1 = {add_spouse=42065977}
	6687.1.1 = {death="6687.1.1"}
}
42065977 = {
	name="Bich"
	female=yes

	religion="yiti_gods"
	culture="yi_ti"

	6633.1.1 = {birth="6633.1.1"}
	6687.1.1 = {death="6687.1.1"}
}
12165977 = {
	name="Phuc"	# not a lord
	dynasty=65977

	religion="yiti_gods"
	culture="yi_ti"

	father=11565977
	mother=41565977

	6635.1.1 = {birth="6635.1.1"}
	6651.1.1 = {add_trait=skilled_warrior}
	6704.1.1 = {death="6704.1.1"}
}
12265977 = {
	name="Thao"	# a lord
	dynasty=65977

	religion="yiti_gods"
	culture="yi_ti"

	father=12065977
	mother=42065977

	6659.1.1 = {birth="6659.1.1"}
	6675.1.1 = {add_trait=skilled_warrior}
	6677.1.1 = {add_spouse=42265977}
	6714.1.1 = {death="6714.1.1"}
}
42265977 = {
	name="Shu"
	female=yes

	religion="yiti_gods"
	culture="yi_ti"

	6659.1.1 = {birth="6659.1.1"}
	6714.1.1 = {death="6714.1.1"}
}
12365977 = {
	name="Shu"	# not a lord
	female=yes
	dynasty=65977

	religion="yiti_gods"
	culture="yi_ti"

	father=12265977
	mother=42265977

	6686.1.1 = {birth="6686.1.1"}
	6748.1.1 = {death="6748.1.1"}
}
12465977 = {
	name="Van"	# a lord
	dynasty=65977

	religion="yiti_gods"
	culture="yi_ti"

	father=12265977
	mother=42265977

	6688.1.1 = {birth="6688.1.1"}
	6704.1.1 = {add_trait=poor_warrior}
	6706.1.1 = {add_spouse=42465977}
	6745.1.1 = {death="6745.1.1"}
}
42465977 = {
	name="Quyen"
	female=yes

	religion="yiti_gods"
	culture="yi_ti"

	6688.1.1 = {birth="6688.1.1"}
	6745.1.1 = {death="6745.1.1"}
}
12565977 = {
	name="Dong"	# not a lord
	dynasty=65977

	religion="yiti_gods"
	culture="yi_ti"

	father=12265977
	mother=42265977

	6691.1.1 = {birth="6691.1.1"}
	6707.1.1 = {add_trait=poor_warrior}
	6767.1.1 = {death="6767.1.1"}
}
12665977 = {
	name="Ngoc"	# not a lord
	female=yes
	dynasty=65977

	religion="yiti_gods"
	culture="yi_ti"

	father=12265977
	mother=42265977

	6693.1.1 = {birth="6693.1.1"}
	6751.1.1 = {death="6751.1.1"}
}
12765977 = {
	name="Ling"	# not a lord
	female=yes
	dynasty=65977

	religion="yiti_gods"
	culture="yi_ti"

	father=12265977
	mother=42265977

	6695.1.1 = {birth="6695.1.1"}
	6761.1.1 = {death="6761.1.1"}
}
12865977 = {
	name="An"	# a lord
	dynasty=65977

	religion="yiti_gods"
	culture="yi_ti"

	father=12465977
	mother=42465977

	6720.1.1 = {birth="6720.1.1"}
	6736.1.1 = {add_trait=trained_warrior}
	6738.1.1 = {add_spouse=42865977}
}
42865977 = {
	name="Shu"
	female=yes

	religion="yiti_gods"
	culture="yi_ti"

	6720.1.1 = {birth="6720.1.1"}
}
12965977 = {
	name="Nguyet"	# not a lord
	female=yes
	dynasty=65977

	religion="yiti_gods"
	culture="yi_ti"

	father=12465977
	mother=42465977

	6722.1.1 = {birth="6722.1.1"}
	6768.1.1 = {death="6768.1.1"}
}
13065977 = {
	name="Minh"	# not a lord
	dynasty=65977

	religion="yiti_gods"
	culture="yi_ti"

	father=12465977
	mother=42465977

	6724.1.1 = {birth="6724.1.1"}
	6740.1.1 = {add_trait=poor_warrior}
	6742.1.1 = {add_spouse=43065977}
}
43065977 = {
	name="Ly"
	female=yes

	religion="yiti_gods"
	culture="yi_ti"

	6724.1.1 = {birth="6724.1.1"}
}
13165977 = {
	name="Minh"	# not a lord
	dynasty=65977

	religion="yiti_gods"
	culture="yi_ti"

	father=12865977
	mother=42865977

	6749.1.1 = {birth="6749.1.1"}
	6765.1.1 = {add_trait=trained_warrior}
}
13265977 = {
	name="Hong"	# not a lord
	female=yes
	dynasty=65977

	religion="yiti_gods"
	culture="yi_ti"

	father=12865977
	mother=42865977

	6750.1.1 = {birth="6750.1.1"}
}
13365977 = {
	name="Tien"	# not a lord
	female=yes
	dynasty=65977

	religion="yiti_gods"
	culture="yi_ti"

	father=12865977
	mother=42865977

	6753.1.1 = {birth="6753.1.1"}
}
13465977 = {
	name="Zuang"	# not a lord
	dynasty=65977

	religion="yiti_gods"
	culture="yi_ti"

	father=13065977
	mother=43065977

	6745.1.1 = {birth="6745.1.1"}
	6761.1.1 = {add_trait=trained_warrior}
}
13565977 = {
	name="Danh"	# not a lord
	dynasty=65977

	religion="yiti_gods"
	culture="yi_ti"

	father=13065977
	mother=43065977

	6746.1.1 = {birth="6746.1.1"}
	6762.1.1 = {add_trait=skilled_warrior}
}
13665977 = {
	name="Phuong"	# not a lord
	female=yes
	dynasty=65977

	religion="yiti_gods"
	culture="yi_ti"

	father=13065977
	mother=43065977

	6748.1.1 = {birth="6748.1.1"}
}

###House Gtuhanai
10055988 = {
	name="Shathak"	# a lord
	dynasty=55988

	religion="yiti_gods"
	culture="lengi"

	6437.1.1 = {birth="6437.1.1"}
	6453.1.1 = {add_trait=trained_warrior}
	6455.1.1 = {add_spouse=40055988}
	6494.1.1 = {death="6494.1.1"}
}
40055988 = {
	name="Thanaroa"
	female=yes

	religion="yiti_gods"
	culture="lengi"

	6437.1.1 = {birth="6437.1.1"}
	6494.1.1 = {death="6494.1.1"}
}
10155988 = {
	name="Vibur"	# a lord
	dynasty=55988

	religion="yiti_gods"
	culture="lengi"

	father=10055988
	mother=40055988

	6470.1.1 = {birth="6470.1.1"}
	6486.1.1 = {add_trait=trained_warrior}
	6500.1.1 = {death="6500.1.1"}
}
10255988 = {
	name="Yakthoob"	# a lord
	dynasty=55988

	religion="yiti_gods"
	culture="lengi"

	father=10055988
	mother=40055988

	6472.1.1 = {birth="6472.1.1"}
	6488.1.1 = {add_trait=trained_warrior}
	6490.1.1 = {add_spouse=40255988}
	6552.1.1 = {death="6552.1.1"}
}
40255988 = {
	name="Dythalla"
	female=yes

	religion="yiti_gods"
	culture="lengi"

	6472.1.1 = {birth="6472.1.1"}
	6552.1.1 = {death="6552.1.1"}
}
10355988 = {
	name="Pharol"	# not a lord
	dynasty=55988

	religion="yiti_gods"
	culture="lengi"

	father=10255988
	mother=40255988

	6493.1.1 = {birth="6493.1.1"}
	6509.1.1 = {add_trait=poor_warrior}
	6511.1.1 = {add_spouse=40355988}
	6543.1.1 = {death = {death_reason = death_murder}}
}
40355988 = {
	name="Lavinia"
	female=yes

	religion="yiti_gods"
	culture="lengi"

	6493.1.1 = {birth="6493.1.1"}
	6543.1.1 = {death="6543.1.1"}
}
10455988 = {
	name="Y'lla"	# not a lord
	female=yes
	dynasty=55988

	religion="yiti_gods"
	culture="lengi"

	father=10355988
	mother=40355988

	6522.1.1 = {birth="6522.1.1"}
	6581.1.1 = {death="6581.1.1"}
}
10555988 = {
	name="Japhet"	# a lord
	dynasty=55988

	religion="yiti_gods"
	culture="lengi"

	father=10355988
	mother=40355988

	6523.1.1 = {birth="6523.1.1"}
	6539.1.1 = {add_trait=poor_warrior}
	6541.1.1 = {add_spouse=40555988}
	6568.1.1 = {death="6568.1.1"}
}
40555988 = {
	name="Idh-yaa"
	female=yes

	religion="yiti_gods"
	culture="lengi"

	6523.1.1 = {birth="6523.1.1"}
	6568.1.1 = {death="6568.1.1"}
}
10655988 = {
	name="Abdul"	# not a lord
	dynasty=55988

	religion="yiti_gods"
	culture="lengi"

	father=10355988
	mother=40355988

	6525.1.1 = {birth="6525.1.1"}
	6541.1.1 = {add_trait=poor_warrior}
	6599.1.1 = {death="6599.1.1"}
}
10755988 = {
	name="Lavinia"	# not a lord
	female=yes
	dynasty=55988

	religion="yiti_gods"
	culture="lengi"

	father=10555988
	mother=40555988

	6546.1.1 = {birth="6546.1.1"}
	6603.1.1 = {death="6603.1.1"}
}
10855988 = {
	name="Kassogtha"	# not a lord
	female=yes
	dynasty=55988

	religion="yiti_gods"
	culture="lengi"

	father=10555988
	mother=40555988

	6547.1.1 = {birth="6547.1.1"}
	6589.1.1 = {death = {death_reason = death_murder}}
}
10955988 = {
	name="Yhagni"	# not a lord
	female=yes
	dynasty=55988

	religion="yiti_gods"
	culture="lengi"

	father=10555988
	mother=40555988

	6549.1.1 = {birth="6549.1.1"}
	6594.1.1 = {death = {death_reason = death_murder}}
}
11055988 = {
	name="Pharol"	# a lord
	dynasty=55988

	religion="yiti_gods"
	culture="lengi"

	father=10555988
	mother=40555988

	6551.1.1 = {birth="6551.1.1"}
	6567.1.1 = {add_trait=skilled_warrior}
	6569.1.1 = {add_spouse=41055988}
	6602.1.1 = {death="6602.1.1"}
}
41055988 = {
	name="Scathach"
	female=yes

	religion="yiti_gods"
	culture="lengi"

	6551.1.1 = {birth="6551.1.1"}
	6602.1.1 = {death="6602.1.1"}
}
11155988 = {
	name="Hastalyk"	# a lord
	dynasty=55988

	religion="yiti_gods"
	culture="lengi"

	father=11055988
	mother=41055988

	6573.1.1 = {birth="6573.1.1"}
	6589.1.1 = {add_trait=trained_warrior}
	6591.1.1 = {add_spouse=41155988}
	6621.1.1 = {death="6621.1.1"}
}
41155988 = {
	name="Thanaroa"
	female=yes

	religion="yiti_gods"
	culture="lengi"

	6573.1.1 = {birth="6573.1.1"}
	6621.1.1 = {death="6621.1.1"}
}
11255988 = {
	name="Mormo"	# not a lord
	dynasty=55988

	religion="yiti_gods"
	culture="lengi"

	father=11055988
	mother=41055988

	6574.1.1 = {birth="6574.1.1"}
	6590.1.1 = {add_trait=skilled_warrior}
	6621.1.1 = {death="6621.1.1"}
}
11355988 = {
	name="Dygra"	# not a lord
	female=yes
	dynasty=55988

	religion="yiti_gods"
	culture="lengi"

	father=11055988
	mother=41055988

	6575.1.1 = {birth="6575.1.1"}
	6634.1.1 = {death="6634.1.1"}
}
11455988 = {
	name="Xotli"	# not a lord
	female=yes
	dynasty=55988

	religion="yiti_gods"
	culture="lengi"

	father=11155988
	mother=41155988

	6601.1.1 = {birth="6601.1.1"}
	6658.1.1 = {death="6658.1.1"}
}
11555988 = {
	name="Summanus"	# a lord
	dynasty=55988

	religion="yiti_gods"
	culture="lengi"

	father=11155988
	mother=41155988

	6603.1.1 = {birth="6603.1.1"}
	6619.1.1 = {add_trait=trained_warrior}
	6621.1.1 = {add_spouse=41555988}
	6653.1.1 = {death="6653.1.1"}
}
41555988 = {
	name="Nctolhu"
	female=yes

	religion="yiti_gods"
	culture="lengi"

	6603.1.1 = {birth="6603.1.1"}
	6653.1.1 = {death="6653.1.1"}
}
11655988 = {
	name="Inpesca"	# not a lord
	female=yes
	dynasty=55988

	religion="yiti_gods"
	culture="lengi"

	father=11555988
	mother=41555988

	6632.1.1 = {birth="6632.1.1"}
	6698.1.1 = {death="6698.1.1"}
}
11755988 = {
	name="Kaalut"	# a lord
	dynasty=55988

	religion="yiti_gods"
	culture="lengi"

	father=11555988
	mother=41555988

	6635.1.1 = {birth="6635.1.1"}
	6651.1.1 = {add_trait=trained_warrior}
	6653.1.1 = {add_spouse=41755988}
	6660.1.1 = {death="6660.1.1"}
}
41755988 = {
	name="Sthanee"
	female=yes

	religion="yiti_gods"
	culture="lengi"

	6635.1.1 = {birth="6635.1.1"}
	6678.1.1 = {death="6678.1.1"}
}
11855988 = {
	name="Kassogtha"	# a lord
	female=yes
	dynasty=55988

	religion="yiti_gods"
	culture="lengi"

	father=11755988
	mother=41755988

	6658.1.1 = {birth="6658.1.1"}
	6715.1.1 = {death="6715.1.1"}
}
41855988 = {
	name="Ammutseba"

	religion="yiti_gods"
	culture="lengi"

	6664.1.1 = {birth="6664.1.1"}
	6680.1.1 = {add_trait=poor_warrior}
	6682.1.1 = {add_spouse=11855988}
	6715.1.1 = {death="6715.1.1"}
}
11955988 = {
	name="Ayi'ig"	# not a lord
	female=yes
	dynasty=55988

	religion="yiti_gods"
	culture="lengi"

	father=11755988
	mother=41755988

	6660.1.1 = {birth="6660.1.1"}
	6730.1.1 = {death="6730.1.1"}
}
12055988 = {
	name="Abdul"	# a lord
	dynasty=55988

	religion="yiti_gods"
	culture="lengi"

	father=41855988
	mother=11855988

	6693.1.1 = {birth="6693.1.1"}
	6709.1.1 = {add_trait=poor_warrior}
	6711.1.1 = {add_spouse=42055988}
	6740.1.1 = {death="6740.1.1"}
}
42055988 = {
	name="Istasha"
	female=yes

	religion="yiti_gods"
	culture="lengi"

	6693.1.1 = {birth="6693.1.1"}
	6740.1.1 = {death="6740.1.1"}
}
12155988 = {
	name="Inpesca"	# not a lord
	female=yes
	dynasty=55988

	religion="yiti_gods"
	culture="lengi"

	father=41855988
	mother=11855988

	6688.1.1 = {birth="6688.1.1"}
	6750.1.1 = {death="6750.1.1"}
}
12255988 = {
	name="Chaugnar"	# a lord
	dynasty=55988

	religion="yiti_gods"
	culture="lengi"

	father=12055988
	mother=42055988

	6725.1.1 = {birth="6725.1.1"}
	6741.1.1 = {add_trait=poor_warrior}
	6743.1.1 = {add_spouse=42255988}
	6756.1.1 = {death = {death_reason = death_battle}}
}
42255988 = {
	name="Gzxtyos"
	female=yes

	religion="yiti_gods"
	culture="lengi"

	6725.1.1 = {birth="6725.1.1"}
	6756.1.1 = {death="6756.1.1"}
}
12355988 = {
	name="Byatis"	# a lord
	dynasty=55988

	religion="yiti_gods"
	culture="lengi"

	father=12255988
	mother=42255988

	6743.1.1 = {birth="6743.1.1"}
	6759.1.1 = {add_trait=poor_warrior}
	6761.1.1 = {add_spouse=42355988}
}
42355988 = {
	name="Gleetha"
	female=yes

	religion="yiti_gods"
	culture="lengi"

	6743.1.1 = {birth="6743.1.1"}
}
12455988 = {
	name="Arwassa"	# not a lord
	dynasty=55988

	religion="yiti_gods"
	culture="lengi"

	father=12255988
	mother=42255988

	6745.1.1 = {birth="6745.1.1"}
	6761.1.1 = {add_trait=poor_warrior}
}
12555988 = {
	name="Gleetha"	# not a lord
	female=yes
	dynasty=55988

	religion="yiti_gods"
	culture="lengi"

	father=12255988
	mother=42255988

	6746.1.1 = {birth="6746.1.1"}
}
12655988 = {
	name="Kurpannga"	# not a lord
	dynasty=55988

	religion="yiti_gods"
	culture="lengi"

	father=12255988
	mother=42255988

	6747.1.1 = {birth="6747.1.1"}
	6763.1.1 = {add_trait=trained_warrior}
}
12755988 = {
	name="Kassogtha"	# not a lord
	female=yes
	dynasty=55988

	religion="yiti_gods"
	culture="lengi"

	father=12355988
	mother=42355988

	6764.1.1 = {birth="6764.1.1"}
}
12855988 = {
	name="Alijah"	# not a lord
	dynasty=55988

	religion="yiti_gods"
	culture="lengi"

	father=12355988
	mother=42355988

	6767.1.1 = {birth="6767.1.1"}
	6783.1.1 = {add_trait=poor_warrior}
}
12955988 = {
	name="Aylith"	# not a lord
	female=yes
	dynasty=55988

	religion="yiti_gods"
	culture="lengi"

	father=12355988
	mother=42355988

	6769.1.1 = {birth="6769.1.1"}
}
13055988 = {
	name="Saa'itii"	# not a lord
	female=yes
	dynasty=55988

	religion="yiti_gods"
	culture="lengi"

	father=12355988
	mother=42355988

	6770.1.1 = {birth="6770.1.1"}
}


