

#############################################################   House Durrandon  ###########################################################################

41544 = {
	name= "Durran" # Built Storm's End
	dynasty=1544 #Durrandon
	
	martial=18
	diplomacy=15
	stewardship=20
	learning=15
	intrigue=15
	
	add_trait=brilliant_strategist
	add_trait=skilled_warrior
	add_trait=proud
	add_trait=genius
	add_trait=ambitious
	add_trait=wroth
	
	give_nickname=nick_godsgrief
	
	religion="storm_god"
	culture="old_first_man"

	3.1.1 ={ birth="3.1.1"}
	28.1.1 = {add_spouse=4041544}
	90.1.1={death="90.1.1"}
}
4041544 = {
	name= "Elenei" # Supposedly the daughter to the god of the sea and the goddess of the wind
	female=yes
	
	dna="aghckpgggcw"
	properties="0b0eck00000"
	
	martial=10
	diplomacy=10
	stewardship=10
	learning=15
	intrigue=10
	
	add_trait=mystic
	add_trait=fair
	add_trait=strong
	
	religion="storm_god"
	culture="old_first_man"

	3.1.1 ={ birth="3.1.1"}
	90.1.1={death="90.1.1"}
}
1501544 = {
	name = Durran #King Durran II the Devout
	dynasty = 1544 #Durrandon

	religion=old_gods
	culture=old_first_man

	father = 41544
	mother = 4041544
	
	add_trait=zealous
	add_trait=honorable
	add_trait=kind
	add_trait=patient
	add_trait=grey_eminence

	40.1.1 = {
		birth=40.1.1
	}
	56.1.1 = {
		add_trait=skilled_warrior
		give_nickname=nick_the_devout
	}
	122.1.1 = {
		death=122.1.1
	}
}
1511544 = {
	name = Durran #King Durran III (Non-canon)
	dynasty = 1544 #Durrandon

	religion=old_gods
	culture=old_first_man

	father = 1501544

	79.1.1 = {
		birth=79.1.1
	}
	95.1.1 = {
		add_trait=trained_warrior
	}
	149.1.1 = {
		death=149.1.1
	}
}
1521544 = {
	name = Durran #King Durran IV Bronze-Axe
	dynasty = 1544 #Durrandon

	religion=old_gods
	culture=old_first_man

	father = 1511544
	
	add_trait=strong
	add_trait=ambitious
	add_trait=wroth
	add_trait=diligent
	add_trait=authoritative
	
	100.1.1 = {
		birth=100.1.1
	}
	116.1.1 = {
		add_trait=master_warrior
		give_nickname=nick_bronze_axe
	}
	162.1.1 = {
		death=162.1.1
	}
}
1531544 = {
	name = Durran #King Durran V the Dour
	dynasty = 1544 #Durrandon

	religion=old_gods
	culture=old_first_man

	father = 1521544
	
	add_trait=strong
	add_trait=skilled_tactician
	add_trait=ruthless
	add_trait=authoritative
	add_trait=proud
	add_trait=temperate

	132.1.1 = {
		birth=132.1.1
	}
	148.1.1 = {
		add_trait=master_warrior
		give_nickname=nick_the_dour
	}
	189.1.1 = {
		death=189.1.1
	}
}
1541544 = {
	name = Durran #King Durran VI Ravenfriend
	dynasty = 1544 #Durrandon

	religion=old_gods
	culture=old_first_man

	father = 1531544
	
	add_trait=quick
	add_trait=charismatic_negotiator
	add_trait=gregarious
	add_trait=just
	add_trait=trusting

	160.1.1 = {
		birth=160.1.1
	}
	176.1.1 = {
		add_trait=trained_warrior
		give_nickname=nick_ravenfriend
	}
	219.1.1 = {
		death=219.1.1
	}
}
1551544 = {
	name = Erich #King Erich I (Non-canon)
	dynasty = 1544 #Durrandon

	religion=old_gods
	culture=old_first_man

	father = 1541544

	189.1.1 = {
		birth=189.1.1
	}
	205.1.1 = {
		add_trait=trained_warrior
	}
	230.1.1 = {
		death=230.1.1
	}
}
1561544 = {
	name = Durran #King Durran VII the Young
	dynasty = 1544 #Durrandon

	religion=old_gods
	culture=old_first_man

	father = 1551544
	
	add_trait=lustful
	add_trait=brilliant_strategist
	add_trait=strong
	add_trait=arbitrary
	add_trait=familyperson

	212.1.1 = {
		birth=212.1.1
	}
	228.1.1 = {
		add_trait=skilled_warrior
		give_nickname=nick_the_young
	}
	251.1.1 = {
		death={
			death_reason=death_murder
			killer=1571544
		}
	}
}
1571544 = {
	name = Erich #Kin-Killer
	dynasty = 1544 #Durrandon

	religion=old_gods
	culture=old_first_man

	father = 1551544
	
	add_trait=wroth
	add_trait=proud
	add_trait=ruthless
	add_trait=familyperson
	
	214.1.1 = {
		birth=214.1.1
	}
	230.1.1 = {
		add_trait=trained_warrior
	}
	251.1.1 = {
		add_trait=kinslayer
		give_nickname=nick_kin_killer
		death={
			death_reason=death_execution
		}
	}
}
1581544 = {
	name = Argella
	female=yes
	dynasty = 1544 #Durrandon

	religion=old_gods
	culture=old_first_man

	father = 1571544
	
	add_trait=lustful
	add_trait=fair
	add_trait=cynical
	add_trait=arbitrary

	231.1.1 = {
		birth=231.1.1
	}
	282.1.1 = {
		death=282.1.1
	}
}
3071544 = {
	name= "Line of Durran the Young"
	dynasty=1544 #Durrandon
	
	occluded=yes
	
	father=1561544

	religion=old_gods
	culture=old_first_man

	251.1.1 = {birth="251.1.1"}
	3025.1.1={death="3025.1.1"}
}
1591544 = {
	name = Durran #King Durran VIII the Fair
	dynasty = 1544 #Durrandon

	religion=old_gods
	culture=old_first_man

	father = 3071544
	
	add_trait=fair
	add_trait=honorable
	add_trait=diligent
	add_trait=patient
	add_trait=grey_eminence
	
	3025.1.1 = {
		birth=3025.1.1
	}
	3041.1.1 = {
		add_trait=trained_warrior
		give_nickname=nick_the_fair
	}
	3055.1.1 = {
		add_spouse=151054 #Tarth
	}
	3078.1.1 = {
		death=3078.1.1
	}
}
1601544 = {
	name = Erich #King Erich II (Non-canon)
	dynasty = 1544 #Durrandon

	religion=old_gods
	culture=old_first_man

	father = 1591544
	mother = 151054

	3048.1.1 = {
		birth=3048.1.1
	}
	3064.1.1 = {
		add_trait=trained_warrior
	}
	3090.1.1 = {
		death=3090.1.1
	}
}
1611544 = {
	name = Erich #King Erich III the Sailmaker
	dynasty = 1544 #Durrandon

	religion=old_gods
	culture=old_first_man

	father = 1601544
	
	add_trait=strong
	add_trait=ambitious
	add_trait=brilliant_strategist

	3065.1.1 = {
		birth=3065.1.1
	}
	3081.1.1 = {
		add_trait=skilled_warrior
		give_nickname=nick_the_sailmaker
	}
	3126.1.1 = {
		death=3126.1.1
	}
}
1621544 = {
	name = Maldon #King Maldon I (Non-canon)
	dynasty = 1544 #Durrandon

	religion=old_gods
	culture=old_first_man

	father = 1611544

	3093.1.1 = {
		birth=3093.1.1
	}
	3109.1.1 = {
		add_trait=trained_warrior
	}
	3145.1.1 = {
		death=3145.1.1
	}
}
1631544 = {
	name = Maldon #King Maldon II (Non-canon)
	dynasty = 1544 #Durrandon

	religion=old_gods
	culture=old_first_man

	father = 1621544

	3114.1.1 = {
		birth=3114.1.1
	}
	3130.1.1 = {
		add_trait=trained_warrior
	}
	3156.1.1 = {
		death=3156.1.1
	}
}
1641544 = {
	name = Ormund #King Ormund I (Non-canon)
	dynasty = 1544 #Durrandon

	religion=old_gods
	culture=old_first_man

	father = 1631544

	3133.1.1 = {
		birth=3133.1.1
	}
	3149.1.1 = {
		add_trait=poor_warrior
	}
	3198.1.1 = {
		death=3198.1.1
	}
}
1651544 = {
	name = Durran #King Durran IX (Non-canon)
	dynasty = 1544 #Durrandon

	religion=old_gods
	culture=old_first_man

	father = 1641544

	3152.1.1 = {
		birth=3152.1.1
	}
	3168.1.1 = {
		add_trait=trained_warrior
	}
	3205.1.1 = {
		death=3205.1.1
	}
}
1661544 = {
	name = Morden #King Morden I (Non-canon)
	dynasty = 1544 #Durrandon

	religion=old_gods
	culture=old_first_man

	father = 1651544

	3178.1.1 = {
		birth=3178.1.1
	}
	3194.1.1 = {
		add_trait=trained_warrior
	}
	3238.1.1 = {
		death=3238.1.1
	}
}
1671544 = {
	name = Erich #King Erich IV (Non-canon)
	dynasty = 1544 #Durrandon

	religion=old_gods
	culture=old_first_man

	father = 1661544

	3200.1.1 = {
		birth=3200.1.1
	}
	3216.1.1 = {
		add_trait=trained_warrior
	}
	3249.1.1 = {
		death=3249.1.1
	}
}
1681544 = {
	name = Durran #King Durran X
	dynasty = 1544 #Durrandon

	religion=old_gods
	culture=old_first_man

	father = 1671544
	
	add_trait=brilliant_strategist
	add_trait=strong
	add_trait=brave
	add_trait=diligent

	3218.1.1 = {
		birth=3218.1.1
	}
	3234.1.1 = {
		add_trait=skilled_warrior
	}
	3275.1.1 = {
		death=3275.1.1
	}
}
1691544 = {
	name = Monfryd #King Monfryd I the Mighty
	dynasty = 1544 #Durrandon
	
	martial=7

	religion=old_gods
	culture=old_first_man

	father = 1681544
	
	add_trait=skilled_tactician
	add_trait=strong
	add_trait=tall
	add_trait=ambitious
	add_trait=wroth
	add_trait=authoritative
	add_trait=inspiring_leader

	3240.1.1 = {
		birth=3240.1.1
	}
	3256.1.1 = {
		add_trait=master_warrior
		give_nickname=nick_the_mighty
	}
	3299.1.1 = {
		death=3299.1.1
	}
}
1701544 = {
	name = Durran #King Durran XI the Dim
	dynasty = 1544 #Durrandon
	
	martial=4
	diplomacy=2
	intrigue=1
	stewardship=3
	learning=5

	religion=old_gods
	culture=old_first_man

	father = 1691544
	
	add_trait=misguided_warrior
	add_trait=strong
	add_trait=trusting
	add_trait=slothful
	add_trait=arbitrary
	add_trait=kind

	3275.1.1 = {
		birth=3275.1.1
	}
	3291.1.1 = {
		add_trait=poor_warrior
		give_nickname=nick_the_dim
	}
	3331.1.1 = {
		death=3331.1.1
	}
}
1711544 = {
	name = Barron #King Barron the Beautiful
	dynasty = 1544 #Durrandon
	
	martial=2
	diplomacy=3
	intrigue=5
	stewardship=5
	learning=2

	religion=old_gods
	culture=old_first_man

	father = 1701544
	
	add_trait=fair
	add_trait=fashionable
	add_trait=indulgent_wastrel
	add_trait=craven
	add_trait=gregarious
	add_trait=gluttonous
	add_trait=slothful

	3301.1.1 = {
		birth=3301.1.1
	}
	3317.1.1 = {
		add_trait=poor_warrior
		give_nickname=nick_the_beautiful
	}
	3365.1.1 = {
		death=3365.1.1
	}
}
1721544 = {
	name = Monfryd #King Monfryd II (Non-canon)
	dynasty = 1544 #Durrandon

	religion=old_gods
	culture=old_first_man

	father = 1711544

	3325.1.1 = {
		birth=3325.1.1
	}
	3341.1.1 = {
		add_trait=trained_warrior
	}
	3380.1.1 = {
		death=3380.1.1
	}
}
1731544 = {
	name = Durran #King Durran XII (Non-canon)
	dynasty = 1544 #Durrandon

	religion=old_gods
	culture=old_first_man

	father = 1721544

	3342.1.1 = {
		birth=3342.1.1
	}
	3358.1.1 = {
		add_trait=trained_warrior
	}
	3391.1.1 = {
		death=3391.1.1
	}
}
1741544 = {
	name = Erich #King Erich V (Non-canon)
	dynasty = 1544 #Durrandon

	religion=old_gods
	culture=old_first_man

	father = 1731544

	3368.1.1 = {
		birth=3368.1.1
	}
	3384.1.1 = {
		add_trait=poor_warrior
	}
	3419.1.1 = {
		death=3419.1.1
	}
}
1751544 = {
	name = Qarlton #King Qarlton I (Non-canon)
	dynasty = 1544 #Durrandon

	religion=old_gods
	culture=old_first_man

	father = 1741544

	3395.1.1 = {
		birth=3395.1.1
	}
	3411.1.1 = {
		add_trait=trained_warrior
	}
	3451.1.1 = {
		death=3451.1.1
	}
}
1761544 = {
	name = Durran #King Durran XIII (Non-canon)
	dynasty = 1544 #Durrandon

	religion=old_gods
	culture=old_first_man

	father = 1751544

	3416.1.1 = {
		birth=3416.1.1
	}
	3432.1.1 = {
		add_trait=trained_warrior
	}
	3463.1.1 = {
		death=3463.1.1
	}
}
1771544 = {
	name = Durran #King Durran XIV (Non-canon)
	dynasty = 1544 #Durrandon

	religion=old_gods
	culture=old_first_man

	father = 1761544

	3446.1.1 = {
		birth=3446.1.1
	}
	3462.1.1 = {
		add_trait=poor_warrior
	}
	3475.1.1 = {
		death=3475.1.1
	}
}
1781544 = {
	name = Durwald #King Durwald I the Fat
	dynasty = 1544 #Durrandon
	
	martial=1
	diplomacy=1
	stewardship=1
	intrigue=1
	learning=3

	religion=old_gods
	culture=old_first_man

	father = 1771544
	
	add_trait="gluttonous"
	add_trait="indulgent_wastrel"
	add_trait="trusting"
	add_trait="lunatic"
	add_trait="slothful"

	3469.1.1 = {
		birth=3469.1.1
	}
	3485.1.1 = {
		add_trait=poor_warrior
		give_nickname=nick_the_fat
		add_trait = is_fat
		effect = {
			set_variable = { which = physique_variable value = 20 }		
		}
	}
	3534.1.1 = {
		death=3534.1.1
	}
}
1791544 = {
	name = Monfryd #King Monfryd III (Non-canon)
	dynasty = 1544 #Durrandon

	religion=old_gods
	culture=old_first_man

	father = 1781544

	3500.1.1 = {
		birth=3500.1.1
	}
	3516.1.1 = {
		add_trait=trained_warrior
	}
	3549.1.1 = {
		death=3549.1.1
	}
}
1801544 = {
	name = Erich #King Erich VI (Non-canon)
	dynasty = 1544 #Durrandon

	religion=old_gods
	culture=old_first_man

	father = 1791544

	3519.1.1 = {
		birth=3519.1.1
	}
	3535.1.1 = {
		add_trait=trained_warrior
	}
	3568.1.1 = {
		death=3568.1.1
	}
}
1811544 = {
	name = Durran #King Durran XV (Non-canon)
	dynasty = 1544 #Durrandon

	religion=old_gods
	culture=old_first_man

	father = 1801544

	3540.1.1 = {
		birth=3540.1.1
	}
	3556.1.1 = {
		add_trait=skilled_warrior
	}
	3588.1.1 = {
		death=3588.1.1
	}
}
1821544 = {
	name = Durran #King Durran XVI (Non-canon)
	dynasty = 1544 #Durrandon

	religion=old_gods
	culture=old_first_man

	father = 1811544

	3566.1.1 = {
		birth=3566.1.1
	}
	3582.1.1 = {
		add_trait=trained_warrior
	}
	3603.1.1 = {
		death=3603.1.1
	}
}
1831544 = {
	name = Morden #King Morden II
	dynasty = 1544 #Durrandon
	
	martial=4
	stewardship=5
	diplomacy=1
	intrigue=1
	learning=5

	religion=old_gods
	culture=old_first_man

	father = 1821544
	
	add_trait=content
	add_trait=indulgent_wastrel
	add_trait=trusting
	add_trait=honorable
	add_trait=kind

	3590.1.1 = {
		birth=3590.1.1
	}
	3606.1.1 = {
		add_trait=poor_warrior
	}
	3633.1.1 = {
		death=3633.1.1
	}
}
1841544 = {
	name = Ronard #King Ronard the Bastard
	dynasty = 1544 #Durrandon
	
	martial=10
	stewardship=8
	diplomacy=6
	intrigue=9
	learning=7

	religion=old_gods
	culture=old_first_man

	father = 1821544
	
	add_trait=bastard
	add_trait=ambitious
	add_trait=lustful
	add_trait=ruthless
	add_trait=envious
	add_trait=authoritative
	add_trait=gregarious
	add_trait=skilled_tactician
	
	give_nickname=nick_storm

	3588.1.1 = {
		birth=3588.1.1
	}
	3604.1.1 = {
		add_trait=master_warrior
		add_spouse=1851544
	}
	3608.1.1 = {
		give_nickname=nick_the_bastard
	}
	3638.1.1 = {
		death=3638.1.1
	}
}
1851544 = {
	name = Lynesse
	dynasty = 1544 #Durrandon
	female=yes

	religion=old_gods
	culture=old_first_man

	father = 1821544

	3592.1.1 = {
		birth=3592.1.1
	}
	3642.1.1 = {
		death=3642.1.1
	}
}
3081544 = {
	name= "Line of Ronard the Bastard"
	dynasty=1544 #Durrandon
	
	occluded=yes
	
	father=1841544

	religion=old_gods
	culture=old_first_man

	3638.1.1 = {birth="3638.1.1"}
	6339.1.1={death="6339.1.1"}
}


1861544 = {
	name = Maldon #King Maldon III (Non-canon)
	dynasty = 1544 #Durrandon

	religion=old_gods
	culture=old_first_man

	father = 3081544

	6322.1.1 = {
		birth=6322.1.1
	}
	6339.1.1 = {
		add_trait=trained_warrior
	}
	6363.1.1 = {
		death=6363.1.1
	}
}
1871544 = {
	name = Ormund #King Ormund II (Non-canon)
	dynasty = 1544 #Durrandon

	religion=old_gods
	culture=old_first_man

	father = 1861544

	6346.1.1 = {
		birth=6346.1.1
	}
	6364.1.1 = {
		add_trait=trained_warrior
	}
	6393.1.1 = {
		death=6393.1.1
	}
}
1881544 = {
	name = Durran #King Durran XVII (Non-canon)
	dynasty = 1544 #Durrandon

	religion=old_gods
	culture=old_first_man

	father = 1871544

	6372.1.1 = {
		birth=6372.1.1
	}
	6394.1.1 = {
		add_trait=poor_warrior
	}
	6423.1.1 = {
		death=6423.1.1
	}
}
1891544 = {
	name = Durran #King Durran XVIII (Non-canon)
	dynasty = 1544 #Durrandon

	religion=old_gods
	culture=old_first_man

	father = 1881544

	6397.1.1 = {
		birth=6397.1.1
	}
	6418.1.1 = {
		add_trait=skilled_warrior
	}
	6445.1.1 = {
		death=6445.1.1
	}
}
1901544 = {
	name = Monfryd #King Monfryd IV (Non-canon)
	dynasty = 1544 #Durrandon

	religion=old_gods
	culture=old_first_man

	father = 1891544

	6421.1.1 = {
		birth=6421.1.1
	}
	6443.1.1 = {
		add_trait=trained_warrior
	}
	6468.1.1 = {
		death=6468.1.1
	}
}

######################   comming of Andals

1911544 = {
	name = Erich #King Erich VII the Unready
	dynasty = 1544 #Durrandon
	
	martial=3
	stewardship=5
	diplomacy=2
	intrigue=2
	learning=1

	religion=old_gods
	culture=old_first_man

	father = 1901544
	
	add_trait=proud
	add_trait=cynical
	add_trait=tough_soldier
	add_trait=strong
	add_trait=slothful
	add_trait=wroth

	6442.1.1 = {
		birth=6442.1.1
	}
	6467.1.1 = {
		add_trait=trained_warrior
	}
	6501.1.1 = {
		death=6501.1.1
		give_nickname=nick_the_unready 
	}
}
1921544 = {
	name = Durran #King Durran IXX (Non-canon)
	dynasty = 1544 #Durrandon

	religion=old_gods
	culture=old_first_man

	father = 1911544
	
	add_trait=tough_soldier
	add_trait=strong

	6469.1.1 = {
		birth=6469.1.1
	}
	6485.1.1 = {
		add_trait=trained_warrior
	}
	6515.1.1 = {
		death=6515.1.1
	}
}
1931544 = {
	name = Qarlton #King Qarlton III
	dynasty = 1544 #Durrandon
	
	martial=6
	stewardship=8
	diplomacy=2
	intrigue=5
	learning=3

	religion=old_gods
	culture=old_first_man

	father = 1911544
	
	add_trait=skilled_tactician
	add_trait=honorable
	add_trait=diligent
	add_trait=wroth
	add_trait=proud

	6471.1.1 = {
		birth=6471.1.1
	}
	6487.1.1 = {
		add_trait=skilled_warrior
	}
	6532.1.1 = {
		death=6532.1.1
	}
}
1941544 = {
	name = Qarlton #King Qarlton II the Conqueror
	dynasty = 1544 #Durrandon
	
	martial=7
	stewardship=9
	diplomacy=4
	intrigue=3
	learning=4

	religion=old_gods
	culture=old_first_man

	father = 1931544
	
	add_trait=strong
	add_trait=diligent
	add_trait=authoritative
	add_trait=ambitious
	add_trait=brave
	add_trait=zealous
	add_trait=skilled_tactician

	6490.1.1 = {
		birth=6490.1.1
	}
	6500.1.1 = {
		add_trait=trained_warrior
	}
	6506.1.1 = {
		remove_trait=trained_warrior
		add_trait=master_warrior
	}
	6555.1.1 = {
		death=yes
		give_nickname=nick_the_conqueror
	}
}
1951544 = {
	name = Monfryd #King Monfryd V
	dynasty = 1544 #Durrandon
	
	martial=8
	stewardship=4
	diplomacy=2
	intrigue=3
	learning=1

	religion=old_gods
	culture=old_first_man

	father = 1941544
	
	add_trait=skilled_tactician
	add_trait=ambitious
	add_trait=familyperson
	add_trait=wroth
	add_trait=strong
	add_trait=inspiring_leader
	
	6518.1.1 = {
		birth=6518.1.1
	}
	6532.1.1 = {
		add_trait=poor_warrior
	}
	6540.1.1 = {
		remove_trait=poor_warrior
		add_trait=skilled_warrior
	}
	6567.1.1 = {
		death = { death_reason=death_battle }
	}
}

1961544 = {
	name = Durran #King Durran XX (Non-canon)
	dynasty = 1544 #Durrandon

	religion=old_gods
	culture=old_first_man

	father = 1951544

	6540.1.1 = {
		birth=6540.1.1
	}
	6556.1.1 = {
		add_trait=trained_warrior
	}
	6582.1.1 = {
		death=6582.1.1
	}
}

1971544 = {
	name = Baldric #King Baldric I the Cunning
	dynasty = 1544 #Durrandon
	
	martial=5
	intrigue=10
	diplomacy=9
	stewardship=5
	learning=4

	religion=old_gods
	culture=old_first_man

	father = 1961544
	
	add_trait=elusive_shadow
	add_trait=quick
	add_trait=deceitful
	add_trait=patient
	add_trait=ruthless
	add_trait=proud

	6563.1.1 = {
		birth=6563.1.1
	}
	6582.1.1 = {
		add_trait=trained_warrior
		give_nickname=nick_the_cunning
	}
	6617.1.1 = {
		death=6617.1.1
	}
}
1981544 = {
	name = Durran #King Durran XXI
	dynasty = 1544 #Durrandon
	
	martial=8
	intrigue=6
	diplomacy=11
	stewardship=4
	learning=3

	religion=old_gods
	culture=old_first_man

	father = 1961544
	
	add_trait=grey_eminence
	add_trait=quick
	add_trait=just
	add_trait=ambitious
	add_trait=authoritative

	6582.1.1 = {
		birth=6582.1.1
	}
	6598.1.1 = {
		add_trait=skilled_warrior
	}
	6632.1.1 = {
		death=6632.1.1
	}
}
1991544 = {
	name = Cleoden #King Cleoden I
	dynasty = 1544 #Durrandon
	
	martial=7
	diplomacy=10
	intrigue=5
	stewardship=4
	learning=5

	religion=old_gods
	culture=old_first_man

	father = 1981544
	
	add_trait=skilled_tactician
	add_trait=strong
	add_trait=diligent
	add_trait=honorable
	add_trait=just

	6617.1.1 = {
		birth=6617.1.1
	}
	6632.1.1 = {
		add_trait=skilled_warrior
	}
	6647.1.1 = {
		death=6647.1.1
	}
}
2021544 = {
	name = Maldon #King Maldon IV
	dynasty = 1544 #Durrandon

	religion=old_gods
	culture=old_first_man

	father = 1991544
	
	add_trait=patient
	add_trait=charismatic_negotiator
	add_trait=cynical
	add_trait=honorable

	6635.1.1 = {
		birth=6635.1.1
	}
	6652.1.1 = {
		add_trait=skilled_warrior
	}
	6678.1.1 = {
		death=6678.1.1
	}
}
2031544 = {
	name = Durran #King Durran XXIV
	dynasty = 1544 #Durrandon

	religion=old_gods
	culture=old_first_man

	father = 2021544
	
	add_trait=patient
	add_trait=grey_eminence
	add_trait=honorable
	add_trait=familyperson
	add_trait=humble
	add_trait=strong
	
	6655.1.1 = {
		birth=6655.1.1
	}
	6674.1.1 = {
		add_trait=trained_warrior
		give_nickname=nick_halfblood
	}
	6690.1.1 = {
		death=6690.1.1
	}
}
2041544 = {
	name = Ormund #King Ormund III
	dynasty = 1544 #Durrandon

	religion=the_seven
	culture=old_first_man

	father = 2031544
	
	add_trait=cynical
	add_trait=deceitful
	add_trait=ruthless
	add_trait=diligent
	add_trait=wroth
	add_trait=tough_soldier

	6676.1.1 = {
		birth=6676.1.1
	}
	6694.1.1 = {
		add_trait=skilled_warrior
	}
	6723.1.1 = {
		death=6723.1.1
	}
}


###############################################################################   House Massey  ###############################################################

150046 = {
	name="Maldon"	# Built Stonedance
	dynasty=46

	religion=old_gods
	culture=old_first_man
	
	add_trait=fortune_builder
	add_trait=quick
	add_trait=ambitious

	160.1.1 = {
		birth=160.1.1
	}
	176.1.1 = {
		add_trait=skilled_warrior
	}
	219.1.1 = {
		death=219.1.1
	}
}
151046 = {
	name="Line of Maldon"
	dynasty=46

	religion=old_gods
	culture=old_first_man
	
	occluded=yes
	
	father=150046

	219.1.1 = {
		birth=yes
	}
	6450.1.1 = {
		death=yes
	}
}


1052046 = {
	name="Joshua"	
	dynasty=46

	religion=old_gods
	culture=old_first_man
	
	father=151046

	6432.1.1 = {
		birth=6432.1.1
	}
	6473.1.1 = {
		death=6473.1.1
	}
}

152046 = {
	name="Justin"	#Milk-Eye, A Pirate King
	dynasty=46
	
	martial=7
	diplomacy=5
	stewardship=4
	intrigue=6
	learning=2

	religion=pirate
	culture=old_first_man
	
	add_trait=skilled_tactician
	add_trait=ruthless
	add_trait=ambitious
	add_trait=brave
	add_trait=cruel
	add_trait=pirate
	
	father=1052046

	6450.1.1 = {
		birth=6450.1.1
	}
	6467.1.1 = {
		add_trait=trained_warrior
		give_nickname=nick_milk_eye
	}
	6478.1.1 = {
		effect = {
			spawn_unit = {
				province = 233
				owner = ROOT
				troops = {
					archers = { 33 33 }
					heavy_infantry = { 900 900 }
					light_infantry = { 400 400 }	
					light_cavalry = { 200 200 }		
					knights = { 25 25 }						
				}
				attrition = 1.0
			}
			spawn_unit = {
				province = 233
				owner = ROOT
				troops = {
					archers = { 33 33 }
					heavy_infantry = { 900 900 }
					light_infantry = { 400 400 }	
					light_cavalry = { 200 200 }		
					knights = { 25 25 }						
				}
				attrition = 1.0
				merge = yes
			}
			spawn_unit = {
				province = 233
				owner = ROOT
				troops = {
					archers = { 33 33 }
					heavy_infantry = { 900 900 }
					light_infantry = { 400 400 }	
					light_cavalry = { 200 200 }		
					knights = { 25 25 }						
				}
				attrition = 1.0
				merge = yes
			}
			spawn_unit = {
				province = 233
				owner = ROOT
				troops = {
					archers = { 33 33 }
					heavy_infantry = { 900 900 }
					light_infantry = { 400 400 }	
					light_cavalry = { 200 200 }		
					knights = { 25 25 }						
				}
				attrition = 1.0
				merge = yes
			}
		}
	}
	6512.1.1 = {
		death=6512.1.1
	}
}
1153046 = {
	name="Morden"	
	dynasty=46

	religion=old_gods
	culture=old_first_man
	
	father=152046

	6470.1.1 = {
		birth=6470.1.1
	}
	6534.1.1 = {
		death=6534.1.1
	}
}
153046 = {
	name="Josua"	
	dynasty=46

	religion=old_gods
	culture=old_first_man
	
	add_trait=tough_soldier
	add_trait=brave
	
	father=1153046

	6487.1.1 = {
		birth=6487.1.1
	}
	6504.1.1 = {
		add_trait=poor_warrior
		give_nickname=nick_softspear
	}
	6544.1.1 = {
		death = {
			death_reason = death_duel
			killer = 1941544 #Qarlton II
		}
	}
}
154046 = {
	name="Jason"	#Puppet King of Bar Emmon
	dynasty=46

	religion=old_gods
	culture=old_first_man
	
	add_trait=indulgent_wastrel
	add_trait=content
	add_trait=envious
	add_trait=humble
	
	father=153046

	6506.1.1 = {
		birth=6506.1.1
	}
	6522.1.1 = {
		add_trait=poor_warrior
	}
	6551.1.1 = {
		death=6551.1.1
	}
}
155046 = {
	name="Jonquil"	#Wife of Bar Emmon
	female=yes
	dynasty=46

	religion=old_gods
	culture=old_first_man
	father=153046

	6510.1.1 = {
		birth=6510.1.1
	}
	6558.1.1 = {
		death=6558.1.1
	}
}


6001346 = {
	name="Boros"	# a lord
	dynasty=46

	religion="old_gods"
	culture="old_first_man"

	father=154046

	6530.1.1 = {birth="6530.1.1"}
	6546.1.1 = {add_trait=brave add_trait=poor_warrior}
	6558.1.1 = {add_spouse=5001346}
	6606.1.1 = {death="6606.1.1"}
}
5001346 = {
	name="Lia"
	female=yes

	religion="old_gods"
	culture="old_first_man"

	6530.1.1 = {birth="6530.1.1"}
	6606.1.1 = {death="6606.1.1"}
}
6001846 = {
	name="Gerold"
	dynasty=46

	religion="old_gods"
	culture="old_first_man"

	father=6001346
	mother=5001346

	6567.1.1 = {birth="6567.1.1"}
	6583.1.1 = {add_trait=brave add_trait=trained_warrior}
	6585.1.1 = {add_spouse=5001846}
	6607.4.1 = {
		death = {
			death_reason = death_duel
		}
	}
}
5001846 = {
	name="Roelle"
	female=yes

	religion="old_gods"
	culture="old_first_man"

	6567.1.1 = {birth="6567.1.1"}
	6636.1.1 = {death="6636.1.1"}
}
6001946 = {
	name="Eglantine"	# not a lord
	female=yes
	dynasty=46

	religion="old_gods"
	culture="old_first_man"

	father=6001346
	mother=5001346

	6568.1.1 = {birth="6568.1.1"}
	6641.1.1 = {death="6641.1.1"}
}
6002046 = {
	name="Malessa"	# not a lord
	female=yes
	dynasty=46

	religion="old_gods"
	culture="old_first_man"

	father=6001346
	mother=5001346

	6569.1.1 = {birth="6569.1.1"}
	6615.1.1 = {death="6615.1.1"}
}
6002146 = {
	name="Jaren"	# not a lord
	dynasty=46

	religion="old_gods"
	culture="old_first_man"

	father=6001346
	mother=5001346

	6571.1.1 = {birth="6571.1.1"}
	6587.1.1 = {add_trait=brave add_trait=trained_warrior}
	6607.12.2 = {death="6607.12.2"}
}
6002246 = {
	name="Florian"	# a lord
	dynasty=46

	religion="old_gods"
	culture="old_first_man"

	father=6001846
	mother=5001846

	6588.1.1 = {birth="6588.1.1"}
	6604.1.1 = {add_trait=brave add_trait=trained_warrior}
	6606.1.1 = {add_spouse=5002246}
	6607.4.1={ #Dance of the Dragons
		effect = {
			set_defacto_liege = ROOT
			set_character_flag = against_king
			e_iron_throne = {
				holder_scope = { 
					opinion = {
						modifier = opinion_joined_rebellion
						who = ROOT
						years = 20
					}
				}
			}
			c_dragonstone = {
				holder_scope = { 
					opinion = {
						who = ROOT
						modifier = opinion_joined_cause
					}
					reverse_opinion = {
						modifier = opinion_with_rebel_leader
						who = ROOT
						years = 100
					}
					if = {
						limit = { NOT = { year = 8130 } }
						ROOT = {
							join_attacker_wars = PREV
						}
					}
				}
			}
		}
	}	
	6638.1.1 = {death="6638.1.1"}
}
5002246 = {
	name="Scolera"
	female=yes

	religion="old_gods"
	culture="old_first_man"

	6588.1.1 = {birth="6588.1.1"}
	6638.1.1 = {death="6638.1.1"}
}
6002346 = {
	name="Leona"	# not a lord
	female=yes
	dynasty=46

	religion="old_gods"
	culture="old_first_man"

	father=6001846
	mother=5001846

	6589.1.1 = {birth="6589.1.1"}
	6643.1.1 = {death="6643.1.1"}
}
6002446 = {
	name="Cyrenna"	# not a lord
	female=yes
	dynasty=46

	religion="old_gods"
	culture="old_first_man"

	father=6001846
	mother=5001846

	6590.1.1 = {birth="6590.1.1"}
	6649.1.1 = {death="6649.1.1"}
}
6002546 = {
	name="Leyla"	# not a lord
	female=yes
	dynasty=46

	religion="old_gods"
	culture="old_first_man"

	father=6001846
	mother=5001846

	6593.1.1 = {birth="6593.1.1"}
	6616.1.1 = {death="6616.1.1"}
}
6002646 = {
	name="Alys"	# not a lord
	female=yes
	dynasty=46

	religion="old_gods"
	culture="old_first_man"

	father=6002246
	mother=5002246

	6614.1.1 = {birth="6614.1.1"}
	6638.1.1 = {death="6638.1.1"}
}
6002746 = {
	name="Robin"	# a lord
	dynasty=46

	religion="old_gods"
	culture="old_first_man"

	father=6002246
	mother=5002246

	6616.1.1 = {birth="6616.1.1"}
	6632.1.1 = {add_trait=brave add_trait=poor_warrior}
	6634.1.1 = {add_spouse=5002746}
	6657.1.1 = {death="6657.1.1"}
}
5002746 = {
	name="Alynne"
	female=yes

	religion="old_gods"
	culture="old_first_man"

	6616.1.1 = {birth="6616.1.1"}
	6657.1.1 = {death="6657.1.1"}
}
6002846 = {
	name="Triston"	# not a lord
	dynasty=46

	religion="old_gods"
	culture="old_first_man"

	father=6002246
	mother=5002246

	6618.1.1 = {birth="6618.1.1"}
	6634.1.1 = {add_trait=trained_warrior}
	6669.1.1 = {death="6669.1.1"}
}
6002946 = {
	name="Florian"	# a lord
	dynasty=46

	religion="old_gods"
	culture="old_first_man"

	father=6002746
	mother=5002746

	6638.1.1 = {birth="6638.1.1"}
	6654.1.1 = {add_trait=brave add_trait=trained_warrior}
	6656.1.1 = {add_spouse=5002946}
	6683.1.1 = {death="6683.1.1"}
}
5002946 = {
	name="Mhaegen"
	female=yes

	religion="old_gods"
	culture="old_first_man"

	6638.1.1 = {birth="6638.1.1"}
	6683.1.1 = {death="6683.1.1"}
}
6003046 = {
	name="Mortimer"	# not a lord
	dynasty=46

	religion="old_gods"
	culture="old_first_man"

	father=6002746
	mother=5002746

	6639.1.1 = {birth="6639.1.1"}
	6655.1.1 = {add_trait=brave add_trait=skilled_warrior}
	6679.1.1 = {death="6679.1.1"}
}
6003146 = {
	name="Clayton"	# not a lord
	dynasty=46

	religion="old_gods"
	culture="old_first_man"

	father=6002746
	mother=5002746

	6641.1.1 = {birth="6641.1.1"}
	6657.1.1 = {add_trait=brave add_trait=master_warrior}
	6694.1.1 = {death="6694.1.1"}
}
6003246 = {
	name="Leonette"	# not a lord
	female=yes
	dynasty=46

	religion="old_gods"
	culture="old_first_man"

	father=6002746
	mother=5002746

	6644.1.1 = {birth="6644.1.1"}
	6685.1.1 = {death="6685.1.1"}
}
6003346 = {
	name="Florian"	# not a lord
	dynasty=46

	religion="old_gods"
	culture="old_first_man"

	father=6002946
	mother=5002946

	6662.1.1 = {birth="6662.1.1"}
	6678.1.1 = {add_trait=poor_warrior}
	6680.1.1 = {death="6680.1.1"}
}
6003446 = {
	name="Jeyne"	# not a lord
	female=yes
	dynasty=46

	religion="old_gods"
	culture="old_first_man"

	father=6002946
	mother=5002946

	6663.1.1 = {birth="6663.1.1"}
	6724.1.1 = {death = {death_reason = death_accident}}
}
6003546 = {
	name="Oswell"	# a lord
	dynasty=46

	religion="old_gods"
	culture="old_first_man"

	father=6002946
	mother=5002946

	6664.1.1 = {birth="6664.1.1"}
	6680.1.1 = {add_trait=poor_warrior}
	6682.1.1 = {add_spouse=5003546}
	6721.1.1 = {death="6721.1.1"}
}
5003546 = {
	name="Cyrenna"
	female=yes

	religion="old_gods"
	culture="old_first_man"

	6664.1.1 = {birth="6664.1.1"}
	6721.1.1 = {death="6721.1.1"}
}
6003646 = {
	name="Gilbert"	# not a lord
	dynasty=46

	religion="old_gods"
	culture="old_first_man"

	father=6002946
	mother=5002946

	6665.1.1 = {birth="6665.1.1"}
	6681.1.1 = {add_trait=brave add_trait=poor_warrior}
	6684.1.1 = {death="6684.1.1"}
}
6003746 = {
	name="Ermesande"	# not a lord
	female=yes
	dynasty=46

	religion="old_gods"
	culture="old_first_man"

	father=6003546
	mother=5003546

	6690.1.1 = {birth="6690.1.1"}
	6748.1.1 = {death="6748.1.1"}
}
6003846 = {
	name="Jonquil"	# not a lord
	female=yes
	dynasty=46

	religion="old_gods"
	culture="old_first_man"

	father=6003546
	mother=5003546

	6693.1.1 = {birth="6693.1.1"}
	6751.1.1 = {death="6751.1.1"}
}
6003946 = {
	name="Bethany"	# not a lord
	female=yes
	dynasty=46

	religion="old_gods"
	culture="old_first_man"

	father=6003546
	mother=5003546

	6696.1.1 = {birth="6696.1.1"}
	6731.1.1 = {death="6731.1.1"}
}
6004046 = {
	name="Will"	# a lord
	dynasty=46

	religion="old_gods"
	culture="old_first_man"

	father=6003546
	mother=5003546

	6697.1.1 = {birth="6697.1.1"}
	6713.1.1 = {add_trait=brave add_trait=trained_warrior}
	6715.1.1 = {add_spouse=5004046}
	6736.1.1 = {death="6736.1.1"}
}
5004046 = {
	name="Moelle"
	female=yes

	religion="old_gods"
	culture="old_first_man"

	6697.1.1 = {birth="6697.1.1"}
	6756.1.1 = {death="6756.1.1"}
}
8050046 = {
	name="Humfrey"
	dynasty=46
	religion="old_gods"
	culture="old_first_man"	
	
	father=6004046
	mother=5004046
	
	6722.1.1 = {
		birth="6722.1.1"
	}
	6738.1.1 = {
		add_trait="brave"
		add_trait=trained_warrior
	}
	6744.1.1 = {
		add_spouse=4050046
	}
	6772.1.1 = {
		death="6772.1.1"
	}
}
4050046 = {
	name="Leona"
	female=yes

	religion="old_gods"
	culture="old_first_man"

	6722.1.1 = {
		birth="6722.1.1"
	}
	6772.1.1 = {
		death="6772.1.1"
	}
}
8051046 = {
	name="Falena"
	female = yes
	dynasty=46
	religion="old_gods"
	culture="old_first_man"	
	
	father=6004046
	mother=5004046
	
	6724.1.1 = {
		birth="6724.1.1"
	}
}



###################################################################   Dornish Marches  #####################################################################

######  House Caron

300301 = {
	name="Lyonel" # a lord
	dynasty=301	
	
	religion="old_gods"	
	culture="old_first_man"		

	6452.1.1 = {birth="6452.1.1"}
	6468.1.1 = {add_trait="brave"}
	6470.1.1 = {add_spouse=40099301}
	6481.1.1 = {add_trait= ill death = {death_reason = death_trait}} # ill
}
40099301 = {
	name="Shyra" # Lyonel's wife
	female=yes
	
	religion="old_gods"	
	culture="old_first_man"		
	
	6456.1.1 = {birth="6456.1.1"}
	6510.1.1 = {death="6510.1.1"}
}
301301 = {
	name="Symon" # Lyonel's son, a lord
	dynasty=301	
	
	religion="old_gods"	
	culture="old_first_man"		

	father=300301
	mother=40099301
		
	6473.1.1 = {birth="6473.1.1" }
	6491.1.1 = {add_trait="brave"}
	6494.1.1 = { add_spouse = 401301 }
	6505.1.1 = {death ={death_reason = death_accident}}
}
60000301 = {
	name="Melinda" # Lyonel's daughter, not a lord
	dynasty=301	
	female=yes
	
	religion="old_gods"	
	culture="old_first_man"		

	father=300301
	mother=40099301
	
	6472.1.1 = {birth="6472.1.1"}
	6498.1.1 = {death ={death_reason = death_dungeon}}
}
401301 = {
	name="Ilena" # Simon's wife
	female=yes
	
	religion="old_gods"	
	culture="old_first_man"		
	
	6478.1.1 = {birth="6478.1.1"}
	6533.1.1 = {death="6533.1.1"}
}
302301 = {
	name="Rolland" # Simon's first son, a lord
	dynasty=301	
	
	religion="old_gods"	
	culture="old_first_man"		

	father=301301
	mother=401301
	
	6501.1.1 = {birth="6501.1.1"}
	6517.1.1 = {add_trait="brave"}
	6531.1.1 = {
		death ={
			death_reason = death_battle
		}
	}
}
303301 = {
	name="Byron" # Simon's second son, a lord
	dynasty=301	
	
	religion="old_gods"	
	culture="old_first_man"		

	father=301301
	mother=401301
	
	6502.1.1 = {birth="6502.1.1"}
	6518.1.1 = {add_trait="brave"}
	6562.1.1 = {death="6562.1.1"}
}
304301 = {
	name="Bryce" # Byron's son, a lord
	dynasty=301	
	
	religion="old_gods"	
	culture="old_first_man"		

	father=303301
	
	6541.1.1 = {birth="6541.1.1"}
	6557.1.1 = {add_trait="brave"}
	6588.1.1 = {death="6588.1.1"}
}
305301 = {
	name="Royce" # Bryce's son, a lord,
	dynasty=301	
	
	religion="old_gods"	
	culture="old_first_man"		

	father=304301
	
	6568.1.1 = {birth="6568.1.1"}
	6584.1.1 = {
		add_trait="brave"
		add_trait=trained_warrior
	}
	6620.1.1 = {death="6620.1.1"}
}
306301 = {
	name="Lyonel" # Royces son, a lord
	dynasty=301	
	
	religion="old_gods"	
	culture="old_first_man"		

	father=305301
	
	6603.1.1 = {birth="6603.1.1"}
	6619.1.1 = {add_trait="brave"}
	6652.1.1 = {death="6652.1.1"}
}
307301 = {
	name="Barrystan" # Lyonel's son, a lord
	dynasty=301	
	
	religion="old_gods"	
	culture="old_first_man"		

	father=306301
	
	6631.1.1 = {birth="6631.1.1"}
	6647.1.1 = {add_trait="brave"}
	6665.1.1 = {death="6665.1.1"}
}
308301 = {
	name="Pearse" #  Barrystan's son, a lord
	dynasty=301	
	
	religion="old_gods"	
	culture="old_first_man"		

	father=307301
	
	6653.1.1 = {birth="6653.1.1"}
	6659.1.1 = {
		add_trait="brave"
		add_trait="poet"
		add_trait="trained_warrior"
	}
	6704.1.1 = {death="6704.1.1"}
}
309301 = {
	name="Balon" # Pearse's son, a lord
	dynasty=301	
	
	religion="old_gods"	
	culture="old_first_man"		

	father=308301
	
	6671.1.1 = {birth="6671.1.1"}
	6687.1.1 = {add_trait="brave"}
	6724.1.1 = {death="6724.1.1"}
}
310301 = {
	name="Casper" # Balon's son, a lord
	dynasty=301	
	
	religion="old_gods"	
	culture="old_first_man"		

	father=309301
	
	6696.1.1 = {birth="6696.1.1"}
	6712.1.1 = {add_trait="brave"}
	6740.1.1 = {death="6740.1.1"}
}


########   House Dondarrion

300303 = {		
	name="Alaric"	# Founder, a lord	
	dynasty=303	
	
	religion="old_gods"	
	culture="old_first_man"	

	6429.1.1 = {birth="6429.1.1"}
	6445.1.1 = {add_trait="brave"}
	6484.1.1 = {death="6484.1.1"}
}
301303 = {		
	name="Donnel"	# Alaric's son, a lord	
	dynasty=303	
	
	religion="old_gods"	
	culture="old_first_man"	

	father=300303
	
	6456.1.1 = {birth="6456.1.1"}
	6472.1.1 = {add_trait="brave"}
	6521.1.1 = {death="6521.1.1"}
}
302303 = {		
	name="Harbert"	# Donnel's son, a lord	
	dynasty=303	
	
	religion="old_gods"	
	culture="old_first_man"	

	father=301303
	
	6488.1.1 = {birth="6488.1.1"}
	6504.1.1 = {add_trait="brave"}
	6547.1.1 = {death="6547.1.1"}
}
303303 = {		
	name="Galladon"	# Harbert's son, a lord	
	dynasty=303	
	
	religion="old_gods"	
	culture="old_first_man"	

	father=302303
	
	6519.1.1 = {birth="6519.1.1"}
	6535.1.1 = {add_trait="brave"}
	6564.1.1 = {death="6564.1.1"}
}
304303 = {
	name="Maric"	# Galladon's son, a lord	
	dynasty=303	
	
	religion="old_gods"	
	culture="old_first_man"	

	father=303303
	
	6550.1.1 = {birth="6550.1.1"}
	6566.1.1 = {add_trait="brave"}
	6568.1.1 = {add_spouse=404303}
	6585.1.1 = {
		death = { death_reason = death_accident }
	}
}
404303 = {
	name="Eleanor"	# Maric's wife
	female=yes
	
	religion="old_gods"	
	culture="old_first_man"	

	6553.1.1 = {birth="6553.1.1"}
	6585.1.1 = {
		death = { death_reason = death_accident }
	}
}
305303 = {
	name="Alaric"	# Maric's first son, not a lord	
	dynasty=303	
	
	religion="old_gods"	
	culture="old_first_man"	

	father=304303
	mother=404303
	
	6582.1.1 = {birth="6582.1.1"}
	6585.1.1 = {
		death = { death_reason = death_accident }
	}
}
306303 = {
	name="Rickard"	# Maric's second son, a lord	
	dynasty=303	
	
	religion="old_gods"	
	culture="old_first_man"	

	father=304303
	mother=404303
	
	6584.1.1 = {birth="6584.1.1"}
	6600.1.1 = {add_trait="brave"}
	6638.1.1 = {
		death = { death_reason = death_battle } 
	}
}
307303 = {
	name="Devan"	# Rickard's son, a lord	
	dynasty=303	
	
	religion="old_gods"	
	culture="old_first_man"	

	father=306303
	
	6613.1.1 = {birth="6613.1.1"}
	6629.1.1 = {add_trait="brave"}
	6654.1.1 = {death="6654.1.1"}
}
200303 = {
	name="Lyonel"	# Canon, Devan's son, a lord	
	dynasty=303	
	
	religion="old_gods"	
	culture="old_first_man"	

	father=307303
	
	6636.1.1 = {birth="6636.1.1"}
	6652.1.1 = {add_trait="brave"}
	6690.1.1 = {death="6690.1.1"}
}
250303 = {
	name="Jena"	#
	female = yes
	dynasty=303	
	
	religion="old_gods"	
	culture="old_first_man"	

	father=307303
	
	6643.1.1 = {birth="6643.1.1"}
	6690.1.1 = {death="6690.1.1"}
}
201303 = {
	name="Manfred"	# Canon, Lyonel's son, a lord	
	dynasty=303	
	
	religion="old_gods"	
	culture="old_first_man"	

	father=200303
	
	6664.1.1 = {birth="6664.1.1"}
	6680.1.1 = {add_trait="brave"}
	6719.1.1 = {death="6719.1.1"}
}
310303 = {
	name="Gulian"	# Manfred's son, a lord	
	dynasty=303	
	
	religion="old_gods"	
	culture="old_first_man"	

	father=201303
	
	6695.1.1 = {birth="6695.1.1"}
	6711.1.1 = {add_trait="brave"}
	6749.1.1 = {death="6749.1.1"}
}


#####  House Selmy

300302 = {
	name="Barristan"	# a lord
	dynasty=302

	religion="old_gods"
	culture="old_first_man"

	6428.1.1 = {birth="6428.1.1"}
	6444.1.1 = {add_trait="brave"}
	6448.1.1 = {add_spouse=400302}
	6491.1.1 = {death="6491.1.1"}
}
400302 = {
	name="Alerie"	# 
	female=yes

	religion="old_gods"
	culture="old_first_man"

	6428.1.1 = {birth="6428.1.1"}
	6480.1.1 = {death="6480.1.1"}
}
301302 = {
	name="Lyonel"	# Barristan's son, a lord
	dynasty=302

	religion="old_gods"
	culture="old_first_man"

	father=300302
	mother=400302

	6460.1.1 = {birth="6460.1.1"}
	6476.1.1 = {add_trait="brave"}
	6515.1.1 = {death="6515.1.1"}
}
302302 = {
	name="Othell"	# Barristan's son, a lord
	dynasty=302

	religion="old_gods"
	culture="old_first_man"

	father=300302
	mother=400302

	6462.1.1 = {birth="6462.1.1"}
	6478.1.1 = {add_trait="brave"}
	6482.1.1 = {add_spouse=402302}
	6518.1.1 = {death="6518.1.1"}
}
402302 = {
	name="Mylenda"	# 
	female=yes

	religion="old_gods"
	culture="old_first_man"

	6463.1.1 = {birth="6463.1.1"}
	6520.1.1 = {death="6520.1.1"}
}
303302 = {
	name="Cyrenna"	# Othell's daughter, a lord
	female=yes
	dynasty=302

	religion="old_gods"
	culture="old_first_man"

	father=302302
	mother=402302

	6482.1.1 = {birth="6482.1.1"}
	6543.1.1 = {death="6543.1.1"}
}
304302 = {
	name="Roelle"	# Othell's daughter, not a lord
	female=yes
	dynasty=302

	religion="old_gods"
	culture="old_first_man"

	father=302302
	mother=402302

	6483.1.1 = {birth="6483.1.1"}
	6536.1.1 = {death="6536.1.1"}
}
305302 = {
	name="Elynell"	# Othell's daughter, not a lord
	female=yes
	dynasty=302

	religion="old_gods"
	culture="old_first_man"

	father=302302
	mother=402302

	6486.1.1 = {birth="6486.1.1"}
	6544.1.1 = {death="6544.1.1"}
}
306302 = {
	name="Brienne"	# Othell's daughter, not a lord
	female=yes
	dynasty=302

	religion="old_gods"
	culture="old_first_man"
	
	father=302302
	
	add_trait="bastard"
	give_nickname = nick_storm

	6486.1.1 = {birth="6486.1.1"}
	6509.1.1 = {death="6509.1.1"}
}
307302 = {
	name="Ravella"	# Othell's daughter, not a lord
	female=yes
	dynasty=302

	religion="old_gods"
	culture="old_first_man"

	father=302302
	mother=402302

	6489.1.1 = {birth="6489.1.1"}
	6547.1.1 = {death="6547.1.1"}
}
308302 = {
	name="Barristan"	# Othell's son, not a lord
	dynasty=302

	religion="old_gods"
	culture="old_first_man"

	father=302302
	mother=402302

	6493.1.1 = {birth="6493.1.1"}
	6494.1.1 = {death="6494.1.1"}
}
309302 = {
	name="Alerie"	# Othell's daughter, not a lord
	female=yes
	dynasty=302

	religion="old_gods"
	culture="old_first_man"

	father=302302
	
	add_trait="bastard"
	give_nickname = nick_storm

	6493.1.1 = {birth="6493.1.1"}
	6547.1.1 = {death="6547.1.1"}
}
310302 = {
	name="Gladden"	# Othell's son, not a lord
	dynasty=302

	religion="old_gods"
	culture="old_first_man"

	father=302302
	
	add_trait="bastard"
	give_nickname = nick_storm

	6494.1.1 = {birth="6494.1.1"}
	6510.1.1 = {add_trait="brave"}
	6528.1.1 = {death="6528.1.1"}
}
311302 = {
	name="Humfrey"	# Cyrenna's son, a lord
	dynasty=302

	religion="old_gods"
	culture="old_first_man"

	mother=303302

	6509.1.1 = {birth="6509.1.1"}
	6525.1.1 = {add_trait="brave"}
	6529.1.1 = {add_spouse=411302}
	6557.1.1 = {death = {death_reason = death_murder_unknown}}
}
411302 = {
	name="Lia"	# 
	female=yes

	religion="old_gods"
	culture="old_first_man"

	6509.1.1 = {birth="6509.1.1"}
	6562.1.1 = {death="6562.1.1"}
}
312302 = {
	name="Barristan"	# Humfrey's son, not a lord
	dynasty=302

	religion="old_gods"
	culture="old_first_man"

	father=311302
	mother=411302

	6531.1.1 = {birth="6531.1.1"}
	6538.1.1 = {death="6538.1.1"}
}
313302 = {
	name="Lyonel"	# Humfrey's son, a lord
	dynasty=302

	religion="old_gods"
	culture="old_first_man"

	father=311302
	mother=411302

	6538.1.1 = {birth="6538.1.1"}
	6554.1.1 = {add_trait="brave"}
	6562.1.1 = {add_spouse=413302}
	6586.1.1 = {death="6586.1.1"}
}
413302 = {
	name="Brella"	# 
	female=yes

	religion="old_gods"
	culture="old_first_man"

	6544.1.1 = {birth="6544.1.1"}
	6590.1.1 = {death="6590.1.1"}
}
315302 = {
	name="Othell"	# Humfrey's son, not a lord
	dynasty=302

	religion="old_gods"
	culture="old_first_man"

	father=311302
	
	add_trait="bastard"
	give_nickname = nick_storm

	6538.1.1 = {birth="6538.1.1"}
	6554.1.1 = {add_trait="brave"}
	6612.1.1 = {death="6612.1.1"}
}
316302 = {
	name="Shireen"	# Humfrey's daughter, not a lord
	female=yes
	dynasty=302

	religion="old_gods"
	culture="old_first_man"

	father=311302
	mother=411302

	6539.1.1 = {birth="6539.1.1"}
	6603.1.1 = {death="6603.1.1"}
}
317302 = {
	name="Bryce"	# Humfrey's son, not a lord
	dynasty=302

	religion="old_gods"
	culture="old_first_man"

	father=311302
	
	add_trait="bastard"
	give_nickname = nick_storm

	6540.1.1 = {birth="6540.1.1"}
	6556.1.1 = {add_trait="brave"}
	6610.1.1 = {death="6610.1.1"}
}
318302 = {
	name="Myles"	# Lyonel's son, a lord. Sebera Selmy's father
	dynasty=302

	religion="old_gods"
	culture="old_first_man"

	father=313302
	mother=413302

	6563.1.1 = {birth="6563.1.1"}
	6579.1.1 = {add_trait="brave"}
	6614.1.1 = {death="6614.1.1"}
}
418302 = {
	name="Darla"	# Myles's wife
	female=yes

	religion="old_gods"
	culture="old_first_man"

	6558.1.1 = {birth="6558.1.1"}
	6575.1.1 = {add_spouse=318302} # Myles Selmy
	6607.1.1 = {death="6607.1.1"}
}
321302 = {
	name="Darran"	# Myle's brother, Lyonel's son, Sebara's uncle,
	dynasty=302

	religion="old_gods"
	culture="old_first_man"

	father=313302
	mother=413302

	6571.1.1 = {birth="6571.1.1"}
	6609.1.1 = {death= {death_reason=death_battle}} # Dance of Dragons
}
40010302 = {
	name="Kerena" # Lyonel's daughter,
	dynasty=302
	female=yes

	religion="old_gods"
	culture="old_first_man"
	
	father=313302
	mother=413302

	6578.1.1 = {birth="6578.1.1"}
	6649.1.1 = {death="6649.1.1"}
}
320302 = {
	name="Osmera"	# Lyonel's daughter,
	female=yes
	dynasty=302

	religion="old_gods"
	culture="old_first_man"

	father=313302
	mother=413302

	6581.1.1 = {birth="6581.1.1"}
	6656.1.1 = {death="6656.1.1"}
}
322302 = {
	name="Sebara"	# Myle's eldest daughter, Lady of Harvest Hall at the time of the Dornish Conquest
	dynasty=302
	female=yes

	religion="old_gods"
	culture="old_first_man"

	father=318302 # Myles Selmy
	mother=418302

	6588.1.1 = {birth="6588.1.1"}
	6645.1.1 = {death="6645.1.1"}
}
323302 = {
	name="Tysane" #
	female=yes
	dynasty=302

	religion="old_gods"
	culture="old_first_man"

	father=318302 # Myles Selmy
	mother=418302

	6581.1.1 = {birth="6581.1.1"}
	6640.1.1 = {death="6640.1.1"}
}
324302 = {
	name="Gerbert"	# Once heir of Myles Selmy,
	dynasty=302

	religion="old_gods"
	culture="old_first_man"

	father=318302 # Myles Selmy
	mother=418302

	6582.1.1 = {birth="6582.1.1"}
	6609.1.1 = {death= {death_reason=death_battle}}
}

327302 = {
	name="Beren"	# Sebara's son, a lord. Married Tynalla Cafferen
	dynasty=302

	religion="old_gods"
	culture="old_first_man"

	mother=322302 # Sebara Selmy

	6604.1.1 = {birth="6604.1.1"}
	6620.1.1 = {add_trait="brave"}
	6654.1.1 = {death="6654.1.1"}
}
328302 = {
	name="Halwin"	# Sebara's son, not a lord
	dynasty=302

	religion="old_gods"
	culture="old_first_man"

	mother=322302 # Sebara Selmy

	6608.1.1 = {birth="6608.1.1"}
	6657.1.1 = {death="6657.1.1"}
}

602302 = {
	name="Ellos"	# Sebara's son, studying to become a Maester
	dynasty=302

	religion="old_gods"
	culture="old_first_man"

	mother=322302 # Sebara Selmy

	6618.1.1 = {birth="6618.1.1"}
	6634.1.1 = {add_trait=mastermind_theologian}
	6640.1.1 = {add_trait=maester}
	6677.1.1 = {death="6677.1.1"}
}
329302 = {
	name="Balon"	# Beren's son, Sebara's grandson, not a lord
	dynasty=302

	religion="old_gods"
	culture="old_first_man"

	father=327302 # Beren Selmy

	6628.1.1 = {birth="6628.1.1"}
	6644.1.1 = {add_trait="brave"}
	6645.1.1 = {death= {death_reason=death_accident}}
}
330302 = {
	name="Beram"	# Beren's son, Sebara's grandson, a lord
	dynasty=302

	religion="old_gods"
	culture="old_first_man"

	father=327302 # Beren Selmy

	6630.1.1 = {birth="6630.1.1"}
	6646.1.1 = {add_trait="brave"}
	6685.1.1 = {death="6685.1.1"}
}
331302 = {
	name="Beonelle"	# Arstan's daughter, not a lord
	dynasty=302
	female=yes

	religion="old_gods"
	culture="old_first_man"

	father=327302 # Beren Selmy

	6633.1.1 = {birth="6633.1.1"}
	6660.1.1 = {death="6660.1.1"}
}
332302 = {
	name="Barristan"	# Beram's son, a lord
	dynasty=302

	religion="old_gods"
	culture="old_first_man"

	father=330302 # Beram Selmy

	6663.1.1 = {birth="6663.1.1"}
	6679.1.1 = {add_trait="brave"}
	6738.1.1 = {death="6738.1.1"}
}


####  House Swann

1000306 = {
	name="Lomas"	# a lord
	dynasty=306

	religion="old_gods"
	culture="old_first_man"

	6444.1.1 = {birth="6444.1.1"}
	6460.1.1 = {add_trait=poor_warrior}
	6462.1.1 = {add_spouse=4000306}
	6510.1.1 = {death="6510.1.1"}
}
4000306 = {
	name="Senelle"
	female=yes

	religion="old_gods"
	culture="old_first_man"

	6444.1.1 = {birth="6444.1.1"}
	6510.1.1 = {death="6510.1.1"}
}
1001306 = {
	name="Andrew"	# a lord
	dynasty=306

	religion="old_gods"
	culture="old_first_man"

	father=1000306
	mother=4000306

	6477.1.1 = {birth="6477.1.1"}
	6493.1.1 = {add_trait=brave add_trait=skilled_warrior}
	6495.1.1 = {add_spouse=4001306}
	6540.1.1 = {death="6540.1.1"}
}
4001306 = {
	name="Meredyth"
	female=yes

	religion="old_gods"
	culture="old_first_man"

	6477.1.1 = {birth="6477.1.1"}
	6540.1.1 = {death="6540.1.1"}
}
1002306 = {
	name="Rohanne"	# not a lord
	female=yes
	dynasty=306

	religion="old_gods"
	culture="old_first_man"

	father=1001306
	mother=4001306

	6503.1.1 = {birth="6503.1.1"}
	6554.1.1 = {death="6554.1.1"}
}
1003306 = {
	name="Hugh"	# a lord
	dynasty=306

	religion="old_gods"
	culture="old_first_man"

	father=1001306
	mother=4001306

	6504.1.1 = {birth="6504.1.1"}
	6520.1.1 = {add_trait=trained_warrior}
	6522.1.1 = {add_spouse=4003306}
	6553.1.1 = {death="6553.1.1"}
}
4003306 = {
	name="Barra"
	female=yes

	religion="old_gods"
	culture="old_first_man"

	6504.1.1 = {birth="6504.1.1"}
	6553.1.1 = {death="6553.1.1"}
}
1004306 = {
	name="Robin"	# not a lord
	dynasty=306

	religion="old_gods"
	culture="old_first_man"

	father=1001306
	mother=4001306

	6507.1.1 = {birth="6507.1.1"}
	6523.1.1 = {add_trait=brave add_trait=trained_warrior}
	6565.1.1 = {death="6565.1.1"}
}
1005306 = {
	name="Brus"	# a lord
	dynasty=306

	religion="old_gods"
	culture="old_first_man"

	father=1003306
	mother=4003306

	6523.1.1 = {birth="6523.1.1"}
	6539.1.1 = {add_trait=brave add_trait=trained_warrior}
	6541.1.1 = {add_spouse=4005306}
	6579.1.1 = {death="6579.1.1"}
}
4005306 = {
	name="Selyse"
	female=yes

	religion="old_gods"
	culture="old_first_man"

	6523.1.1 = {birth="6523.1.1"}
	6579.1.1 = {death="6579.1.1"}
}
1006306 = {
	name="Leona"	# not a lord
	female=yes
	dynasty=306

	religion="old_gods"
	culture="old_first_man"

	father=1005306
	mother=4005306

	6555.1.1 = {birth="6555.1.1"}
	6610.1.1 = {death="6610.1.1"}
}
1007306 = {
	name="Maric"	# a lord
	dynasty=306

	religion="old_gods"
	culture="old_first_man"

	father=1005306
	mother=4005306

	6558.1.1 = {birth="6558.1.1"}
	6574.1.1 = {add_trait=poor_warrior}
	6576.1.1 = {add_spouse=4007306}
	6594.1.1 = {death = {death_reason = death_murder}}
}
4007306 = {
	name="Mylenda"
	female=yes

	religion="old_gods"
	culture="old_first_man"

	6558.1.1 = {birth="6558.1.1"}
	6594.1.1 = {death="6594.1.1"}
}
1008306 = {
	name="Gowen"	# a lord
	dynasty=306

	religion="old_gods"
	culture="old_first_man"

	father=1007306
	mother=4007306

	6578.1.1 = {birth="6578.1.1"}
	6594.1.1 = {add_trait=brave add_trait=trained_warrior}
	6596.1.1 = {add_spouse=4008306}
	6632.1.1 = {death="6632.1.1"}
}
4008306 = {
	name="Brella"
	female=yes

	religion="old_gods"
	culture="old_first_man"

	6578.1.1 = {birth="6578.1.1"}
	6632.1.1 = {death="6632.1.1"}
}
1009306 = {
	name="Cressen"	# not a lord
	dynasty=306

	religion="old_gods"
	culture="old_first_man"

	father=1007306
	mother=4007306

	6581.1.1 = {birth="6581.1.1"}
	6597.1.1 = {add_trait=poor_warrior}
	6619.1.1 = {death="6619.1.1"}
}
1010306 = {
	name="Dalla"	# not a lord
	female=yes
	dynasty=306

	religion="old_gods"
	culture="old_first_man"

	father=1007306
	mother=4007306

	6582.1.1 = {birth="6582.1.1"}
	6616.1.1 = {death="6616.1.1"}
}
1011306 = {
	name="Thurgood"	# a lord
	dynasty=306

	religion="old_gods"
	culture="old_first_man"

	father=1008306
	mother=4008306

	6596.1.1 = {birth="6596.1.1"}
	6612.1.1 = {add_trait=brave add_trait=master_warrior}
	6614.1.1 = {add_spouse=4011306}
	6671.1.1 = {death="6671.1.1"}
}
4011306 = {
	name="Emma"
	female=yes

	religion="old_gods"
	culture="old_first_man"

	6596.1.1 = {birth="6596.1.1"}
	6671.1.1 = {death="6671.1.1"}
}
1012306 = {
	name="Rohanne"	# not a lord
	female=yes
	dynasty=306

	religion="old_gods"
	culture="old_first_man"

	father=1008306
	mother=4008306

	6597.1.1 = {birth="6597.1.1"}
	6658.1.1 = {death="6658.1.1"}
}
1013306 = {
	name="Bryce"	# a lord
	dynasty=306

	religion="old_gods"
	culture="old_first_man"

	father=1011306
	mother=4011306

	6623.1.1 = {birth="6623.1.1"}
	6639.1.1 = {add_trait=brave add_trait=skilled_warrior}
	6641.1.1 = {add_spouse=4013306}
	6675.1.1 = {death="6675.1.1"}
}
4013306 = {
	name="Belandra"
	female=yes

	religion="old_gods"
	culture="old_first_man"

	6623.1.1 = {birth="6623.1.1"}
	6675.1.1 = {death="6675.1.1"}
}
1014306 = {
	name="Thurgood"	# not a lord
	dynasty=306

	religion="old_gods"
	culture="old_first_man"

	father=1011306
	mother=4011306

	6626.1.1 = {birth="6626.1.1"}
	6642.1.1 = {add_trait=brave add_trait=skilled_warrior}
	6682.1.1 = {death="6682.1.1"}
}
1015306 = {
	name="Barra"	# not a lord
	female=yes
	dynasty=306

	religion="old_gods"
	culture="old_first_man"

	father=1013306
	mother=4013306

	6642.1.1 = {birth="6642.1.1"}
	6644.1.1 = {death = {death_reason = death_accident}}
}
1016306 = {
	name="Ravella"	# not a lord
	female=yes
	dynasty=306

	religion="old_gods"
	culture="old_first_man"

	father=1013306
	mother=4013306

	6643.1.1 = {birth="6643.1.1"}
	6690.1.1 = {death="6690.1.1"}
}
1017306 = {
	name="Davos"	# a lord
	dynasty=306

	religion="old_gods"
	culture="old_first_man"

	father=1013306
	mother=4013306

	6645.1.1 = {birth="6645.1.1"}
	6661.1.1 = {add_trait=brave add_trait=skilled_warrior}
	6663.1.1 = {add_spouse=4017306}
	6694.1.1 = {death="6694.1.1"}
}
4017306 = {
	name="Shireen"
	female=yes

	religion="old_gods"
	culture="old_first_man"

	6645.1.1 = {birth="6645.1.1"}
	6694.1.1 = {death="6694.1.1"}
}
1018306 = {
	name="Jon"	# a lord
	dynasty=306

	religion="old_gods"
	culture="old_first_man"

	father=1017306
	mother=4017306

	6678.1.1 = {birth="6678.1.1"}
	6694.1.1 = {add_trait=poor_warrior}
	6696.1.1 = {add_spouse=4018306}
	6714.1.1 = {death = {death_reason = death_murder}}
}
4018306 = {
	name="Elenei"
	female=yes

	religion="old_gods"
	culture="old_first_man"

	6678.1.1 = {birth="6678.1.1"}
	6714.1.1 = {death="6714.1.1"}
}
1019306 = {
	name="Brienne"	# not a lord
	female=yes
	dynasty=306

	religion="old_gods"
	culture="old_first_man"

	father=1017306
	mother=4017306

	6681.1.1 = {birth="6681.1.1"}
	6742.1.1 = {death="6742.1.1"}
}
1020306 = {
	name="Sebastion"	# a lord
	dynasty=306

	religion="old_gods"
	culture="old_first_man"

	father=1018306
	mother=4018306

	6701.1.1 = {birth="6701.1.1"}
	6717.1.1 = {add_trait=brave add_trait=trained_warrior}
	6719.1.1 = {add_spouse=4020306}
	6767.1.1 = {death="6767.1.1"}
}
4020306 = {
	name="Alerie"
	female=yes

	religion="old_gods"
	culture="old_first_man"

	6701.1.1 = {birth="6701.1.1"}
	6767.1.1 = {death="6767.1.1"}
}
1021306 = {
	name="Richard"	# not a lord
	dynasty=306

	religion="old_gods"
	culture="old_first_man"

	father=1018306
	mother=4018306

	6704.1.1 = {birth="6704.1.1"}
	6720.1.1 = {add_trait=brave add_trait=poor_warrior}
	6768.1.1 = {death="6768.1.1"}
}
1022306 = {
	name="Barristan"	# a lord
	dynasty=306

	religion="old_gods"
	culture="old_first_man"

	father=1020306
	mother=4020306

	6733.1.1 = {birth="6733.1.1"}
	6749.1.1 = {add_trait=brave add_trait=trained_warrior}
	6751.1.1 = {add_spouse=4022306}
	6788.1.1 = {death="6788.1.1"}
}
4022306 = {
	name="Matrice"
	female=yes

	religion="old_gods"
	culture="old_first_man"

	6733.1.1 = {birth="6733.1.1"}
	6788.1.1 = {death="6788.1.1"}
}
1023306 = {
	name="Allard"	# a lord
	dynasty=306

	religion="old_gods"
	culture="old_first_man"

	father=1022306
	mother=4022306

	6753.1.1 = {birth="6753.1.1"}
	6769.1.1 = {add_trait=brave add_trait=trained_warrior}
	6771.1.1 = {add_spouse=4023306}
	6826.1.1 = {death="6826.1.1"}
}
4023306 = {
	name="Rhea"
	female=yes

	religion="old_gods"
	culture="old_first_man"

	6753.1.1 = {birth="6753.1.1"}
	6826.1.1 = {death="6826.1.1"}
}
1024306 = {
	name="Steffon"	# a lord
	dynasty=306

	religion="old_gods"
	culture="old_first_man"

	father=1023306
	mother=4023306

	6785.1.1 = {birth="6785.1.1"}
	6801.1.1 = {add_trait=brave add_trait=poor_warrior}
	6850.1.1 = {death="6850.1.1"}
}
1025306 = {
	name="Mary"	# not a lord
	female=yes
	dynasty=306

	religion="old_gods"
	culture="old_first_man"

	father=1023306
	mother=4023306

	6788.1.1 = {birth="6788.1.1"}
	6846.1.1 = {death="6846.1.1"}
}



###
### HOUSE TARTH (id = 54)
### ID (for new character only) : 200+ for canon character / 300+ for non-canon character / 400+ for wives
###
### Nacodaco
150054 = {
	name="Edwyn"	# a lord
	dynasty=881810

	religion=old_gods
	culture=old_first_man
	
	give_nickname=nick_evenstar
	add_trait=patient
	add_trait=proud
	add_trait=gregarious
	add_trait=familyperson
	add_trait=quick
	add_trait=charismatic_negotiator

	3010.1.1 = {birth="3010.1.1"}
	3026.1.1 = {add_trait="skilled_warrior"}
	3072.1.1 = {death="3072.1.1"}
}
151054 = {
	name="Brienne"	# a lord
	female=yes
	dynasty=881810

	religion=old_gods
	culture=old_first_man
	
	add_trait=fair
	
	father = 150054

	3035.1.1 = {birth="3035.1.1"}
	3095.1.1 = {death="3095.1.1"}
}
152054 = {
	name="Line of Edwyn Evenstar"	# a lord
	dynasty=881810

	religion=old_gods
	culture=old_first_man
	
	occluded = yes
	
	father = 150054
	
	3072.1.1 = {birth="3072.1.1"}
	6402.1.1 = {death="6402.1.1"}
}
153054 = {
	name="Selwyn"	# a lord
	dynasty=881810

	religion=old_gods
	culture=old_first_man
	
	father = 152054

	6402.1.1 = {birth="6402.1.1"}
	6418.1.1 = {add_trait="brave" add_trait="skilled_warrior"}
	6454.1.1 = {death="6454.1.1"}
}
60000054 = {
	name="Daven"	# a lord
	dynasty=881810

	religion=old_gods
	culture=old_first_man
	
	father = 153054

	6432.1.1 = {birth="6432.1.1"}
	6448.1.1 = {add_trait="brave" add_trait="skilled_warrior"}
	6464.2.1 = {add_spouse=40000054}
	6466.1.1 = {death = {death_reason = death_accident}}
}
40000054 = {
	name="Syella"	# 
	female=yes

	religion=old_gods
	culture=old_first_man

	6438.1.1 = {birth="6438.1.1"}
	6496.1.1 = {death="6496.1.1"}
}
300054 = {
	name="Selwyn"	# a lord
	dynasty=881810

	religion=old_gods
	culture=old_first_man
	
	father=60000054
	mother=40000054

	6458.1.1 = {birth="6458.1.1"}
	6474.1.1 = {add_trait="brave" add_trait="skilled_warrior"}
	6474.2.1 = {add_spouse=400054}
	6517.1.1 = {death = {death_reason = death_battle}}
}
60100054 = {
	name="Jolynne"	# not a lord
	dynasty=881810
	female=yes

	religion=old_gods
	culture=old_first_man
	
	father=60000054
	mother=40000054

	6460.1.1 = {birth="6460.1.1"}
	6496.1.1 = {death = {death_reason = death_dungeon}} # child birth in game
}
60200054 = {
	name="Torren"	# not a lord
	dynasty=881810

	religion=old_gods
	culture=old_first_man
	
	father=60000054
	mother=40000054

	6462.1.1 = {birth="6462.1.1"}
	6478.1.1 = {add_trait="brave" add_trait="poor_warrior" add_trait="humble" add_trait="content"}
	6496.1.1 = {death = {death_reason = death_battle}} # Dornish skimish
}
400054 = {
	name="Arianne"	# 
	female=yes
	religion=old_gods
	culture=old_first_man

	6458.1.1 = {birth="6458.1.1"}
	6513.1.1 = {death="6513.1.1"}
}
301054 = {
	name="Willem"	# Selwyn's son, a lord
	dynasty=881810

	religion=old_gods
	culture=old_first_man

	father=300054
	mother=400054

	6475.8.3 = {birth="6475.8.3"}
	6491.10.1 = {add_trait="brave" add_trait="trained_warrior"}
	6495.1.1 = {add_spouse=401054}
	6550.1.1 = {death="6550.1.1"}
}
401054 = {
	name="Roelle"	# 
	female=yes

	religion=old_gods
	culture=old_first_man

	6478.1.1 = {birth="6478.1.1"}
	6541.1.1 = {death="6541.1.1"}
}
302054 = {
	name="Cassana"	# Selwyn's daughter, not a lord
	female=yes
	dynasty=881810

	religion=old_gods
	culture=old_first_man

	father=300054
	mother=400054

	6476.12.1 = {birth="6476.12.1"}
	6542.1.1 = {death="6542.1.1"}
}
303054 = {
	name="Ralph"	# Selwyn's son, not a lord
	dynasty=881810

	religion=old_gods
	culture=old_first_man

	father=300054
	mother=400054

	6478.1.1 = {birth="6478.1.1"}
	6494.1.1 = {add_trait="brave" add_trait="trained_warrior"}
	6558.1.1 = {death="6558.1.1"}
}
304054 = {
	name="Mina"	# Selwyn's daughter, not a lord
	female=yes
	dynasty=881810

	religion=old_gods
	culture=old_first_man

	father=300054
	mother=400054
	
	add_trait=strong

	6479.1.1 = {birth="6479.1.1"}
	6555.1.1 = {death="6555.1.1"}
}


#####  Andals

310054 = {
	name="Selwyn"	# Galladon's son, a lord

	religion="the_seven"
	culture="old_andal"

	6536.1.1 = {birth="6536.1.1"}
	6552.1.1 = {add_trait="knight"}
	6554.1.1 = {add_spouse=410054}
	6560.1.1 = { #Conquers Tarth
		dynasty = 54
		effect_even_if_dead = {
			set_global_flag = tarth_dynasty_founded
		}
	}
	6592.1.1 = {death="6592.1.1"}
}
410054 = {
	name="Shireen"	# 
	female=yes

	religion="the_seven"
	culture="old_andal"

	6536.1.1 = {birth="6536.1.1"}
	6587.1.1 = {death="6587.1.1"}
}
312054 = {
	name="Arianne"	# Selwyn's daughter, not a lord
	female=yes
	dynasty=54

	religion="the_seven"
	culture="old_andal"

	father=310054
	mother=410054

	6567.1.1 = {birth="6567.1.1"}
	6610.1.1 = {death="6610.1.1"}
}
313054 = {
	name="Mina"	# Selwyn's daughter, not a lord
	female=yes
	dynasty=54

	religion="the_seven"
	culture="old_andal"

	father=310054
	mother=410054

	6568.1.1 = {birth="6568.1.1"}
	6639.1.1 = {death="6639.1.1"}
}
315054 = {
	name="Willem"	# Selwyn's son, a lord
	dynasty=54

	religion="the_seven"
	culture="old_andal"

	father=310054
	mother=410054

	6570.1.1 = {birth="6570.1.1"}
	6586.1.1 = {add_trait="knight"}
	6588.1.1 = {add_spouse=415054}
	6624.1.1 = {death="6624.1.1"}
}
415054 = {
	name="Rohanne"	# 
	female=yes

	religion="the_seven"
	culture="old_andal"

	6570.1.1 = {birth="6570.1.1"}
	6623.1.1 = {death="6623.1.1"}
}
316054 = {
	name="Renly"	# Willem's son, a lord
	dynasty=54

	religion="the_seven"
	culture="old_andal"

	father=315054
	mother=415054

	6599.1.1 = {birth="6599.1.1"}
	6615.1.1 = {add_trait="knight"}
	6617.1.1 = {add_spouse=416054}
	6652.1.1 = {death = {death_reason = death_murder}}
}
416054 = {
	name="Aglantine"	# 
	female=yes

	religion="the_seven"
	culture="old_andal"

	6599.1.1 = {birth="6599.1.1"}
	6653.1.1 = {death="6653.1.1"}
}
317054 = {
	name="Meredyth"	# Willem's daughter, not a lord
	female=yes
	dynasty=54

	religion="the_seven"
	culture="old_andal"

	father=315054
	mother=415054

	6600.1.1 = {birth="6600.1.1"}
	6658.1.1 = {death="6658.1.1"}
}
318054 = {
	name="Annara"	# Willem's daughter, not a lord
	female=yes
	dynasty=54

	religion="the_seven"
	culture="old_andal"

	father=315054
	mother=415054

	6602.1.1 = {birth="6602.1.1"}
	6639.1.1 = {death="6639.1.1"}
}
319054 = {
	name="Myrcella"	# Willem's daughter, not a lord
	female=yes
	dynasty=54

	religion="the_seven"
	culture="old_andal"

	father=315054
	mother=415054

	6604.1.1 = {birth="6604.1.1"}
	6659.1.1 = {death="6659.1.1"}
}
320054 = {
	name="Brienne"	# Renly's daughter, not a lord
	female=yes
	dynasty=54

	religion="the_seven"
	culture="old_andal"

	father=316054
	mother=416054

	6624.1.1 = {birth="6624.1.1"}
	6689.1.1 = {death="6689.1.1"}
}
321054 = {
	name="Selwyn"	# Renly's son, not a lord
	dynasty=54

	religion="the_seven"
	culture="old_andal"

	father=316054
	mother=416054

	6627.1.1 = {birth="6627.1.1"}
	6628.1.1 = {death="6628.1.1"}
}
322054 = {
	name="Endrew"	# Renly's son, a lord
	dynasty=54

	religion="the_seven"
	culture="old_andal"

	father=316054
	mother=416054

	6629.1.1 = {birth="6629.1.1"}
	6645.1.1 = {add_trait="knight"}
	6647.1.1 = {add_spouse=422054}
	6688.1.1 = {death="6688.1.1"}
}
422054 = {
	name="Cyrenna"	# 
	female=yes

	religion="the_seven"
	culture="old_andal"

	6628.1.1 = {birth="6628.1.1"}
	6678.1.1 = {death="6678.1.1"}
}
323054 = {
	name="Renly"	# Endrew's son, not a lord
	dynasty=54

	religion="the_seven"
	culture="old_first_man"

	father=322054
	mother=422054

	6654.1.1 = {birth="6654.1.1"}
	6670.1.1 = {add_trait="knight"}
	6674.6.7 = {death = {death_reason = death_battle}}
}
324054 = {
	name="Annara"	# Endrew's daughter, not a lord
	female=yes
	dynasty=54

	religion="the_seven"
	culture="old_andal"

	father=322054
	mother=422054

	6655.1.1 = {birth="6655.1.1"}
	6703.1.1 = {death="6703.1.1"}
}
325054 = {
	name="Selwyn"	# Endrew's son, not a lord
	dynasty=54

	religion="the_seven"
	culture="old_andal"

	father=322054
	mother=422054

	6657.1.1 = {birth="6657.1.1"}
	6662.1.1 = {death="6662.1.1"}
}
200054 = {
	name="Quentyn"	# Canon, Endrew's son, a lord
	dynasty=54

	religion="the_seven"
	culture="old_andal"

	father=322054
	mother=422054

	6658.1.1 = {birth="6658.1.1"}
	6674.1.1 = {add_trait="knight"}
	6676.1.1 = {add_spouse=4200054}
	6715.1.1 = {death="6715.1.1"}
}
4200054 = {
	name="Mary"	# 
	female=yes

	religion="the_seven"
	culture="old_andal"

	6658.1.1 = {birth="6658.1.1"}
	6712.1.1 = {death="6712.1.1"}
}
326054 = {
	name="Terrence"	# Quentyn's son, a lord
	dynasty=54

	religion="the_seven"
	culture="old_andal"

	father=200054
	mother=4200054

	6678.1.1 = {birth="6678.1.1"}
	6694.1.1 = {add_trait="knight"}
	6733.1.1 = {death="6733.1.1"}
}
327054 = {
	name="Belandra"	# Quentyn's daughter, not a lord
	female=yes
	dynasty=54

	religion="the_seven"
	culture="old_andal"

	father=200054
	mother=4200054

	6680.1.1 = {birth="6680.1.1"}
	6744.1.1 = {death="6744.1.1"}
}
328054 = {
	name="Arianne"	# Quentyn's daughter, not a lord
	female=yes
	dynasty=54

	religion="the_seven"
	culture="old_andal"

	father=200054
	mother=4200054

	6683.1.1 = {birth="6683.1.1"}
	6748.1.1 = {death="6748.1.1"}
}
329054 = {
	name="Mylenda"	# Quentyn's daughter, not a lord
	female=yes
	dynasty=54

	religion="the_seven"
	culture="old_andal"

	father=200054
	mother=4200054

	6685.1.1 = {birth="6685.1.1"}
	6687.1.1 = {death="6687.1.1"}
}
330054 = {
	name="Steffon"	# Quentyn's son, not a lord
	dynasty=54

	religion="the_seven"
	culture="old_andal"

	father=200054
	mother=4200054
	
	6688.1.1 = {birth="6688.1.1"}
	6704.1.1 = {
		add_trait="knight"
		add_spouse=430054
	}
	6751.1.1 = {death="6751.1.1"}
}
430054 = {
	name="Selyce"	# 
	female=yes

	religion="the_seven"
	culture="old_andal"

	6688.1.1 = {birth="6688.1.1"}
	6751.1.1 = {death="6751.1.1"}
}
331054 = {
	name="Arlan"	# Terrence's son, a lord
	dynasty=54

	religion="the_seven"
	culture="old_andal"

	father=326054

	6698.1.1 = {
		birth="6698.1.1"
	}
	6714.1.1 = {add_trait="knight"}
	6716.1.1 = {add_spouse=375054}
	6757.1.1 = {death="6757.1.1"}
}
375054 = {
	name="Brienne"
	female=yes
	dynasty=54

	religion="the_seven"
	culture="old_andal"

	father=330054
	mother=430054

	6705.1.1 = {birth="6705.1.1"}
	6773.1.1 = {death="6773.1.1"}
}




###########################################################   House Estermont  ############################################


304330 = {		
	name="Gunthor"	# Ronald's son, a lord
	dynasty=330	
	
	religion="the_seven"	
	culture="old_andal"	


	6539.1.1 = {birth="6539.1.1"}
	6555.1.1 = {add_trait="knight"}	
	6583.1.1 = {death="6583.1.1"}
}
305330 = {		
	name="Lundram"	# Gunthor's son, Lord Estermont at the time of the Dornish conquest.
	dynasty=330
	
	religion="the_seven"	
	culture="old_andal"	
	
	father=304330

	6579.1.1 = {birth="6579.1.1"}
	6595.1.1 = {add_trait="knight"}	
	6599.1.1 = {add_spouse=40010302} # Kerena Selmy
	6639.1.1 = {death="6639.1.1"}
}
3020330 = {		
	name="Rorton"	# Gunthors younger son, Lundrams brother. Married a Rosby
	dynasty=330	
	
	religion="the_seven"	
	culture="old_andal"	
	
	father=304330

	6582.1.1 = {birth="6582.1.1"}
	6598.1.1 = {add_trait="knight"}	
	6644.1.1 = {death="6644.1.1"}
}
306330 = {		
	name="Dormen"	# Lundrams son and heir, a lord
	dynasty=330	
	
	religion="the_seven"	
	culture="old_andal"	
	
	father=305330 # Lundram Estermont
	mother=40010302 # Kerena Selmy

	6600.1.1 = {birth="6600.1.1"}
	6616.1.1 = {add_trait="knight"}	
	6620.1.1 = {add_spouse=310322} # Ambrya Rogers
	6650.1.1 = {death="6650.1.1"}
}
###Dormens children###
3090330 = {		
	name="Alanei" # not a Lord, married Boren Manderly
	dynasty=330	
	female=yes
	
	religion="the_seven"	
	culture="old_andal"	
	
	father=306330
	

	6619.1.1 = {birth="6619.1.1"}	
	6657.1.1 = {death="6657.1.1"}
}
3010330 = {		
	name="Millera" # not a Lord, 
	dynasty=330	
	female=yes
	
	religion="the_seven"	
	culture="old_andal"	
	
	father=306330
	

	6622.1.1 = {birth="6622.1.1"}	
	6657.1.1 = {death= {death_reason = death_accident}} # Died in a Fall
}
307330 = {		
	name="Benther"	# Dormens son, a lord
	dynasty=330	
	
	religion="the_seven"	
	culture="old_andal"	
	
	father=306330
	

	6626.1.1 = {birth="6626.1.1"}
	6634.1.1 = {add_trait="squire"}	
	6642.1.1 = {remove_trait="squire" add_trait="knight" add_trait=skilled_warrior}
	6674.1.1 = {
		death = { death_reason = death_battle } # Blackfyre Rebellion
	}
}
####Dormens siblings###
3030330 = {		
	name="Ludwin"	# Lundrams son, not a lord
	dynasty=330	
	
	religion="the_seven"	
	culture="old_andal"	
	
	father=305330 # Lundram Estermont
	mother=40010302 # Kerena Selmy

	6603.2.2 = {birth="6603.2.2"}
	6619.3.1 = {add_trait="knight"}	
	6626.4.9 = {death= {death_reason = death_battle}}
}
3040330 = {		
	name="Ismane"	# Lundrams daughter, became a septa
	dynasty=330	
	female=yes
	
	religion="the_seven"	
	culture="old_andal"	
	
	father=305330 # Lundram Estermont
	mother=40010302 # Kerena Selmy

	6605.7.3 = {birth="6605.7.3"}
	6622.9.4 = {add_trait=septa add_trait=celibate}
	6667.4.6 = {death="6667.4.6"}
}
4012275 = {		
	name="Marena"	# Lundrams daughter, married Hewyn Grimm of the shield isles.
	dynasty=330	
	female=yes
	
	religion="the_seven"	
	culture="old_andal"	
	
	father=305330 # Lundram Estermont
	mother=40010302 # Kerena Selmy

	6607.1.9 = {birth="6607.1.9"}
	6663.11.6 = {death="6663.11.6"}
}
200330 = {		
	name="Gunthor"	# Benthers son, a lord
	dynasty=330	
	
	religion="the_seven"	
	culture="old_andal"	
	
	father=307330

	6650.1.1 = {birth="6650.1.1"}
	6666.1.1 = {add_trait="knight"}	
	6722.1.1 = {death="6722.1.1"}
}
308330 = {		
	name="Alyn"	# Canon, Gunthor's son, not a lord
	dynasty=330	
	
	religion="the_seven"	
	culture="old_andal"	
	
	father=200330

	6670.1.1 = {birth="6670.1.1"}
	6686.1.1 = {add_trait="knight"}	
	6711.1.1 = {death="6711.1.1"}
}




