##Yunkai'i

##House Yunzak

150360024 = {
	name="Yurkhaz"	# not a lord
	dynasty=360024

	religion="harpy"
	culture="ghiscari"

	6440.1.1 = {birth="6440.1.1"}
	6465.1.1 = {add_spouse=250360024}
	6495.1.1 = {death="6495.1.1"}
}
250360024 = {
	name="Ezzara"
	female=yes

	religion="harpy"
	culture="ghiscari"

	6443.1.1 = {birth="6443.1.1"}
	6495.1.1 = {death="6495.1.1"}
}
100360024 = {
	name="Yezzan"	# a lord
	dynasty=360024

	religion="harpy"
	culture="ghiscari"

	father=150360024
	mother=250360024

	6466.1.1 = {birth="6466.1.1"}
	6494.1.1 = {add_trait=poor_warrior}
	6495.1.1 = {}
	6496.1.1 = {add_spouse=200360024}
	6506.1.1 = {death="6506.1.1"}
}
200360024 = {
	name="Ezzara"
	female=yes

	religion="harpy"
	culture="ghiscari"

	6466.1.1 = {birth="6466.1.1"}
	6506.1.1 = {death="6506.1.1"}
}
101360024 = {
	name="Qezza"	# not a lord
	female=yes
	dynasty=360024

	religion="harpy"
	culture="ghiscari"

	father=100360024
	mother=200360024

	6479.1.1 = {birth="6479.1.1"}
	6541.1.1 = {death="6541.1.1"}
}
102360024 = {
	name="Hazzea"	# not a lord
	female=yes
	dynasty=360024

	religion="harpy"
	culture="ghiscari"

	father=100360024
	mother=200360024

	6481.1.1 = {birth="6481.1.1"}
	6555.1.1 = {death="6555.1.1"}
}
103360024 = {
	name="Gorzhak"	# a lord
	dynasty=360024

	religion="harpy"
	culture="ghiscari"

	father=100360024
	mother=200360024

	6484.1.1 = {birth="6484.1.1"}
	6506.1.1 = {}
	6518.1.1 = {add_trait=skilled_warrior}
	6520.1.1 = {add_spouse=203360024}
	6551.1.1 = {death="6551.1.1"}
}
203360024 = {
	name="Ezzere"
	female=yes

	religion="harpy"
	culture="ghiscari"

	6484.1.1 = {birth="6484.1.1"}
	6551.1.1 = {death="6551.1.1"}
}
104360024 = {
	name="Grazdan"	# a lord
	dynasty=360024

	religion="harpy"
	culture="ghiscari"

	father=103360024
	mother=203360024

	6527.1.1 = {birth="6527.1.1"}
	6543.1.1 = {add_trait=trained_warrior}
	6545.1.1 = {add_spouse=204360024}
	6551.1.1 = {}
	6565.1.1 = {death="6565.1.1"}
}
204360024 = {
	name="Rezza"
	female=yes

	religion="harpy"
	culture="ghiscari"

	6527.1.1 = {birth="6527.1.1"}
	6565.1.1 = {death="6565.1.1"}
}
105360024 = {
	name="Marghaz"	# not a lord
	dynasty=360024

	religion="harpy"
	culture="ghiscari"

	father=103360024
	mother=203360024

	6529.1.1 = {birth="6529.1.1"}
	6545.1.1 = {add_trait=poor_warrior}
	6547.1.1 = {add_spouse=205360024}
	6599.1.1 = {death="6599.1.1"}
}
205360024 = {
	name="Tezzalara"
	female=yes

	religion="harpy"
	culture="ghiscari"

	6529.1.1 = {birth="6529.1.1"}
	6599.1.1 = {death="6599.1.1"}
}
106360024 = {
	name="Sharkaz"	# a lord
	dynasty=360024

	religion="harpy"
	culture="ghiscari"

	father=104360024
	mother=204360024

	6547.1.1 = {birth="6547.1.1"}
	6565.1.1 = {}
	6571.1.1 = {add_trait=skilled_warrior}
	6573.1.1 = {add_spouse=206360024}
	6613.1.1 = {death="6613.1.1"}
}
206360024 = {
	name="Qezza"
	female=yes

	religion="harpy"
	culture="ghiscari"

	6555.1.1 = {birth="6555.1.1"}
	6613.1.1 = {death="6613.1.1"}
}
107360024 = {
	name="Maezon"	# not a lord
	dynasty=360024

	religion="harpy"
	culture="ghiscari"

	father=104360024
	mother=204360024

	6556.1.1 = {birth="6556.1.1"}
	6572.1.1 = {add_trait=poor_warrior}
	6591.1.1 = {death="6591.1.1"}
}
108360024 = {
	name="Marghazo"	# not a lord
	dynasty=360024

	religion="harpy"
	culture="ghiscari"

	father=104360024
	mother=204360024

	6558.1.1 = {birth="6558.1.1"}
	6574.1.1 = {add_trait=skilled_warrior}
	6621.1.1 = {death="6621.1.1"}
}
109360024 = {
	name="Grazdan"	# a lord
	dynasty=360024

	religion="harpy"
	culture="ghiscari"

	father=106360024
	mother=206360024

	6590.1.1 = {birth="6590.1.1"}
	6606.1.1 = {add_trait=poor_warrior}
	6608.1.1 = {add_spouse=209360024}
	6613.1.1 = {}
	6644.1.1 = {death="6644.1.1"}
}
209360024 = {
	name="Yezza"
	female=yes

	religion="harpy"
	culture="ghiscari"

	6590.1.1 = {birth="6590.1.1"}
	6644.1.1 = {death="6644.1.1"}
}
110360024 = {
	name="Gallaza"	# not a lord
	female=yes
	dynasty=360024

	religion="harpy"
	culture="ghiscari"

	father=106360024
	mother=206360024

	6593.1.1 = {birth="6593.1.1"}
	6647.1.1 = {death="6647.1.1"}
}
111360024 = {
	name="Tellara"	# not a lord
	female=yes
	dynasty=360024

	religion="harpy"
	culture="ghiscari"

	father=106360024
	mother=206360024

	6596.1.1 = {birth="6596.1.1"}
	6650.1.1 = {death="6650.1.1"}
}
112360024 = {
	name="Ghazdor"	# a lord
	dynasty=360024

	religion="harpy"
	culture="ghiscari"

	father=109360024
	mother=209360024

	6614.1.1 = {birth="6614.1.1"}
	6630.1.1 = {add_trait=trained_warrior}
	6632.1.1 = {add_spouse=212360024}
	6644.1.1 = {}
	6665.1.1 = {death="6665.1.1"}
}
212360024 = {
	name="Galaza"
	female=yes

	religion="harpy"
	culture="ghiscari"

	6614.1.1 = {birth="6614.1.1"}
	6665.1.1 = {death="6665.1.1"}
}
113360024 = {
	name="Skahaz"	# a lord
	dynasty=360024

	religion="harpy"
	culture="ghiscari"

	father=112360024
	mother=212360024

	6643.1.1 = {birth="6643.1.1"}
	6659.1.1 = {add_trait=trained_warrior}
	6661.1.1 = {add_spouse=213360024}
	6665.1.1 = {}
	6702.1.1 = {death="6702.1.1"}
}
213360024 = {
	name="Mezzara"
	female=yes

	religion="harpy"
	culture="ghiscari"

	6643.1.1 = {birth="6643.1.1"}
	6702.1.1 = {death="6702.1.1"}
}
114360024 = {
	name="Qezzara"	# not a lord
	female=yes
	dynasty=360024

	religion="harpy"
	culture="ghiscari"

	father=112360024
	mother=212360024

	6645.1.1 = {birth="6645.1.1"}
	6715.1.1 = {death="6715.1.1"}
}
115360024 = {
	name="Paezdhar"	# not a lord
	dynasty=360024

	religion="harpy"
	culture="ghiscari"

	father=112360024
	mother=212360024

	6647.1.1 = {birth="6647.1.1"}
	6663.1.1 = {add_trait=poor_warrior}
	6695.1.1 = {death="6695.1.1"}
}
116360024 = {
	name="Jezhane"	# not a lord
	female=yes
	dynasty=360024

	religion="harpy"
	culture="ghiscari"

	father=112360024
	mother=212360024

	6650.1.1 = {birth="6650.1.1"}
	6700.1.1 = {death = {death_reason = death_accident}}
}
117360024 = {
	name="Dhazzar"	# not a lord
	female=yes
	dynasty=360024

	religion="harpy"
	culture="ghiscari"

	father=112360024
	mother=212360024

	6653.1.1 = {birth="6653.1.1"}
	6732.1.1 = {death="6732.1.1"}
}
118360024 = {
	name="Hizdharo"	# a lord
	dynasty=360024

	religion="harpy"
	culture="ghiscari"

	father=113360024
	mother=213360024

	6665.1.1 = {birth="6665.1.1"}
	6681.1.1 = {add_trait=trained_warrior}
	6683.1.1 = {add_spouse=218360024}
	6702.1.1 = {}
	6723.1.1 = {death="6723.1.1"}
}
218360024 = {
	name="Fezzara"
	female=yes

	religion="harpy"
	culture="ghiscari"

	6665.1.1 = {birth="6665.1.1"}
	6723.1.1 = {death="6723.1.1"}
}
119360024 = {
	name="Bellezza"	# not a lord
	female=yes
	dynasty=360024

	religion="harpy"
	culture="ghiscari"

	father=113360024
	mother=213360024

	6667.1.1 = {birth="6667.1.1"}
	6689.1.1 = {death="6689.1.1"}
}
120360024 = {
	name="Marghaz"	# not a lord
	dynasty=360024

	religion="harpy"
	culture="ghiscari"

	father=113360024
	mother=213360024

	6670.1.1 = {birth="6670.1.1"}
	6686.1.1 = {add_trait=trained_warrior}
	6688.1.1 = {add_spouse=220360024}
	6697.1.1 = {death="6697.1.1"}
}
220360024 = {
	name="Hazzea"
	female=yes

	religion="harpy"
	culture="ghiscari"

	6670.1.1 = {birth="6670.1.1"}
	6697.1.1 = {death="6697.1.1"}
}
121360024 = {
	name="Qezza"	# not a lord
	female=yes
	dynasty=360024

	religion="harpy"
	culture="ghiscari"

	father=113360024
	mother=213360024

	6671.1.1 = {birth="6671.1.1"}
	6730.1.1 = {death="6730.1.1"}
}
122360024 = {
	name="Zaraq"	# not a lord
	dynasty=360024

	religion="harpy"
	culture="ghiscari"

	father=113360024
	mother=213360024

	6672.1.1 = {birth="6672.1.1"}
	6688.1.1 = {add_trait=skilled_warrior}
	6704.1.1 = {death="6704.1.1"}
}
123360024 = {
	name="Haznak"	# a lord
	dynasty=360024

	religion="harpy"
	culture="ghiscari"

	father=118360024
	mother=218360024

	6696.1.1 = {birth="6696.1.1"}
	6712.1.1 = {add_trait=poor_warrior}
	6714.1.1 = {add_spouse=223360024}
	6723.1.1 = {}
	6753.1.1 = {death="6753.1.1"}
}
223360024 = {
	name="Galazza"
	female=yes

	religion="harpy"
	culture="ghiscari"

	6696.1.1 = {birth="6696.1.1"}
	6753.1.1 = {death="6753.1.1"}
}
124360024 = {
	name="Grazdhan"	# not a lord
	dynasty=360024

	religion="harpy"
	culture="ghiscari"

	father=118360024
	mother=218360024

	6697.1.1 = {birth="6697.1.1"}
	6713.1.1 = {add_trait=trained_warrior}
	6763.1.1 = {death = {death_reason = death_accident}}
}
125360024 = {
	name="Melezza"	# not a lord
	female=yes
	dynasty=360024

	religion="harpy"
	culture="ghiscari"

	father=118360024
	mother=218360024

	6700.1.1 = {birth="6700.1.1"}
	6751.1.1 = {death="6751.1.1"}
}
126360024 = {
	name="Kraznys"	# not a lord
	dynasty=360024

	religion="harpy"
	culture="ghiscari"

	father=118360024
	mother=218360024

	6701.1.1 = {birth="6701.1.1"}
	6717.1.1 = {add_trait=trained_warrior}
	6771.1.1 = {death="6771.1.1"}
}

6571003 = {
	name="Yurkhaz"  # Canon, commander of Yunkish forces.
	dynasty = 360024 

	martial = 1
	diplomacy = 5
	intrigue = 10
	stewardship = 10
	learning = 5

	culture = yunkaii
	religion = harpy 

	father=123360024
	mother=223360024		
	
	add_trait="cruel"
	add_trait="proud"
	add_trait="deceitful"
	add_trait="authoritative"
	add_trait="ruthless"
	
	6720.1.1 = {
		birth="6720.1.1"
	}
	6753.1.1 = {}
}

##House Qaggaz

150360023 = {
	name="Grazdhan"	# a lord
	dynasty=360023

	religion="harpy"
	culture="ghiscari"

	6435.1.1 = {birth="6435.1.1"}
	6460.1.1 = {add_spouse=250360023}
	6490.1.1 = {death="6490.1.1"}
}
250360023 = {
	name="Ezzara"
	female=yes

	religion="harpy"
	culture="ghiscari"

	6437.1.1 = {birth="6437.1.1"}
	6481.1.1 = {death="6481.1.1"}
}
100360023 = {
	name="Grazdan"	# a lord
	dynasty=360023

	religion="harpy"
	culture="ghiscari"

	father=150360023
	mother=250360023

	6462.1.1 = {birth="6462.1.1"}
	6490.1.1 = {}
	6493.1.1 = {add_spouse=200360023}
	6494.1.1 = {add_trait=poor_warrior}
	6514.1.1 = {death="6514.1.1"}
}
200360023 = {
	name="Sezza"
	female=yes

	religion="harpy"
	culture="ghiscari"

	6462.1.1 = {birth="6462.1.1"}
	6514.1.1 = {death="6514.1.1"}
}
101360023 = {
	name="Qezza"	# not a lord
	female=yes
	dynasty=360023

	religion="harpy"
	culture="ghiscari"

	father=100360023
	mother=200360023

	6497.1.1 = {birth="6497.1.1"}
	6559.1.1 = {death="6559.1.1"}
}
102360023 = {
	name="Marghaz"	# a lord
	dynasty=360023

	religion="harpy"
	culture="ghiscari"

	father=100360023
	mother=200360023

	6495.1.1 = {birth="6495.1.1"}
	6513.1.1 = {add_trait=trained_warrior}
	6514.1.1 = {}
	6516.1.1 = {add_spouse=202360023}
	6548.1.1 = {death = {death_reason = death_accident}}
}
202360023 = {
	name="Galazza"
	female=yes

	religion="harpy"
	culture="ghiscari"

	6498.1.1 = {birth="6498.1.1"}
	6548.1.1 = {death="6548.1.1"}
}
103360023 = {
	name="Hazzea"	# not a lord
	female=yes
	dynasty=360023

	religion="harpy"
	culture="ghiscari"

	father=100360023
	mother=200360023

	6499.1.1 = {birth="6499.1.1"}
	6567.1.1 = {death = {death_reason = death_murder}}
}
104360023 = {
	name="Dhazzarma"	# not a lord
	female=yes
	dynasty=360023

	religion="harpy"
	culture="ghiscari"

	father=102360023
	mother=202360023

	6525.1.1 = {birth="6525.1.1"}
	6581.1.1 = {death="6581.1.1"}
}
105360023 = {
	name="Qezza"	# not a lord
	female=yes
	dynasty=360023

	religion="harpy"
	culture="ghiscari"

	father=102360023
	mother=202360023

	6526.1.1 = {birth="6526.1.1"}
	6579.1.1 = {death="6579.1.1"}
}
106360023 = {
	name="Maezon"	# a lord
	dynasty=360023

	religion="harpy"
	culture="ghiscari"

	father=102360023
	mother=202360023

	6527.1.1 = {birth="6527.1.1"}
	6543.1.1 = {add_trait=trained_warrior}
	6545.1.1 = {add_spouse=206360023}
	6548.1.1 = {}
	6591.1.1 = {death="6591.1.1"}
}
206360023 = {
	name="Melezza"
	female=yes

	religion="harpy"
	culture="ghiscari"

	6527.1.1 = {birth="6527.1.1"}
	6591.1.1 = {death="6591.1.1"}
}
107360023 = {
	name="Hizdhar"	# not a lord
	dynasty=360023

	religion="harpy"
	culture="ghiscari"

	father=102360023
	mother=202360023

	6530.1.1 = {birth="6530.1.1"}
	6546.1.1 = {add_trait=poor_warrior}
	6581.1.1 = {death="6581.1.1"}
}
108360023 = {
	name="Jezhane"	# not a lord
	female=yes
	dynasty=360023

	religion="harpy"
	culture="ghiscari"

	father=102360023
	mother=202360023

	6532.1.1 = {birth="6532.1.1"}
	6581.1.1 = {death="6581.1.1"}
}
109360023 = {
	name="Qezzallios"	# not a lord
	female=yes
	dynasty=360023

	religion="harpy"
	culture="ghiscari"

	father=106360023
	mother=206360023

	6559.1.1 = {birth="6559.1.1"}
	6625.1.1 = {death="6625.1.1"}
}
110360023 = {
	name="Gazdhor"	# a lord
	dynasty=360023

	religion="harpy"
	culture="ghiscari"

	father=106360023
	mother=206360023

	6561.1.1 = {birth="6561.1.1"}
	6577.1.1 = {add_trait=trained_warrior}
	6579.1.1 = {add_spouse=210360023}
	6591.1.1 = {}
	6624.1.1 = {death="6624.1.1"}
}
210360023 = {
	name="Ezzara"
	female=yes

	religion="harpy"
	culture="ghiscari"

	6561.1.1 = {birth="6561.1.1"}
	6624.1.1 = {death="6624.1.1"}
}
111360023 = {
	name="Sezza"	# not a lord
	female=yes
	dynasty=360023

	religion="harpy"
	culture="ghiscari"

	father=110360023
	mother=210360023

	6580.1.1 = {birth="6580.1.1"}
	6639.1.1 = {death="6639.1.1"}
}
112360023 = {
	name="Morghaz"	# a lord
	dynasty=360023

	religion="harpy"
	culture="ghiscari"

	father=110360023
	mother=210360023

	6581.1.1 = {birth="6581.1.1"}
	6597.1.1 = {add_trait=skilled_warrior}
	6599.1.1 = {add_spouse=212360023}
	6624.1.1 = {}
	6636.1.1 = {death="6636.1.1"}
}
212360023 = {
	name="Delara"
	female=yes

	religion="harpy"
	culture="ghiscari"

	6581.1.1 = {birth="6581.1.1"}
	6636.1.1 = {death="6636.1.1"}
}
113360023 = {
	name="Mizlak"	# not a lord
	dynasty=360023

	religion="harpy"
	culture="ghiscari"

	father=110360023
	mother=210360023

	6583.1.1 = {birth="6583.1.1"}
	6599.1.1 = {add_trait=skilled_warrior}
	6616.1.1 = {death="6616.1.1"}
}
114360023 = {
	name="Marghaz"	# not a lord
	dynasty=360023

	religion="harpy"
	culture="ghiscari"

	father=110360023
	mother=210360023

	6584.1.1 = {birth="6584.1.1"}
	6600.1.1 = {add_trait=poor_warrior}
	6640.1.1 = {death="6640.1.1"}
}
115360023 = {
	name="Ezzara"	# not a lord
	female=yes
	dynasty=360023

	religion="harpy"
	culture="ghiscari"

	father=112360023
	mother=212360023

	6603.1.1 = {birth="6603.1.1"}
	6647.1.1 = {death="6647.1.1"}
}
116360023 = {
	name="Yurkhaz"	# a lord
	dynasty=360023

	religion="harpy"
	culture="ghiscari"

	father=112360023
	mother=212360023

	6604.1.1 = {birth="6604.1.1"}
	6620.1.1 = {add_trait=poor_warrior}
	6622.1.1 = {add_spouse=216360023}
	6636.1.1 = {}
	6678.1.1 = {death="6678.1.1"}
}
216360023 = {
	name="Belezzara"
	female=yes

	religion="harpy"
	culture="ghiscari"

	6604.1.1 = {birth="6604.1.1"}
	6678.1.1 = {death="6678.1.1"}
}
117360023 = {
	name="Mezzara"	# not a lord
	female=yes
	dynasty=360023

	religion="harpy"
	culture="ghiscari"

	father=112360023
	mother=212360023

	6605.1.1 = {birth="6605.1.1"}
	6627.1.1 = {death="6627.1.1"}
}
118360023 = {
	name="Barkhaz"	# not a lord
	dynasty=360023

	religion="harpy"
	culture="ghiscari"

	father=112360023
	mother=212360023

	6606.1.1 = {birth="6606.1.1"}
	6622.1.1 = {add_trait=skilled_warrior}
	6659.1.1 = {death="6659.1.1"}
}
121360023 = {
	name="Prendahl"	# a lord
	dynasty=360023

	religion="harpy"
	culture="ghiscari"

	father=116360023
	mother=216360023

	6632.1.1 = {birth="6632.1.1"}
	6648.1.1 = {add_trait=trained_warrior}
	6650.1.1 = {add_spouse=221360023}
	6678.1.1 = {}
	6681.1.1 = {death="6681.1.1"}
}
221360023 = {
	name="Pilezza"
	female=yes

	religion="harpy"
	culture="ghiscari"

	6632.1.1 = {birth="6632.1.1"}
	6681.1.1 = {death="6681.1.1"}
}
122360023 = {
	name="Azzak"	# a lord
	dynasty=360023

	religion="harpy"
	culture="ghiscari"

	father=121360023
	mother=221360023

	6659.1.1 = {birth="6659.1.1"}
	6675.1.1 = {add_trait=skilled_warrior}
	6677.1.1 = {add_spouse=222360023}
	6681.1.1 = {}
	6699.1.1 = {death = {death_reason = death_accident}}
}
222360023 = {
	name="Sezza"
	female=yes

	religion="harpy"
	culture="ghiscari"

	6659.1.1 = {birth="6659.1.1"}
	6699.1.1 = {death="6699.1.1"}
}
123360023 = {
	name="Telezzara"	# not a lord
	female=yes
	dynasty=360023

	religion="harpy"
	culture="ghiscari"

	father=121360023
	mother=221360023

	6653.1.1 = {birth="6653.1.1"}
	6678.1.1 = {death="6678.1.1"}
}
124360023 = {
	name="Jezhane"	# not a lord
	female=yes
	dynasty=360023

	religion="harpy"
	culture="ghiscari"

	father=121360023
	mother=221360023

	6656.1.1 = {birth="6656.1.1"}
	6704.1.1 = {death="6704.1.1"}
}
125360023 = {
	name="Kraznys"	# a lord
	dynasty=360023

	religion="harpy"
	culture="ghiscari"

	father=122360023
	mother=222360023

	6678.1.1 = {birth="6678.1.1"}
	6699.1.1 = {}
	6702.1.1 = {add_trait=poor_warrior}
	6704.1.1 = {add_spouse=225360023}
	6742.1.1 = {death="6742.1.1"}
}
225360023 = {
	name="Nelezza"
	female=yes

	religion="harpy"
	culture="ghiscari"

	6686.1.1 = {birth="6686.1.1"}
	6742.1.1 = {death="6742.1.1"}
}
126360023 = {
	name="Grazdhar"	# a lord
	dynasty=360023

	religion="harpy"
	culture="ghiscari"

	father=125360023
	mother=225360023

	6715.1.1 = {birth="6715.1.1"}
	6731.1.1 = {add_trait=poor_warrior}
	6733.1.1 = {add_spouse=226360023}
	6742.1.1 = {}
	6767.1.1 = {death="6767.1.1"}
}
226360023 = {
	name="Ilezza"
	female=yes

	religion="harpy"
	culture="ghiscari"

	6715.1.1 = {birth="6715.1.1"}
	6767.1.1 = {death="6767.1.1"}
}
127360023 = {
	name="Grazdan"	# not a lord
	dynasty=360023

	religion="harpy"
	culture="ghiscari"

	father=125360023
	mother=225360023

	6717.1.1 = {birth="6717.1.1"}
	6733.1.1 = {add_trait=trained_warrior}
	6780.1.1 = {death="6780.1.1"}
}
128360023 = {
	name="Tezzara"	# not a lord
	female=yes
	dynasty=360023

	religion="harpy"
	culture="ghiscari"

	father=125360023
	mother=225360023

	6718.1.1 = {birth="6718.1.1"}
	6777.1.1 = {death="6777.1.1"}
}

6571004 = {
	name="Yezzan"  # The Yellow Whale
	dynasty = 360023 

	martial = 2
	diplomacy = 10
	intrigue = 10
	stewardship = 14
	learning = 5

	culture = yunkaii
	religion = harpy 

	father=126360023
	mother=226360023		
	
	add_trait="gluttonous"
	add_trait="proud"
	add_trait="deceitful"
	add_trait="authoritative"
	
	6734.1.1 = {
		birth="6734.1.1"
	}
	6767.1.1 = {}
}

##House Myraq

150360022 = {
	name="Rhaezdhar"	# a lord
	dynasty=360022

	religion="harpy"
	culture="ghiscari"

	6441.1.1 = {birth="6441.1.1"}
	6460.1.1 = {add_spouse=250360022}
	6503.1.1 = {death="6503.1.1"}
}
250360022 = {
	name="Nezzara"
	female=yes

	religion="harpy"
	culture="ghiscari"

	6443.1.1 = {birth="6443.1.1"}
	6501.1.1 = {death="6501.1.1"}
}

100360022 = {
	name="Maezon"	# a lord
	dynasty=360022

	religion="harpy"
	culture="ghiscari"

	father=150360022
	mother=250360022

	6463.1.1 = {birth="6463.1.1"}
	6494.1.1 = {add_trait=poor_warrior}
	6496.1.1 = {add_spouse=200360022}
	6503.1.1 = {}
	6528.1.1 = {death="6528.1.1"}
}
200360022 = {
	name="Nezzara"
	female=yes

	religion="harpy"
	culture="ghiscari"

	6463.1.1 = {birth="6463.1.1"}
	6528.1.1 = {death="6528.1.1"}
}
101360022 = {
	name="Hazzea"	# not a lord
	female=yes
	dynasty=360022

	religion="harpy"
	culture="ghiscari"

	father=100360022
	mother=200360022

	6511.1.1 = {birth="6511.1.1"}
	6564.1.1 = {death="6564.1.1"}
}
102360022 = {
	name="Grazdan"	# a lord
	dynasty=360022

	religion="harpy"
	culture="ghiscari"

	father=100360022
	mother=200360022

	6514.1.1 = {birth="6514.1.1"}
	6528.1.1 = {}
	6530.1.1 = {add_trait=poor_warrior}
	6532.1.1 = {add_spouse=202360022}
	6578.1.1 = {death="6578.1.1"}
}
202360022 = {
	name="Mellazara"
	female=yes

	religion="harpy"
	culture="ghiscari"

	6514.1.1 = {birth="6514.1.1"}
	6578.1.1 = {death="6578.1.1"}
}
103360022 = {
	name="Prendahl"	# not a lord
	dynasty=360022

	religion="harpy"
	culture="ghiscari"

	father=100360022
	mother=200360022

	6516.1.1 = {birth="6516.1.1"}
	6532.1.1 = {add_trait=trained_warrior}
	6560.1.1 = {death="6560.1.1"}
}
104360022 = {
	name="Qezza"	# not a lord
	female=yes
	dynasty=360022

	religion="harpy"
	culture="ghiscari"

	father=100360022
	mother=200360022

	6519.1.1 = {birth="6519.1.1"}
	6551.1.1 = {death="6551.1.1"}
}
105360022 = {
	name="Galazza"	# not a lord
	female=yes
	dynasty=360022

	religion="harpy"
	culture="ghiscari"

	father=102360022
	mother=202360022

	6537.1.1 = {birth="6537.1.1"}
	6550.1.1 = {death="6550.1.1"}
}
106360022 = {
	name="Morghaz"	# a lord
	dynasty=360022

	religion="harpy"
	culture="ghiscari"

	father=102360022
	mother=202360022

	6538.1.1 = {birth="6538.1.1"}
	6554.1.1 = {add_trait=trained_warrior}
	6556.1.1 = {add_spouse=206360022}
	6578.1.1 = {}
	6583.1.1 = {death="6583.1.1"}
}
206360022 = {
	name="Ezzara"
	female=yes

	religion="harpy"
	culture="ghiscari"

	6538.1.1 = {birth="6538.1.1"}
	6583.1.1 = {death="6583.1.1"}
}
107360022 = {
	name="Sezza"	# not a lord
	female=yes
	dynasty=360022

	religion="harpy"
	culture="ghiscari"

	father=106360022
	mother=206360022

	6559.1.1 = {birth="6559.1.1"}
	6589.1.1 = {death="6589.1.1"}
}
108360022 = {
	name="Melazara"	# not a lord
	female=yes
	dynasty=360022

	religion="harpy"
	culture="ghiscari"

	father=106360022
	mother=206360022

	6560.1.1 = {birth="6560.1.1"}
	6593.1.1 = {death="6593.1.1"}
}
109360022 = {
	name="Mizlak"	# a lord
	dynasty=360022

	religion="harpy"
	culture="ghiscari"

	father=106360022
	mother=206360022

	6563.1.1 = {birth="6563.1.1"}
	6579.1.1 = {add_trait=skilled_warrior}
	6581.1.1 = {add_spouse=209360022}
	6583.1.1 = {}
	6620.1.1 = {death="6620.1.1"}
}
209360022 = {
	name="Jezhane"
	female=yes

	religion="harpy"
	culture="ghiscari"

	6563.1.1 = {birth="6563.1.1"}
	6620.1.1 = {death="6620.1.1"}
}
110360022 = {
	name="Grazdhan"	# not a lord
	dynasty=360022

	religion="harpy"
	culture="ghiscari"

	father=106360022
	mother=206360022

	6566.1.1 = {birth="6566.1.1"}
	6582.1.1 = {add_trait=skilled_warrior}
	6584.1.1 = {add_spouse=210360022}
	6612.1.1 = {death="6612.1.1"}
}
210360022 = {
	name="Qezza"
	female=yes

	religion="harpy"
	culture="ghiscari"

	6566.1.1 = {birth="6566.1.1"}
	6612.1.1 = {death="6612.1.1"}
}
111360022 = {
	name="Sesqa"	# not a lord
	female=yes
	dynasty=360022

	religion="harpy"
	culture="ghiscari"

	father=109360022
	mother=209360022

	6584.1.1 = {birth="6584.1.1"}
	6617.1.1 = {death="6617.1.1"}
}
112360022 = {
	name="Skahaz"	# a lord
	dynasty=360022

	religion="harpy"
	culture="ghiscari"

	father=109360022
	mother=209360022

	6586.1.1 = {birth="6586.1.1"}
	6602.1.1 = {add_trait=skilled_warrior}
	6604.1.1 = {add_spouse=212360022}
	6620.1.1 = {}
	6637.1.1 = {death="6637.1.1"}
}
212360022 = {
	name="Bellezara"
	female=yes

	religion="harpy"
	culture="ghiscari"

	6586.1.1 = {birth="6586.1.1"}
	6637.1.1 = {death="6637.1.1"}
}
113360022 = {
	name="Zaraq"	# a lord
	dynasty=360022

	religion="harpy"
	culture="ghiscari"

	father=112360022
	mother=212360022

	6614.1.1 = {birth="6614.1.1"}
	6630.1.1 = {add_trait=trained_warrior}
	6632.1.1 = {add_spouse=213360022}
	6637.1.1 = {}
	6676.1.1 = {death="6676.1.1"}
}
213360022 = {
	name="Mezza"
	female=yes

	religion="harpy"
	culture="ghiscari"

	6614.1.1 = {birth="6614.1.1"}
	6676.1.1 = {death="6676.1.1"}
}
114360022 = {
	name="Ezzara"	# not a lord
	female=yes
	dynasty=360022

	religion="harpy"
	culture="ghiscari"

	father=112360022
	mother=212360022

	6616.1.1 = {birth="6616.1.1"}
	6626.1.1 = {death="6626.1.1"}
}
115360022 = {
	name="Paezdhar"	# not a lord
	dynasty=360022

	religion="harpy"
	culture="ghiscari"

	father=112360022
	mother=212360022

	6617.1.1 = {birth="6617.1.1"}
	6621.1.1 = {death = {death_reason = death_accident}}
}
116360022 = {
	name="Mera"	# not a lord
	female=yes
	dynasty=360022

	religion="harpy"
	culture="ghiscari"

	father=113360022
	mother=213360022

	6640.1.1 = {birth="6640.1.1"}
	6692.1.1 = {death="6692.1.1"}
}
117360022 = {
	name="Lazhak"	# a lord
	dynasty=360022

	religion="harpy"
	culture="ghiscari"

	father=113360022
	mother=213360022

	6637.1.1 = {birth="6637.1.1"}
	6653.1.1 = {add_trait=poor_warrior}
	6655.1.1 = {add_spouse=217360022}
	6676.1.1 = {}
	6696.1.1 = {death="6696.1.1"}
}
217360022 = {
	name="Olezza"
	female=yes

	religion="harpy"
	culture="ghiscari"

	6637.1.1 = {birth="6637.1.1"}
	6696.1.1 = {death="6696.1.1"}
}
118360022 = {
	name="Qezza"	# not a lord
	female=yes
	dynasty=360022

	religion="harpy"
	culture="ghiscari"

	father=113360022
	mother=213360022

	6639.1.1 = {birth="6639.1.1"}
	6697.1.1 = {death="6697.1.1"}
}
119360022 = {
	name="Melezza"	# not a lord
	female=yes
	dynasty=360022

	religion="harpy"
	culture="ghiscari"

	father=117360022
	mother=217360022

	6668.1.1 = {birth="6668.1.1"}
	6712.1.1 = {death="6712.1.1"}
}
120360022 = {
	name="Hizdhar"	# not a lord
	dynasty=360022

	religion="harpy"
	culture="ghiscari"

	father=117360022
	mother=217360022

	6671.1.1 = {birth="6671.1.1"}
	6680.1.1 = {death = {death_reason = death_accident}}
}
121360022 = {
	name="Grazdan"	# a lord
	dynasty=360022

	religion="harpy"
	culture="ghiscari"

	father=117360022
	mother=217360022

	6672.1.1 = {birth="6672.1.1"}
	6688.1.1 = {add_trait=poor_warrior}
	6690.1.1 = {add_spouse=221360022}
	6696.1.1 = {}
	6721.1.1 = {death = {death_reason = death_accident}}
}
221360022 = {
	name="Ezzara"
	female=yes

	religion="harpy"
	culture="ghiscari"

	6672.1.1 = {birth="6672.1.1"}
	6721.1.1 = {death="6721.1.1"}
}
122360022 = {
	name="Sesqa"	# not a lord
	female=yes
	dynasty=360022

	religion="harpy"
	culture="ghiscari"

	father=117360022
	mother=217360022

	6675.1.1 = {birth="6675.1.1"}
	6732.1.1 = {death="6732.1.1"}
}
123360022 = {
	name="Galazza"	# not a lord
	female=yes
	dynasty=360022

	religion="harpy"
	culture="ghiscari"

	father=117360022
	mother=217360022

	6678.1.1 = {birth="6678.1.1"}
	6709.1.1 = {death = {death_reason = death_murder}}
}
124360022 = {
	name="Azzak"	# a lord
	dynasty=360022

	religion="harpy"
	culture="ghiscari"

	father=121360022
	mother=221360022

	6694.1.1 = {birth="6694.1.1"}
	6710.1.1 = {add_trait=poor_warrior}
	6711.1.1 = {add_spouse=224360022}
	6721.1.1 = {}
	6735.1.1 = {death = {death_reason = death_accident}}
}
224360022 = {
	name="Dezzala"
	female=yes

	religion="harpy"
	culture="ghiscari"

	6694.1.1 = {birth="6694.1.1"}
	6735.1.1 = {death="6735.1.1"}
}
125360022 = {
	name="Yurkhazro"	# not a lord
	dynasty=360022

	religion="harpy"
	culture="ghiscari"

	father=121360022
	mother=221360022

	6697.1.1 = {birth="6697.1.1"}
	6713.1.1 = {add_trait=trained_warrior}
	6715.1.1 = {add_spouse=225360022}
	6742.1.1 = {death="6742.1.1"}
}
225360022 = {
	name="Qezza"
	female=yes

	religion="harpy"
	culture="ghiscari"

	6697.1.1 = {birth="6697.1.1"}
	6742.1.1 = {death="6742.1.1"}
}
126360022 = {
	name="Hazzea"	# not a lord
	female=yes
	dynasty=360022

	religion="harpy"
	culture="ghiscari"

	father=121360022
	mother=221360022

	6699.1.1 = {birth="6699.1.1"}
	6753.1.1 = {death="6753.1.1"}
}
127360022 = {
	name="Barkhaz"	# not a lord
	dynasty=360022

	religion="harpy"
	culture="ghiscari"

	father=121360022
	mother=221360022

	6701.1.1 = {birth="6701.1.1"}
	6717.1.1 = {add_trait=master_warrior}
	6719.1.1 = {add_spouse=227360022}
	6769.1.1 = {death="6769.1.1"}
}
227360022 = {
	name="Qarria"
	female=yes

	religion="harpy"
	culture="ghiscari"

	6701.1.1 = {birth="6701.1.1"}
	6769.1.1 = {death="6769.1.1"}
}
128360022 = {
	name="Jalezza"	# not a lord
	female=yes
	dynasty=360022

	religion="harpy"
	culture="ghiscari"

	father=121360022
	mother=221360022

	6703.1.1 = {birth="6703.1.1"}
	6773.1.1 = {death="6773.1.1"}
}
129360022 = {
	name="Galazza"	# not a lord
	female=yes
	dynasty=360022

	religion="harpy"
	culture="ghiscari"

	father=124360022
	mother=224360022

	6712.1.1 = {birth="6712.1.1"}
	6753.1.1 = {death="6753.1.1"}
}
130360022 = {
	name="Ezzara"	# not a lord
	female=yes
	dynasty=360022

	religion="harpy"
	culture="ghiscari"

	father=124360022
	mother=224360022

	6714.1.1 = {birth="6714.1.1"}
	6772.1.1 = {death="6772.1.1"}
}
131360022 = {
	name="Maezon"	# a lord
	dynasty=360022

	religion="harpy"
	culture="ghiscari"

	father=124360022
	mother=224360022

	6715.1.1 = {birth="6715.1.1"}
	6735.1.1 = {}
	6742.1.1 = {add_trait=poor_warrior}
	6744.1.1 = {add_spouse=231360022}
	6760.1.1 = {death = {death_reason = death_murder}}
}
231360022 = {
	name="Jezhane"
	female=yes

	religion="harpy"
	culture="ghiscari"

	6726.1.1 = {birth="6726.1.1"}
	6760.1.1 = {death="6760.1.1"}
}
132360022 = {
	name="Gorzhak"	# not a lord
	dynasty=360022

	religion="harpy"
	culture="ghiscari"

	father=124360022
	mother=224360022

	6727.1.1 = {birth="6727.1.1"}
	6743.1.1 = {add_trait=skilled_warrior}
	6789.1.1 = {death="6789.1.1"}
}
6571005 = {
	name="Paezhar" # Canon
	dynasty = 360022 

	martial = 1
	diplomacy = 4
	intrigue = 5
	stewardship = 5
	learning = 5

	culture = yunkaii
	religion = harpy 

	father=131360022
	mother=231360022		
	
	add_trait="flamboyant_schemer"
	add_trait="cruel"
	add_trait="proud"
	add_trait="deceitful"
	add_trait="ruthless"
	
	6745.1.1 = {
		birth="6745.1.1"
	}
	6760.1.1 = {}
}

##House Zherzyn

150360021 = {
	name="Haezdhar"	# a lord
	dynasty=360021

	religion="harpy"
	culture="ghiscari"

	6438.1.1 = {birth="6438.1.1"}
	6456.1.1 = {add_spouse=250360021}
	6492.1.1 = {death="6492.1.1"}
}
250360021 = {
	name="Elezzara"
	female=yes

	religion="harpy"
	culture="ghiscari"

	6440.1.1 = {birth="6440.1.1"}
	6478.1.1 = {death="6478.1.1"}
}

100360021 = {
	name="Grazdhan"	# a lord
	dynasty=360021

	religion="harpy"
	culture="ghiscari"

	father=150360021
	mother=250360021

	6460.1.1 = {birth="6460.1.1"}
	6482.1.1 = {add_spouse=200360021}
	6492.1.1 = {}
	6494.1.1 = {add_trait=poor_warrior}
	6503.1.1 = {death="6503.1.1"}
}
200360021 = {
	name="Melazzara"
	female=yes

	religion="harpy"
	culture="ghiscari"

	6460.1.1 = {birth="6460.1.1"}
	6503.1.1 = {death="6503.1.1"}
}
101360021 = {
	name="Marghazuo"	# a lord
	dynasty=360021

	religion="harpy"
	culture="ghiscari"

	father=100360021
	mother=200360021

	6484.1.1 = {birth="6484.1.1"}
	6503.1.1 = {}
	6512.1.1 = {add_trait=trained_warrior}
	6514.1.1 = {add_spouse=201360021}
	6538.1.1 = {death="6538.1.1"}
}
201360021 = {
	name="Qezza"
	female=yes

	religion="harpy"
	culture="ghiscari"

	6496.1.1 = {birth="6496.1.1"}
	6538.1.1 = {death="6538.1.1"}
}
102360021 = {
	name="Hazzea"	# not a lord
	female=yes
	dynasty=360021

	religion="harpy"
	culture="ghiscari"

	father=100360021
	mother=200360021

	6498.1.1 = {birth="6498.1.1"}
	6540.1.1 = {death="6540.1.1"}
}
103360021 = {
	name="Sharkaz"	# a lord
	dynasty=360021

	religion="harpy"
	culture="ghiscari"

	father=101360021
	mother=201360021

	6515.1.1 = {birth="6515.1.1"}
	6538.1.1 = {}
	6543.1.1 = {add_trait=trained_warrior}
	6545.1.1 = {add_spouse=203360021}
	6573.1.1 = {death = {death_reason = death_accident}}
}
203360021 = {
	name="Ezzara"
	female=yes

	religion="harpy"
	culture="ghiscari"

	6527.1.1 = {birth="6527.1.1"}
	6573.1.1 = {death="6573.1.1"}
}
104360021 = {
	name="Prendhal"	# not a lord
	dynasty=360021

	religion="harpy"
	culture="ghiscari"

	father=101360021
	mother=201360021

	6528.1.1 = {birth="6528.1.1"}
	6544.1.1 = {add_trait=poor_warrior}
	6546.1.1 = {add_spouse=204360021}
	6571.1.1 = {death="6571.1.1"}
}
204360021 = {
	name="Tezza"
	female=yes

	religion="harpy"
	culture="ghiscari"

	6528.1.1 = {birth="6528.1.1"}
	6571.1.1 = {death="6571.1.1"}
}
105360021 = {
	name="Galazza"	# not a lord
	female=yes
	dynasty=360021

	religion="harpy"
	culture="ghiscari"

	father=101360021
	mother=201360021

	6530.1.1 = {birth="6530.1.1"}
	6577.1.1 = {death="6577.1.1"}
}
106360021 = {
	name="Skahaz"	# a lord
	dynasty=360021

	religion="harpy"
	culture="ghiscari"

	father=103360021
	mother=203360021

	6556.1.1 = {birth="6556.1.1"}
	6572.1.1 = {add_trait=trained_warrior}
	6573.1.1 = {}
	6574.1.1 = {add_spouse=206360021}
	6612.1.1 = {death="6612.1.1"}
}
206360021 = {
	name="Azzara"
	female=yes

	religion="harpy"
	culture="ghiscari"

	6556.1.1 = {birth="6556.1.1"}
	6612.1.1 = {death="6612.1.1"}
}
107360021 = {
	name="Grazdan"	# not a lord
	dynasty=360021

	religion="harpy"
	culture="ghiscari"

	father=103360021
	mother=203360021

	6559.1.1 = {birth="6559.1.1"}
	6575.1.1 = {add_trait=trained_warrior}
	6623.1.1 = {death = {death_reason = death_accident}}
}
108360021 = {
	name="Delezza"	# not a lord
	female=yes
	dynasty=360021

	religion="harpy"
	culture="ghiscari"

	father=103360021
	mother=203360021

	6562.1.1 = {birth="6562.1.1"}
	6613.1.1 = {death="6613.1.1"}
}
109360021 = {
	name="Hizdhar"	# not a lord
	dynasty=360021

	religion="harpy"
	culture="ghiscari"

	father=103360021
	mother=203360021

	6565.1.1 = {birth="6565.1.1"}
	6581.1.1 = {add_trait=master_warrior}
	6598.1.1 = {death="6598.1.1"}
}
110360021 = {
	name="Barkhaz"	# not a lord
	dynasty=360021

	religion="harpy"
	culture="ghiscari"

	father=103360021
	mother=203360021

	6568.1.1 = {birth="6568.1.1"}
	6584.1.1 = {add_trait=skilled_warrior}
	6604.1.1 = {death="6604.1.1"}
}
111360021 = {
	name="Maezon"	# a lord
	dynasty=360021

	religion="harpy"
	culture="ghiscari"

	father=106360021
	mother=206360021

	6584.1.1 = {birth="6584.1.1"}
	6600.1.1 = {add_trait=skilled_warrior}
	6602.1.1 = {add_spouse=211360021}
	6612.1.1 = {}
	6643.1.1 = {death="6643.1.1"}
}
211360021 = {
	name="Qezza"
	female=yes

	religion="harpy"
	culture="ghiscari"

	6584.1.1 = {birth="6584.1.1"}
	6643.1.1 = {death="6643.1.1"}
}
112360021 = {
	name="Azzaq"	# not a lord
	dynasty=360021

	religion="harpy"
	culture="ghiscari"

	father=106360021
	mother=206360021

	6586.1.1 = {birth="6586.1.1"}
	6602.1.1 = {add_trait=poor_warrior}
	6618.1.1 = {death="6618.1.1"}
}
113360021 = {
	name="Delezza"	# not a lord
	female=yes
	dynasty=360021

	religion="harpy"
	culture="ghiscari"

	father=106360021
	mother=206360021

	6589.1.1 = {birth="6589.1.1"}
	6657.1.1 = {death="6657.1.1"}
}
114360021 = {
	name="Paezdhar"	# a lord
	dynasty=360021

	religion="harpy"
	culture="ghiscari"

	father=111360021
	mother=211360021

	6609.1.1 = {birth="6609.1.1"}
	6625.1.1 = {add_trait=trained_warrior}
	6627.1.1 = {add_spouse=214360021}
	6643.1.1 = {}
	6649.1.1 = {death="6649.1.1"}
}
214360021 = {
	name="Dezza"
	female=yes

	religion="harpy"
	culture="ghiscari"

	6609.1.1 = {birth="6609.1.1"}
	6649.1.1 = {death="6649.1.1"}
}
115360021 = {
	name="Grazdhan"	# a lord
	dynasty=360021

	religion="harpy"
	culture="ghiscari"

	father=114360021
	mother=214360021

	6630.1.1 = {birth="6630.1.1"}
	6649.1.1 = {}
	6651.1.1 = {add_trait=poor_warrior}
	6653.1.1 = {add_spouse=215360021}
	6703.1.1 = {death="6703.1.1"}
}
215360021 = {
	name="Nalessa"
	female=yes

	religion="harpy"
	culture="ghiscari"

	6635.1.1 = {birth="6635.1.1"}
	6703.1.1 = {death="6703.1.1"}
}
116360021 = {
	name="Barghazo"	# not a lord
	dynasty=360021

	religion="harpy"
	culture="ghiscari"

	father=114360021
	mother=214360021

	6637.1.1 = {birth="6637.1.1"}
	6653.1.1 = {add_trait=poor_warrior}
	6655.1.1 = {add_spouse=216360021}
	6712.1.1 = {death="6712.1.1"}
}
216360021 = {
	name="Hazzea"
	female=yes

	religion="harpy"
	culture="ghiscari"

	6637.1.1 = {birth="6637.1.1"}
	6712.1.1 = {death="6712.1.1"}
}
117360021 = {
	name="Mezzara"	# not a lord
	female=yes
	dynasty=360021

	religion="harpy"
	culture="ghiscari"

	father=114360021
	mother=214360021

	6638.1.1 = {birth="6638.1.1"}
	6686.1.1 = {death="6686.1.1"}
}
118360021 = {
	name="Skahaz"	# not a lord
	dynasty=360021

	religion="harpy"
	culture="ghiscari"

	father=114360021
	mother=214360021

	6641.1.1 = {birth="6641.1.1"}
	6657.1.1 = {add_trait=skilled_warrior}
	6667.1.1 = {death="6667.1.1"}
}
119360021 = {
	name="Qezza"	# not a lord
	female=yes
	dynasty=360021

	religion="harpy"
	culture="ghiscari"

	father=115360021
	mother=215360021

	6653.1.1 = {birth="6653.1.1"}
	6708.1.1 = {death="6708.1.1"}
}
120360021 = {
	name="Grazdan"	# not a lord
	dynasty=360021

	religion="harpy"
	culture="ghiscari"

	father=115360021
	mother=215360021

	6656.1.1 = {birth="6656.1.1"}
	6672.1.1 = {add_trait=skilled_warrior}
	6699.1.1 = {death="6699.1.1"}
}
121360021 = {
	name="Reznak"	# a lord
	dynasty=360021

	religion="harpy"
	culture="ghiscari"

	father=115360021
	mother=215360021

	6658.1.1 = {birth="6658.1.1"}
	6674.1.1 = {add_trait=poor_warrior}
	6676.1.1 = {add_spouse=221360021}
	6703.1.1 = {}
	6733.1.1 = {death="6733.1.1"}
}
221360021 = {
	name="Ezzara"
	female=yes

	religion="harpy"
	culture="ghiscari"

	6658.1.1 = {birth="6658.1.1"}
	6733.1.1 = {death="6733.1.1"}
}
122360021 = {
	name="Yezzan"	# not a lord
	dynasty=360021

	religion="harpy"
	culture="ghiscari"

	father=115360021
	mother=215360021

	6659.1.1 = {birth="6659.1.1"}
	6675.1.1 = {add_trait=trained_warrior}
	6704.1.1 = {death="6704.1.1"}
}
123360021 = {
	name="Yezza"	# not a lord
	female=yes
	dynasty=360021

	religion="harpy"
	culture="ghiscari"

	father=121360021
	mother=221360021

	6691.1.1 = {birth="6691.1.1"}
	6707.1.1 = {death="6707.1.1"}
}
124360021 = {
	name="Marghaz"	# a lord
	dynasty=360021

	religion="harpy"
	culture="ghiscari"

	father=121360021
	mother=221360021

	6693.1.1 = {birth="6693.1.1"}
	6709.1.1 = {add_trait=poor_warrior}
	6711.1.1 = {add_spouse=224360021}
	6733.1.1 = {}
	6764.1.1 = {death="6764.1.1"}
}
224360021 = {
	name="Melezzara"
	female=yes

	religion="harpy"
	culture="ghiscari"

	6693.1.1 = {birth="6693.1.1"}
	6764.1.1 = {death="6764.1.1"}
}
125360021 = {
	name="Sezza"	# not a lord
	female=yes
	dynasty=360021

	religion="harpy"
	culture="ghiscari"

	father=121360021
	mother=221360021

	6696.1.1 = {birth="6696.1.1"}
	6732.1.1 = {death="6732.1.1"}
}
126360021 = {
	name="Bellara"	# not a lord
	female=yes
	dynasty=360021

	religion="harpy"
	culture="ghiscari"

	father=121360021
	mother=221360021

	6699.1.1 = {birth="6699.1.1"}
	6728.1.1 = {death="6728.1.1"}
}

6571006 = {
	name="Morghaz"  # Canon
	dynasty = 360021 

	martial = 1
	diplomacy = 4
	intrigue = 5
	stewardship = 5
	learning = 5

	culture = yunkaii
	religion = harpy

	father=124360021
	mother=224360021 		
	
	add_trait="drunkard"
	add_trait="cruel"
	add_trait="proud"
	add_trait="deceitful"
	add_trait="ruthless"
	
	6729.1.1 = {
		birth="6729.1.1"
	}
	6764.1.1 = {}
}

##House Eraz

150360020 = {
	name="Grazdhan"	# a lord
	dynasty=360020

	religion="harpy"
	culture="ghiscari"

	6433.1.1 = {birth="6433.1.1"}
	6454.1.1 = {add_spouse=250360020}
	6486.1.1 = {death="6486.1.1"}
}
250360020 = {
	name="Mezzara"
	female=yes

	religion="harpy"
	culture="ghiscari"

	6437.1.1 = {birth="6437.1.1"}
	6492.1.1 = {death="6492.1.1"}
}
100360020 = {
	name="Marghaz"	# a lord
	dynasty=360020

	religion="harpy"
	culture="ghiscari"

	father=150360020
	mother=250360020

	6462.1.1 = {birth="6462.1.1"}
	6480.1.1 = {add_spouse=200360020}
	6486.1.1 = {}
	6494.1.1 = {add_trait=poor_warrior}
	6509.1.1 = {death="6509.1.1"}
}
200360020 = {
	name="Tellezza"
	female=yes

	religion="harpy"
	culture="ghiscari"
	
	# In memory of a very amusing bug
	add_trait = genius
	add_trait = ambitious

	6462.1.1 = {birth="6462.1.1"}
	6509.1.1 = {death="6509.1.1"}
}
101360020 = {
	name="Haezdhar"	# a lord
	dynasty=360020

	religion="harpy"
	culture="ghiscari"

	father=100360020
	mother=200360020

	6481.1.1 = {birth="6481.1.1"}
	6509.1.1 = {}
	6512.1.1 = {add_trait=skilled_warrior}
	6514.1.1 = {add_spouse=201360020}
	6550.1.1 = {death="6550.1.1"}
}
201360020 = {
	name="Ezzara"
	female=yes

	religion="harpy"
	culture="ghiscari"

	6496.1.1 = {birth="6496.1.1"}
	6550.1.1 = {death="6550.1.1"}
}
102360020 = {
	name="Qezza"	# not a lord
	female=yes
	dynasty=360020

	religion="harpy"
	culture="ghiscari"

	father=100360020
	mother=200360020

	6499.1.1 = {birth="6499.1.1"}
	6526.1.1 = {death="6526.1.1"}
}
103360020 = {
	name="Galazza"	# not a lord
	female=yes
	dynasty=360020

	religion="harpy"
	culture="ghiscari"

	father=100360020
	mother=200360020

	6500.1.1 = {birth="6500.1.1"}
	6575.1.1 = {death="6575.1.1"}
}
104360020 = {
	name="Grazdan"	# not a lord
	dynasty=360020

	religion="harpy"
	culture="ghiscari"

	father=100360020
	mother=200360020

	6503.1.1 = {birth="6503.1.1"}
	6519.1.1 = {add_trait=poor_warrior}
	6549.1.1 = {death="6549.1.1"}
}
105360020 = {
	name="Grazdan"	# a lord
	dynasty=360020

	religion="harpy"
	culture="ghiscari"

	father=101360020
	mother=201360020

	6516.1.1 = {birth="6516.1.1"}
	6532.1.1 = {add_trait=skilled_warrior}
	6534.1.1 = {add_spouse=205360020}
	6550.1.1 = {}
	6566.1.1 = {death="6566.1.1"}
}
205360020 = {
	name="Mezzara"
	female=yes

	religion="harpy"
	culture="ghiscari"

	6516.1.1 = {birth="6516.1.1"}
	6566.1.1 = {death="6566.1.1"}
}
106360020 = {
	name="Skahazo"	# not a lord
	dynasty=360020

	religion="harpy"
	culture="ghiscari"

	father=101360020
	mother=201360020

	6519.1.1 = {birth="6519.1.1"}
	6537.1.1 = {
		add_spouse=206360020
		effect = { spouse = { add_lover = ROOT } }
	}
	6551.1.1 = {add_trait = has_bloody_flux}
	6552.1.1 = {death = { death_reason = death_trait } }
}
206360020 = {
	name="Hazzea"
	female=yes

	religion="harpy"
	culture="ghiscari"

	6519.1.1 = {birth="6519.1.1"}
	6552.1.1 = {
		add_trait = widowed
		add_trait = depressed
	}
	6553.1.1 = {
		death = { death_reason = death_suicide }
	}
}
107360020 = {
	name="Mellezza"	# not a lord
	female=yes
	dynasty=360020

	religion="harpy"
	culture="ghiscari"

	father=101360020
	mother=201360020

	6522.1.1 = {birth="6522.1.1"}
	6593.1.1 = {death="6593.1.1"}
}
108360020 = {
	name="Mizlako"	# not a lord
	dynasty=360020

	religion="harpy"
	culture="ghiscari"

	father=101360020
	mother=201360020

	6525.1.1 = {birth="6525.1.1"}
	6541.1.1 = {add_trait=poor_warrior}
	6576.1.1 = {death="6576.1.1"}
}
109360020 = {
	name="Reznakuo"	# not a lord
	dynasty=360020

	religion="harpy"
	culture="ghiscari"

	father=101360020
	mother=201360020

	6528.1.1 = {birth="6528.1.1"}
	6544.1.1 = {add_trait=poor_warrior}
	6598.1.1 = {death="6598.1.1"}
}
110360020 = {
	name="Qezza"	# not a lord
	female=yes
	dynasty=360020

	religion="harpy"
	culture="ghiscari"

	father=105360020
	mother=205360020

	6540.1.1 = {birth="6540.1.1"}
	6576.1.1 = {death="6576.1.1"}
}
111360020 = {
	name="Barkhaz"	# a lord
	dynasty=360020

	religion="harpy"
	culture="ghiscari"

	father=105360020
	mother=205360020

	6543.1.1 = {birth="6543.1.1"}
	6559.1.1 = {add_trait=trained_warrior}
	6561.1.1 = {add_spouse=211360020}
	6566.1.1 = {}
	6600.1.1 = {death="6600.1.1"}
}
211360020 = {
	name="Ezzara"
	female=yes

	religion="harpy"
	culture="ghiscari"

	6543.1.1 = {birth="6543.1.1"}
	6600.1.1 = {death="6600.1.1"}
}
112360020 = {
	name="Azlaq"	# a lord
	dynasty=360020

	religion="harpy"
	culture="ghiscari"

	father=111360020
	mother=211360020

	6570.1.1 = {birth="6570.1.1"}
	6586.1.1 = {add_trait=trained_warrior}
	6588.1.1 = {add_spouse=212360020}
	6600.1.1 = {}
	6615.1.1 = {death="6615.1.1"}
}
212360020 = {
	name="Azzara"
	female=yes

	religion="harpy"
	culture="ghiscari"

	6570.1.1 = {birth="6570.1.1"}
	6615.1.1 = {death="6615.1.1"}
}
113360020 = {
	name="Tezza"	# not a lord
	female=yes
	dynasty=360020

	religion="harpy"
	culture="ghiscari"

	father=111360020
	mother=211360020

	6571.1.1 = {birth="6571.1.1"}
	6639.1.1 = {death="6639.1.1"}
}
114360020 = {
	name="Galazza"	# not a lord
	female=yes
	dynasty=360020

	religion="harpy"
	culture="ghiscari"

	father=112360020
	mother=212360020

	6588.1.1 = {birth="6588.1.1"}
	6635.1.1 = {death="6635.1.1"}
}
115360020 = {
	name="Qezza"	# not a lord
	female=yes
	dynasty=360020

	religion="harpy"
	culture="ghiscari"

	father=112360020
	mother=212360020

	6591.1.1 = {birth="6591.1.1"}
	6641.1.1 = {death="6641.1.1"}
}
116360020 = {
	name="Grazdan"	# a lord
	dynasty=360020

	religion="harpy"
	culture="ghiscari"

	father=112360020
	mother=212360020

	6593.1.1 = {birth="6593.1.1"}
	6609.1.1 = {add_trait=poor_warrior}
	6611.1.1 = {add_spouse=216360020}
	6615.1.1 = {}
	6648.1.1 = {death="6648.1.1"}
}
216360020 = {
	name="Ezzara"
	female=yes

	religion="harpy"
	culture="ghiscari"

	6593.1.1 = {birth="6593.1.1"}
	6648.1.1 = {death="6648.1.1"}
}
117360020 = {
	name="Hazzea"	# not a lord
	female=yes
	dynasty=360020

	religion="harpy"
	culture="ghiscari"

	father=116360020
	mother=216360020

	6618.1.1 = {birth="6618.1.1"}
	6669.1.1 = {death="6669.1.1"}
}
118360020 = {
	name="Qezza"	# not a lord
	female=yes
	dynasty=360020

	religion="harpy"
	culture="ghiscari"

	father=116360020
	mother=216360020

	6621.1.1 = {birth="6621.1.1"}
	6653.1.1 = {death="6653.1.1"}
}
119360020 = {
	name="Hizdhar"	# a lord
	dynasty=360020

	religion="harpy"
	culture="ghiscari"

	father=116360020
	mother=216360020

	6623.1.1 = {birth="6623.1.1"}
	6639.1.1 = {add_trait=trained_warrior}
	6641.1.1 = {add_spouse=219360020}
	6648.1.1 = {}
	6666.1.1 = {death="6666.1.1"}
}
219360020 = {
	name="Mellezza"
	female=yes

	religion="harpy"
	culture="ghiscari"

	6623.1.1 = {birth="6623.1.1"}
	6666.1.1 = {death="6666.1.1"}
}
120360020 = {
	name="Yurkhaz"	# a lord
	dynasty=360020

	religion="harpy"
	culture="ghiscari"

	father=119360020
	mother=219360020

	6642.1.1 = {birth="6642.1.1"}
	6658.1.1 = {add_trait=poor_warrior}
	6660.1.1 = {add_spouse=220360020}
	6666.1.1 = {}
	6703.1.1 = {death="6703.1.1"}
}
220360020 = {
	name="Yna"
	female=yes

	religion="harpy"
	culture="ghiscari"

	6642.1.1 = {birth="6642.1.1"}
	6703.1.1 = {death="6703.1.1"}
}
121360020 = {
	name="Qezza"	# not a lord
	female=yes
	dynasty=360020

	religion="harpy"
	culture="ghiscari"

	father=119360020
	mother=219360020

	6643.1.1 = {birth="6643.1.1"}
	6712.1.1 = {death = {death_reason = death_murder}}
}
122360020 = {
	name="Grazdhan"	# a lord
	dynasty=360020

	religion="harpy"
	culture="ghiscari"

	father=120360020
	mother=220360020

	6670.1.1 = {birth="6670.1.1"}
	6686.1.1 = {add_trait=trained_warrior}
	6688.1.1 = {add_spouse=222360020}
	6703.1.1 = {}
	6717.1.1 = {death="6717.1.1"}
}
222360020 = {
	name="Fezzara"
	female=yes

	religion="harpy"
	culture="ghiscari"

	6670.1.1 = {birth="6670.1.1"}
	6717.1.1 = {death="6717.1.1"}
}
123360020 = {
	name="Qezza"	# not a lord
	female=yes
	dynasty=360020

	religion="harpy"
	culture="ghiscari"

	father=120360020
	mother=220360020

	6673.1.1 = {birth="6673.1.1"}
	6728.1.1 = {death="6728.1.1"}
}
124360020 = {
	name="Yezzan"	# not a lord
	dynasty=360020

	religion="harpy"
	culture="ghiscari"

	father=120360020
	mother=220360020

	6675.1.1 = {birth="6675.1.1"}
	6691.1.1 = {add_trait=poor_warrior}
	6693.1.1 = {add_spouse=224360020}
	6706.1.1 = {death = {death_reason = death_battle}}
}
224360020 = {
	name="Tellezza"
	female=yes

	religion="harpy"
	culture="ghiscari"

	6675.1.1 = {birth="6675.1.1"}
	6706.1.1 = {death="6706.1.1"}
}
125360020 = {
	name="Ezzara"	# not a lord
	female=yes
	dynasty=360020

	religion="harpy"
	culture="ghiscari"

	father=122360020
	mother=222360020

	6689.1.1 = {birth="6689.1.1"}
	6732.1.1 = {death="6732.1.1"}
}
126360020 = {
	name="Paezdhar"	# a lord
	dynasty=360020

	religion="harpy"
	culture="ghiscari"

	father=122360020
	mother=222360020

	6690.1.1 = {birth="6690.1.1"}
	6706.1.1 = {add_trait=poor_warrior}
	6708.1.1 = {add_spouse=226360020}
	6717.1.1 = {}
	6733.1.1 = {death="6733.1.1"}
}
226360020 = {
	name="Hazzea"
	female=yes

	religion="harpy"
	culture="ghiscari"

	6690.1.1 = {birth="6690.1.1"}
	6733.1.1 = {death="6733.1.1"}
}
127360020 = {
	name="Tezzara"	# not a lord
	female=yes
	dynasty=360020

	religion="harpy"
	culture="ghiscari"

	father=122360020
	mother=222360020

	6692.1.1 = {birth="6692.1.1"}
	6747.1.1 = {death="6747.1.1"}
}
128360020 = {
	name="Prendhal"	# not a lord
	dynasty=360020

	religion="harpy"
	culture="ghiscari"

	father=122360020
	mother=222360020

	6694.1.1 = {birth="6694.1.1"}
	6710.1.1 = {add_trait=poor_warrior}
	6712.1.1 = {add_spouse=228360020}
	6739.1.1 = {death="6739.1.1"}
}
228360020 = {
	name="Mezzara"
	female=yes

	religion="harpy"
	culture="ghiscari"

	6694.1.1 = {birth="6694.1.1"}
	6739.1.1 = {death="6739.1.1"}
}
129360020 = {
	name="Hazzea"	# not a lord
	female=yes
	dynasty=360020

	religion="harpy"
	culture="ghiscari"

	father=122360020
	mother=222360020

	6696.1.1 = {birth="6696.1.1"}
	6739.1.1 = {death="6739.1.1"}
}
130360020 = {
	name="Gazdhor"	# a lord
	dynasty=360020

	religion="harpy"
	culture="ghiscari"

	father=126360020
	mother=226360020

	6714.1.1 = {birth="6714.1.1"}
	6730.1.1 = {add_trait=trained_warrior}
	6732.1.1 = {add_spouse=230360020}
	6733.1.1 = {}
	6758.1.1 = {death="6758.1.1"}
}
230360020 = {
	name="Tellezzara"
	female=yes

	religion="harpy"
	culture="ghiscari"

	6714.1.1 = {birth="6714.1.1"}
	6758.1.1 = {death="6758.1.1"}
}

6571007 = {
	name="Grazdan"  # Canon  Lead envoys to Dany in SoS and recruited the Windblown in Volantis in aDwD.
	dynasty = 360020 

	martial = 3
	diplomacy = 10
	intrigue = 7
	stewardship = 10
	learning = 5

	culture = yunkaii
	religion = harpy 

	father=130360020
	mother=230360020		
	
	add_trait="thrifty_clerk"
	add_trait="cruel"
	add_trait="proud"
	add_trait="deceitful"
	add_trait="ruthless"
	add_trait="authoritative"
	
	6738.1.1 = {
		birth="6738.1.1"
	}
	6758.1.1 = {}
}

6571008 = {
	name="Gorzhak"  # Canon
	dynasty = 360020 

	martial = 2
	diplomacy = 4
	intrigue = 4
	stewardship = 3
	learning = 2

	culture = yunkaii
	religion = harpy 

	father=130360020
	mother=230360020		
	
	add_trait="cruel"
	add_trait="proud"
	add_trait="deceitful"
	add_trait="ruthless"
	
	6757.1.1 = {
		birth="6757.1.1"
	}
}

##House Rhaezn

150360017 = {
	name="Zarraq"	# a lord
	dynasty=360017

	religion="harpy"
	culture="ghiscari"

	6432.1.1 = {birth="6432.1.1"}
	6454.1.1 = {add_spouse=250360017}
	6502.1.1 = {death="6502.1.1"}
}
250360017 = {
	name="Dhazzar"
	female=yes

	religion="harpy"
	culture="ghiscari"

	6434.1.1 = {birth="6434.1.1"}
	6501.1.1 = {death="6501.1.1"}
}
100360017 = {
	name="Yurkhaz"	# a lord
	dynasty=360017

	religion="harpy"
	culture="ghiscari"

	father=150360017
	mother=250360017

	6465.1.1 = {birth="6465.1.1"}
	6494.1.1 = {add_trait=poor_warrior}
	6496.1.1 = {add_spouse=200360017}
	6502.1.1 = {}
	6524.1.1 = {death="6524.1.1"}
}
200360017 = {
	name="Hazzea"
	female=yes

	religion="harpy"
	culture="ghiscari"

	6465.1.1 = {birth="6465.1.1"}
	6524.1.1 = {death="6524.1.1"}
}
101360017 = {
	name="Paezdhar"	# a lord
	dynasty=360017

	religion="harpy"
	culture="ghiscari"

	father=100360017
	mother=200360017

	6504.1.1 = {birth="6504.1.1"}
	6520.1.1 = {add_trait=poor_warrior}
	6522.1.1 = {add_spouse=201360017}
	6524.1.1 = {}
	6565.1.1 = {death = {death_reason = death_murder}}
}
201360017 = {
	name="Qezza"
	female=yes

	religion="harpy"
	culture="ghiscari"

	6504.1.1 = {birth="6504.1.1"}
	6565.1.1 = {death="6565.1.1"}
}
102360017 = {
	name="Grazdan"	# not a lord
	dynasty=360017

	religion="harpy"
	culture="ghiscari"

	father=100360017
	mother=200360017

	6505.1.1 = {birth="6505.1.1"}
	6521.1.1 = {add_trait=poor_warrior}
	6566.1.1 = {death="6566.1.1"}
}
103360017 = {
	name="Ezzara"	# not a lord
	female=yes
	dynasty=360017

	religion="harpy"
	culture="ghiscari"

	father=100360017
	mother=200360017

	6506.1.1 = {birth="6506.1.1"}
	6561.1.1 = {death="6561.1.1"}
}
104360017 = {
	name="Mellezza"	# not a lord
	female=yes
	dynasty=360017

	religion="harpy"
	culture="ghiscari"

	father=101360017
	mother=201360017

	6525.1.1 = {birth="6525.1.1"}
	6579.1.1 = {death="6579.1.1"}
}
105360017 = {
	name="Maezon"	# a lord
	dynasty=360017

	religion="harpy"
	culture="ghiscari"

	father=101360017
	mother=201360017

	6526.1.1 = {birth="6526.1.1"}
	6542.1.1 = {add_trait=trained_warrior}
	6544.1.1 = {add_spouse=205360017}
	6565.1.1 = {}
	6596.1.1 = {death="6596.1.1"}
}
205360017 = {
	name="Qezza"
	female=yes

	religion="harpy"
	culture="ghiscari"

	6526.1.1 = {birth="6526.1.1"}
	6596.1.1 = {death="6596.1.1"}
}
106360017 = {
	name="Skahaz"	# not a lord
	dynasty=360017

	religion="harpy"
	culture="ghiscari"

	father=101360017
	mother=201360017

	6529.1.1 = {birth="6529.1.1"}
	6545.1.1 = {add_trait=poor_warrior}
	6576.1.1 = {death="6576.1.1"}
}
107360017 = {
	name="Tellezza"	# not a lord
	female=yes
	dynasty=360017

	religion="harpy"
	culture="ghiscari"

	father=105360017
	mother=205360017

	6552.1.1 = {birth="6552.1.1"}
	6576.1.1 = {death="6576.1.1"}
}
108360017 = {
	name="Ezzara"	# not a lord
	female=yes
	dynasty=360017

	religion="harpy"
	culture="ghiscari"

	father=105360017
	mother=205360017

	6554.1.1 = {birth="6554.1.1"}
	6614.1.1 = {death="6614.1.1"}
}
109360017 = {
	name="Gazdhor"	# a lord
	dynasty=360017

	religion="harpy"
	culture="ghiscari"

	father=105360017
	mother=205360017

	6557.1.1 = {birth="6557.1.1"}
	6573.1.1 = {add_trait=skilled_warrior}
	6575.1.1 = {add_spouse=209360017}
	6596.1.1 = {}
	6622.1.1 = {death="6622.1.1"}
}
209360017 = {
	name="Mezzara"
	female=yes

	religion="harpy"
	culture="ghiscari"

	6557.1.1 = {birth="6557.1.1"}
	6622.1.1 = {death="6622.1.1"}
}
110360017 = {
	name="Marghaz"	# not a lord
	dynasty=360017

	religion="harpy"
	culture="ghiscari"

	father=105360017
	mother=205360017

	6558.1.1 = {birth="6558.1.1"}
	6574.1.1 = {add_trait=trained_warrior}
	6619.1.1 = {death="6619.1.1"}
}
111360017 = {
	name="Grazdan"	# a lord
	dynasty=360017

	religion="harpy"
	culture="ghiscari"

	father=109360017
	mother=209360017

	6586.1.1 = {birth="6586.1.1"}
	6602.1.1 = {add_trait=trained_warrior}
	6604.1.1 = {add_spouse=211360017}
	6622.1.1 = {}
	6628.1.1 = {death="6628.1.1"}
}
211360017 = {
	name="Hazzea"
	female=yes

	religion="harpy"
	culture="ghiscari"

	6586.1.1 = {birth="6586.1.1"}
	6628.1.1 = {death="6628.1.1"}
}
112360017 = {
	name="Yezzan"	# not a lord
	dynasty=360017

	religion="harpy"
	culture="ghiscari"

	father=109360017
	mother=209360017

	6587.1.1 = {birth="6587.1.1"}
	6603.1.1 = {add_trait=trained_warrior}
	6630.1.1 = {death="6630.1.1"}
}
113360017 = {
	name="Qezza"	# not a lord
	female=yes
	dynasty=360017

	religion="harpy"
	culture="ghiscari"

	father=111360017
	mother=211360017

	6606.1.1 = {birth="6606.1.1"}
	6635.1.1 = {death="6635.1.1"}
}
114360017 = {
	name="Sharkhaz"	# a lord
	dynasty=360017

	religion="harpy"
	culture="ghiscari"

	father=111360017
	mother=211360017

	6608.1.1 = {birth="6608.1.1"}
	6624.1.1 = {add_trait=poor_warrior}
	6626.1.1 = {add_spouse=214360017}
	6628.1.1 = {}
	6664.1.1 = {death="6664.1.1"}
}
214360017 = {
	name="Ezzara"
	female=yes

	religion="harpy"
	culture="ghiscari"

	6608.1.1 = {birth="6608.1.1"}
	6664.1.1 = {death="6664.1.1"}
}
115360017 = {
	name="Hizdhar"	# not a lord
	dynasty=360017

	religion="harpy"
	culture="ghiscari"

	father=111360017
	mother=211360017

	6609.1.1 = {birth="6609.1.1"}
	6625.1.1 = {add_trait=trained_warrior}
	6627.1.1 = {add_spouse=215360017}
	6677.1.1 = {death="6677.1.1"}
}
215360017 = {
	name="Sezza"
	female=yes

	religion="harpy"
	culture="ghiscari"

	6609.1.1 = {birth="6609.1.1"}
	6677.1.1 = {death="6677.1.1"}
}
116360017 = {
	name="Azzea"	# not a lord
	female=yes
	dynasty=360017

	religion="harpy"
	culture="ghiscari"

	father=111360017
	mother=211360017

	6610.1.1 = {birth="6610.1.1"}
	6649.1.1 = {death="6649.1.1"}
}
117360017 = {
	name="Kraznys"	# not a lord
	dynasty=360017

	religion="harpy"
	culture="ghiscari"

	father=111360017
	mother=211360017

	6613.1.1 = {birth="6613.1.1"}
	6629.1.1 = {add_trait=trained_warrior}
	6665.1.1 = {death="6665.1.1"}
}
118360017 = {
	name="Grazdan"	# a lord
	dynasty=360017

	religion="harpy"
	culture="ghiscari"

	father=114360017
	mother=214360017

	6642.1.1 = {birth="6642.1.1"}
	6658.1.1 = {add_trait=poor_warrior}
	6660.1.1 = {add_spouse=218360017}
	6664.1.1 = {}
	6678.1.1 = {death="6678.1.1"}
}
218360017 = {
	name="Mezzella"
	female=yes

	religion="harpy"
	culture="ghiscari"

	6642.1.1 = {birth="6642.1.1"}
	6678.1.1 = {death="6678.1.1"}
}
119360017 = {
	name="Galazza"	# not a lord
	female=yes
	dynasty=360017

	religion="harpy"
	culture="ghiscari"

	father=114360017
	mother=214360017

	6643.1.1 = {birth="6643.1.1"}
	6655.1.1 = {death = {death_reason = death_murder}}
}
120360017 = {
	name="Ezzara"	# not a lord
	female=yes
	dynasty=360017

	religion="harpy"
	culture="ghiscari"

	father=114360017
	mother=214360017

	6646.1.1 = {birth="6646.1.1"}
	6686.1.1 = {death="6686.1.1"}
}
121360017 = {
	name="Jezhane"	# not a lord
	female=yes
	dynasty=360017

	religion="harpy"
	culture="ghiscari"

	father=114360017
	mother=214360017

	6648.1.1 = {birth="6648.1.1"}
	6698.1.1 = {death="6698.1.1"}
}
122360017 = {
	name="Paezdhar"	# a lord
	dynasty=360017

	religion="harpy"
	culture="ghiscari"

	father=118360017
	mother=218360017

	6663.1.1 = {birth="6663.1.1"}
	6678.1.1 = {}
	6679.1.1 = {add_trait=master_warrior}
	6681.1.1 = {add_spouse=222360017}
	6708.1.1 = {death="6708.1.1"}
}
222360017 = {
	name="Galazza"
	female=yes

	religion="harpy"
	culture="ghiscari"

	6663.1.1 = {birth="6663.1.1"}
	6708.1.1 = {death="6708.1.1"}
}
123360017 = {
	name="Prendahl"	# not a lord
	dynasty=360017

	religion="harpy"
	culture="ghiscari"

	father=118360017
	mother=218360017

	6664.1.1 = {birth="6664.1.1"}
	6667.1.1 = {death = {death_reason = death_accident}}
}
124360017 = {
	name="Qezza"	# not a lord
	female=yes
	dynasty=360017

	religion="harpy"
	culture="ghiscari"

	father=118360017
	mother=218360017

	6665.1.1 = {birth="6665.1.1"}
	6745.1.1 = {death="6745.1.1"}
}
125360017 = {
	name="Grazdan"	# not a lord
	dynasty=360017

	religion="harpy"
	culture="ghiscari"

	father=118360017
	mother=218360017

	6666.1.1 = {birth="6666.1.1"}
	6682.1.1 = {add_trait=skilled_warrior}
	6729.1.1 = {death="6729.1.1"}
}
126360017 = {
	name="Skahaz"	# not a lord
	dynasty=360017

	religion="harpy"
	culture="ghiscari"

	father=118360017
	mother=218360017

	6667.1.1 = {birth="6667.1.1"}
	6683.1.1 = {add_trait=skilled_warrior}
	6732.1.1 = {death="6732.1.1"}
}
127360017 = {
	name="Ezzea"	# not a lord
	female=yes
	dynasty=360017

	religion="harpy"
	culture="ghiscari"

	father=122360017
	mother=222360017

	6689.1.1 = {birth="6689.1.1"}
	6760.1.1 = {death="6760.1.1"}
}
128360017 = {
	name="Grazdhan"	# a lord
	dynasty=360017

	religion="harpy"
	culture="ghiscari"

	father=122360017
	mother=222360017

	6690.1.1 = {birth="6690.1.1"}
	6706.1.1 = {add_trait=poor_warrior}
	6708.1.1 = {
		add_spouse=228360017
		
	}
	6728.1.1 = {death="6728.1.1"}
}
228360017 = {
	name="Hazzea"
	female=yes

	religion="harpy"
	culture="ghiscari"

	6690.1.1 = {birth="6690.1.1"}
	6723.1.1 = {death="6723.1.1"}
}
129360017 = {
	name="Marghaz"	# not a lord
	dynasty=360017

	religion="harpy"
	culture="ghiscari"

	father=122360017
	mother=222360017

	6692.1.1 = {birth="6692.1.1"}
	6708.1.1 = {add_trait=skilled_warrior}
	6743.1.1 = {death="6743.1.1"}
}
130360017 = {
	name="Olezza"	# not a lord
	female=yes
	dynasty=360017

	religion="harpy"
	culture="ghiscari"

	father=128360017
	mother=228360017

	6709.1.1 = {birth="6709.1.1"}
	6760.1.1 = {death="6760.1.1"}
}
131360017 = {
	name="Tellezzara"	# not a lord
	female=yes
	dynasty=360017

	religion="harpy"
	culture="ghiscari"

	father=128360017
	mother=228360017

	6710.1.1 = {birth="6710.1.1"}
}
132360017 = {
	name="Skahaz"	# a lord
	dynasty=360017

	religion="harpy"
	culture="ghiscari"

	father=128360017
	mother=228360017

	6711.1.1 = {birth="6711.1.1"}
	6727.1.1 = {add_trait=poor_warrior}
	6728.1.1 = {}
	6729.1.1 = {add_spouse=232360017}
	6736.1.1 = {death="6736.1.1"}
}
232360017 = {
	name="Galazza"
	female=yes

	religion="harpy"
	culture="ghiscari"

	6711.1.1 = {birth="6711.1.1"}
	6736.1.1 = {death="6736.1.1"}
}
133360017 = {
	name="Jezhane"	# not a lord
	female=yes
	dynasty=360017

	religion="harpy"
	culture="ghiscari"

	father=128360017
	mother=228360017

	6713.1.1 = {birth="6713.1.1"}
}
134360017 = {
	name="Fellezzara"	# not a lord
	female=yes
	dynasty=360017

	religion="harpy"
	culture="ghiscari"

	father=128360017
	mother=228360017

	6714.1.1 = {birth="6714.1.1"}
	6757.1.1 = {death="6757.1.1"}
}
135360017 = {
	name="Sezqa"	# not a lord
	female=yes
	dynasty=360017

	religion="harpy"
	culture="ghiscari"

	father=132360017
	mother=232360017

	6731.1.1 = {birth="6731.1.1"}
	6773.1.1 = {death="6773.1.1"}
}
136360017 = {
	name="Hizdhar"	# a lord
	dynasty=360017

	religion="harpy"
	culture="ghiscari"

	father=128360017
	mother=228360017

	6713.1.1 = {birth="6713.1.1"}
	6729.1.1 = {add_trait=master_warrior}
	6731.1.1 = {add_spouse=236360017}
	6736.1.1 = {}
	6769.1.1 = {death="6769.1.1"}
}
236360017 = {
	name="Bellezza"
	female=yes

	religion="harpy"
	culture="ghiscari"

	6713.1.1 = {birth="6713.1.1"}
	6769.1.1 = {death="6769.1.1"}
}
137360017 = {
	name="Reznak"	# not a lord
	dynasty=360017

	religion="harpy"
	culture="ghiscari"

	father=132360017
	mother=232360017

	6734.1.1 = {birth="6734.1.1"}
	6750.1.1 = {add_trait=skilled_warrior}
}


###  The Clanker Lords
6571011 = {
	name="Maezon"  ## Canon
	dynasty = 360017 

	martial = 3
	diplomacy = 3
	intrigue = 7
	stewardship = 4
	learning = 5

	culture = yunkaii
	religion = harpy 

	father=136360017
	mother=236360017		
	
	add_trait="cruel"
	add_trait="proud"
	add_trait="deceitful"
	add_trait="ruthless"
	
	6732.1.1 = {
		birth="6732.1.1"
	}
	6769.1.1 = {}
}

6571012 = {
	name="Chezdhar"  ## Canon
	dynasty = 360017 

	martial = 3
	diplomacy = 3
	intrigue = 7
	stewardship = 4
	learning = 5

	culture = yunkaii
	religion = harpy 

	father=136360017
	mother=236360017		
	
	add_trait="cruel"
	add_trait="proud"
	add_trait="deceitful"
	add_trait="ruthless"
	
	6734.1.1 = {
		birth="6734.1.1"
	}
}

6571013 = {
	name="Grazdhan"  ## Canon
	dynasty = 360017 

	martial = 3
	diplomacy = 3
	intrigue = 7
	stewardship = 4
	learning = 5

	culture = yunkaii
	religion = harpy 

	father=136360017
	mother=236360017		
	
	add_trait="cruel"
	add_trait="proud"
	add_trait="deceitful"
	add_trait="ruthless"
	
	6736.1.1 = {
		birth="6736.1.1"
	}
}

