##################
### Kayakayana ###
##################
### House Paavola
34355945 = {
	name="Valto"	# a lord
	dynasty=55945

	religion="gods_bone_mountains"
	culture="kayakayanayan"
	
	add_trait=tall
	
	7827.1.1 = {birth="7827.1.1"}
	7886.1.1 = {death="7886.1.1"}
}
34255945 = {
	name="Raimo"	# a lord
	dynasty=55945

	religion="gods_bone_mountains"
	culture="kayakayanayan"

	father=34355945
	
	add_trait=strong
	
	7862.1.1 = {birth="7862.1.1"}
	7923.1.1 = {death="7923.1.1"}
}
34155945 = {
	name="Puukko"	# a lord
	dynasty=55945

	religion="gods_bone_mountains"
	culture="kayakayanayan"

	father=34255945
	
	add_trait=strong
	
	7893.1.1 = {birth="7893.1.1"}
	7955.1.1 = {death="7955.1.1"}
}
34055945 = {
	name="Orvo"	# a lord
	dynasty=55945

	religion="gods_bone_mountains"
	culture="kayakayanayan"

	father=34155945
	
	add_trait=tall
	
	7930.1.1 = {birth="7930.1.1"}
	7987.1.1 = {death="7987.1.1"}
}
10055945 = {
	name="Mykoon"	# a lord
	dynasty=55945

	religion="gods_bone_mountains"
	culture="kayakayanayan"
	
	father=34055945
	
	add_trait=strong

	7966.1.1 = {birth="7966.1.1"}
	7982.1.1 = {add_trait=trained_warrior}
	8023.1.1 = {death="8023.1.1"}
}
10355945 = {
	name="Esko"	# a lord
	dynasty=55945

	religion="gods_bone_mountains"
	culture="kayakayanayan"

	father=10055945
	
	add_trait=strong

	7987.1.1 = {birth="7987.1.1"}
	8003.1.1 = {add_trait=trained_warrior}
	8036.1.1 = {death="8036.1.1"}
}
10755945 = {
	name="Voitto"	# a lord
	dynasty=55945

	religion="gods_bone_mountains"
	culture="kayakayanayan"

	father=10355945

	add_trait=tall
	add_trait=adopted
	
	8017.1.1 = {birth="8017.1.1"}
	8033.1.1 = {add_trait=trained_warrior}
	8082.1.1 = {death="8082.1.1"}
}
11155945 = {
	name="Myikku"	# a lord
	dynasty=55945

	religion="gods_bone_mountains"
	culture="kayakayanayan"

	father=10755945

	8046.1.1 = {birth="8046.1.1"}
	8062.1.1 = {add_trait=trained_warrior}
	8103.1.1 = {death="8103.1.1"}
}
11355945 = {
	name="Voitto"	# a lord
	dynasty=55945

	religion="gods_bone_mountains"
	culture="kayakayanayan"

	father=11155945
	
	add_trait=fair
	add_trait=adopted

	8070.1.1 = {birth="8070.1.1"}
	8086.1.1 = {add_trait=poor_warrior}
	8106.1.1 = {death="8106.1.1"}
}
11655945 = {
	name="Veikko"	# a lord
	dynasty=55945

	religion="gods_bone_mountains"
	culture="kayakayanayan"

	father=11355945
	
	add_trait=fair

	8099.1.1 = {birth="8099.1.1"}
	8115.1.1 = {add_trait=trained_warrior}
	8141.1.1 = {death="8141.1.1"}
}
11955945 = {
	name="Ryku"	# a lord
	dynasty=55945

	religion="gods_bone_mountains"
	culture="kayakayanayan"

	father=11655945
	
	add_trait=strong

	8118.1.1 = {birth="8118.1.1"}
	8134.1.1 = {add_trait=skilled_warrior}
	8149.1.1 = {death="8149.1.1"}
}
12055945 = {
	name="Sakari"	# a lord
	dynasty=55945

	religion="gods_bone_mountains"
	culture="kayakayanayan"

	father=11955945
	
	add_trait=strong

	8142.1.1 = {birth="8142.1.1"}
	8158.1.1 = {add_trait=trained_warrior}
	8189.1.1 = {death="8189.1.1"}
}
12455945 = {
	name="Valto"	# a lord
	dynasty=55945

	religion="gods_bone_mountains"
	culture="kayakayanayan"

	father=12055945
	
	add_trait=tall
	add_trait=strong

	8163.1.1 = {birth="8163.1.1"}
	8179.1.1 = {add_trait=skilled_warrior}
	8237.1.1 = {death="8237.1.1"}
}
12755945 = {
	name="Nyilo"	# a lord
	dynasty=55945

	religion="gods_bone_mountains"
	culture="kayakayanayan"

	father=12455945
	
	add_trait=strong

	8188.1.1 = {birth="8188.1.1"}
	8204.1.1 = {add_trait=skilled_warrior}
	8255.1.1 = {death="8255.1.1"}
}
13255945 = {
	name="Hyrno"	# a lord
	dynasty=55945

	religion="gods_bone_mountains"
	culture="kayakayanayan"

	father=12755945
	
	add_trait=tall

	8211.1.1 = {birth="8211.1.1"}
	8227.1.1 = {add_trait=trained_warrior}
	8267.1.1 = {death="8267.1.1"}
}
13555945 = {
	name="Uljas"	# a lord
	dynasty=55945

	religion="gods_bone_mountains"
	culture="kayakayanayan"

	father=13255945
	
	add_trait=fair

	8239.1.1 = {birth="8239.1.1"}
	8255.1.1 = {add_trait=trained_warrior}
	8281.1.1 = {death="8281.1.1"}
}
13755945 = {
	name="Hannu"	# a lord
	dynasty=55945

	religion="gods_bone_mountains"
	culture="kayakayanayan"

	father=13555945
	
	add_trait=fair

	8267.1.1 = {birth="8267.1.1"}
	8283.1.1 = {add_trait=poor_warrior}
}
14155945 = {
	name="Hannu"	# not a lord
	dynasty=55945

	religion="gods_bone_mountains"
	culture="kayakayanayan"

	father=13755945

	8290.1.1 = {birth="8290.1.1"}
}

### House Mikkola
34355946 = {
	name="Tapatora"	# a lord
	dynasty=55946

	religion="gods_bone_mountains"
	culture="kayakayanayan"
	
	add_trait=fair
	
	7825.1.1 = {birth="7825.1.1"}
	7874.1.1 = {death="7874.1.1"}
}
34255946 = {
	name="Terho"	# a lord
	dynasty=55946

	religion="gods_bone_mountains"
	culture="kayakayanayan"

	father=34355946
	
	add_trait=tall
	
	7853.1.1 = {birth="7853.1.1"}
	7914.1.1 = {death="7914.1.1"}
}
34155946 = {
	name="Lemmas"	# a lord
	dynasty=55946

	religion="gods_bone_mountains"
	culture="kayakayanayan"

	father=34255946
	
	add_trait=strong
	
	7885.1.1 = {birth="7885.1.1"}
	7943.1.1 = {death="7943.1.1"}
}
34055946 = {
	name="Kari"	# a lord
	dynasty=55946

	religion="gods_bone_mountains"
	culture="kayakayanayan"

	father=34155946
	
	add_trait=strong
	
	7917.1.1 = {birth="7917.1.1"}
	7970.1.1 = {death="7970.1.1"}
}
10055946 = {
	name="Voitto"	# a lord
	dynasty=55946

	religion="gods_bone_mountains"
	culture="kayakayanayan"
	
	father=34055946
	
	add_trait=fair

	7950.1.1 = {birth="7950.1.1"}
	7966.1.1 = {add_trait=trained_warrior}
	8008.1.1 = {death="8008.1.1"}
}
10155946 = {
	name="Valto"	# a lord
	dynasty=55946

	religion="gods_bone_mountains"
	culture="kayakayanayan"

	father=10055946
	
	add_trait=fair

	7970.1.1 = {birth="7970.1.1"}
	7986.1.1 = {add_trait=trained_warrior}
	8027.1.1 = {death="8027.1.1"}
}
10555946 = {
	name="Voitto"	# a lord
	dynasty=55946

	religion="gods_bone_mountains"
	culture="kayakayanayan"

	father=10155946
	
	add_trait=strong
	add_trait=fair

	7998.1.1 = {birth="7998.1.1"}
	8014.1.1 = {add_trait=eunuch add_trait=trained_warrior}
	8057.1.1 = {death="8057.1.1"}
}
11055946 = {
	name="Esko"	# a lord
	dynasty=55946

	religion="gods_bone_mountains"
	culture="kayakayanayan"

	father=10555946
	
	add_trait=tall
	add_trait=adopted

	8027.1.1 = {birth="8027.1.1"}
	8043.1.1 = {add_trait=skilled_warrior}
	8105.1.1 = {death="8105.1.1"}
}
11155946 = {
	name="Voitto"	# not a lord
	dynasty=55946

	religion="gods_bone_mountains"
	culture="kayakayanayan"

	father=11055946
	
	add_trait=tall

	8054.1.1 = {birth="8054.1.1"}
	8070.1.1 = {add_trait=trained_warrior}
	8105.1.1 = {death="8105.1.1"}
}
11855946 = {
	name="Santtu"	# a lord
	dynasty=55946

	religion="gods_bone_mountains"
	culture="kayakayanayan"

	father=11155946
	
	add_trait=tall

	8091.1.1 = {birth="8091.1.1"}
	8107.1.1 = {add_trait=trained_warrior}
	8168.1.1 = {death="8168.1.1"}
}
12055946 = {
	name="Sakari"	# not a lord
	dynasty=55946

	religion="gods_bone_mountains"
	culture="kayakayanayan"

	father=11855946
	
	add_trait=tall
	add_trait=fair

	8118.1.1 = {birth="8118.1.1"}
	8134.1.1 = {add_trait=trained_warrior}
	8150.1.1 = {death="8150.1.1"}
}
12455946 = {
	name="Raimo"	# a lord
	dynasty=55946

	religion="gods_bone_mountains"
	culture="kayakayanayan"

	father=12055946
	
	add_trait=fair

	8150.1.1 = {birth="8150.1.1"}
	8167.1.1 = {add_trait=skilled_warrior}
	8196.1.1 = {death="8196.1.1"}
}
12555946 = {
	name="Panu"	# a lord
	dynasty=55946

	religion="gods_bone_mountains"
	culture="kayakayanayan"

	father=12455946
	
	add_trait=fair

	8172.1.1 = {birth="8172.1.1"}
	8188.1.1 = {add_trait=skilled_warrior}
	8226.1.1 = {death="8226.1.1"}
}
12955946 = {
	name="Pyrkoon"	# a lord
	dynasty=55946

	religion="gods_bone_mountains"
	culture="kayakayanayan"

	father=12555946
	
	add_trait=tall

	8199.1.1 = {birth="8199.1.1"}
	8215.1.1 = {add_trait=poor_warrior}
	8249.1.1 = {death="8249.1.1"}
}
13455946 = {
	name="Jyri"	# a lord
	dynasty=55946

	religion="gods_bone_mountains"
	culture="kayakayanayan"

	father=12955946
	
	add_trait=strong
	add_trait=fair

	8230.1.1 = {birth="8230.1.1"}
	8246.1.1 = {add_trait=poor_warrior}
	8306.1.1 = {death="8306.1.1"}
}
13655946 = {
	name="Pyrkoon"	# not a lord
	dynasty=55946

	religion="gods_bone_mountains"
	culture="kayakayanayan"

	father=13455946
	
	add_trait=strong

	8258.1.1 = {birth="8258.1.1"}
	8274.1.1 = {add_trait=trained_warrior}
	8276.1.1 = {add_spouse=43655946}
}
43655946 = {
	name="Minea"
	female=yes

	religion="gods_bone_mountains"
	culture="kayakayanayan"

	8258.1.1 = {birth="8258.1.1"}
	8274.1.1 = {add_trait=trained_warrior}
}
13955946 = {
	name="Raitis"	# not a lord
	dynasty=55946

	religion="gods_bone_mountains"
	culture="kayakayanayan"

	father=13655946
	mother=43655946
	
	add_trait=strong

	8277.1.1 = {birth="8277.1.1"}
	8293.1.1 = {add_trait=trained_warrior}
}
14055946 = {
	name="Kain"	# not a lord
	dynasty=55946

	religion="gods_bone_mountains"
	culture="kayakayanayan"

	father=13655946
	mother=43655946

	8279.1.1 = {birth="8279.1.1"}
	8295.1.1 = {add_trait=eunuch add_trait=poor_warrior}
}
14155946 = {
	name="Esteri"	# not a lord
	female=yes
	dynasty=55946

	religion="gods_bone_mountains"
	culture="kayakayanayan"

	father=13655946
	mother=43655946

	8282.1.1 = {birth="8282.1.1"}
	8298.1.1 = {add_trait=trained_warrior}
}
14255946 = {
	name="Lyyti"	# not a lord
	female=yes
	dynasty=55946

	religion="gods_bone_mountains"
	culture="kayakayanayan"

	father=13655946
	mother=43655946

	8285.1.1 = {birth="8285.1.1"}
}
14355946 = {
	name="Raisa"	# not a lord
	female=yes
	dynasty=55946

	religion="gods_bone_mountains"
	culture="kayakayanayan"

	father=13655946
	mother=43655946

	8286.1.1 = {birth="8286.1.1"}
}

### House Malinen
34555947 = {
	name="Tyrkoon"	# a lord
	dynasty=55947

	religion="gods_bone_mountains"
	culture="kayakayanayan"
	
	add_trait=strong
	
	7799.1.1 = {birth="7799.1.1"}
	7870.1.1 = {death="7870.1.1"}
}
34455947 = {
	name="Neuvo"	# a lord
	dynasty=55947

	religion="gods_bone_mountains"
	culture="kayakayanayan"

	father=34555947
	
	add_trait=strong
	
	7830.1.1 = {birth="7830.1.1"}
	7887.1.1 = {death="7887.1.1"}
}
34355947 = {
	name="Osmoon"	# a lord
	dynasty=55947

	religion="gods_bone_mountains"
	culture="kayakayanayan"

	father=34455947
	
	add_trait=tall
	
	7857.1.1 = {birth="7857.1.1"}
	7908.1.1 = {death="7908.1.1"}
}
34255947 = {
	name="Lempo"	# a lord
	dynasty=55947

	religion="gods_bone_mountains"
	culture="kayakayanayan"

	father=34355947
	
	add_trait=fair
	
	7888.1.1 = {birth="7888.1.1"}
	7946.1.1 = {death="7946.1.1"}
}
34155947 = {
	name="Himottu"	# a lord
	dynasty=55947

	religion="gods_bone_mountains"
	culture="kayakayanayan"

	father=34255947
	
	add_trait=strong
	
	7920.1.1 = {birth="7920.1.1"}
	7974.1.1 = {death="7974.1.1"}
}
34055947 = {
	name="Ikavalko"	# a lord
	dynasty=55947

	religion="gods_bone_mountains"
	culture="kayakayanayan"

	father=34155947
	
	add_trait=strong
	
	7947.1.1 = {birth="7947.1.1"}
	7992.1.1 = {death="7992.1.1"}
}
10055947 = {
	name="Pyrkoon"	# a lord
	dynasty=55947

	religion="gods_bone_mountains"
	culture="kayakayanayan"
	
	father=34055947
	
	add_trait=strong

	7975.1.1 = {birth="7975.1.1"}
	7991.1.1 = {add_trait=trained_warrior}
	8031.1.1 = {death="8031.1.1"}
}
10255947 = {
	name="Pyrkoon"	# a lord
	dynasty=55947

	religion="gods_bone_mountains"
	culture="kayakayanayan"

	father=10055947
	
	add_trait=strong

	7996.1.1 = {birth="7996.1.1"}
	8012.1.1 = {add_trait=trained_warrior}
	8032.1.1 = {death="8032.1.1"}
}
10455947 = {
	name="Usko"	# a lord
	dynasty=55947

	religion="gods_bone_mountains"
	culture="kayakayanayan"

	father=10255947
	
	add_trait=fair
	add_trait=adopted

	8014.1.1 = {birth="8014.1.1"}
	8030.1.1 = {add_trait=poor_warrior}
	8071.1.1 = {death = {death_reason = death_accident}}
}
10855947 = {
	name="Raitis"	# a lord
	dynasty=55947

	religion="gods_bone_mountains"
	culture="kayakayanayan"

	father=10455947
	
	add_trait=fair

	8038.1.1 = {birth="8038.1.1"}
	8054.1.1 = {add_trait=skilled_warrior}
	8083.1.1 = {death="8083.1.1"}
}
11455947 = {
	name="Kari"	# a lord
	dynasty=55947

	religion="gods_bone_mountains"
	culture="kayakayanayan"

	father=10855947
	
	add_trait=fair

	8061.1.1 = {birth="8061.1.1"}
	8077.1.1 = {add_trait=trained_warrior}
	8119.1.1 = {death="8119.1.1"}
}
11755947 = {
	name="Raimo"	# a lord
	dynasty=55947

	religion="gods_bone_mountains"
	culture="kayakayanayan"

	father=11455947

	add_trait=strong
	add_trait=adopted

	8098.1.1 = {birth="8098.1.1"}
	8114.1.1 = {add_trait=poor_warrior}
	8167.1.1 = {death="8167.1.1"}
}
11955947 = {
	name="Orvo"	# a lord
	dynasty=55947

	religion="gods_bone_mountains"
	culture="kayakayanayan"

	father=11755947
	
	add_trait=strong

	8124.1.1 = {birth="8124.1.1"}
	8140.1.1 = {add_trait=skilled_warrior}
	8195.1.1 = {death="8195.1.1"}
}
12155947 = {
	name="Aslak"	# a lord
	dynasty=55947

	religion="gods_bone_mountains"
	culture="kayakayanayan"

	father=11955947
	
	add_trait=strong

	8145.1.1 = {birth="8145.1.1"}
	8161.1.1 = {add_trait=trained_warrior}
	8210.1.1 = {death="8210.1.1"}
}
12555947 = {
	name="Jyri"	# a lord
	dynasty=55947

	religion="gods_bone_mountains"
	culture="kayakayanayan"

	father=12155947
	
	add_trait=strong

	8187.1.1 = {birth="8187.1.1"}
	8203.1.1 = {add_trait=trained_warrior}
	8245.1.1 = {death="8245.1.1"}
}
12855947 = {
	name="Pyrkoon"	# not a lord
	dynasty=55947

	religion="gods_bone_mountains"
	culture="kayakayanayan"

	father=12555947
	
	add_trait=strong

	8210.1.1 = {birth="8210.1.1"}
	8226.1.1 = {add_trait=trained_warrior}
	8241.1.1 = {death="8241.1.1"}
}
13155947 = {
	name="Taito"	# a lord
	dynasty=55947

	religion="gods_bone_mountains"
	culture="kayakayanayan"

	father=12855947
	
	add_trait=tall
	add_trait=fair
	add_trait=adopted

	8240.1.1 = {birth="8240.1.1"}
	8256.1.1 = {add_trait=skilled_warrior}
	8298.1.1 = {death="8298.1.1"}
}
13555947 = {
	name="Jarkko"	# a lord
	dynasty=55947

	religion="gods_bone_mountains"
	culture="kayakayanayan"

	father=13155947
	
	add_trait=tall
	add_trait=fair

	8273.1.1 = {birth="8273.1.1"}
	8289.1.1 = {add_trait=skilled_warrior}
}
13755947 = {
	name="Raimo"	# not a lord
	dynasty=55947

	religion="gods_bone_mountains"
	culture="kayakayanayan"

	father=13555947
	
	add_trait=fair

	8294.1.1 = {birth="8294.1.1"}
}

#################
### Samyriana ###
#################
### House Anttila
34455948 = {
	name="Saku"	# a lord
	dynasty=55948

	religion="gods_bone_mountains"
	culture="samyrianan"
	
	7802.1.1 = {birth="7802.1.1"}
	7869.1.1 = {death="7869.1.1"}
}
34355948 = {
	name="Hyrkoon"	# a lord
	dynasty=55948

	religion="gods_bone_mountains"
	culture="samyrianan"

	father=34455948
	
	7828.1.1 = {birth="7828.1.1"}
	7892.1.1 = {death="7892.1.1"}
}
34255948 = {
	name="Hyrkoon"	# a lord
	dynasty=55948

	religion="gods_bone_mountains"
	culture="samyrianan"

	father=34355948
	
	7853.1.1 = {birth="7853.1.1"}
	7914.1.1 = {death="7914.1.1"}
}
34155948 = {
	name="Byrkoon"	# a lord
	dynasty=55948

	religion="gods_bone_mountains"
	culture="samyrianan"

	father=34255948
	
	7882.1.1 = {birth="7882.1.1"}
	7945.1.1 = {death="7945.1.1"}
}
34055948 = {
	name="Hyro"	# a lord
	dynasty=55948

	religion="gods_bone_mountains"
	culture="samyrianan"

	father=34155948
	
	7916.1.1 = {birth="7916.1.1"}
	7982.1.1 = {death="7982.1.1"}
}
10055948 = {
	name="Gafur"	# a lord
	dynasty=55948

	religion="gods_bone_mountains"
	culture="samyrianan"

	father=34055948
	
	7945.1.1 = {birth="7945.1.1"}
	7961.1.1 = {add_trait=poor_warrior}
	8003.1.1 = {death="8003.1.1"}
}
10155948 = {
	name="Yusuf"	# a lord
	dynasty=55948

	religion="gods_bone_mountains"
	culture="samyrianan"

	father=10055948

	7968.1.1 = {birth="7968.1.1"}
	7984.1.1 = {add_trait=poor_warrior}
	8019.1.1 = {death="8019.1.1"}
}
10455948 = {
	name="Bakr"	# a lord
	dynasty=55948

	religion="gods_bone_mountains"
	culture="samyrianan"

	father=10155948

	7997.1.1 = {birth="7997.1.1"}
	8013.1.1 = {add_trait=trained_warrior}
	8032.1.1 = {death = {death_reason = death_murder}}
}
10755948 = {
	name="Abdul"	# a lord
	dynasty=55948

	religion="gods_bone_mountains"
	culture="samyrianan"

	father=10455948

	8020.1.1 = {birth="8020.1.1"}
	8036.1.1 = {add_trait=trained_warrior}
	8081.1.1 = {death="8081.1.1"}
}
10955948 = {
	name="Nizam"	# a lord
	dynasty=55948

	religion="gods_bone_mountains"
	culture="samyrianan"

	father=10755948

	8040.1.1 = {birth="8040.1.1"}
	8056.1.1 = {add_trait=trained_warrior}
	8082.1.1 = {death="8082.1.1"}
}
11355948 = {
	name="Ali Ali"	# a lord
	dynasty=55948

	religion="gods_bone_mountains"
	culture="samyrianan"

	father=10955948

	8061.1.1 = {birth="8061.1.1"}
	8077.1.1 = {add_trait=poor_warrior}
	8129.1.1 = {death="8129.1.1"}
}
11655948 = {
	name="Ubayd"	# a lord
	dynasty=55948

	religion="gods_bone_mountains"
	culture="samyrianan"

	father=11355948

	8080.1.1 = {birth="8080.1.1"}
	8096.1.1 = {add_trait=poor_warrior}
	8145.1.1 = {death="8145.1.1"}
}
11955948 = {
	name="Sami"	# a lord
	dynasty=55948

	religion="gods_bone_mountains"
	culture="samyrianan"

	father=11655948

	8102.1.1 = {birth="8102.1.1"}
	8118.1.1 = {add_trait=poor_warrior}
	8147.1.1 = {death="8147.1.1"}
}
12355948 = {
	name="Burhanaddin"	# a lord
	dynasty=55948

	religion="gods_bone_mountains"
	culture="samyrianan"

	father=11955948

	8126.1.1 = {birth="8126.1.1"}
	8142.1.1 = {add_trait=poor_warrior}
	8163.1.1 = {death = {death_reason = death_murder}}
}
12755948 = {
	name="Halil"	# a lord
	dynasty=55948

	religion="gods_bone_mountains"
	culture="samyrianan"

	father=12355948

	8151.1.1 = {birth="8151.1.1"}
	8167.1.1 = {add_trait=poor_warrior}
	8187.1.1 = {death="8187.1.1"}
}
13055948 = {
	name="Jalil"	# a lord
	dynasty=55948

	religion="gods_bone_mountains"
	culture="samyrianan"

	father=12755948

	8172.1.1 = {birth="8172.1.1"}
	8188.1.1 = {add_trait=poor_warrior}
	8219.1.1 = {death="8219.1.1"}
}
13255948 = {
	name="Fadl"	# a lord
	dynasty=55948

	religion="gods_bone_mountains"
	culture="samyrianan"

	father=13055948

	8200.1.1 = {birth="8200.1.1"}
	8216.1.1 = {add_trait=poor_warrior}
	8275.1.1 = {death="8275.1.1"}
}
13555948 = {
	name="Abdullah"	# a lord
	dynasty=55948

	religion="gods_bone_mountains"
	culture="samyrianan"

	father=13255948

	8236.1.1 = {birth="8236.1.1"}
	8252.1.1 = {add_trait=trained_warrior}
	8285.1.1 = {death="8285.1.1"}
}
13655948 = {
	name="Mukhtar"	# a lord
	dynasty=55948

	religion="gods_bone_mountains"
	culture="samyrianan"

	father=13555948

	add_trait = tall
	add_trait = strong
	
	8259.1.1 = {birth="8259.1.1"}
	8275.1.1 = {add_trait=trained_warrior}
}
14255948 = {
	name="Husam"	# not a lord
	dynasty=55948

	religion="gods_bone_mountains"
	culture="samyrianan"

	father=13655948

	add_trait = tall
	
	8278.1.1 = {birth="8278.1.1"}
	8294.1.1 = {add_trait=trained_warrior}
}

### House Tannous
34355949 = {
	name="Repo"	# a lord
	dynasty=55949

	religion="gods_bone_mountains"
	culture="samyrianan"

	7829.1.1 = {birth="7829.1.1"}
	7883.1.1 = {death="7883.1.1"}
}
34255949 = {
	name="Lempi"	# a lord
	dynasty=55949

	religion="gods_bone_mountains"
	culture="samyrianan"

	father=34355949
	
	7862.1.1 = {birth="7862.1.1"}
	7921.1.1 = {death="7921.1.1"}
}
34155949 = {
	name="Uljas"	# a lord
	dynasty=55949

	religion="gods_bone_mountains"
	culture="samyrianan"

	father=34255949
	
	7889.1.1 = {birth="7889.1.1"}
	7946.1.1 = {death="7946.1.1"}
}
34055949 = {
	name="Hyrkoon"	# a lord
	dynasty=55949

	religion="gods_bone_mountains"
	culture="samyrianan"

	father=34155949
	
	7916.1.1 = {birth="7916.1.1"}
	7975.1.1 = {death="7975.1.1"}
}
10055949 = {
	name="Yahya"	# a lord
	dynasty=55949

	religion="gods_bone_mountains"
	culture="samyrianan"

	father=34055949
	
	7945.1.1 = {birth="7945.1.1"}
	7961.1.1 = {add_trait=poor_warrior}
	8003.1.1 = {death="8003.1.1"}
}
10155949 = {
	name="Is'mail"	# a lord
	dynasty=55949

	religion="gods_bone_mountains"
	culture="samyrianan"

	father=10055949

	7968.1.1 = {birth="7968.1.1"}
	7984.1.1 = {add_trait=poor_warrior}
	8019.1.1 = {death="8019.1.1"}
}
10455949 = {
	name="Jalil"	# a lord
	dynasty=55949

	religion="gods_bone_mountains"
	culture="samyrianan"

	father=10155949

	7997.1.1 = {birth="7997.1.1"}
	8013.1.1 = {add_trait=trained_warrior}
	8032.1.1 = {death = {death_reason = death_murder}}
}
10755949 = {
	name="Fadl"	# a lord
	dynasty=55949

	religion="gods_bone_mountains"
	culture="samyrianan"

	father=10455949

	8020.1.1 = {birth="8020.1.1"}
	8036.1.1 = {add_trait=trained_warrior}
	8081.1.1 = {death="8081.1.1"}
}
10955949 = {
	name="Akin"	# a lord
	dynasty=55949

	religion="gods_bone_mountains"
	culture="samyrianan"

	father=10755949

	8040.1.1 = {birth="8040.1.1"}
	8056.1.1 = {add_trait=trained_warrior}
	8082.1.1 = {death="8082.1.1"}
}
11355949 = {
	name="Samir"	# a lord
	dynasty=55949

	religion="gods_bone_mountains"
	culture="samyrianan"

	father=10955949

	8061.1.1 = {birth="8061.1.1"}
	8077.1.1 = {add_trait=poor_warrior}
	8129.1.1 = {death="8129.1.1"}
}
11655949 = {
	name="Yusuf"	# a lord
	dynasty=55949

	religion="gods_bone_mountains"
	culture="samyrianan"

	father=11355949

	8080.1.1 = {birth="8080.1.1"}
	8096.1.1 = {add_trait=poor_warrior}
	8145.1.1 = {death="8145.1.1"}
}
11955949 = {
	name="Jalil"	# a lord
	dynasty=55949

	religion="gods_bone_mountains"
	culture="samyrianan"

	father=11655949

	8102.1.1 = {birth="8102.1.1"}
	8118.1.1 = {add_trait=poor_warrior}
	8147.1.1 = {death="8147.1.1"}
}
12355949 = {
	name="Khalil"	# a lord
	dynasty=55949

	religion="gods_bone_mountains"
	culture="samyrianan"

	father=11955949

	8126.1.1 = {birth="8126.1.1"}
	8142.1.1 = {add_trait=poor_warrior}
	8163.1.1 = {death = {death_reason = death_murder}}
}
12755949 = {
	name="Akin"	# a lord
	dynasty=55949

	religion="gods_bone_mountains"
	culture="samyrianan"

	father=12355949

	8151.1.1 = {birth="8151.1.1"}
	8167.1.1 = {add_trait=poor_warrior}
	8187.1.1 = {death="8187.1.1"}
}
13055949 = {
	name="Samir"	# a lord
	dynasty=55949

	religion="gods_bone_mountains"
	culture="samyrianan"

	father=12755949

	8172.1.1 = {birth="8172.1.1"}
	8188.1.1 = {add_trait=poor_warrior}
	8219.1.1 = {death="8219.1.1"}
}
13255949 = {
	name="Halil"	# a lord
	dynasty=55949

	religion="gods_bone_mountains"
	culture="samyrianan"

	father=13055949

	8200.1.1 = {birth="8200.1.1"}
	8216.1.1 = {add_trait=poor_warrior}
	8275.1.1 = {death="8275.1.1"}
}
13555949 = {
	name="Qawurd"	# a lord
	dynasty=55949

	religion="gods_bone_mountains"
	culture="samyrianan"

	father=13255949

	8236.1.1 = {birth="8236.1.1"}
	8252.1.1 = {add_trait=trained_warrior}
	8285.1.1 = {death="8285.1.1"}
}
13655949 = {
	name="Sami"	# a lord
	dynasty=55949

	religion="gods_bone_mountains"
	culture="samyrianan"

	father=13555949

	add_trait = fair
	add_trait = quick
	
	8259.1.1 = {birth="8259.1.1"}
	8275.1.1 = {add_trait=trained_warrior}
}
14255949 = {
	name="Bakr"	# not a lord
	dynasty=55949

	religion="gods_bone_mountains"
	culture="samyrianan"

	father=13655949

	add_trait = quick
	
	8278.1.1 = {birth="8278.1.1"}
	8294.1.1 = {add_trait=trained_warrior}
}

### House Kivimaki
34455950 = {
	name="Aslak"	# a lord
	dynasty=55950

	religion="gods_bone_mountains"
	culture="samyrianan"

	7825.1.1 = {birth="7825.1.1"}
	7878.1.1 = {death="7878.1.1"}
}
34355950 = {
	name="Terho"	# a lord
	dynasty=55950

	religion="gods_bone_mountains"
	culture="samyrianan"

	father=34455950
	
	7848.1.1 = {birth="7848.1.1"}
	7915.1.1 = {death="7915.1.1"}
}
34255950 = {
	name="Armas"	# a lord
	dynasty=55950

	religion="gods_bone_mountains"
	culture="samyrianan"

	father=34355950
	
	7873.1.1 = {birth="7873.1.1"}
	7925.1.1 = {death="7925.1.1"}
}
34155950 = {
	name="Kalevi"	# a lord
	dynasty=55950

	religion="gods_bone_mountains"
	culture="samyrianan"

	father=34255950
	
	7898.1.1 = {birth="7898.1.1"}
	7960.1.1 = {death="7960.1.1"}
}
34055950 = {
	name="Veli"	# a lord
	dynasty=55950

	religion="gods_bone_mountains"
	culture="samyrianan"

	father=34155950
	
	7921.1.1 = {birth="7921.1.1"}
	7982.1.1 = {death="7982.1.1"}
}
10055950 = {
	name="Sami"	# a lord
	dynasty=55950

	religion="gods_bone_mountains"
	culture="samyrianan"

	father=34055950
	
	7945.1.1 = {birth="7945.1.1"}
	7961.1.1 = {add_trait=poor_warrior}
	8003.1.1 = {death="8003.1.1"}
}
10155950 = {
	name="Najib"	# a lord
	dynasty=55950

	religion="gods_bone_mountains"
	culture="samyrianan"

	father=10055950

	7968.1.1 = {birth="7968.1.1"}
	7984.1.1 = {add_trait=poor_warrior}
	8019.1.1 = {death="8019.1.1"}
}
10455950 = {
	name="Alim"	# a lord
	dynasty=55950

	religion="gods_bone_mountains"
	culture="samyrianan"

	father=10155950

	7997.1.1 = {birth="7997.1.1"}
	8013.1.1 = {add_trait=trained_warrior}
	8032.1.1 = {death = {death_reason = death_murder}}
}
10755950 = {
	name="Alim"	# a lord
	dynasty=55950

	religion="gods_bone_mountains"
	culture="samyrianan"

	father=10455950

	8020.1.1 = {birth="8020.1.1"}
	8036.1.1 = {add_trait=trained_warrior}
	8081.1.1 = {death="8081.1.1"}
}
10955950 = {
	name="Qawurd"	# a lord
	dynasty=55950

	religion="gods_bone_mountains"
	culture="samyrianan"

	father=10755950

	8040.1.1 = {birth="8040.1.1"}
	8056.1.1 = {add_trait=trained_warrior}
	8082.1.1 = {death="8082.1.1"}
}
11355950 = {
	name="Isa"	# a lord
	dynasty=55950

	religion="gods_bone_mountains"
	culture="samyrianan"

	father=10955950

	8061.1.1 = {birth="8061.1.1"}
	8077.1.1 = {add_trait=poor_warrior}
	8129.1.1 = {death="8129.1.1"}
}
11655950 = {
	name="Mukhtar"	# a lord
	dynasty=55950

	religion="gods_bone_mountains"
	culture="samyrianan"

	father=11355950

	8080.1.1 = {birth="8080.1.1"}
	8096.1.1 = {add_trait=poor_warrior}
	8145.1.1 = {death="8145.1.1"}
}
11955950 = {
	name="Isa"	# a lord
	dynasty=55950

	religion="gods_bone_mountains"
	culture="samyrianan"

	father=11655950

	8102.1.1 = {birth="8102.1.1"}
	8118.1.1 = {add_trait=poor_warrior}
	8147.1.1 = {death="8147.1.1"}
}
12355950 = {
	name="Mirza"	# a lord
	dynasty=55950

	religion="gods_bone_mountains"
	culture="samyrianan"

	father=11955950

	8126.1.1 = {birth="8126.1.1"}
	8142.1.1 = {add_trait=poor_warrior}
	8163.1.1 = {death = {death_reason = death_murder}}
}
12755950 = {
	name="Jaleel"	# a lord
	dynasty=55950

	religion="gods_bone_mountains"
	culture="samyrianan"

	father=12355950

	8151.1.1 = {birth="8151.1.1"}
	8167.1.1 = {add_trait=poor_warrior}
	8187.1.1 = {death="8187.1.1"}
}
13055950 = {
	name="Shamir"	# a lord
	dynasty=55950

	religion="gods_bone_mountains"
	culture="samyrianan"

	father=12755950

	8172.1.1 = {birth="8172.1.1"}
	8188.1.1 = {add_trait=poor_warrior}
	8219.1.1 = {death="8219.1.1"}
}
13255950 = {
	name="Jalil"	# a lord
	dynasty=55950

	religion="gods_bone_mountains"
	culture="samyrianan"

	father=13055950

	8200.1.1 = {birth="8200.1.1"}
	8216.1.1 = {add_trait=poor_warrior}
	8275.1.1 = {death="8275.1.1"}
}
13555950 = {
	name="Mahdi"	# a lord
	dynasty=55950

	religion="gods_bone_mountains"
	culture="samyrianan"

	father=13255950

	8236.1.1 = {birth="8236.1.1"}
	8252.1.1 = {add_trait=trained_warrior}
	8285.1.1 = {death="8285.1.1"}
}
13655950 = {
	name="Abdul"	# a lord
	dynasty=55950

	religion="gods_bone_mountains"
	culture="samyrianan"

	father=13555950
	
	add_trait = strong

	8259.1.1 = {birth="8259.1.1"}
	8275.1.1 = {add_trait=trained_warrior}
}
14255950 = {
	name="Idris"	# not a lord
	dynasty=55950

	religion="gods_bone_mountains"
	culture="samyrianan"

	father=13655950

	add_trait = strong
	
	8278.1.1 = {birth="8278.1.1"}
	8294.1.1 = {add_trait=trained_warrior}
}

##################
### Bayasabhad ###
##################
### House Laurila
34455951 = {
	name="Jarkko"	# a lord
	dynasty=55951

	religion="gods_bone_mountains"
	culture="bayasabhadi"
	
	7806.1.1 = {birth="7806.1.1"}
	7862.1.1 = {death="7862.1.1"}
}
34355951 = {
	name="Hyrkoon"	# a lord
	dynasty=55951

	religion="gods_bone_mountains"
	culture="bayasabhadi"

	father=34455951
	
	7838.1.1 = {birth="7838.1.1"}
	7901.1.1 = {death="7901.1.1"}
}
34255951 = {
	name="Pyrkko"	# a lord
	dynasty=55951

	religion="gods_bone_mountains"
	culture="bayasabhadi"

	father=34355951
	
	7865.1.1 = {birth="7865.1.1"}
	7930.1.1 = {death="7930.1.1"}
}
34155951 = {
	name="Tapatora"	# a lord
	dynasty=55951

	religion="gods_bone_mountains"
	culture="bayasabhadi"

	father=34255951
	
	7892.1.1 = {birth="7892.1.1"}
	7944.1.1 = {death="7944.1.1"}
}
34055951 = {
	name="Kaipia"	# a lord
	dynasty=55951

	religion="gods_bone_mountains"
	culture="bayasabhadi"

	father=34155951
	
	7916.1.1 = {birth="7916.1.1"}
	7979.1.1 = {death="7979.1.1"}
}
10055951 = {
	name="Qawurd"	# a lord
	dynasty=55951

	religion="gods_bone_mountains"
	culture="bayasabhadi"
	
	father=34055951

	7945.1.1 = {birth="7945.1.1"}
	7961.1.1 = {add_trait=poor_warrior}
	8003.1.1 = {death="8003.1.1"}
}
10155951 = {
	name="Abdullah"	# a lord
	dynasty=55951

	religion="gods_bone_mountains"
	culture="bayasabhadi"

	father=10055951

	7968.1.1 = {birth="7968.1.1"}
	7984.1.1 = {add_trait=poor_warrior}
	8019.1.1 = {death="8019.1.1"}
}
10455951 = {
	name="Husam"	# a lord
	dynasty=55951

	religion="gods_bone_mountains"
	culture="bayasabhadi"

	father=10155951

	7997.1.1 = {birth="7997.1.1"}
	8013.1.1 = {add_trait=trained_warrior}
	8032.1.1 = {death = {death_reason = death_murder}}
}
10755951 = {
	name="Sadiq"	# a lord
	dynasty=55951

	religion="gods_bone_mountains"
	culture="bayasabhadi"

	father=10455951

	8020.1.1 = {birth="8020.1.1"}
	8036.1.1 = {add_trait=trained_warrior}
	8081.1.1 = {death="8081.1.1"}
}
10955951 = {
	name="Mirza"	# a lord
	dynasty=55951

	religion="gods_bone_mountains"
	culture="bayasabhadi"

	father=10755951

	8040.1.1 = {birth="8040.1.1"}
	8056.1.1 = {add_trait=trained_warrior}
	8082.1.1 = {death="8082.1.1"}
}
11355951 = {
	name="Bakr"	# a lord
	dynasty=55951

	religion="gods_bone_mountains"
	culture="bayasabhadi"

	father=10955951

	8061.1.1 = {birth="8061.1.1"}
	8077.1.1 = {add_trait=poor_warrior}
	8129.1.1 = {death="8129.1.1"}
}
11655951 = {
	name="Nizam"	# a lord
	dynasty=55951

	religion="gods_bone_mountains"
	culture="bayasabhadi"

	father=11355951

	8080.1.1 = {birth="8080.1.1"}
	8096.1.1 = {add_trait=poor_warrior}
	8145.1.1 = {death="8145.1.1"}
}
11955951 = {
	name="Nizam"	# a lord
	dynasty=55951

	religion="gods_bone_mountains"
	culture="bayasabhadi"

	father=11655951

	8102.1.1 = {birth="8102.1.1"}
	8118.1.1 = {add_trait=poor_warrior}
	8147.1.1 = {death="8147.1.1"}
}
12355951 = {
	name="Hafiz"	# a lord
	dynasty=55951

	religion="gods_bone_mountains"
	culture="bayasabhadi"

	father=11955951

	8126.1.1 = {birth="8126.1.1"}
	8142.1.1 = {add_trait=poor_warrior}
	8163.1.1 = {death = {death_reason = death_murder}}
}
12755951 = {
	name="Abdul"	# a lord
	dynasty=55951

	religion="gods_bone_mountains"
	culture="bayasabhadi"

	father=12355951

	8151.1.1 = {birth="8151.1.1"}
	8167.1.1 = {add_trait=poor_warrior}
	8187.1.1 = {death="8187.1.1"}
}
13055951 = {
	name="Isa"	# a lord
	dynasty=55951

	religion="gods_bone_mountains"
	culture="bayasabhadi"

	father=12755951

	8172.1.1 = {birth="8172.1.1"}
	8188.1.1 = {add_trait=poor_warrior}
	8219.1.1 = {death="8219.1.1"}
}
13255951 = {
	name="Mirza"	# a lord
	dynasty=55951

	religion="gods_bone_mountains"
	culture="bayasabhadi"

	father=13055951

	8200.1.1 = {birth="8200.1.1"}
	8216.1.1 = {add_trait=poor_warrior}
	8275.1.1 = {death="8275.1.1"}
}
13555951 = {
	name="Shamir"	# a lord
	dynasty=55951

	religion="gods_bone_mountains"
	culture="bayasabhadi"

	father=13255951

	8236.1.1 = {birth="8236.1.1"}
	8252.1.1 = {add_trait=trained_warrior}
	8285.1.1 = {death="8285.1.1"}
}
13655951 = {
	name="Youkhanna"	# a lord
	dynasty=55951

	religion="gods_bone_mountains"
	culture="bayasabhadi"

	father=13555951

	add_trait = fair
	add_trait = tall
	
	8259.1.1 = {birth="8259.1.1"}
	8275.1.1 = {add_trait=trained_warrior}
}
14255951 = {
	name="Wahab"	# not a lord
	dynasty=55951

	religion="gods_bone_mountains"
	culture="bayasabhadi"

	father=13655951

	add_trait = tall
	
	8278.1.1 = {birth="8278.1.1"}
	8294.1.1 = {add_trait=trained_warrior}
}

### House Siimes
34455952 = {
	name="Kain"	# a lord
	dynasty=55952

	religion="gods_bone_mountains"
	culture="bayasabhadi"
	
	7820.1.1 = {birth="7820.1.1"}
	7873.1.1 = {death="7873.1.1"}
}
34355952 = {
	name="Tietava"	# a lord
	dynasty=55952

	religion="gods_bone_mountains"
	culture="bayasabhadi"

	father=34455952
	
	7842.1.1 = {birth="7842.1.1"}
	7920.1.1 = {death="7920.1.1"}
}
34255952 = {
	name="Pitka"	# a lord
	dynasty=55952

	religion="gods_bone_mountains"
	culture="bayasabhadi"

	father=34355952
	
	7868.1.1 = {birth="7868.1.1"}
	7912.1.1 = {death="7912.1.1"}
}
34155952 = {
	name="Lemetti"	# a lord
	dynasty=55952

	religion="gods_bone_mountains"
	culture="bayasabhadi"

	father=34255952
	
	7893.1.1 = {birth="7893.1.1"}
	7944.1.1 = {death="7944.1.1"}
}
34055952 = {
	name="Aikamieli"	# a lord
	dynasty=55952

	religion="gods_bone_mountains"
	culture="bayasabhadi"

	father=34155952
	
	7912.1.1 = {birth="7912.1.1"}
	7966.1.1 = {death="7966.1.1"}
}
10055952 = {
	name="Khalil"	# a lord
	dynasty=55952

	religion="gods_bone_mountains"
	culture="bayasabhadi"
	
	father=34055952

	7945.1.1 = {birth="7945.1.1"}
	7961.1.1 = {add_trait=poor_warrior}
	8003.1.1 = {death="8003.1.1"}
}
10155952 = {
	name="Zeyd"	# a lord
	dynasty=55952

	religion="gods_bone_mountains"
	culture="bayasabhadi"

	father=10055952

	7968.1.1 = {birth="7968.1.1"}
	7984.1.1 = {add_trait=poor_warrior}
	8019.1.1 = {death="8019.1.1"}
}
10455952 = {
	name="Fadil"	# a lord
	dynasty=55952

	religion="gods_bone_mountains"
	culture="bayasabhadi"

	father=10155952

	7997.1.1 = {birth="7997.1.1"}
	8013.1.1 = {add_trait=trained_warrior}
	8032.1.1 = {death = {death_reason = death_murder}}
}
10755952 = {
	name="Alim"	# a lord
	dynasty=55952

	religion="gods_bone_mountains"
	culture="bayasabhadi"

	father=10455952

	8020.1.1 = {birth="8020.1.1"}
	8036.1.1 = {add_trait=trained_warrior}
	8081.1.1 = {death="8081.1.1"}
}
10955952 = {
	name="Alim"	# a lord
	dynasty=55952

	religion="gods_bone_mountains"
	culture="bayasabhadi"

	father=10755952

	8040.1.1 = {birth="8040.1.1"}
	8056.1.1 = {add_trait=trained_warrior}
	8082.1.1 = {death="8082.1.1"}
}
11355952 = {
	name="Zeyd"	# a lord
	dynasty=55952

	religion="gods_bone_mountains"
	culture="bayasabhadi"

	father=10955952

	8061.1.1 = {birth="8061.1.1"}
	8077.1.1 = {add_trait=poor_warrior}
	8129.1.1 = {death="8129.1.1"}
}
11655952 = {
	name="Gafur"	# a lord
	dynasty=55952

	religion="gods_bone_mountains"
	culture="bayasabhadi"

	father=11355952

	8080.1.1 = {birth="8080.1.1"}
	8096.1.1 = {add_trait=poor_warrior}
	8145.1.1 = {death="8145.1.1"}
}
11955952 = {
	name="Nizam"	# a lord
	dynasty=55952

	religion="gods_bone_mountains"
	culture="bayasabhadi"

	father=11655952

	8102.1.1 = {birth="8102.1.1"}
	8118.1.1 = {add_trait=poor_warrior}
	8147.1.1 = {death="8147.1.1"}
}
12355952 = {
	name="Yusuf"	# a lord
	dynasty=55952

	religion="gods_bone_mountains"
	culture="bayasabhadi"

	father=11955952

	8126.1.1 = {birth="8126.1.1"}
	8142.1.1 = {add_trait=poor_warrior}
	8163.1.1 = {death = {death_reason = death_murder}}
}
12755952 = {
	name="Muslihiddin"	# a lord
	dynasty=55952

	religion="gods_bone_mountains"
	culture="bayasabhadi"

	father=12355952

	8151.1.1 = {birth="8151.1.1"}
	8167.1.1 = {add_trait=poor_warrior}
	8187.1.1 = {death="8187.1.1"}
}
13055952 = {
	name="Mubarak"	# a lord
	dynasty=55952

	religion="gods_bone_mountains"
	culture="bayasabhadi"

	father=12755952

	8172.1.1 = {birth="8172.1.1"}
	8188.1.1 = {add_trait=poor_warrior}
	8219.1.1 = {death="8219.1.1"}
}
13255952 = {
	name="Faruk"	# a lord
	dynasty=55952

	religion="gods_bone_mountains"
	culture="bayasabhadi"

	father=13055952

	8200.1.1 = {birth="8200.1.1"}
	8216.1.1 = {add_trait=poor_warrior}
	8275.1.1 = {death="8275.1.1"}
}
13555952 = {
	name="Sami"	# a lord
	dynasty=55952

	religion="gods_bone_mountains"
	culture="bayasabhadi"

	father=13255952

	8236.1.1 = {birth="8236.1.1"}
	8252.1.1 = {add_trait=trained_warrior}
	8285.1.1 = {death="8285.1.1"}
}
13655952 = {
	name="Husam"	# a lord
	dynasty=55952

	religion="gods_bone_mountains"
	culture="bayasabhadi"

	father=13555952

	add_trait = genius
	
	8259.1.1 = {birth="8259.1.1"}
	8275.1.1 = {add_trait=trained_warrior}
	8322.1.1 = {death="8322.1.1"}
}
14255952 = {
	name="Murad"	# not a lord
	dynasty=55952

	religion="gods_bone_mountains"
	culture="bayasabhadi"

	father=13655952

	add_trait = quick
	
	8278.1.1 = {birth="8278.1.1"}
	8294.1.1 = {add_trait=trained_warrior}
}

### House Vuorinen
34455953 = {
	name="Otra"	# a lord
	dynasty=55953

	religion="gods_bone_mountains"
	culture="bayasabhadi"
	
	7794.1.1 = {birth="7794.1.1"}
	7858.1.1 = {death="7858.1.1"}
}
34355953 = {
	name="Jalkava"	# a lord
	dynasty=55953

	religion="gods_bone_mountains"
	culture="bayasabhadi"

	father=34455953
	
	7820.1.1 = {birth="7820.1.1"}
	7889.1.1 = {death="7889.1.1"}
}
34255953 = {
	name="Vartia"	# a lord
	dynasty=55953

	religion="gods_bone_mountains"
	culture="bayasabhadi"

	father=34355953
	
	7839.1.1 = {birth="7839.1.1"}
	7905.1.1 = {death="7905.1.1"}
}
34155953 = {
	name="Paaso"	# a lord
	dynasty=55953

	religion="gods_bone_mountains"
	culture="bayasabhadi"

	father=34255953
	
	7874.1.1 = {birth="7874.1.1"}
	7949.1.1 = {death="7949.1.1"}
}
34055953 = {
	name="Markku"	# a lord
	dynasty=55953

	religion="gods_bone_mountains"
	culture="bayasabhadi"

	father=34155953
	
	7906.1.1 = {birth="7906.1.1"}
	7971.1.1 = {death="7971.1.1"}
}
10055953 = {
	name="Alim"	# a lord
	dynasty=55953

	religion="gods_bone_mountains"
	culture="bayasabhadi"

	father=34055953
	
	7945.1.1 = {birth="7945.1.1"}
	7961.1.1 = {add_trait=poor_warrior}
	8003.1.1 = {death="8003.1.1"}
}
10155953 = {
	name="Nizam"	# a lord
	dynasty=55953

	religion="gods_bone_mountains"
	culture="bayasabhadi"

	father=10055953

	7968.1.1 = {birth="7968.1.1"}
	7984.1.1 = {add_trait=poor_warrior}
	8019.1.1 = {death="8019.1.1"}
}
10455953 = {
	name="Azam"	# a lord
	dynasty=55953

	religion="gods_bone_mountains"
	culture="bayasabhadi"

	father=10155953

	7997.1.1 = {birth="7997.1.1"}
	8013.1.1 = {add_trait=trained_warrior}
	8032.1.1 = {death = {death_reason = death_murder}}
}
10755953 = {
	name="Jalil"	# a lord
	dynasty=55953

	religion="gods_bone_mountains"
	culture="bayasabhadi"

	father=10455953

	8020.1.1 = {birth="8020.1.1"}
	8036.1.1 = {add_trait=trained_warrior}
	8081.1.1 = {death="8081.1.1"}
}
10955953 = {
	name="Nasr"	# a lord
	dynasty=55953

	religion="gods_bone_mountains"
	culture="bayasabhadi"

	father=10755953

	8040.1.1 = {birth="8040.1.1"}
	8056.1.1 = {add_trait=trained_warrior}
	8082.1.1 = {death="8082.1.1"}
}
11355953 = {
	name="Abdullah"	# a lord
	dynasty=55953

	religion="gods_bone_mountains"
	culture="bayasabhadi"

	father=10955953

	8061.1.1 = {birth="8061.1.1"}
	8077.1.1 = {add_trait=poor_warrior}
	8129.1.1 = {death="8129.1.1"}
}
11655953 = {
	name="Ali Ali"	# a lord
	dynasty=55953

	religion="gods_bone_mountains"
	culture="bayasabhadi"

	father=11355953

	8080.1.1 = {birth="8080.1.1"}
	8096.1.1 = {add_trait=poor_warrior}
	8145.1.1 = {death="8145.1.1"}
}
11955953 = {
	name="Hussayn"	# a lord
	dynasty=55953

	religion="gods_bone_mountains"
	culture="bayasabhadi"

	father=11655953

	8102.1.1 = {birth="8102.1.1"}
	8118.1.1 = {add_trait=poor_warrior}
	8147.1.1 = {death="8147.1.1"}
}
12355953 = {
	name="Youkhanna"	# a lord
	dynasty=55953

	religion="gods_bone_mountains"
	culture="bayasabhadi"

	father=11955953

	8126.1.1 = {birth="8126.1.1"}
	8142.1.1 = {add_trait=poor_warrior}
	8163.1.1 = {death = {death_reason = death_murder}}
}
12755953 = {
	name="Jaleel"	# a lord
	dynasty=55953

	religion="gods_bone_mountains"
	culture="bayasabhadi"

	father=12355953

	8151.1.1 = {birth="8151.1.1"}
	8167.1.1 = {add_trait=poor_warrior}
	8187.1.1 = {death="8187.1.1"}
}
13055953 = {
	name="Youkhanna"	# a lord
	dynasty=55953

	religion="gods_bone_mountains"
	culture="bayasabhadi"

	father=12755953

	8172.1.1 = {birth="8172.1.1"}
	8188.1.1 = {add_trait=poor_warrior}
	8219.1.1 = {death="8219.1.1"}
}
13255953 = {
	name="Mukhtar"	# a lord
	dynasty=55953

	religion="gods_bone_mountains"
	culture="bayasabhadi"

	father=13055953

	8200.1.1 = {birth="8200.1.1"}
	8216.1.1 = {add_trait=poor_warrior}
	8275.1.1 = {death="8275.1.1"}
}
13555953 = {
	name="Murad"	# a lord
	dynasty=55953

	religion="gods_bone_mountains"
	culture="bayasabhadi"

	father=13255953

	8236.1.1 = {birth="8236.1.1"}
	8252.1.1 = {add_trait=trained_warrior}
	8285.1.1 = {death="8285.1.1"}
}
13655953 = {
	name="Shaiban"	# a lord
	dynasty=55953

	religion="gods_bone_mountains"
	culture="bayasabhadi"

	father=13555953

	add_trait = strong
	add_trait = fair
	
	8259.1.1 = {birth="8259.1.1"}
	8275.1.1 = {add_trait=trained_warrior}
}
14255953 = {
	name="Burhanaddin"	# not a lord
	dynasty=55953

	religion="gods_bone_mountains"
	culture="bayasabhadi"

	father=13655953

	add_trait = fair
	
	8278.1.1 = {birth="8278.1.1"}
	8294.1.1 = {add_trait=trained_warrior}
}

################
### Yinishar ###
################
### House Kankkunen
100400414 = {
	name="Yusuf"	# a lord
	dynasty=400414

	religion="gods_bone_mountains"
	culture="samyrianan"
	
	add_trait = fair

	7813.1.1 = {birth="7813.1.1"}
	7829.1.1 = {add_trait=skilled_warrior}
	7881.1.1 = {death="7881.1.1"}
}
101400414 = {
	name="Bahir"	# a lord
	dynasty=400414

	religion="gods_bone_mountains"
	culture="samyrianan"

	father=100400414
	
	add_trait = fair

	7845.1.1 = {birth="7845.1.1"}
	7861.1.1 = {add_trait=skilled_warrior}
	7905.1.1 = { 
		death = {
			death_reason = death_execution
			killer = 100600207 #Khal Mengo
		}
	}
}
104400414 = {
	name="Hafiz"	# not a lord
	dynasty=400414

	religion="gods_bone_mountains"
	culture="samyrianan"

	father=101400414
	
	add_trait = fair

	7878.1.1 = {birth="7878.1.1"}
	7894.1.1 = {add_trait=trained_warrior}
	7905.1.1 = { 
		death = {
			death_reason = death_battle
			killer = 100600207 #Khal Mengo
		}
	}
}


###House Lehtola
100400418 = {
	name="Ghalib"	# a lord
	dynasty=400418

	religion="gods_bone_mountains"
	culture="samyrianan"
	
	add_trait = strong

	7804.1.1 = {birth="7804.1.1"}
	7820.1.1 = {add_trait=poor_warrior}
	7857.1.1 = {death="7857.1.1"}
}
102400418 = {
	name="Fadl"	# a lord
	dynasty=400418

	religion="gods_bone_mountains"
	culture="samyrianan"

	father=100400418
	
	add_trait = strong

	7836.1.1 = {birth="7836.1.1"}
	7852.1.1 = {add_trait=poor_warrior}
	7895.1.1 = {death="7895.1.1"}
}
104400418 = {
	name="Muslihiddin"	# a lord
	dynasty=400418

	religion="gods_bone_mountains"
	culture="samyrianan"

	father=102400418
	
	add_trait = strong

	7871.1.1 = {birth="7871.1.1"}
	7887.1.1 = {add_trait=skilled_warrior}
	7905.1.1 = { 
		death = {
			death_reason = death_battle
			killer = 100600207 #Khal Mengo
		}
	}
}