###########################################
#                                         #
# Way of Life carousing events            #
#                                         #
# ID WoL.4000-WoL.4999                    #
#                                         #
###########################################

# Written by Tobias Bodlund

namespace = WoL

# AGOT: Sendd mass invites
character_event = {
	id = WoL.4699
	desc = EVTDESC_WoL_4699
	picture = GFX_evt_feast
	border = GFX_event_normal_frame_diplomacy
	
	is_triggered_only = yes
	
	option = {
		name = EVTOPTA_WoL_4699 #Family
		top_liege = {
			any_realm_character = {
				limit = {
					is_close_relative = ROOT
					
					NOT = { trait = dragon }
					NOT = { culture_group = unoccupied_group }
					NOT = { culture_group = winter_group }
					#is_within_diplo_range = FROM
					NOT = { has_character_flag = carousing_invite }
					NOT = { character = ROOT }                            # Can't do this decision on yourself...
					
					is_adult = yes
					war = no
					prisoner = no
					same_realm = ROOT   # Can only invite characters in same realm!
					OR = {
						NOT = { trait = maester }
						liege = { character = ROOT }
					}
					NOT = { trait = incapable }
					NOT = { trait = slave }
					NOT = { has_character_modifier = organizing_party }
					NOT = { has_character_modifier = party_carousing }
					NOT = {
						reverse_has_opinion_modifier = {
							modifier = opinion_declined_party
							who = ROOT
						}
					}
				}
				set_character_flag = carousing_invite
				letter_event = { id = WoL.4000 days = 7 tooltip = TOOLTIPWoL.4000 } # Invitee receives event - any number of invitees possible
			}
		}
	}
	option = {
		name = EVTOPTB_WoL_4699 #Vassals
		any_vassal = {
			limit = {			
				NOT = { trait = dragon }
				NOT = { culture_group = unoccupied_group }
				NOT = { culture_group = winter_group }
				#is_within_diplo_range = FROM
				NOT = { has_character_flag = carousing_invite }
				NOT = { character = ROOT }                            # Can't do this decision on yourself...
				
				is_adult = yes
				war = no
				prisoner = no
				same_realm = ROOT   # Can only invite characters in same realm!
				NOT = { trait = incapable }
				NOT = { trait = slave }
				NOT = { has_character_modifier = organizing_party }
				NOT = { has_character_modifier = party_carousing }
				NOT = {
					reverse_has_opinion_modifier = {
						modifier = opinion_declined_party
						who = ROOT
					}
				}
			}
			set_character_flag = carousing_invite
			letter_event = { id = WoL.4000 days = 7 tooltip = TOOLTIPWoL.4000 } # Invitee receives event - any number of invitees possible
		}
	}
	option = {
		name = EVTOPTC_WoL_4699 #My court
		any_courtier = {
			limit = {			
				NOT = { trait = dragon }
				NOT = { culture_group = unoccupied_group }
				NOT = { culture_group = winter_group }
				#is_within_diplo_range = FROM
				NOT = { has_character_flag = carousing_invite }
				NOT = { character = ROOT }                            # Can't do this decision on yourself...
				
				is_adult = yes
				war = no
				prisoner = no
				same_realm = ROOT   # Can only invite characters in same realm!
				OR = {
					NOT = { trait = maester }
					liege = { character = ROOT }
				}
				NOT = { trait = incapable }
				NOT = { trait = slave }
				NOT = { has_character_modifier = organizing_party }
				NOT = { has_character_modifier = party_carousing }
				NOT = {
					reverse_has_opinion_modifier = {
						modifier = opinion_declined_party
						who = ROOT
					}
				}
			}
			set_character_flag = carousing_invite
			letter_event = { id = WoL.4000 days = 7 tooltip = TOOLTIPWoL.4000 } # Invitee receives event - any number of invitees possible
		}
	}
	option = {
		name = EVTOPTD_WoL_4699 #All my subjects!
		set_character_flag = no_negative_response
		custom_tooltip = {
			text = TOOLTIPWoL_4699SUBJECTS
			hidden_tooltip = {
				any_realm_character = {
					limit = {		
						OR = { #Only important characters
							higher_tier_than = BARON
							is_patrician = yes
							AND = {
								tier = BARON
								ROOT = { tier = DUKE }
							}
							dynasty = ROOT
							is_close_relative = ROOT
							trait = dragon_rider
							liege = { character = ROOT }
							any_heir_title = {
								OR = {
									higher_tier_than = COUNT
									AND = {
										tier = COUNT
										ROOT = { tier = DUKE }
									}
								}
							}
						}
						
						NOT = { trait = dragon }
						NOT = { culture_group = unoccupied_group }
						NOT = { culture_group = winter_group }
						#is_within_diplo_range = FROM
						NOT = { has_character_flag = carousing_invite }
						NOT = { character = ROOT }                            # Can't do this decision on yourself...
						
						is_adult = yes
						war = no
						prisoner = no
						same_realm = ROOT   # Can only invite characters in same realm!
						OR = {
							NOT = { trait = maester }
							liege = { character = ROOT }
						}
						NOT = { trait = incapable }
						NOT = { trait = slave }
						NOT = { has_character_modifier = organizing_party }
						NOT = { has_character_modifier = party_carousing }
						NOT = {
							reverse_has_opinion_modifier = {
								modifier = opinion_declined_party
								who = ROOT
							}
						}
					}
					set_character_flag = carousing_invite
					letter_event = { id = WoL.4000 days = 7 tooltip = TOOLTIPWoL.4000 } # Invitee receives event - any number of invitees possible
				}
			}	
		}	
	}
}

# Invitee receives invitation
letter_event = {
	id = WoL.4000
	desc = EVTDESC_WoL_4000
	
	is_triggered_only = yes
	
	trigger = { 
		FROMFROM = { 
			is_alive = yes 
			is_ruler = yes
		} 
	}
	
	fail_trigger_effect = {
		clr_character_flag = carousing_invite
	}
	
	option = {
		name = EVTOPTA_WoL_4000 # Accept
		trigger = {
			NOT = { has_character_flag = do_not_disturb }
		}
		ai_chance = {
			factor = 1
			modifier = {
				factor = 0
				is_rival = FROMFROM
			}
			modifier = {
				factor = 0
				war = yes
			}
			modifier = {
				factor = 0.1
				NOT = { opinion = { who = FROMFROM value = -25 } }
			}
			modifier = {
				factor = 5
				liege = { character = FROMFROM }
				is_ruler = no
			}
			modifier = {
				factor = 2
				liege = { character = FROMFROM }
				is_ruler = yes
			}
			modifier = {
				factor = 0.5
				trait = stressed
			}
			modifier = {
				factor = 0.1
				trait = depressed
			}
			modifier = {
				factor = 10
				trait = drunkard
			}
			modifier = {
				factor = 0.1
				OR = {
					is_ill = yes
					has_epidemic = yes
				}
			}
			modifier = {
				factor = 0.5
				trait = celibate
			}
			modifier = {
				factor = 0.5
				trait = chaste
			}
			modifier = {
				factor = 2.0
				trait = lustful
			}
			modifier = {
				factor = 10
				trait = hedonist
			}
			modifier = {
				factor = 0.2
				trait = temperate
			}
			modifier = {
				factor = 2
				trait = gluttonous
			}
			modifier = {
				factor = 2
				trait = gregarious
			}
			modifier = {
				factor = 0.3
				trait = shy
			}
			modifier = {
				factor = 0.5
				trait = paranoid
			}
			modifier = {
				factor = 10
				trait = decadent
			}
			modifier = {
				factor = 10
				has_character_flag = fake_guru
			}
		}
		hidden_tooltip = { FROMFROM = { letter_event = { id = WoL.4001 days = 7 } } }
		reverse_opinion = {
			modifier = opinion_carousing
			who = FROMFROM
			months = 12
		}
		set_character_flag = do_not_disturb # NOTE
		clr_character_flag = carousing_invite
	}
	option = {
		name = EVTOPTB_WoL_4000 # Decline
		ai_chance = {
			factor = 1
		}
		FROMFROM = {
			opinion = {
				modifier = opinion_declined_party
				who = ROOT
				months = 24 
			}
		}
		hidden_tooltip = { FROMFROM = { letter_event = { id = WoL.4002 days = 7 } } }
		clr_character_flag = carousing_invite
	}
}

# Host receives positive answer to invitation
letter_event = {
	id = WoL.4001
	desc = EVTDESC_WoL_4001

	is_triggered_only = yes
	
	option = {
		name = EVTOPTA_WoL_4001
		reverse_opinion = {
			modifier = opinion_carousing
			who = FROM
			months = 12
		}
	}
}

# Host receives negative answer to invitation
letter_event = {
	id = WoL.4002
	desc = EVTDESC_WoL_4002

	is_triggered_only = yes
	
	trigger = { NOT = { has_character_flag = no_negative_response } }
	
	option = {
		name = EVTOPTA_WoL_4002
		prestige = -3
	}
}

# Check if party can start or not and send on to appropriate event
character_event = {
	id = WoL.4010

	hide_window = yes
	
	is_triggered_only = yes
	
	immediate = {
		clr_character_flag = inviting_guests_to_party_timer
		clr_character_flag = no_negative_response
		hidden_tooltip = {
			if = {
				limit = {
					NOT = {
						any_opinion_modifier_target = {
							has_opinion_modifier = {
								modifier = opinion_carousing
								who = ROOT
							}
						}	
					}
				}
				character_event = { id = WoL.4015 }  # Cancel carousing due to no one accepting invitation
				break = yes
			}
		}
		if = {
			limit = {
				OR = {
					war = yes
					trait = incapable
				}
			}
			character_event = { id = WoL.4011 }  # Cancel carousing due to unforeseen circumstances
			break = yes
		}
		character_event = { id = WoL.4030 } # ... or start the party!
	}
}

# Cancel due to unforeseen circumstances
character_event = {
	id = WoL.4011
	desc = EVTDESC_WoL_4011
	picture = GFX_evt_feast
	border = GFX_event_normal_frame_diplomacy
	
	is_triggered_only = yes
	
	option = {
		name = CURSES
		clr_character_flag = do_not_disturb
		remove_character_modifier = organizing_party
		hidden_tooltip = {
			any_opinion_modifier_target = {
				limit = {
					has_opinion_modifier = {
						modifier = opinion_carousing
						who = ROOT
					}
				}
				remove_opinion = {
					modifier = opinion_carousing
					who = ROOT
				}
				letter_event = { id = WoL.4012 } # Notify by letter
			}	
		}
	}
}

# Invitee notified of cancellation
letter_event = {
	id = WoL.4012
	desc = EVTDESC_WoL_4012
	
	is_triggered_only = yes
	
	option = {
		name = EVTOPTA63054
		clr_character_flag = do_not_disturb
		reverse_remove_opinion = {
			modifier = opinion_carousing
			who = FROM
		}
	}
}

# Cancel due to no one accepting invitation
character_event = {
	id = WoL.4015
	desc = EVTDESC_WoL_4015
	picture = GFX_evt_feast
	border = GFX_event_normal_frame_diplomacy
	
	is_triggered_only = yes
	
	option = {
		name = EVTOPTA_WoL_4015
		clr_character_flag = do_not_disturb
		remove_character_modifier = organizing_party
	}
}


# Party begins
character_event = {
	id = WoL.4030
	desc = EVTDESC_WoL_4030
	picture = GFX_evt_feast
	border = GFX_event_normal_frame_diplomacy
	
	hide_from = yes
	
	is_triggered_only = yes
	
	immediate = {
		set_character_flag = party_host
	}
	
	option = {
		name = EVTOPTA_WoL_4030
		remove_character_modifier = organizing_party
		add_character_modifier = {
			name = party_carousing
			days = 40
		}
		hidden_tooltip = {
			any_opinion_modifier_target = {
				limit = {
					has_opinion_modifier = {
						modifier = opinion_carousing
						who = ROOT
					}
					NOT = { character = ROOT }
				}
				character_event = { id = WoL.4031 } # Notify guests that carousing starts
				character_event = { id = WoL.4800 days = 30 } # End of party
			}
			character_event = { id = WoL.4035 days = 15 } # Select outcome/events
			character_event = { id = WoL.4800 days = 30 } # End of party
		}
	}
}

# Party begins, notify guests
character_event = {
	id = WoL.4031
	desc = EVTDESC_WoL_4031
	picture = GFX_evt_feast
	border = GFX_event_normal_frame_diplomacy
	
	is_triggered_only = yes
	
	option = {
		name = EVTOPTA_WoL_4031
		set_character_flag = party_guest
		add_character_modifier = {
			name = party_carousing
			days = 40
		}
	}
}

# Carousing - select outcome/events (host)
character_event = {
	id = WoL.4035

	hide_window = yes
	
	is_triggered_only = yes

	trigger = {
		any_opinion_modifier_target = {
			has_opinion_modifier = {
				modifier = opinion_carousing
				who = ROOT
			}
		}
	}
	
	immediate = {         # Select interesting party event
		random_list = {
			2 = {
				modifier = {
					factor = 0
					NAND = {
						OR = {
							trait = lunatic
							trait = possessed
							trait = impaler
						}
						any_opinion_modifier_target = {
							ai = yes
							has_opinion_modifier = {
								modifier = opinion_carousing
								who = ROOT
							}
						}
					}
					NAND = {
						ai = yes
						any_opinion_modifier_target = {
							has_opinion_modifier = {
								modifier = opinion_carousing
								who = ROOT
							}
							OR = {
								trait = lunatic
								trait = possessed
								trait = impaler
							}
						}
					}
				}
				modifier = {
					factor = 20
					OR = {
						has_character_modifier = cannibal
						trait = cannibal_trait
					}
				}
				modifier = {
					factor = 1.5
					trait = gluttonous
				}
				character_event = { id = WoL.4100 }  # Cannibal, eat your guest? (or guest may eat host)
			}
			20 = {
				modifier = {
					factor = 0
					NOT = {
						any_opinion_modifier_target = {
							has_opinion_modifier = {
								modifier = opinion_carousing
								who = ROOT
							}
							ROOT = {
								OR = {
									trait = lustful
									trait = hedonist
								}
							}
							OR = {
								trait = lustful
								trait = hedonist
							}
							OR = {
								AND = {
									is_female = no
									NOT = { trait = homosexual }
									ROOT = {
										is_female = yes
										NOT = { trait = homosexual }
									}
								}
								AND = {
									is_female = yes
									NOT = { trait = homosexual }
									ROOT = {
										is_female = no
										NOT = { trait = homosexual }
									}
								}
								AND = {
									is_female = no
									trait = homosexual
									ROOT = {
										is_female = no
										trait = homosexual
									}
								}
								AND = {
									is_female = yes
									trait = homosexual
									ROOT = {
										is_female = yes
										trait = homosexual
									}
								}
							}
						}
					}
				}
				character_event = { id = WoL.4110 }  # Party fling if both lustful
			}
			30 = {
				trigger = {
					any_opinion_modifier_target = {
						has_opinion_modifier = {
							modifier = opinion_carousing
							who = ROOT
						}
						NOT = { is_friend = ROOT }
					}
				}
				character_event = { id = WoL.4120 } # Makes new friend
			}
			10 = {
				modifier = {
					factor = 0
					NOT = {
						any_opinion_modifier_target = {
							has_opinion_modifier = {
								modifier = opinion_carousing
								who = ROOT
							}
							NOT = { is_rival = ROOT }
						}
					}
				}
				modifier = {
					factor = 0
					NOT = {
						OR = {
							trait = wroth
							trait = lunatic
							trait = paranoid
							any_opinion_modifier_target = {
								has_opinion_modifier = {
									modifier = opinion_carousing
									who = ROOT
								}
								OR = {
									trait = wroth
									trait = lunatic
									trait = paranoid
								}
							}
						}
					}
				}
				character_event = { id = WoL.4130 } # Fight breaks out, might make new enemy
			}
			20 = {
				modifier = {
					factor = 0
					NOT = {
						OR = {
							trait = lunatic
							any_opinion_modifier_target = {
								has_opinion_modifier = {
									modifier = opinion_carousing
									who = ROOT
								}
								trait = lunatic
							}
						}
					}
				}
				character_event = { id = WoL.4140 } # Lunatic starts raising hell, in a good way
			}
			10 = {
				modifier = {
					factor = 0
					NOT = {
						OR = {
							trait = drunkard
							any_opinion_modifier_target = {
								has_opinion_modifier = {
									modifier = opinion_carousing
									who = ROOT
								}
								trait = drunkard
							}
						}
					}
				}
				character_event = { id = WoL.4150 } # Drunkard drinks waaaaay too much
			}
			10 = {
				modifier = {
					factor = 3
					OR = {
						trait = gamer
						any_opinion_modifier_target = {
							has_opinion_modifier = {
								modifier = opinion_carousing
								who = ROOT
							}
							trait = gamer
						}
					}
				}
				random_opinion_modifier_target = {
					limit = {
						has_opinion_modifier = {
							modifier = opinion_carousing
							who = ROOT
						}
						trait = gamer
					}
					character_event = { id = WoL.4160 }
					break = yes
				}
				random_opinion_modifier_target = {
					limit = {
						has_opinion_modifier = {
							modifier = opinion_carousing
							who = ROOT
						}
					}
					character_event = { id = WoL.4160 }
				}
			}
		}
	}
}

# Cannibal - whos is the possible cannibal?
character_event = {
	id = WoL.4100

	hide_window = yes
	
	is_triggered_only = yes
	
	immediate = {
		if = {
			limit = {
				OR = {
					trait = lunatic
					trait = possessed
					trait = impaler
					any_artifact = { artifact_type = the_omnivore }
				}
			}
			character_event = { id = WoL.4101 }
			break = yes
		}
		random_opinion_modifier_target = {
			limit = {
				has_opinion_modifier = {
					modifier = opinion_carousing
					who = ROOT
				}
				OR = {
					trait = lunatic
					trait = possessed
					trait = impaler
					any_artifact = { artifact_type = the_omnivore }
				}
				ROOT = { ai = yes }
			}
			character_event = { id = WoL.4101 }
		}
	}
}

# Cannibal - eat?
character_event = {
	id = WoL.4101
	desc = EVTDESC_WoL_4101
	picture = GFX_evt_feast
	border = GFX_event_normal_frame_diplomacy

	is_triggered_only = yes

	option = {
		name = EVTOPTA_WoL_4101 # No
		ai_chance = {
			factor = 0
		}
		if = {
			limit = {
				trait = craven
				trait = stressed
				NOT = { trait = depressed }
			}
			add_trait = depressed
		}
		if = {
			limit = {
				trait = craven
				NOT = { trait = stressed }
			}
			add_trait = stressed
		}
		if = {
			limit = {
				NOT = { trait = craven }
				NOT = { trait = berserker }
			}
			add_trait = craven
		}
	}
	option = {
		name = EVTOPTB_WoL_4101 # Eat, for host
		trigger = {
			has_character_flag = party_host
		}
		ai_chance = {
			factor = 1
		}
		if = {
			limit = { 
				NOR = { 
					has_character_modifier = cannibal
					trait = cannibal_trait
				}
			}
			add_trait = cannibal_trait
		}
		random_opinion_modifier_target = {
			limit = {
				has_opinion_modifier = {
					modifier = opinion_carousing
					who = ROOT
				}
			}
			death = {
				death_reason = death_murder_unknown_butchered
				killer = ROOT
			}
		}
	}
	option = {
		name = EVTOPTB_WoL_4101 # Eat, for guest
		trigger = {
			has_character_flag = party_guest
		}
		ai_chance = {
			factor = 1
		}
		if = {
			limit = { 
				NOR = { 
					has_character_modifier = cannibal
					trait = cannibal_trait
				}
			}
			add_trait = cannibal_trait
		}
		FROM = {
			death = {
				death_reason = death_murder_unknown_butchered
				killer = ROOT
			}
		}
	}
}

# Party fling - who takes initiative?
character_event = {
	id = WoL.4110

	hide_window = yes
	
	is_triggered_only = yes
	
	immediate = {
		random_list = {
			10 = {
				character_event = { id = WoL.4111 }
			}
			10 = {
				random_opinion_modifier_target = {
					limit = {
						has_opinion_modifier = {
							modifier = opinion_carousing
							who = ROOT
						}
						possibly_romantically_interested_in_ROOT_trigger = yes
						OR = {
							trait = lustful
							trait = hedonist
						}
					}
					character_event = { id = WoL.4111 }
				}
			}
		}
	}
}

# Fling - propose carnal knowledge?
character_event = {
	id = WoL.4111
	desc = EVTDESC_WoL_4111
	picture = GFX_evt_brothel
	border = GFX_event_normal_frame_diplomacy

	is_triggered_only = yes

	option = {
		name = EVTOPTA_WoL_4111 # Host initiative
		trigger = {
			has_character_flag = party_host
		}
		ai_chance = {
			factor = 1
		}
		random_opinion_modifier_target = {
			limit = {
				has_opinion_modifier = {
					modifier = opinion_carousing
					who = ROOT
				}
				possibly_romantically_interested_in_ROOT_trigger = yes
				OR = {
					trait = lustful
					trait = hedonist
				}
			}
			character_event = { id = WoL.4112 }
		}
	}
	option = {
		name = EVTOPTA_WoL_4111 # Guest initiative
		trigger = {
			has_character_flag = party_guest
		}
		ai_chance = {
			factor = 1
		}
		FROM = {
			character_event = { id = WoL.4112 }
		}
	}
	option = {
		name = EVTOPTC_WoL_4111 # No
		ai_chance = {
			factor = 0
		}
		if = {
			limit = {
				trait = lustful
				trait = depressed
				NOT = { trait = stressed }
			}
			random = {
				chance = 50
				add_trait = stressed
				hidden_tooltip = { character_event = { id = 38282 } }
			}
		}
		if = {
			limit = {
				trait = lustful
				NOT = { trait = depressed }
			}
			random = {
				chance = 50
				add_trait = depressed
				hidden_tooltip = { character_event = { id = 38288 } }
			}
		}
		if = {
			limit = {
				NOT = { trait = chaste }
				NOT = { trait = lustful }
				NOT = { personality_traits = 6 }
			}
			add_trait = chaste
		}
	}
}

# Fling - accept or decline proposal of carnal knowledge
character_event = {
	id = WoL.4112
	desc = EVTDESC_WoL_4112
	picture = GFX_evt_brothel
	border = GFX_event_normal_frame_diplomacy

	is_triggered_only = yes

	option = {
		name = EVTOPTA_WoL_4112 # Yes
		ai_chance = { 
			factor = 75
			modifier = {
				factor = 4
				trait = lustful
			}
			modifier = {
				factor = 2
				trait = hedonist
			}				
			modifier = {
				factor = 0.1
				is_close_relative = FROM
				trait = honorable
				practices_incest_trigger = no
			}	
			modifier = {
				factor = 0.05
				NOT = { trait = homosexual }
				same_sex = FROM
				OR = { #Dornish need not be homosexual if lustful
					NOT = { trait = lustful	}
					NOT = { culture_group = dornish }
				}
			}
		}
		add_character_modifier = {
			name = good_times
			duration = 730
		}
		hidden_tooltip = {
			if = {
				limit = {
					is_female = no
					fertility = 0.1
					FROM = {
						is_female = yes
						is_married = no
						is_consort = no
						is_senior_consort_party = no
						is_ill = no
						has_severe_disability_trigger = no
						fertility = 0.1
						NOT = { age = 40 }
						is_pregnant = no
					}
				}
				random = {
					chance = 10
					impregnate_cuckoo = FROM
				}
			}
		}
		hidden_tooltip = {
			random = {
				chance = 20
				venereal_disease_effect = yes
			}
		}
		hidden_tooltip = { FROM = { character_event = { id = WoL.4113 } } }
	}
	option = {
		name = EVTOPTB_WoL_4112 # No
		ai_chance = { 
			factor = 25 
			modifier = {
				factor = 0.01
				has_focus = focus_seduction
			}
			modifier = {
				factor = 3
				num_of_lovers = 1
			}		
			modifier = {
				factor = 3
				num_of_lovers = 2
			}
			modifier = {
				factor = 3
				num_of_lovers = 3
			}
			modifier = {
				factor = 3
				num_of_lovers = 4
			}
			modifier = {
				factor = 10
				trait = chaste
			}
			modifier = {
				factor = 2
				trait = temperate
			}	
			modifier = {
				factor = 0.5
				trait = greedy
			}
			modifier = {
				factor = 20
				is_close_relative = FROM
				NOT = { trait = lustful }
				practices_incest_trigger = no
			}				
		}
		reverse_opinion = {
			modifier = opinion_spurned
			who = FROM
			years = 5
		}
		if = {
			limit = {
				NOT = { trait = chaste }
				NOT = { trait = lustful }
				NOT = { personality_traits = 6 }
			}
			add_trait = chaste
		}
		hidden_tooltip = { FROM = { character_event = { id = WoL.4114 } } }
	}
}
	
# Carnal knowledge accepted - do it
character_event = {
	id = WoL.4113
	desc = EVTDESC_WoL_4113
	picture = GFX_evt_lovers
	border = GFX_event_normal_frame_diplomacy

	is_triggered_only = yes

	option = {
		name = EVTOPTA_WoL_4113
		add_character_modifier = {
			name = good_times
			duration = 730
		}
		hidden_tooltip = {
			if = {
				limit = {
					is_female = no
					fertility = 0.1
					FROM = {
						is_female = yes
						is_married = no
						is_consort = no
						is_senior_consort_party = no
						is_ill = no
						has_severe_disability_trigger = no
						fertility = 0.1
						NOT = { age = 40 }
						is_pregnant = no
					}
				}
				random = {
					chance = 10
					impregnate_cuckoo = FROM
				}
			}
		}
		hidden_tooltip = {
			random = {
				chance = 20
				venereal_disease_effect = yes
			}
		}
	}
}
	
# Carnal knowledge declined - notify
character_event = {
	id = WoL.4114
	desc = EVTDESC_WoL_4114
	picture = GFX_evt_feast
	border = GFX_event_normal_frame_diplomacy

	is_triggered_only = yes

	option = {
		name = EVTOPTA_WoL_4114
		tooltip = {
			opinion = {
				modifier = opinion_spurned
				who = FROM
				years = 5
			}
		}
		prestige = -5
	}
}

# Makes friend
character_event = {
	id = WoL.4120
	picture = GFX_evt_feast
	desc = EVTDESC_WoL_4120
	border = GFX_event_normal_frame_diplomacy

	is_triggered_only = yes

	immediate = {
		random_opinion_modifier_target = {
			limit = {
				has_opinion_modifier = {
					modifier = opinion_carousing
					who = ROOT
				}
				NOT = { is_friend = ROOT }
				NOT = { is_rival = ROOT }
			}
			save_event_target_as = scoped_friend
		}
	}

	option = {
		name = EVTOPTA_WoL_4120
		event_target:scoped_friend = {
			add_friend = ROOT
			hidden_tooltip = { character_event = { id = WoL.4121 } }
		}
	}
}

# Notify new friend
character_event = {
	id = WoL.4121
	picture = GFX_evt_feast
	desc = EVTDESC_WoL_4120
	border = GFX_event_normal_frame_diplomacy

	is_triggered_only = yes

	option = {
		name = EVTOPTA_WoL_4120
		add_friend = FROM
	}
}

# Fight - who starts it?
character_event = {
	id = WoL.4130

	hide_window = yes
	
	is_triggered_only = yes
	
	immediate = {
		random_list = {
			10 = {
				modifier = {
					factor = 0
					NOT = {	trait = wroth }
					NOT = {	trait = lunatic }
					NOT = {	trait = paranoid }
				}
				character_event = { id = WoL.4131 }
			}
			10 = {
				modifier = {
					factor = 0
					NOT = {
						any_opinion_modifier_target = {
							has_opinion_modifier = {
								modifier = opinion_carousing
								who = ROOT
							}
							OR = {
								trait = wroth
								trait = lunatic
								trait = paranoid
							}
						}
					}
				}
				random_opinion_modifier_target = {
					limit = {
						has_opinion_modifier = {
							modifier = opinion_carousing
							who = ROOT
						}
						OR = {
							trait = wroth
							trait = lunatic
							trait = paranoid
						}
					}
					character_event = { id = WoL.4131 }
				}
			}
		}
	}
}

# Fight starts - you can't control your rage
character_event = {
	id = WoL.4131
	desc =  EVTDESC_WoL_4131
	picture = GFX_evt_feast
	border = GFX_event_normal_frame_diplomacy

	is_triggered_only = yes
	
	option = {
		name = EVTOPTA_WoL_4131
		trigger = {
			has_character_flag = party_host
		}
		random_opinion_modifier_target = {
			limit = {
				has_opinion_modifier = {
					modifier = opinion_carousing
					who = ROOT
				}
			}
			hidden_tooltip = { character_event = { id = WoL.4132 } }
		}
	}
	option = {
		name = EVTOPTA_WoL_4131
		trigger = {
			has_character_flag = party_guest
		}
		FROM = { hidden_tooltip = { character_event = { id = WoL.4132 } } }
	}
}

# He's coming at me - avoid or fight back?
character_event = {
	id = WoL.4132
	picture = GFX_evt_feast
	desc = EVTDESC_WoL_4132
	border = GFX_event_normal_frame_diplomacy

	is_triggered_only = yes

	option = {
		name = EVTOPTA_WoL_4132 # Fight!
		ai_chance = {
			factor = 1
		}
		FROM = {
			set_character_flag = party_fight_fight
			hidden_tooltip = { character_event = { id = WoL.4133 } }
		}
		random_list = {
			89 = {
				add_character_modifier = {
					name = beaten_up
					days = 180
				}
			}
			10 = {
				add_trait_silently_wounded_effect = yes
				hidden_tooltip = { character_event = { id = 38280 } }
			}
			1 = {
				add_maimed_trait_effect = yes
			}
		}
		random = {
			chance = 30
			add_rival = FROM
			set_character_flag = party_fight_became_rivals
		}
	}
	option = {
		name = EVTOPTB_WoL_4132 # Talk - best option
		trigger = {
			diplomacy = 12
		}
		tooltip_info = diplomacy
		ai_chance = {
			factor = 1
		}
		FROM = {
			set_character_flag = party_fight_talk
			hidden_tooltip = { character_event = { id = WoL.4133 } }
		}
		random = {
			chance = 20
			change_diplomacy = 1
		}
		if = {
			limit = {
				NOT = { is_friend = FROM }
				NOT = { is_rival = FROM }
			}
			random = {
				chance = 20
				add_friend = FROM
				set_character_flag = party_fight_made_friend
			}
		}
	}
	option = {
		name = EVTOPTC_WoL_4132 # Hide!
		trigger = { NOT = { trait = berserker } }
		ai_chance = {
			factor = 1
			modifier = {
				factor = 0
				trait = brave
			}
		}
		if = {
			limit = {
				NOT = { trait = craven }
				NOT = { trait = brave }
				NOT = { personality_traits = 6 }
			}
			random = {
				chance = 30
				add_trait = craven
				hidden_tooltip = { character_event = { id = 38257 } }
			}
		}
		if = {
			limit = {
				trait = brave
			}
			remove_trait = brave
		}
		FROM = {
			set_character_flag = party_fight_hide
			hidden_tooltip = { character_event = { id = WoL.4133 } }
		}
	}
}

# Aggressor gets results
character_event = {
	id = WoL.4133
	picture = GFX_evt_scandal
	border = GFX_event_normal_frame_diplomacy

	is_triggered_only = yes

	desc = {
		trigger = {
			has_character_flag = party_fight_fight
		}
		text = EVTDESC_WoL_4133_fight
	}
	desc = {
		trigger = {
			has_character_flag = party_fight_talk
		}
		text = EVTDESC_WoL_4133_talk
	}
	desc = {
		trigger = {
			has_character_flag = party_fight_hide
		}
		text = EVTDESC_WoL_4133_hide
	}
	
	option = {
		name = EVTOPTA_WoL_4133 # Fought  (both are at risk of injury)
		trigger = {
			has_character_flag = party_fight_fight
		}
		random_list = {
			89 = {
				add_character_modifier = {
					name = beaten_up
					days = 180
				}
			}
			10 = {
				add_trait_silently_wounded_effect = yes
				hidden_tooltip = { character_event = { id = 38280 } }
			}
			1 = {
				add_maimed_trait_effect = yes
			}
		}
		if = {
			limit = {
				has_character_flag = party_fight_became_rivals
			}
			tooltip = { add_rival = FROM }
			clr_character_flag = party_fight_became_rivals
		}
		if = {
			limit = { has_nickname = no }
			random = {
				chance = 20
				give_nickname = nick_the_quarreller
			}
		}
		clr_character_flag = party_fight_fight
	}
	option = {
		name = EVTOPTB_WoL_4133 # Talked
		trigger = {
			has_character_flag = party_fight_talk
		}
		if = {
			limit = {
				has_character_flag = party_fight_made_friend
			}
			tooltip = { add_friend = FROM }
			clr_character_flag = party_fight_made_friend
		}
		clr_character_flag = party_fight_talk
	}
	option = {
		name = EVTOPTC_WoL_4133 # Hid
		trigger = {
			has_character_flag = party_fight_hide
		}
		reverse_opinion = {
			modifier = opinion_cautious
			who = FROM
			years = 3
		}
		clr_character_flag = party_fight_hide
	}
}

# Lunatic goes wild
character_event = {
	id = WoL.4140

	hide_window = yes
	
	is_triggered_only = yes
	
	immediate = {
		random_list = {
			10 = {
				modifier = {
					factor = 0
					NOT = {	trait = lunatic }
				}
				character_event = { id = WoL.4141 }
			}
			10 = {
				modifier = {
					factor = 0
					NOT = {
						any_opinion_modifier_target = {
							has_opinion_modifier = {
								modifier = opinion_carousing
								who = ROOT
							}
							trait = lunatic
						}
					}
				}
				random_opinion_modifier_target = {
					limit = {
						has_opinion_modifier = {
							modifier = opinion_carousing
							who = ROOT
						}
						trait = lunatic
					}
					character_event = { id = WoL.4141 }
				}
			}
		}
	}
}

# Lunatic goes wild at party
character_event = {
	id = WoL.4141
	desc = EVTDESC_WoL_4141
	picture = GFX_evt_pope_feast
	border = GFX_event_normal_frame_diplomacy

	is_triggered_only = yes
	
	option = {
		name = EVTOPTA_WoL_4141
		trigger = {
			has_character_flag = party_host
		}
		add_character_modifier = {
			name = good_times
			years = 2
		}
		if = {
			limit = { has_nickname = no }
			random = {
				chance = 20
				give_nickname = nick_the_merry
			}
		}
		any_opinion_modifier_target = {
			limit = {
				has_opinion_modifier = {
					modifier = opinion_carousing
					who = ROOT
				}
			}
			opinion = {
				modifier = opinion_approves
				who = ROOT
				years = 4
			}
			hidden_tooltip = { character_event = { id = WoL.4142 } }
		}
	}
	option = {
		name = EVTOPTA_WoL_4141
		trigger = {
			has_character_flag = party_guest
		}
		add_character_modifier = {
			name = good_times
			years = 2
		}
		FROM = {
			opinion = {
				modifier = opinion_approves
				who = ROOT
				years = 4
			}
			hidden_tooltip = { character_event = { id = WoL.4142 } }
		}
	}
}
	
# Other person perspective on lunatic behavior
character_event = {
	id = WoL.4142
	desc = EVTDESC_WoL_4142
	picture = GFX_evt_pope_feast
	border = GFX_event_normal_frame_diplomacy

	is_triggered_only = yes

	option = {
		name = EVTOPTA_WoL_4142
		add_character_modifier = {
			name = good_times
			years = 2
		}
	}
}

# Drunkard drinks waaaaay too much and things go bad
character_event = {
	id = WoL.4150

	hide_window = yes
	
	is_triggered_only = yes
	
	immediate = {
		random_list = {
			10 = {
				modifier = {
					factor = 0
					NOT = {	trait = drunkard }
				}
				character_event = { id = WoL.4151 }
			}
			10 = {
				modifier = {
					factor = 0
					NOT = {
						any_opinion_modifier_target = {
							has_opinion_modifier = {
								modifier = opinion_carousing
								who = ROOT
							}
							trait = drunkard
						}
					}
				}
				random_opinion_modifier_target = {
					limit = {
						has_opinion_modifier = {
							modifier = opinion_carousing
							who = ROOT
						}
						trait = drunkard
					}
					character_event = { id = WoL.4151 }
				}
			}
		}
	}
}

# Drunkard
character_event = {
	id = WoL.4151
	desc = EVTDESC_WoL_4151
	picture = GFX_evt_feast
	border = GFX_event_normal_frame_diplomacy

	is_triggered_only = yes
	
	option = {
		name = EVTOPTA_WoL_4151
		trigger = {
			has_character_flag = party_host
		}
		add_character_modifier = {
			name = epic_hangover
			years = 1
		}
		if = {
			limit = { has_nickname = no }
			random = {
				chance = 20
				give_nickname = nick_the_drunkard
			}
		}
		any_opinion_modifier_target = {
			limit = {
				has_opinion_modifier = {
					modifier = opinion_carousing
					who = ROOT
				}
			}
			if = {
				limit = { NOT = { trait = drunkard } }

				opinion = {
					modifier = despise_drunkard
					who = ROOT
					years = 4
				}
				hidden_tooltip = { character_event = { id = WoL.4152 } }
			}

			if = {
				limit = { trait = drunkard }

				opinion = {
					modifier = opinion_gained_respect
					who = ROOT
					years = 4
				}
				hidden_tooltip = { character_event = { id = WoL.4152 } }
			}
		}
		any_opinion_modifier_target = {
			limit = {
				has_opinion_modifier = {
					modifier = opinion_carousing
					who = ROOT
				}
				trait = drunkard
			}
			opinion = {
				modifier = opinion_gained_respect
				who = ROOT
				years = 4
			}
			hidden_tooltip = { character_event = { id = WoL.4152 } }
		}
	}
	option = {
		name = EVTOPTA_WoL_4151
		trigger = {
			has_character_flag = party_guest
		}
		add_character_modifier = {
			name = epic_hangover
			years = 1
		}
		FROM = {
			if = {
				limit = { NOT = { trait = drunkard } }
				opinion = {
					modifier = despise_drunkard
					who = ROOT
					years = 4
				}
			}
			if = {
				limit = { trait = drunkard }
				opinion = {
					modifier = opinion_gained_respect
					who = ROOT
					years = 4
				}
			}
			hidden_tooltip = { character_event = { id = WoL.4152 } }
		}
	}
}
	
# Other person perspective on drunkard behavior
character_event = {
	id = WoL.4152
	picture = GFX_evt_feast
	border = GFX_event_normal_frame_diplomacy

	is_triggered_only = yes
	
	desc = {
		trigger = {
			NOT = { trait = drunkard }
		}
		text = EVTDESC_WoL_4152_non_drunkard
	}
	desc = {
		trigger = {
			trait = drunkard
		}
		text = EVTDESC_WoL_4152_drunkard
	}

	option = {
		name = EVTOPTA_WoL_4152
		trigger = {
			NOT = { trait = drunkard }
		}
		tooltip = {
			opinion = {
				modifier = despise_drunkard
				who = FROM
				years = 4
			}
		}
	}
	option = {
		name = EVTOPTA_WoL_4152
		trigger = {
			trait = drunkard
		}
		tooltip = {
			opinion = {
				modifier = opinion_gained_respect
				who = FROM
				years = 4
			}
		}
	}
}

# Play games - Player 2 bounce event
character_event = {
	id = WoL.4160

	hide_window = yes
	
	is_triggered_only = yes
	
	immediate = {
		FROM = { character_event = { id = WoL.4161 } }
	}
}

# Player 1 (host)
character_event = {
	id = WoL.4161
	picture = GFX_evt_war_planning
	border = GFX_event_normal_frame_diplomacy

	is_triggered_only = yes

	desc = {
		trigger = {
			OR = {
				trait = gamer
				has_character_modifier = apprentice_boardgamer
			}
		}
		text = EVTDESC_WoL_4161_gamer
	}
	desc = {
		trigger = {
			NOT = { trait = gamer }
			NOT = { has_character_modifier = apprentice_boardgamer }
		}
		text = EVTDESC_WoL_4161_non_gamer
	}
	
	option = { # Play for money
		name = EVTOPTA_WoL_4161
		set_character_flag = game_play_for_money
		hidden_tooltip = {
			FROM = { character_event = { id = WoL.4162 } }
		}
	}
	option = { # Play just for fun
		name = EVTOPTB_WoL_4161
		hidden_tooltip = {
			FROM = { character_event = { id = WoL.4162 } }
		}
	}
}
	
# Player 2
character_event = {
	id = WoL.4162
	picture = GFX_evt_war_planning
	border = GFX_event_normal_frame_diplomacy

	is_triggered_only = yes
	
	desc = {
		trigger = {
			FROM = { has_character_flag = game_play_for_money }
			OR = {
				trait = gamer
				has_character_modifier = apprentice_boardgamer
			}
		}
		text = EVTDESC_WoL_4162_money_i_suggest
	}
	desc = {
		trigger = {
			FROM = { NOT = { has_character_flag = game_play_for_money } }
			OR = {
				trait = gamer
				has_character_modifier = apprentice_boardgamer
			}
		}
		text = EVTDESC_WoL_4162_not_money_i_suggest
	}
	desc = {
		trigger = {
			FROM = { has_character_flag = game_play_for_money }
			NOT = { trait = gamer }
			NOT = { has_character_modifier = apprentice_boardgamer }
		}
		text = EVTDESC_WoL_4162_money_they_suggest
	}
	desc = {
		trigger = {
			FROM = { NOT = { has_character_flag = game_play_for_money } }
			NOT = { trait = gamer }
			NOT = { has_character_modifier = apprentice_boardgamer }
		}
		text = EVTDESC_WoL_4162_not_money_they_suggest
	}

	option = { # Accept and get results
		name = EVTOPTA_WoL_4162
		hidden_tooltip = {
			random_list = {
				10 = { # Player 1 wins
					modifier = {
						factor = 3
						FROM = { is_genius_trigger = yes }
					}
					modifier = {
						factor = 2
						FROM = { is_smart_trigger = yes }
					}
					modifier = {
						factor = 3
						FROM = { trait = gamer }
					}
					modifier = {
						factor = 1.5
						FROM = { learning = 3 }
					}
					modifier = {
						factor = 1.5
						FROM = { learning = 6 }
					}
					modifier = {
						factor = 1.5
						FROM = { learning = 9 }
					}
					modifier = {
						factor = 1.5
						FROM = { learning = 12 }
					}
					modifier = {
						factor = 1.5
						FROM = { learning = 15 }
					}
					modifier = {
						factor = 1.5
						FROM = { learning = 18 }
					}
					FROM = { set_character_flag = game_player_winner }
				}
				10 = { # Player 2 wins
					modifier = {
						factor = 3
						is_genius_trigger = yes
					}
					modifier = {
						factor = 2
						is_smart_trigger = yes
					}
					modifier = {
						factor = 3
						trait = gamer
					}
					modifier = {
						factor = 1.5
						learning = 3
					}
					modifier = {
						factor = 1.5
						learning = 6
					}
					modifier = {
						factor = 1.5
						learning = 9
					}
					modifier = {
						factor = 1.5
						learning = 12
					}
					modifier = {
						factor = 1.5
						learning = 15
					}
					modifier = {
						factor = 1.5
						learning = 18
					}
					set_character_flag = game_player_winner
				}
			}
			character_event = { id = WoL.4163 }
			FROM = { character_event = { id = WoL.4163 } }
		}
	}
}

# Game results
character_event = {
	id = WoL.4163
	picture = GFX_evt_war_planning
	border = GFX_event_normal_frame_diplomacy

	is_triggered_only = yes
	
	desc = {
		trigger = {
			has_character_flag = game_player_winner
		}
		text = EVTDESC_WoL_4163_win
	}
	desc = {
		trigger = {
			NOT = { has_character_flag = game_player_winner }
		}
		text = EVTDESC_WoL_4163_loss
	}
	
	option = { # Win
		name = EVTOPTA_WoL_4163
		trigger = {
			has_character_flag = game_player_winner
		}
		set_character_flag = played_games_today
		if = {
			limit = {
				has_character_flag = game_play_for_money
			}
			wealth = 5
		}
		if = {
			limit = {
				NOT = { has_character_modifier = apprentice_boardgamer }
				NOT = { trait = gamer }
			}
			add_character_modifier = {
				name = apprentice_boardgamer
				days = -1
			}
		}
		clr_character_flag = game_play_for_money
		clr_character_flag = game_player_winner
	}
	option = { # Loss
		name = EVTOPTB_WoL_4163
		trigger = {
			NOT = { has_character_flag = game_player_winner }
		}
		set_character_flag = played_games_today
		if = {
			limit = {
				has_character_flag = game_play_for_money
			}
			wealth = -5
		}
		clr_character_flag = game_play_for_money
	}
}

# Party's over, had a good time
character_event = {
	id = WoL.4800
	picture = GFX_evt_feast
	desc = EVTDESC_WoL_4800
	border = GFX_event_normal_frame_diplomacy

	is_triggered_only = yes

	immediate = {
		clr_character_flag = do_not_disturb
		clr_character_flag = party_host
		clr_character_flag = party_guest
		if = {
			limit = { ai = no }
			add_character_modifier = {
				name = party_timer
				duration = 400
			}
		}	
		if = {
			limit = { ai = yes }
			add_character_modifier = {
				name = party_timer
				duration = 700
			}
		}
	}
	
	option = {
		name = EVTOPTA_WoL_4800  # This was fun
		prestige = 20
		clr_character_flag = played_games_today
		clr_character_flag = game_play_for_money
		if = {
			limit = {
				has_focus = focus_carousing
				has_character_modifier = carouser
				NOT = { has_character_modifier = dedicated_carouser }
			}
			remove_character_modifier = carouser
			add_character_modifier = {
				name = dedicated_carouser
				days = -1
			}
		}
		if = {
			limit = {
				has_focus = focus_carousing
				NOR = {
					has_character_modifier = carouser
					has_character_modifier = dedicated_carouser
					trait = socializer
					trait = hedonist
				}
			}
			add_character_modifier = {
				name = carouser
				days = -1
			}
		}
		if = {
			limit = { trait = stressed }
			random = {
				chance = 30
				remove_trait = stressed
				hidden_tooltip = { character_event = { id = 38313 } }
			}
		}
		if = {
			limit = { trait = depressed }
			random = {
				chance = 30
				remove_trait = depressed
				hidden_tooltip = { character_event = { id = 38314 } }
			}
		}
	}
	option = {
		name = EVTOPTB_WoL_4800 # Party and carousing is all I wanna do...
		trigger = {
			has_focus = focus_carousing
			NOT = { lifestyle_traits = 1 }
			has_character_modifier = dedicated_carouser
		}
		prestige = 20
		remove_character_modifier = dedicated_carouser
		add_trait = hedonist
		clr_character_flag = played_games_today
		clr_character_flag = game_play_for_money
		if = {
			limit = { trait = stressed }
			random = {
				chance = 30
				remove_trait = stressed
				hidden_tooltip = { character_event = { id = 38313 } }
			}
		}
		if = {
			limit = { trait = depressed }
			random = {
				chance = 30
				remove_trait = depressed
				hidden_tooltip = { character_event = { id = 38314 } }
			}
		}
	}
	option = {
		name = EVTOPTC_WoL_4800 # Great way to meet new people...
		trigger = {
			has_focus = focus_carousing
			NOT = { lifestyle_traits = 1 }
			has_character_modifier = dedicated_carouser
		}
		prestige = 20
		remove_character_modifier = dedicated_carouser
		add_trait = socializer
		clr_character_flag = played_games_today
		clr_character_flag = game_play_for_money
		if = {
			limit = { trait = stressed }
			random = {
				chance = 30
				remove_trait = stressed
				hidden_tooltip = { character_event = { id = 38313 } }
			}
		}
		if = {
			limit = { trait = depressed }
			random = {
				chance = 30
				remove_trait = depressed
				hidden_tooltip = { character_event = { id = 38314 } }
			}
		}
	}
	option = {
		name = EVTOPTD_WoL_4800 # Gamer Lifestyle...
		trigger = {
			has_character_flag = played_games_today
			has_character_modifier = apprentice_boardgamer
			NOT = { trait = gamer }
			NOT = { lifestyle_traits = 1 }
		}
		clr_character_flag = played_games_today
		clr_character_flag = game_play_for_money
		remove_character_modifier = apprentice_boardgamer
		add_trait = gamer
		if = {
			limit = { trait = stressed }
			random = {
				chance = 30
				remove_trait = stressed
				hidden_tooltip = { character_event = { id = 38313 } }
			}
		}
		if = {
			limit = { trait = depressed }
			random = {
				chance = 30
				remove_trait = depressed
				hidden_tooltip = { character_event = { id = 38314 } }
			}
		}
	}
}
# Clear guest DND if dead
character_event = {
	id = WoL.4801
	hide_window = yes

	is_triggered_only = yes
	
	trigger = {
		has_character_modifier = organizing_party
		any_opinion_modifier_target = {
			has_character_flag = do_not_disturb
			has_opinion_modifier = { who = ROOT modifier = opinion_carousing }
		}
	}

	immediate = {
		any_opinion_modifier_target = {
			limit = {
				has_character_flag = do_not_disturb
				has_opinion_modifier = { who = ROOT modifier = opinion_carousing }
			}
			clr_character_flag = do_not_disturb
		}
	}
}