decisions = {
	auto_assign_minor_titles = {
		ai = no
		potential = {
			ai = no
			NOT = { has_character_flag = auto_assign_minor_titles }
		}
		
		allow = {
		}
		
		effect = {
			job_castellan = { custom_tooltip = { text = STARTauto_assign_minor_titles } }
			set_character_flag = auto_assign_minor_titles
			hidden_tooltip = { character_event = { id = maintenance.31 } }
		}
				
		ai_will_do = {
			factor = 0
		}
	}
	auto_assign_minor_titles_STOP = {
		ai = no
		potential = {
			ai = no
			has_character_flag = auto_assign_minor_titles
		}
		
		allow = {

		}
		
		effect = {
			job_castellan = { custom_tooltip = { text = TOOLTIPauto_assign_minor_titles_STOP } }
			clr_character_flag = auto_assign_minor_titles
		}
				
		ai_will_do = {
			factor = 0
		}
	}
	great_houses_scoreboard = {
		ai = no
		potential = {
			ai = no	
			NOT = { multiplayer = yes } #Intensive
			NOT = { has_character_flag = great_houses_scoreboard }
		}
		allow = {	
		}
		effect = {
			set_character_flag = great_houses_scoreboard
			character_event = { id = dynasty.499 }
		}
		ai_will_do = {
			factor = 0 
		}
	}
	the_white_book = {
		ai = no
		potential = {
			ai = no
			kingsguard = { always = yes }
		}
		
		allow = {

		}
		
		effect = {
			hidden_tooltip = { character_event = { id = kingsguard.65 } }
		}
				
		ai_will_do = {
			factor = 0
		}
	}
	show_me_val_swords = {
		ai = no
		potential = {
			ai = no
		}
		allow = {				
		}
		effect = {
			character_event = { id = 251400 }
		}
		ai_will_do = {
			factor = 0 
		}
	}
	show_me_the_dragons = {
		ai = no
		potential = {
			ai = no
			NOT = { has_game_rule = { name = dragon_hatching_taming value = off } }
		}
		allow = {			
		}
		effect = {
			set_character_flag = show_me_the_dragons
			character_event = { id = dragon.73 }
		}
		ai_will_do = {
			factor = 0 
		}
	}
	show_me_the_medal_winners = {
		ai = no
		potential = {
			ai = no
			OR = {
				trait = knight
				religion = the_seven
				any_liege = { religion = the_seven }
			}
		}
		allow = {
				
		}
		effect = {
			character_event = { id = 70078 }
		}
		ai_will_do = {
			factor = 0 
		}
	}
	
	show_me_blood_feuds = { 
		ai = no
		potential = {
			ai = no	
		}
		allow = {	
		}
		effect = {
			character_event = { id = dynastic_rivalry.999 }
		}
		ai_will_do = {
			factor = 0 
		}
	}

	show_me_triarchs = {
		ai = no
		potential = {
			ai = no	
			OR = {
				government = triarch_merchant_republic_government
				any_liege = {
					government = triarch_merchant_republic_government
				}		
			}
		}
		allow = {	
		}
		effect = {
			character_event = { id = volantis.123 }
		}
		ai_will_do = {
			factor = 0 
		}
	}
	
	show_me_small_council = {
		ai = no
		potential = {
			ai = no
			OR = {
				primary_title = { is_variable_equal = { which = "de_facto_empire" value = 1 } } #iron throne
				top_liege = {
					primary_title = {
						title = e_iron_throne
					}
				}
			}
		}
		allow = {
		}
		effect = {
			set_character_flag = show_me_small_council
			character_event = { id = maintenance.33 }
		}
		ai_will_do = {
			factor = 0 
		}
	}
	
}
