
targetted_decisions = {

	# vassal_generic_sacrifice_decision = { #integrated into execution menu
	# }
	stable_attribute_improvement_decision = {
		only_playable = yes
		ai_check_interval = 50 #check only once every 50 months.
	    diplomacy_icon = GFX_stable_prestige_icon_decision
	
		filter = court
		ai_target_filter = court
	
		from_potential = {
			is_playable = yes
			is_incapable = no
			prisoner = no
			is_adult = yes
			has_religion_feature = religion_stable
			has_dlc = "Holy Fury"
		}
	
		potential = {
			prisoner = no
			is_incapable = no
			is_adult = yes
			OR = {
				character = FROM
				liege = { character = FROM } 
			}
			NOT_mythical_creature_trigger = yes
		}
		
		allow = {
			FROM = {
				custom_tooltip = {
					text = tooltip_stable_attribute_improvement_cooldown
					NOT = { has_character_modifier = stable_attribute_improvement_cooldown }
				}
				piety = 150
			}
			ROOT = { 
				custom_tooltip = { 
					text = tooltip_attribute_improvement_target_cooldown 
					NOT = { has_character_modifier = stable_attribute_improvement_target_cooldown }
				} 
			}		
			ROOT = {
				religion = FROM
				ai = yes #no follow up events scripted
				NOT = { diplomatic_immunity = yes }
				OR = { 
					AND = { 
						is_female = yes 
						NOT = { has_religion_feature = religion_patriarchal } 
					}
					AND = { 
						is_female = no
						NOT = { has_religion_feature = religion_matriarchal } 
					}
				}
				custom_tooltip = { 
					text = tooltip_attribute_requirements_to_improve #Either self-improving, or MUST have +1 point in one of the possible attributes compared to the target.
					OR = { 
						AND = {
							FROM = { combat_rating_diff = { who = ROOT value = 20 } }
							ROOT = { NOT = { trait = master_warrior } }
						}	
						FROM = { attribute_diff = { attribute = diplomacy character = ROOT value = 1 } }
						FROM = { attribute_diff = { attribute = martial character = ROOT value = 1 } }
						FROM = { attribute_diff = { attribute = stewardship character = ROOT value = 1 } }
						FROM = { attribute_diff = { attribute = intrigue character = ROOT value = 1 } }
						FROM = { attribute_diff = { attribute = learning character = ROOT value = 1 } }
					} 
				}
			}
		}
		
		effect = {
			FROM = { 
				piety = -150
				if = { 
					limit = { character = ROOT }
					prestige = -500
				}
			}
			custom_tooltip = { 
				text = tooltip_stable_attribute_improvement_effect
			}
			hidden_tooltip = {
				FROM = {
					add_character_modifier = {
						name = stable_attribute_improvement_cooldown
						duration = 1825
						hidden = yes
					}
					character_event = { id = HF.23760 }  
					if = { #Chance for Family Bloodline when using action on councilmembers.
						limit = { 
							higher_tier_than = COUNT 
							ROOT = {
								is_close_relative = FROM
								NOT = { character = FROM }
							}
							NOT = { check_variable = { which = stable_family_variable value = 8 } } #5 x 8 = 40 years to achieve.
						}
						change_variable = { which = stable_family_variable value = 1 }
					}
					else_if = { 
						limit = { 
							higher_tier_than = COUNT 
							check_variable = { which = stable_family_variable value = 8 }
							NOT = { 
								any_owned_bloodline = { 
									has_bloodline_flag = created_bloodline
								}
							}
						}
						narrative_event = { id = HF.23770 days = 15 random = 15 }
					}
					else_if = { #Chance for benevolent Bloodline when using action on councilmembers.
						limit = { 
							higher_tier_than = COUNT 
							ROOT = {
								NOT = { character = FROM }
								OR = { 
									has_job_title = job_castellan
									has_job_title = job_chancellor
									has_job_title = job_marshal
									has_job_title = job_treasurer
									has_job_title = job_spymaster
									has_job_title = job_spiritual
									has_job_title = job_physician
								}
							}
							NOT = { check_variable = { which = stable_benevolent_variable value = 8 } } #5 x 8 = 40 years to achieve.
						}
						change_variable = { which = stable_benevolent_variable value = 1 }
					}
					else_if = { 
						limit = { 
							higher_tier_than = COUNT 
							check_variable = { which = stable_benevolent_variable value = 8 }
							NOT = { 
								any_owned_bloodline = { 
									has_bloodline_flag = created_bloodline
								}
							}
						}
						narrative_event = { id = HF.23771 days = 15 random = 15 }
					}
				}
				hidden_tooltip = {
					ROOT = {
						add_character_modifier = { 		#Other AI shouldn't target a recent target.
							name = stable_attribute_improvement_target_cooldown
							duration = 1825
							hidden = yes
						}
						character_event = { id = HF.23772 days = 75 } #Delayed safety flag cleanup.
					}
				}
			}

		}
		revoke_allowed = {
			always = no
		}
		ai_will_do = {
			factor = 1
			modifier = {
				factor = 0
				FROM = { trait = slothful }
			}
			modifier = {
				factor = 2
				FROM = { trait = diligent }
			}
			modifier = {
				factor = 2
				FROM = { trait = ambitious }
				ROOT = { character = ROOT }
			}
			modifier = {
				factor = 2
				FROM = { 
					OR = { 
						trait = kind 
						trait = charitable
						trait = content
					}
				}
				ROOT = { 
					OR = { 
						has_job_title = job_castellan
						has_job_title = job_chancellor
						has_job_title = job_marshal
						has_job_title = job_treasurer
						has_job_title = job_spymaster
						has_job_title = job_spiritual
						has_job_title = job_physician
					}
				}
			}
			modifier = {
				factor = 2
				FROM = { 
					OR = { 
						trait = kind 
						trait = charitable
						trait = content
						has_focus = focus_family
					}
				}
				ROOT = { 
					is_close_relative = FROM
				}
			}
			modifier = {
				factor = 2
				FROM = { 
					OR = { 
						trait = ambitious
						trait = envious
						trait = wroth
						has_focus = focus_family
					}
				}
				ROOT = { 
					is_married = FROM
				}
			}
			modifier = {
				factor = 0
				is_rival = FROM
			}
			modifier = {
				factor = 2
				is_friend = FROM
			}
			modifier = {
				factor = 2
				is_lover = FROM
			}
			modifier = {
				factor = 2
				is_primary_heir = FROM
			}
			modifier = {
				factor = 0.5
				trait = stressed
			}
			modifier = {
				factor = 0.5
				trait = depressed
			}
		}
	}
	stable_attribute_improvement_self_decision = {
		only_playable = yes
		ai_check_interval = 50 #check only once every 50 months.
	    diplomacy_icon = GFX_stable_prestige_icon_decision
	
		filter = self
		ai_target_filter = self
	
		potential = {
			is_playable = yes
			is_incapable = no
			prisoner = no
			is_adult = yes
			has_religion_feature = religion_stable
			has_dlc = "Holy Fury"
		}
		
		allow = {
			FROM = {
				custom_tooltip = {
					text = tooltip_stable_attribute_improvement_cooldown
					NOT = { has_character_modifier = stable_attribute_improvement_cooldown }
				}
				piety = 150
			}
			ROOT = { 
				custom_tooltip = { 
					text = tooltip_attribute_improvement_target_cooldown 
					NOT = { has_character_modifier = stable_attribute_improvement_target_cooldown }
				} 
			}
			ROOT = { 
				religion = FROM
				NOT = { diplomatic_immunity = yes }
				OR = { 
					AND = { 
						is_female = yes 
						NOT = { has_religion_feature = religion_patriarchal } 
					}
					AND = { 
						is_female = no
						NOT = { has_religion_feature = religion_matriarchal } 
					}
				}
			}
		}
		
		effect = {
			ROOT = { 
				piety = -150
				if = { 
					limit = { character = ROOT }
					prestige = -500
				}
			}
			custom_tooltip = { 
				text = tooltip_stable_attribute_improvement_effect
			}
			hidden_tooltip = {
				ROOT = {
					add_character_modifier = {
						name = stable_attribute_improvement_cooldown
						duration = 1825
						hidden = yes
					}
					character_event = { id = HF.23760 }
				}
				hidden_tooltip = {
					ROOT = {
						add_character_modifier = { 		#Other AI shouldn't target a recent target.
							name = stable_attribute_improvement_target_cooldown
							duration = 1825
							hidden = yes
						}
					}
				}
			}

		}
		revoke_allowed = {
			always = no
		}
		ai_will_do = {
			factor = 1
			modifier = {
				factor = 0
				FROM = { trait = slothful }
			}
			modifier = {
				factor = 2
				FROM = { trait = diligent }
			}
			modifier = {
				factor = 2
				FROM = { trait = ambitious }
				ROOT = { character = ROOT }
			}
			modifier = {
				factor = 0.5
				trait = stressed
			}
			modifier = {
				factor = 0.5
				trait = depressed
			}
		}
	}
}


decisions = {
	# syncretic_sympathy_decision = { #Already have mod decision
	# }
	# pagan_branch_decision = {
	# }
	# change_pagan_branch_decision = {
	# }
	# determine_zodiac_sign_decision = {
	# }

	# delve_into_classics_decision = {
		# only_playable = yes
		# is_high_prio = yes
		# ai_check_interval = 400 #check only once every 400 months.
		# potential = {
			# has_game_rule = {
				# name = hellenism_rule
				# value = on
			# }
			# has_dlc = "Holy Fury"
			# is_adult = yes
			# religion_group = christian #Must be Christian.
			# is_heretic = no #Must belong to a dominant denomination of the faith.
			# OR = { #Must be of the interested cultures.
				# culture = greek
				# culture = italian
				# culture = roman
			# }
			# OR = { #Must be eccentric or crazy.
				# trait = lunatic 
				# trait = possessed
				# trait = scholar
				# trait = mystic
				# has_focus = focus_scholarship
			# } 
			# OR = { #Must control an hellenic Holy Site.
				# completely_controls = c_thessalonike
				# completely_controls = c_atheniai
				# completely_controls = c_siracusa
				# completely_controls = c_roma
				# completely_controls = c_alexandria
			# } 
			# NOR = { #Must not have used this decision or be an hellen already.
				# is_theocracy = yes
				# religion = hellenic_pagan
				# religion = hellenic_pagan_reformed
				# secret_religion = hellenic_pagan
				# secret_religion = hellenic_pagan_reformed
				# has_character_modifier = caesars_insight
				# has_character_modifier = ciceros_insight
				# has_character_modifier = justinians_insight
				# has_character_flag = flag_delving_into_classics
				# has_global_flag = hellenic_reformation #No point in secrecy, there are other ways to convert.
			# }
			# capital_scope = { #Court must also be localized in Italy or Greece.
				# OR = { 
					# region = world_europe_south_italy
					# region = world_europe_south_east 
				# } 
			# }
		# }
		
		# allow = {
			# prisoner = no
			# NOT = { trait = incapable }
			# learning = 6
		# }
		
		# effect = {
			# custom_tooltip = {
				# text = tooltip_delve_into_classics
			# }
			# hidden_tooltip = {
				# set_character_flag = flag_delving_into_classics
				# character_event = { id = HF.23026 }
			# }
		# }
		# revoke_allowed = {
			# always = no
		# }
		# ai_will_do = {
			# factor = 1
			# modifier = {
				# factor = 0
				# trait = zealous
			# }
		# }
	# }
	
	# # Create Myrmidons - Hellenic Holy Order
	# create_myrmidons = {
	# }
	# Create Bacchants - Hellenic Satanists
	# create_bacchants = {
	# }
	# Create Stoics - Hellenic Monks
	# create_stoics = {
	# }
	
	bloodthirsty_games_decision = {
		is_high_prio = yes
		only_independent = yes
		ai_check_interval = 240 #check only once every 240 months.
		potential = {
			has_dlc = "Holy Fury"		
			is_ruler = yes
			is_landed = yes		
			NOT = { has_any_opinion_modifier = opinion_blood_games_guest }
			NOT = { has_religion_feature = religion_peaceful }
			NOT = { has_religion_feature = religion_feature_nath_pagan }
			OR = { 
				religion = aztec
				religion = aztec_reformed
				has_religion_feature = religion_ritual_sacrifice
			}
			NOT = { religion = drowned_god_reformed }
		}
		
		allow = {
			prisoner = no
			OR = { 
				trait = cruel
				trait = zealous
				trait = lunatic
			}
			NOT = { trait = kind }
			piety = 100
			is_inaccessible_trigger = no
			NOT = { trait = incapable }
			is_adult = yes
			higher_real_tier_than = COUNT
			custom_tooltip = { 
				text = tooltip_bloodthirsty_games_cooldown
				hidden_tooltip = {
					NOT = { has_character_modifier = bloodthirsty_games_cooldown }
				}
			}
		}
		
		effect = {
			piety = -100
			custom_tooltip = {
				text = tooltip_start_bloodthirsty_games
			}
			hidden_tooltip = {
				character_event = { id = HF.23440 }
				add_character_modifier = { modifier = bloodthirsty_games_cooldown years = 5 hidden = yes }
			}
		}
		revoke_allowed = {
			always = no
		}
		ai_will_do = {
			factor = 1

			modifier = { #No valid free candidates.
				factor = 0
				NOR = { 
					any_realm_character = {
						host = { character = ROOT }
						prisoner = yes
						OR = { #Sex laws check
							AND = { 
								is_female = no
								male_can_hold_minor_title_trigger = yes
							}
							AND = { 
								is_female = yes
								female_can_hold_minor_title_trigger = yes
							}
						}
						count = 5
					}
					any_courtier = {
						is_ruler = no
						has_minor_title = title_commander
						count = 2
					}
				}
			}
			modifier = { #Not enough contender to make it interesting.
				factor = 0
				NOT = { num_of_vassals = 6 }
			}
			modifier = {
				factor = 0
				trait = cynical
			}
			modifier = {
				factor = 1.5
				trait = zealous
			}
		}
	}
	bloodthirsty_mass_sacrifice_decision = {
		is_high_prio = yes
		ai_check_interval = 150 #check only once every 150 months.
		potential = {
			has_dlc = "Holy Fury"
			is_adult = yes
			is_inaccessible_trigger = no
			NOT = { trait = incapable }
			higher_real_tier_than = COUNT
			is_ruler = yes
			is_landed = yes
			independent = yes
			NOT = { has_religion_feature = religion_peaceful } #Aztecs could reform as Peaceful.
			NOT = { has_religion_feature = religion_feature_nath_pagan }
			OR = { 
				religion = aztec
				religion = aztec_reformed
				has_religion_feature = religion_ritual_sacrifice
			}
			NOT = { religion = drowned_god_reformed }
		}
		
		allow = {
			prisoner = no
			war = yes
			NOT = { trait = cynical }
			OR = { 
				trait = cruel
				trait = zealous
				trait = lunatic
			}
			NOT = { trait = kind }
			piety = 200
			custom_tooltip = { 
				text = tooltip_bloodthirsty_mass_sacrifice_cooldown
				hidden_tooltip = {
					NOT = { has_character_modifier = bloodthirsty_mass_sacrifice_cooldown }
				}
			}
		}
		
		effect = {
			piety = -200
			custom_tooltip = {
				text = tooltip_start_bloodthirsty_mass_sacrifice
			}
			hidden_tooltip = {
				character_event = { id = HF.23462 }
				add_character_modifier = { modifier = bloodthirsty_mass_sacrifice_cooldown years = 100 hidden = yes }
			}
		}
		revoke_allowed = {
			always = no
		}
		ai_will_do = {
			factor = 1

			modifier = {
				factor = 1.5
				trait = zealous
			}
			modifier = {
				factor = 1.5
				trait = cruel
			}
			modifier = { #I am losing the war, help!
				factor = 10
				any_war = {
					defender = { character = ROOT }
					attacker = {
						war_score = -50
					}
				}
			}
			modifier = { #I am winning the war, no need!
				factor = 0
				any_war = {
					defender = { character = ROOT }
					attacker = {
						war_score = 50
					}
				}
			}
		}
	}
}


title_decisions = {
	# Stoics Rank 4 Power - Convert County
	# stoic_order_culture_convert_county = {
	# }
	# hellenic_dedicate_temple = {
	# }
}

settlement_decisions = {
	# tribal_build_great_pillar = {
	# }
	# destroy_great_pillar = {
	# }
}