6000.1.1={
	liege="d_ironoaks"
	de_jure_liege = d_eastweald
	law=succ_primogeniture
}
7950.1.1 = { holder=100184 } # Mandon (nc)
8006.1.1 = { holder=104184 } # Osfryd (nc)
8037.1.1 = { holder=108184 } # Osmund (nc)
8062.1.1 = { holder=111184 } # Rolley (nc)
8066.1.1 = { holder=115184 } # Terrance (nc)
8091.1.1 = { holder=118184 } # Hugh (nc)
8096.1.1 = { holder=120184 } # Pate (nc)
8129.1.1 = { holder=124184 } # Rolley (nc)
8166.1.1 = { holder=128184 } # Eon (nc)
8190.1.1 = { holder=130184 } # Humfrey
8209.2.1 = { holder=133184 } # Osney (nc)
8264.1.1 = { holder=94087 }  # Harrold (nc)
8280.1.1 = { holder=501184 }  # Wallace (NC)
