900.1.1={
liege="d_blacktyde"
de_jure_liege = d_blacktyde
law=succ_primogeniture law=agnatic_succession
}
4393.1.1 = {
	holder = 500118 # Joron Blacktyde
}
4449.1.1 = {
	holder = 0
}
7878.1.1 = { holder=3100118 } # Vickon (nc)
7940.1.1 = { holder=3201118 } # Emmond (nc)
7993.1.1 = { holder=3000118 } # Cragorn (nc)
7998.2.1 = { holder=3001118 } # Skyte (nc)
8047.1.1 = { holder=3003118 } # Sigfry (nc)
8068.1.1 = { holder=3005118 } # Rymolf (nc)
8100.1.1 = { holder=3008118 } # Triston (nc)
8136.1.1 = { holder=3014118 } # Wex (nc)
8164.1.1 = { holder=3017118 } # Qalen (nc)
8189.1.1 = { holder=3018118 } # Norne (nc)
8212.1.1 = { holder=3021118 } # Cotter (nc)
8212.1.1={
#holder=111118
}
8234.1.1 = { holder=3026118 } # Maron (nc)
8280.1.1 = { holder=3028118 } # Theon (nc)
8289.3.1 = {	
	holder=118
}
8300.1.1 = {	
	holder=1118
}
