900.1.1={
	liege="d_banefort"
	de_jure_liege = d_banefort
	law = succ_primogeniture
}
7994.1.1={
	holder=15202
}
8011.1.1={
	holder=14202
}
8036.1.1={
	holder=13202
}
8084.1.1={
	holder=12202
}
8090.1.1={
	holder=11202
}
8120.1.1={
	holder=10202
}
8156.1.1={
	holder=9202
}
8196.1.1={
	holder=7202
}
8245.1.1={
	holder=6202
}
8255.1.1={
	holder=5202
}
8276.1.1={
	holder=202
}