#c_deep_den
900.1.1={
	liege="d_deep_den"
	de_jure_liege = d_deep_den
}
7958.1.1 = {holder=151217}
7979.1.1 = {holder=152217}
7995.1.1 = {holder=20217}
8032.1.1 = {holder=19217}
8068.1.1 = {holder=18217}
8085.1.1 = {holder=17217}
8109.1.1 = {holder=16217}
8129.6.6 = {holder=15217}
8147.1.1 = {holder=14217}
8179.1.1 = {holder=13217}
8184.1.1 = {holder=12217}
8196.5.5 = {holder=11217}
8245.1.1 = {holder=10217}
8267.1.1 = {holder=1217}
8281.1.1 = {holder=217}