6000.1.1={
	liege="d_deepwood_motte"
	de_jure_liege = d_deepwood_motte
	law = succ_primogeniture
}

2963.1.1={
	holder = 1040124 #
}	
3009.1.1 = {
	holder = 0
}
7973.1.1={
	holder=19062
}
8013.1.1={
	holder=18062
}
8019.1.1={
	holder=17062
}
8035.1.1={
	holder=16062
}
8045.1.1={
	holder=15062
}
8077.1.1={
	holder=14062
}
8091.1.1={
	holder=13062
}
8108.1.1={
	holder=12062
}
8145.1.1={
	holder=10062
}
8178.1.1={
	holder=9062
}
8192.1.1={
	holder=8062
}
8222.1.1={
	holder=7062
}
8249.1.1={
	holder=5062
}
8281.1.1={
	holder=62
}
