202.1.1 = {
	liege="d_nightsong"
	de_jure_liege = d_dornish_marches
}
7975.1.1 = { holder=301312 }
8001.1.1 = { holder=300312 } # Barristan (nc)
8007.1.1 = { holder=303312 } # Balon (nc)
8016.1.1 = { holder=304312 } # Bonifer (nc)
8043.1.1 = { holder=305312 } # Brynden (nc)
8073.1.1 = { holder=306312 } # Barristan (nc)
8082.1.1 = { holder=307312 } # Benfrey (nc)
8130.1.1 = { holder=308312 } # Bowen (nc)
8160.1.1 = { holder=309312 } # Brynden (nc)
8186.1.1 = { holder=310312 } # Balon (nc)
8188.1.1 = { holder=311312 } # Brynden (nc)
8210.1.1 = { holder=312312 } # Belwyn (nc)
8250.1.1 = { holder=200312 } # Bonifer (c)
8299.7.1 = { liege="k_stormlands" }