6000.1.1={
	liege="d_oldcastle"
	de_jure_liege = d_oldcastle
	law = succ_primogeniture
}
7972.1.1={
	holder=16088
}
8013.1.1={
	holder=15088
}
8031.1.1={
	holder=14088
}
8037.1.1={
	holder=13088
}
8068.1.1={
	holder=12088
}
8108.1.1={
	holder=10088
}
8151.1.1={
	holder=9088
}
8166.1.1={
	holder=8088
}
8174.1.1={
	holder=7088
}
8204.1.1={
	holder=6088
}
8240.1.1={
	holder=5088
}
8262.1.1={
	holder=88
}
