900.1.1={
	liege="d_hornvale"
	de_jure_liege = d_hornvale
}
7970.1.1={
	holder=600206
}
7988.1.1={
	holder=29206
}
7998.6.6={
	holder=27206
}
8063.1.1={
	holder=23206
}
8082.1.1={
	holder=21206
}
8111.1.1={
	holder=19206
}
8146.1.1={
	holder=15206
}
8175.1.1={
	holder=13206
}
8178.1.1={
	holder=11206
}
8200.1.1={
	holder=8206
}
8210.2.11={
	holder=6206
}
8250.1.1={
	holder=206
}