900.1.1={ law=succ_primogeniture law=cognatic_succession
	liege="d_oldtown"
	de_jure_liege = d_three_towers
}
7976.1.1 = { holder=3028287 } # Jon (nc)
7992.1.1 = { holder=3000287 } # Leo (nc)
8010.1.1 = { holder=3001287 } # Otto (nc)
8054.1.1 = { holder=3004287 } # Alester (nc)
8078.1.1 = { holder=3006287 } # Samwell (nc)
8095.1.1 = { holder=3008287 } # Owen (C)
8129.11.21 = { holder=3009287 } # Jonel (C)
8157.12.1 = { holder=3015287 } # Arwood (C)
8176.1.1 = { holder=3016287 } # Haston (C)
8196.6.1 = { holder=3021287 } # Pelleas (nc)
8240.1.1 = { holder=3024287 } # Lucas (nc)
8281.1.1={
	holder=287 #Tommen
}



