7622.1.1={
	liege="e_iron_isles"
	law = agnatic_succession
	law = succ_primogeniture
}
7971.1.1 = { holder=100116 } # Urzen (nc)
7998.2.1={
	liege="k_iron_isles"
}

8013.1.1 = { holder=101116 } # Rolfe (nc)
8024.1.1 = { holder=103116 } # Sigfryd (nc)
8061.1.1 = { holder=111116 } # Burton (nc)
8090.1.1 = { holder=114116 } # Drennan (nc)
8148.1.1 = { holder=121116 } # Dagon (nc)
8156.1.1 = { holder=123116 } # Harrag (nc)
8161.1.1 = { holder=124116 } # Rolfe (nc)
8180.1.1 = { holder=128116 } # Werlag (nc)
8209.1.1 = { holder=129116 } # Aeron (nc)
8214.1.1 = { holder=135116 } # Lorren (nc)
8249.1.1 = { holder=138116 } # Urek (nc)
8285.1.1 = { holder=116 } # Alyn
8289.1.1={
	liege="e_iron_isles"
}
8289.6.1={
	liege="k_iron_isles"
}
8299.3.4 = {
	liege="e_iron_isles"
}