900.1.1={
	liege="e_iron_isles"
	law=succ_primogeniture 
	law = agnatic_succession
}
7990.1.1 = { holder=3000114 }
7998.2.1={
	liege="k_iron_isles"
}
8016.1.1 = { holder=3003114 }
8032.1.1 = { holder=3006114 } # Falia (nc)
8070.1.1 = { holder=3007114 } # Bennarion (nc)
8080.1.1 = { holder=3011114 } # Brella (nc)
8135.1.1 = { holder=3012114 } # Aeron (nc)
8148.1.1 = { holder=3014114 } # Tristifer (nc)
8189.1.1 = { holder=3016114 } # Denys (nc)
8211.1.1 = { holder=3017114 } # Ulf (nc)
8239.1.1 = { holder=3024114 } # Harl (nc)
8257.1.1 = { holder=3025114 } # Eerl (nc)
8273.1.1 = { holder=114 } # Triston (c)
8289.1.1={
	liege="e_iron_isles"
}
8289.6.1={
	liege="k_iron_isles"
}
8299.3.4 = {
	liege="e_iron_isles"
}