1.1.1 = { 
	law = succ_primogeniture
	law = true_cognatic_succession
	de_jure_liege = k_dorne
}
200.1.1 = { holder=60002019 } # Wylla (Canon)
235.1.1 = { holder=0 }
7311.1.1 = {
	liege="e_dorne"
}
7970.1.1 = { holder=60000019 } # Wyland (nc)
7993.1.1 = { holder=65019 } # Wyl (Canon)
8027.1.1 = { holder=65119 } # Walter (Canon)
8053.1.1 = { holder=65419 } # Colin (nc)
8075.1.1 = { holder=65619 } # Tremond (nc)
8107.1.1 = { holder=65819 } # Alaric (nc)
8148.1.1 = { holder=651919 } # Guerin (nc)
8187.6.1= {liege="k_dorne"}
8195.3.7={
	liege = 0
}
8196.1.1={
	liege = "k_dorne"
}
8199.1.1 = { holder=652019 } # Coran (nc)
8203.1.1 = { holder=652419 } # Mariya (nc)
8209.1.1 = { holder=652519 } # Mors (nc)
8248.1.1 = {  holder=19 } # Edmynd (nc)