99570352 = {
	name = "Kozena"
	culture = valyrian_lengi
}
99570353 = {
	name = "Toya"
	culture = valyrian_lengi
}
99570354 = {
	name = "Taezizo"
	culture = valyrian_lengi
}
99570355 = {
	name = "Mistheoz"
	culture = valyrian_lengi
}
99570356 = {
	name = "Ondoraliz"
	culture = valyrian_lengi
}
99570358 = {
	name = "Egrarys"
	culture = valyrian_lengi
}
99570359 = {
	name = "Revashi"
	culture = valyrian_lengi
}
99570360 = {
	name = "Teltarzo"
	culture = valyrian_lengi
}