623.1.1={
	liege="k_qohor"
	holding_dynasty = 300565 #Baroat
}
7082.1.1 = { holder=100300565 } # Mero (nc)
7125.1.1 = { holder=101300565 } # Tagganaro (nc)
7147.1.1 = { holder=103300565 } # Moreo (nc)
7155.1.1 = { holder=107300565 } # Ollo (nc)
7177.1.1 = { holder=105300565 } # Areo (nc)
7187.1.1 = { holder=114300565 } # Ezzelyno (nc)
7192.1.1 = { holder=117300565 } # Gyloro (nc)
7215.1.1 = { holder=121300565 } # Ezzelyno (nc)
7229.1.1 = { holder=122300565 } # Vargo (nc)
7251.1.1 = { holder=124300565 } # Ordello (nc)
7285.1.1 = { holder=129300565 } # Moredo (nc)
7318.1.1 = { holder=131300565 } # Tobho (nc)
7324.1.1 = { holder=134300565 } # Gyloro (nc)
7363.1.1 = { holder=135300565 } # Ferrego (nc)
7371.1.1 = { holder=140300565 } # Luco (nc)


