623.1.1={ 
	liege="c_deepforest"
}
7073.1.1 = { holder=100300529 } # Ordello (nc)
7123.1.1 = { holder=101300529 } # Daario (nc)
7137.1.1 = { holder=103300529 } # Areo (nc)
7148.1.1 = { holder=110300529 } # Myrmello (nc)
7165.1.1 = { holder=112300529 } # Gyloro (nc)
7181.1.1 = { holder=113300529 } # Ternesio (nc)
7233.1.1 = { holder=114300529 } # Syrio (nc)
7236.1.1 = { holder=115300529 } # Areo (nc)
7249.1.1 = { holder=116300529 } # Vargo (nc)
7274.1.1 = { holder=120300529 } # Myrmello (nc)
7286.1.1 = { holder=123300529 } # Lotho (nc)
7302.1.1 = { holder=126300529 } # Syrio (nc)
7355.1.1 = { holder=128300529 } # Jaqen (nc)
7360.1.1 = { holder=129300529 } # Illyrio (nc)
7365.1.1 = { holder=133300529 } # Byan (nc)
7371.1.1 = { holder=136300529 } # Meralyn (nc)



