623.1.1={ 
	liege="c_qarth"
}
7095.1.1 = { holder=100069162 } # Doniphos (nc)
7136.1.1 = { holder=100169162 } # Meralyn (nc)
7150.1.1 = { holder=100569162 } # Sybassion (nc)
7176.1.1 = { holder=100669162 } # Pyat (nc)
7192.1.1 = { holder=101369162 } # Doniphos (nc)
7253.1.1 = { holder=101569162 } # Vogarro (nc)
7260.1.1 = { holder=101769162 } # Pyat (nc)
7263.1.1 = { holder=101869162 } # Nyessos (nc)
7291.1.1 = { holder=102569162 } # Regon (nc)
7339.1.1 = { holder=102969162 } # Methyso (nc)
7366.1.1 = { holder=103169162 } # Surindos (nc)
