623.1.1={ 
	liege="c_lortyrbay"
}

7070.1.1 = { holder=150174355 } # Tagganaro (nc)
7121.1.1 = { holder=100174355 } # Thoros (nc)
7156.1.1 = { holder=101174355 } # Tagganaro (nc)
7182.1.1 = { holder=102174355 } # Gyleno (nc)
7204.1.1 = { holder=106174355 } # Terro (nc)
7235.1.1 = { holder=109174355 } # Denyo (nc)
7277.1.1 = { holder=115174355 } # Mero (nc)
7328.1.1 = { holder=119174355 } # Thoros (nc)
7333.1.1 = { holder=121174355 } # Beqqo (nc)
7358.1.1 = { holder=130174355 } # Daario (nc)
7388.1.1 = { holder=134174355 } # Groleo (nc)





