623.1.1={ 
	liege="c_norvos"
}
7055.1.1 = { holder=100300561 } # Gyloro (nc)
7103.1.1 = { holder=100300531 } # Ezzelyno (nc)
7118.1.1 = { holder=100300522 } # Roggo (nc)
7121.1.1 = { holder=104300561 } # Myrmello (nc)
7130.1.1 = { holder=108300561 } # Meralyn (nc)
7160.1.1 = { holder=111300561 } # Syrio (nc)
7189.1.1 = { holder=107300562 } # Narbo (nc)
7191.1.1 = { holder=110300562 } # Allaquo (nc)
7197.1.1 = { holder=113300531 } # Daario (nc)
7210.1.1 = { holder=116300531 } # Tagganaro (nc)
7229.1.1 = { holder=118300531 } # Yorko (nc)
7242.1.1 = { holder=122300531 } # Gyleno (nc)
7279.1.1 = { holder=124300563 } # Narbo (nc)
7291.1.1 = { holder=129300522 } # Myrmello (nc)
7331.1.1 = { holder=127300563 } # Orbelo (nc)
7344.1.1 = { holder=132300531 } # Cossomo (nc)
7374.1.1 = { holder=134300531 } # Gyloro (nc)
7397.1.1 = { holder=135300561 } # Tormo (nc)
7399.1.1 = { holder=138300561 } # Luco (nc)


