6100.1.1 = {
	liege = c_nyelos
}
7065.1.1 = { holder=100300531 } # Ezzelyno (nc)
7118.1.1 = { holder=103300531 } # Illyrio (nc)
7148.1.1 = { holder=106300531 } # Ordello (nc)
7151.1.1 = { holder=104300531 } # Moredo (nc)
7180.1.1 = { holder=113300531 } # Daario (nc)
7210.1.1 = { holder=116300531 } # Tagganaro (nc)
7229.1.1 = { holder=118300531 } # Yorko (nc)
7242.1.1 = { holder=122300531 } # Gyleno (nc)
7279.1.1 = { holder=125300531 } # Areo (nc)
7295.1.1 = { holder=126300531 } # Groleo (nc)
7296.1.1 = { holder=128300531 } # Syrio (nc)
7301.1.1 = { holder=130300531 } # Luco (nc)
7315.1.1 = { holder=131300531 } # Moredo (nc)
7328.1.1 = { holder=132300531 } # Cossomo (nc)
7374.1.1 = { holder=134300531 } # Gyloro (nc)
7397.1.1 = { holder=136300531 } # Ezzelyno (nc)
