1.1.1={ 
	liege="d_lorath"
	holding_dynasty = 300548 #Oloryon
}
7077.1.1 = { holder=100300548 } # Groleo (nc)
7123.1.1 = { holder=102300548 } # Brusco (nc)
7145.1.1 = { holder=104300548 } # Izembaro (nc)
7147.1.1 = { holder=106300548 } # Lotho (nc)
7183.1.1 = { holder=108300548 } # Ternesio (nc)
7190.1.1 = { holder=110300548 } # Roro (nc)
7214.1.1 = { holder=112300548 } # Tagganaro (nc)
7235.1.1 = { holder=114300548 } # Groleo (nc)
7240.1.1 = { holder=120300548 } # Yorko (nc)
7276.1.1 = { holder=123300548 } # Meralyn (nc)
7293.1.1 = { holder=125300548 } # Brusco (nc)
7295.1.1 = { holder=128300548 } # Pynto (nc)
7303.1.1 = { holder=133300548 } # Qarro (nc)
7338.1.1 = { holder=136300548 } # Orbelo (nc)
7351.1.1 = { holder=140300548 } # Pynto (nc)
7394.1.1 = { holder=142300548 } # Denyo (nc)







