623.1.1={ 
	liege="k_lys"
	holding_dynasty = 1386 # Ormollen
}

7090.1.1 = { holder=11001386 } # Doniphos (nc)
7127.1.1 = { holder=10001386 } # Sullhiem (nc)
7163.1.1 = { holder=10021386 } # Tagganaro (nc)
7167.1.1 = { holder=10061386 } # Qarro (nc)
7212.1.1 = { holder=10101386 } # Lysono (nc)
7228.1.1 = { holder=10131386 } # Roggo (nc)
7262.1.1 = { holder=10171386 } # Gyleno (nc)
7297.1.1 = { holder=10231386 } # Collio (nc)
7321.1.1 = { holder=10271386 } # Roro (nc)
7334.1.1 = { holder=10311386 } # Syrio (nc)
7359.1.1={ liege="d_lys" } #Ninepenny king
7359.12.31 = { liege="k_lys" } 
7378.1.1={
	holder=88108 #Tregar Ormollen
}



