623.1.1={ 
	liege="c_yunkai"
}
7095.1.1 = { holder=150360022 } # Rhaezdhar (nc)
7125.1.1 = { holder=100360022 } # Maezon (nc)
7150.1.1 = { holder=102360022 } # Grazdan (nc)
7200.1.1 = { holder=106360022 } # Morghaz (nc)
7205.1.1 = { holder=109360022 } # Mizlak (nc)
7242.1.1 = { holder=112360022 } # Skahaz (nc)
7259.1.1 = { holder=113360022 } # Zaraq (nc)
7298.1.1 = { holder=117360022 } # Lazhak (nc)
7318.1.1 = { holder=121360022 } # Grazdan (nc)
7343.1.1 = { holder=124360022 } # Azzak (nc)
7357.1.1 = { holder=131360022 } # Maezon (nc)
7382.1.1={
	holder=6571005 # Paezhar
}


