623.1.1={ 
	liege="c_port_of_ibben"
	effect = {
		set_title_flag = military_command
		holder_scope = {
			if = {
				limit = { primary_title = { title = PREVPREV } }
				set_government_type = military_command_government 
				PREV = { succession = appointment }
				recalc_succession = yes
			}
		}
	}
}
7090.1.1 = { holder=1055927 } # Togg (nc)
7122.1.1 = { holder=1155927 } # Togg (nc)
7140.1.1 = { holder=1655927 } # Groo (nc)
7142.1.1 = { holder=1755927 } # Caloth (nc)
7181.1.1 = { holder=1955927 } # Tugg (nc)
7227.1.1 = { holder=2155927 } # Galt (nc)
7246.1.1 = { holder=2255927 } # Galt (nc)
7259.1.1 = { holder=2555927 } # Slugg (nc)
7329.1.1 = { holder=2855927 } # Togg (nc)
7355.1.1 = { holder=3255927 } # Krull (nc)
7363.1.1 = { holder=3355927 } # Durr (nc)
7396.1.1 = { holder=3755927 } # Holger (nc)
