623.1.1={ 
	liege="d_prince_pentos"
}
7095.1.1 = { holder=103174360 } 
7143.1.1 = { holder=105174366 }
7164.1.1 = { holder=111300012 }
7178.1.1 = { holder=171174360 }
7222.1.1 = { holder=119174356 }
7239.1.1 = { holder=124174360 }
7255.1.1 = { holder=126300526 }

#5 Princes in 1 year
7286.1.1 = { holder=129300526 }
7295.4.1 = { holder=101669123 }
7295.6.1 = { holder=105069157 }
7295.10.1 = { holder=132300526 }

7296.1.1 = { holder=131300012 } #Nevio (C)

7308.1.1 = { holder=127174356 }
7313.1.1 = { holder=137300526 }
7349.1.1 = { holder=181300526 }
7377.1.1 = { holder=132174356 }
7390.1.1 = { holder=149300012 }
