623.1.1={ 
	liege="k_tyrosh"
	holding_dynasty = 300533 # Ryndoon
}

7070.1.1 = { holder=150300533 } # Illyrio (nc)
7115.1.1 = { holder=100300533 } # Groleo (nc)
7151.1.1 = { holder=102300533 } # Ferrego (nc)
7162.1.1 = { holder=104300533 } # Meralyn (nc)
7206.1.1 = { holder=108300533 } ##### Racallio Ryndoon
7234.1.1 = { holder=109300533 } # Areo (nc)
7254.1.1 = { holder=114300533 } # Denyo (nc)
7259.1.1 = { holder=118300533 } # Byan (nc)
7318.1.1 = { holder=122300533 } # Illyrio (nc)
7328.1.1 = { holder=123300533 } # Roggo (nc)
7356.1.1 = { holder=127300533 } # Ollo (nc)
# 7359.1.1={ liege="d_tyrosh" } #Ninepenny king
# 7359.12.31 = { liege="k_tyrosh" }




