6000.1.1={
	liege = k_the_most_devout
}
7090.1.1={
	holder = 1000777
}
7122.1.1={
	holder = 1001777 
}
7144.5.10={
	holder = 1002777
}
7195.1.1 = { holder=1010777 } # a (nc)
7202.1.1 = { holder=1011777 } # a (nc)
7222.1.1 = { holder=1012777 } # a (nc)
7258.1.1={
	holder = 1003777
}
7266.1.1={
	holder = 1004777
}
7269.1.1={
	holder = 1005777
}
7286.1.1 = { holder=1013777 } # a (nc)
7312.1.1 = { holder=1014777 } # a (nc)
7320.1.1 = { holder=1015777 } # a (nc)
7360.1.1={
	holder = 77113 	
}







