#House Onuxho
7080.1.1 = { 
	holder=100304028 
	liege=c_tall_trees_town
} # Koroxhar (nc)
7123.1.1 = { holder=102304028 } # Kwasdo (nc)
7128.1.1 = { holder=105304028 } # Isodo (nc)
7133.1.1 = { holder=103304028 } # Qaro (nc)
7135.1.1 = { holder=106304028 } # Koroxhar (nc)
7202.1.1 = { holder=107304028 } # Jalabhar (nc)
7232.1.1 = { holder=113304028 } # Koroxhar (nc)
7256.1.1 = { holder=114304028 } # Olujondo (nc)
7273.1.1 = { holder=117304028 } # Xhonodo (nc)
7331.1.1 = { holder=121304028 } # Koroxhar (nc)
7341.1.1 = { holder=122304028 } # Qubya (nc)
7385.1.1 = { holder=123304028 } # Gwalahuru (nc)
7389.1.1 = { holder=126304028 } # Xhondo (nc)
