1.1.1={ 
	liege="d_lorath"
	holding_dynasty = 300560 #Vazollen
}
7055.1.1 = { holder=100300560 } # Tormo (nc)
7103.1.1 = { holder=101300560 } # Ternesio (nc)
7121.1.1 = { holder=107300560 } # Byan (nc)
7137.1.1 = { holder=108300560 } # Mellario (nc)
7142.1.1 = { holder=113300560 } # Meralyn (nc)
7185.1.1 = { holder=117300560 } # Joss (nc)
7212.1.1 = { holder=120300560 } # Beqqo (nc)
7234.1.1 = { holder=123300560 } # Tormo (nc)
7242.1.1 = { holder=126300560 } # Beqqo (nc)
7267.1.1 = { holder=124300560 } # Illyrio (nc)
7283.1.1 = { holder=128300560 } # Allaquo (nc)
7299.1.1 = { holder=133300560 } # Byan (nc)
7312.1.1 = { holder=134300560 } # Qarro (nc)
7333.1.1 = { holder=135300560 } # Moreo (nc)
7367.1.1 = { holder=136300560 } # Noho (nc)
7370.1.1 = { holder=140300560 } # Joss (nc)
7379.1.1 = { holder=144300560 } # Denyo (nc)








