623.1.1={
	liege = d_aeksios
}

7095.1.1 = { holder=10000340 } # Maerys (nc)
7140.1.1 = { holder=10020340 } # Maegor (nc)
7167.1.1 = { holder=10060340 } # Aemon (nc)
7203.1.1 = { holder=10070340 } # Aegon (nc)
7212.1.1 = { holder=10080340 } # Daegar (nc)
7233.1.1 = { holder=10100340 } # Aemond (nc)
7278.1.1 = { holder=10130340 } # Qoherys (nc)
7287.1.1 = { holder=10170340 } # Orys (nc)
7344.1.1 = { holder=10190340 } # Maelys (nc)
7354.1.1 = { holder=10220340 } # Valarr (nc)
7386.1.1 = { holder=10240340 } # Matarys (nc)
7397.1.1 = { holder=10280340 } # Haegon (nc)

