7075.1.1 = { holder=10559301 } # Dryn (nc)
7120.1.1 = { holder=11559301 } # Tormund (nc)
7138.1.1 = { holder=13559301 } # Jojen (nc)
7167.1.1 = { holder=15559301 } # Calon (nc)
7201.1.1 = { holder=16559301 } # Stiv (nc)
7235.1.1 = { holder=17559301 } # Medger (nc)
7256.1.1 = { holder=19559301 } # Del (nc)
7266.1.1 = { holder=23559301 } # Brogg (nc)
7304.1.1 = { holder=25559301 } # Arson (nc)
7313.1.1={
	liege="k_beyond_wall"
}
7326.9.9={
	liege="0"
}
7333.1.1 = { holder=30559301 } # Howd (nc)
7373.1.1 = { holder=31559301 } # Soren (nc)
7389.1.1 = { holder=33559301 } # Errok (nc)
7398.1.1={
	liege="k_beyond_wall"
}
7400.1.1={
	holder=999000666
}
