623.1.1={
	liege="d_asabhad"
}

7095.1.1 = { holder=100055944 } # Husam (nc)
7128.1.1 = { holder=100155944 } # Nizam (nc)
7134.1.1 = { holder=100355944 } # Alim (nc)
7193.1.1 = { holder=100555944 } # Ramadan (nc)
7194.1.1 = { holder=100855944 } # Mansur (nc)
7223.1.1 = { holder=100955944 } # Bahir (nc)
7239.1.1 = { holder=101055944 } # Ramadan (nc)
7271.1.1 = { holder=101455944 } # Talib (nc)
7305.1.1 = { holder=101555944 } # Sadiq (nc)
7319.1.1 = { holder=102055944 } # Mirza (nc)
7350.1.1 = { holder=102155944 } # Talib (nc)
7366.1.1 = { holder=102455944 } # Azam (nc)
7386.1.1 = { holder=102555944 } # Sadiq (nc)

