623.1.1={
	liege = d_tyria
}

7095.1.1 = { holder=10006043 } # Aemon (nc)
7154.1.1 = { holder=10026043 } # Daeoril (nc)
7156.1.1 = { holder=10056043 } # Vaermon (nc)
7168.1.1 = { holder=10076043 } # Rhaegel (nc)
7200.1.1 = { holder=10116043 } # Daeron (nc)
7252.1.1 = { holder=10156043 } # Daella (nc)
7253.1.1 = { holder=10176043 } # Haegon (nc)
7302.1.1 = { holder=10196043 } # Baelon (nc)
7317.1.1 = { holder=10206043 } # Orys (nc)
7372.1.1 = { holder=10246043 } # Aemon (nc)
7373.1.1 = { holder=10296043 } # Valarr (nc)
7393.1.1 = { holder=10356043 } # Jaehaerys (nc)
