623.1.1={
liege="e_iron_isles"
law=succ_primogeniture law=cognatic_succession
}
4393.1.1 = {
	holder = 500118 # Joron Blacktyde
}
4449.1.1 = {
	holder = 0
}
	
7093.1.1 = { holder=3000118 } # Cragorn (nc)

7098.2.1 = { holder=3001118 } # Skyte (nc)
7147.1.1 = { holder=3003118 } # Sigfry (nc)
7168.1.1 = { holder=3005118 } # Rymolf (nc)
7200.1.1 = { holder=3008118 } # Triston (nc)
7236.1.1 = { holder=3014118 } # Wex (nc)
7264.1.1 = { holder=3017118 } # Qalen (nc)
7289.1.1 = { holder=3018118 } # Norne (nc)
7312.1.1 = { holder=3021118 } # Cotter (nc)
7312.1.1={
#holder=111118
}
7324.1.1 = { holder=3026118 } # Maron (nc)
7380.1.1 = { holder=3028118 } # Theon (nc)


7389.3.1 = {	
	holder=118
}

7400.1.1 = {	
	holder=1118
}
