4100.1.1={
	law = succ_primogeniture
	liege = d_sweetwater
}
7080.1.1 = { holder=100174915 } # Osmund (nc)
7121.1.1 = { holder=102174915 } # Symond (nc)
7138.1.1 = { holder=104174915 } # Horton (nc)
7169.1.1 = { holder=106174915 } # Royce (nc)
7177.1.1 = { holder=107174915 } # Rolley (nc)
7193.1.1 = { holder=112174915 } # Robar (nc)
7215.1.1 = { holder=114174915 } # Morton (nc)
7228.1.1 = { holder=116174915 } # Pate (nc)
7230.1.1 = { holder=119174915 } # Osfryd (nc)
7287.1.1 = { holder=123174915 } # Edmund (nc)
7345.1.1 = { holder=126174915 } # Elys (nc)
7363.1.1 = { holder=128174915 } # Wyl (nc)
7389.1.1 = { holder=133174915 } # Eon (nc)
