900.1.1={
	liege="d_nightswatch"
	law = succ_open_elective
}

6200.1.1 = {
	holder=121400 #Tristan Mudd
}
6218.1.1 = {
	holder = 0
}
6270.1.1 = {
	holder=121403 #Roderick Flint
}
6286.1.1 = {
	holder = 0
}
6365.1.1 = {
	holder=121406 #Marq Rankenfell
}
6378.1.1 = {
	holder = 0
}
6410.1.1 = {
	holder=121404 #Robin Hill
}
6428.1.1 = {
	holder = 0
}

7090.1.1 = { holder=1000868 } # Bass (nc)
7115.1.1 = { holder=1001868 } # Brenett (nc)
7128.1.1 = { holder=1002868 } # Dywen (nc)
7135.1.1 = { holder=1003868 } # Alaric (nc)
7149.1.1 = { holder=1004868 } # Porther (nc)
7162.1.1 = { holder=1005868 } # Rickon (nc)
7181.1.1 = { holder=1006868 } # Hareth (nc)
7208.1.1 = { holder=1007868 } # Qhorin (nc)
7237.1.1 = { holder=1008868 } # Harmond (nc)
7261.1.1 = { holder=1009868 } # Jory (nc)
7285.1.1 = {
	holder=1052105 #Crowl
}