623.1.1={
	liege="d_yunkai"
}
7095.1.1 = { holder=150360023 } # Grazdhan (nc)
7112.1.1 = { holder=100360023 } # Grazdan (nc)
7136.1.1 = { holder=102360023 } # Marghaz (nc)
7170.1.1 = { holder=106360023 } # Maezon (nc)
7213.1.1 = { holder=110360023 } # Gazdhor (nc)
7246.1.1 = { holder=112360023 } # Morghaz (nc)
7258.1.1 = { holder=116360023 } # Yurkhaz (nc)
7300.1.1 = { holder=121360023 } # Prendahl (nc)
7303.1.1 = { holder=122360023 } # Azzak (nc)
7321.1.1 = { holder=125360023 } # Kraznys (nc)
7364.1.1 = { holder=126360023 } # Grazdhar (nc)
7389.1.1={
	holder=6571004 # Yezzan
}
