623.1.1={
	law = succ_turkish_succession
	law = agnatic_succession
}
7095.1.1 = { holder=100982370 } # Lysono (nc)
7124.1.1 = { 
	holder=101982370 # Salassor
} 


7170.1.1 = { holder=105982370 } # Collio (nc)

7215.1.1 = { holder=106982370 } # Tregar (nc)



7238.1.1 = { holder=110982370 } # Sulleham (nc)


7263.1.1 = { holder=110982370 } # Sulleham (nc)

7267.1.1 = { holder=111982370 } # Gyleno (nc)
7280.1.1 = { holder=112982370 } # Lysono (nc)
7319.1.1 = { holder=114982370 } # Noho (nc)
7350.1.1 = { holder=115982370 } # Ordello (nc)
7353.1.1 = { holder=118982370 } # Samarro Saan(C)

