623.1.1={
	liege = d_dalos
}

7095.1.1 = { holder=100000111 } # Orys (nc)
7136.1.1 = { holder=100100111 } # Belicho (nc)
7141.1.1 = { holder=100200111 } # Vogarro (nc)
7178.1.1 = { holder=100400111 } # Aenar (nc)
7230.1.1 = { holder=100900111 } # Colloquo (nc)
7237.1.1 = { holder=101100111 } # Vaeron (nc)
7261.1.1 = { holder=101300111 } # Orys (nc)
7277.1.1 = { holder=101600111 } # Aelix (nc)
7337.1.1 = { holder=102100111 } # Haerys (nc)
7342.1.1 = { holder=102400111 } # Aenar (nc)
7383.1.1 = { holder=102900111 } # Vaekar (nc)
7420.1.1 = { holder=103400111 } # Aenar (nc)

