623.1.1={
	liege="k_qohor"
}

7095.1.1 = { holder=100069128 } # Collio (nc)
7132.1.1 = { holder=100269128 } # Mero (nc)
7149.1.1 = { holder=100469128 } # Denyo (nc)
7167.1.1 = { holder=100969128 } # Byan (nc)
7183.1.1 = { holder=101069128 } # Tycho (nc)
7207.1.1 = { holder=101169128 } # Ternesio (nc)
7239.1.1 = { holder=101469128 } # Tagganaro (nc)
7268.1.1 = { holder=101769128 } # Tregar (nc)
7309.1.1 = { holder=102169128 } # Yorko (nc)
7316.1.1 = { holder=102269128 } # Ternesio (nc)
7332.1.1 = { holder=102369128 } # Moreo (nc)
7370.1.1 = { holder=102569128 } # Tycho (nc)
7380.1.1 = { holder=102869128 } # Mero (nc)
