623.1.1={
	liege="d_vahar"
}

7095.1.1 = { holder=100055940 } # Murad (nc)
7138.1.1 = { holder=100155940 } # Talib (nc)
7147.1.1 = { holder=100255940 } # Azam (nc)
7183.1.1 = { holder=100655940 } # Ubayd (nc)
7187.1.1 = { holder=101255940 } # Halil (nc)
7216.1.1 = { holder=101455940 } # Ali_Ali (nc)
7241.1.1 = { holder=101655940 } # Shujah (nc)
7269.1.1 = { holder=101755940 } # Burhanaddin (nc)
7299.1.1 = { holder=102055940 } # Qadir (nc)
7314.1.1 = { holder=102255940 } # Nizam (nc)
7344.1.1 = { holder=102455940 } # Wahab (nc)
7367.1.1 = { holder=102655940 } # Husam (nc)

