5100.1.1={
	liege="e_north"
	law = succ_primogeniture
}
7093.1.1={
	holder=16106
}
7111.1.1={
	holder=15106
}
7129.1.1={
	holder=14106
}
7151.1.1={
	holder=13106
}
7177.1.1={
	holder=12106
}
7195.1.1={
	holder=11106
}
7201.1.1={
	holder=10106
}
7245.1.1={
	holder=9106
}
7250.1.1={
	holder=8106
}
7294.1.1={
	holder=7106
}
7303.1.1={
	holder=6106
}
7323.1.1={
	holder=5106
}
7330.1.1={
	holder=4106
}
7372.1.5={
	holder=106
}
