623.1.1={
	liege = d_valyria
}

7095.1.1 = { holder=10006052 } # Rhaekar (nc)
7132.1.1 = { holder=10026052 } # Otherys (nc)
7161.1.1 = { holder=10036052 } # Vaekar (nc)
7170.1.1 = { holder=10076052 } # Rhaekar (nc)
7209.1.1 = { holder=10116052 } # Vaermon (nc)
7240.1.1 = { holder=10156052 } # Aegor (nc)
7287.1.1 = { holder=10186052 } # Aemon (nc)
7298.1.1 = { holder=10206052 } # Maelys (nc)
7310.1.1 = { holder=10226052 } # Valarr (nc)
7349.1.1 = { holder=10246052 } # Jaekar (nc)
7360.1.1 = { holder=10296052 } # Aerion (nc)
7376.1.1 = { holder=10336052 } # Vaermon (nc)
