4100.1.1={
	law = succ_primogeniture
	liege = d_upper_rhoyne
}
7064.1.1 = { holder=100174901 } # Morton (nc)
7109.1.1 = { holder=106174901 } # Royce (nc)
7154.1.1 = { holder=107174901 } # Gilwood (nc)
7196.1.1 = { holder=112174901 } # Horton (nc)
7230.1.1 = { holder=115174901 } # Albar (nc)
7240.1.1 = { holder=117174901 } # Harlan (nc)
7265.1.1 = { holder=121174901 } # Randyll (nc)
7295.1.1 = { holder=122174901 } # Wallace (nc)
7316.1.1 = { holder=126174901 } # Gerold (nc)
7337.1.1 = { holder=129174901 } # Ronnel (nc)
7353.1.1 = { holder=130174901 } # Umfred (nc)
7379.1.1 = { holder=133174901 } # Yohn (nc)
