#NOTE: The holder of this title has the House Estermont dynasty tracker set in roberts_rebellion_events
623.1.1 = { liege="d_cape_wrath" }

7090.1.1 = { holder=300330 } # Gunthor Estermont (nc)
7131.1.1 = { holder=302330 } # Alyn Estermont (nc)
7156.1.1 = { holder=303330 } # Ronald Estermont (nc)
7188.1.1 = { holder=304330 } # Gunthor Estermont (nc)
7205.1.1 = { holder=305330 } # Lomas Estermont (nc)
7261.1.1 = { holder=306330 } # Davos Estermont (nc)
7272.1.1 = { holder=307330 } # Herbert Estermont (nc)
7296.1.1 = { holder=200330 } # Gunthor Estermont (C)
7344.1.1 = { holder=330 } # Tancred Estermont (nc)
7400.1.4 = { holder=2330 } # Eldon Estermont (C)
