623.1.1={
	liege = d_tyria
}

7095.1.1 = { holder=10006023 } # Rhaekar (nc)
7124.1.1 = { holder=10016023 } # Daeron (nc)
7146.1.1 = { holder=10036023 } # Haegon (nc)
7167.1.1 = { holder=10076023 } # Matarys (nc)
7186.1.1 = { holder=10116023 } # Qoherys (nc)
7197.1.1 = { holder=10136023 } # Valarr (nc)
7268.1.1 = { holder=10156023 } # Daemon (nc)
7287.1.1 = { holder=10176023 } # Qoherys (nc)
7303.1.1 = { holder=10196023 } # Valarr (nc)
7360.1.1 = { holder=10206023 } # Maerys (nc)
7390.1.1 = { holder=10236023 } # Maegon (nc)
7414.1.1 = { holder=10246023 } # Valarr (nc)
7424.1.1 = { holder=10286023 } # Aelix (nc)

