5100.1.1={
	liege="e_north"
	law = succ_primogeniture
}
7005.1.1={
    holder=1005084
}	
7035.1.1={
    holder=1003084
}	
7044.1.1={
	holder=7075
}
7052.1.1={
	holder=17084
}
7090.1.1={
	holder=8075
}
7118.1.1={
	holder=9075
}
7152.1.1={
	holder=10075
}
7198.1.1={
	holder=12075
}
7235.1.1={
	holder=13075
}
7244.1.1={
	holder=14075
}
7279.1.1={
	holder=15075
}
7328.1.1={
	holder=17075
}
7372.1.1={
	holder=2075
}
