#Ajaxos
7085.1.1 = { 
	holder=100304012 
	liege=d_moluu
	law = succ_seniority
	law = cognatic_succession
} # Orengo (nc)
7119.1.1 = { holder=102304012 } # Qaro (nc)
7151.1.1 = { holder=106304012 } # Xhondo (nc)
7199.1.1 = { holder=107304012 } # Bapato (nc)
7203.1.1 = { holder=109304012 } # Eskender (nc)
7226.1.1 = { holder=113304012 } # Lusaxharo (nc)
7257.1.1 = { holder=117304012 } # Delmabhar (nc)
7259.1.1 = { holder=122304012 } # Jalabhar (nc)
7309.1.1 = { holder=125304012 } # Quhuru (nc)
7325.1.1 = { holder=127304012 } # Rudo (nc)
7340.1.1 = { holder=132304012 } # Koroxhar (nc)
7378.1.1 = { holder=136304012 } # Jiradhar (nc)


