7091.1.1 = { holder=10559165 } # Henk (nc)
7121.1.1 = { holder=12559165 } # Hareth (nc)
7124.1.1 = { holder=13559165 } # Walton (nc)
7153.1.1 = { holder=14559165 } # Arson (nc)
7189.1.1 = { holder=15559165 } # Doss (nc)
7218.1.1 = { holder=16559165 } # Mance (nc)
7234.1.1 = { holder=22559165 } # Vayon (nc)
7266.1.1 = { holder=24559165 } # Sigorn (nc)
7291.1.1 = { holder=26559165 } # Ondrew (nc)
7296.1.1 = { holder=25559165 } # Lenyl (nc)
7313.1.1 = { holder=28559165 } # Mance (nc)
7313.1.1={
	liege="k_beyond_wall"
}
7326.9.9={
	liege="0"
}
7343.1.1 = { holder=30559165 } # Quort (nc)
7373.1.1 = { holder=32559165 } # Del (nc)
7390.1.1 = { holder=33559165 } # Vayon (nc)
7398.1.1={
	liege="k_beyond_wall"
}
7400.1.1={
	holder=999000666
}
