4578.1.1 = {
	liege = d_hazdahn
}
7095.1.1 = { holder=100069200 } # Maezon (nc)
7146.1.1 = { holder=100169200 } # Barkhaz (nc)
7159.1.1 = { holder=100569200 } # Mazdhan (nc)
7175.1.1 = { holder=100769200 } # Gorzhak (nc)
7223.1.1 = { holder=100869200 } # Barkhaz (nc)
7227.1.1 = { holder=101069200 } # Zaraq (nc)
7239.1.1 = { holder=101269200 } # Maezon (nc)
7295.1.1 = { holder=101369200 } # Yarkhaz (nc)
7319.1.1 = { holder=101569200 } # Reznak (nc)
7347.1.1 = { holder=101969200 } # Grazdhar (nc)
7399.1.1 = { holder=102369200 } # Zaraq (nc)


