6100.1.1={
	law = slavery_2
	law = centralization_2
	liege = d_gogossos
}

7095.1.1 = { holder=10003350 } # Benerro (nc)
7124.1.1 = { holder=10013350 } # Qoherys (nc)
7149.1.1 = { holder=10053350 } # Aenar (nc)
7188.1.1 = { holder=10073350 } # Alios (nc)
7222.1.1 = { holder=10093350 } # Horonno (nc)
7232.1.1 = { holder=10103350 } # Vaeron (nc)
7283.1.1 = { holder=10123350 } # Nyessos (nc)
7288.1.1 = { holder=10173350 } # Colloquo (nc)
7337.1.1 = { holder=10193350 } # Gorys (nc)
7349.1.1 = { holder=10203350 } # Vaekar (nc)
7396.1.1 = { holder=10213350 } # Parquello (nc)
7422.1.1 = { holder=10233350 } # Qoherys (nc)
7444.1.1 = { holder=10273350 } # Aenar (nc)


