#House Biabaku
7070.1.1 = { 
	holder=100304015 
	liege=d_golden_head
	law = succ_seniority
	law = cognatic_succession
} # Doshuru (nc)
7108.1.1 = { holder=103304015 } # Oluhuru (nc)
7135.1.1 = { holder=106304015 } # Udo (nc)
7172.1.1 = { holder=114304015 } # Xhal (nc)
7217.1.1 = { holder=115304015 } # Oluhuru (nc)
7255.1.1 = { holder=117304015 } # Isingodo (nc)
7268.1.1 = { holder=118304015 } # Odingaxho (nc)
7296.1.1 = { holder=120304015 } # Tal (nc)
7303.1.1 = { holder=121304015 } # Orengo (nc)
7313.1.1 = { holder=127304015 } # Xhondo (nc)
7347.1.1 = { holder=129304015 } # Bapato (nc)
7374.1.1 = { holder=132304015 } # Tal (nc)
7384.1.1 = { holder=134304015 } # Chibundo (nc)

