623.1.1={
	liege="k_qohor"
}
7071.1.1 = { holder=100300564 } # Meralyn (nc)
7108.1.1 = { holder=101300564 } # Tagganaro (nc)
7146.1.1 = { holder=104300564 } # Joss (nc)
7159.1.1 = { holder=105300564 } # Collio (nc)
7182.1.1 = { holder=108300564 } # Tagganaro (nc)
7204.1.1 = { holder=111300564 } # Cossomo (nc)
7211.1.1 = { holder=112300564 } # Tycho (nc)
7226.1.1 = { holder=116300564 } # Tycho (nc)
7257.1.1 = { holder=120300564 } # Byan (nc)
7304.1.1 = { holder=123300564 } # Terro (nc)
7317.1.1 = { holder=126300564 } # Byan (nc)
7358.1.1 = { holder=131300564 } # Illyrio (nc)
7362.1.1 = { holder=133300564 } # Tagganaro (nc)
7394.1.1 = { holder=134300564 } # Groleo (nc)
