#c_greenmont
623.1.1={
	liege="e_westerlands"
}
7045.1.1 = { holder=152222 } # Polliver (nc)
7075.1.1 = { holder=153222 } # Damon (nc)
7096.1.1 = { holder=300222 } # Manford (nc)
7139.1.1 = { holder=303222 } # Gerion (nc)
7158.1.1 = { holder=307222 } # Garrison (nc)
7194.1.1 = { holder=311222 } # Quenton (nc)
7232.1.1 = { holder=313222 } # Genna (nc)
7261.1.1 = { holder=315222 } # Lewys (nc)
7270.1.1 = { holder=316222 } # Ormond (nc)
7286.1.1 = { holder=319222 } # Manfryd (nc)
7333.1.1 = { holder=321222 } # Roland (nc)	
