5100.1.1={
	liege="d_theneck"
	law = succ_primogeniture
}
7087.1.1={
	holder = 13074
}
7125.1.1={
	holder = 12074
}
7131.1.1={
	holder = 11074
}
7163.1.1={
	holder = 14074
}
7210.1.1={
	holder = 8074
}
7245.1.1={
	holder = 7074
}
7262.1.1={
	holder = 6074
}
7304.1.1={
	holder = 4074
}
7329.1.1={
	holder = 3074
}
7362.1.1={
	holder = 74
}
