7082.1.1 = { holder=10174353 } # Sigorn (nc)
7116.1.1 = { holder=11174353 } # Borroq (nc)
7137.1.1 = { holder=13174353 } # Vayon (nc)
7184.1.1 = { holder=14174353 } # Lenyl (nc)
7213.1.1 = { holder=17174353 } # Harle (nc)
7215.1.1 = { holder=18174353 } # Howd (nc)
7253.1.1 = { holder=21174353 } # Soren (nc)
7275.1.1={
	holder=1021359
}
7297.1.1={
	holder=21359
}
7313.1.1={
	liege="k_beyond_wall"
}
7326.9.9={
	holder=121359
	liege=0
}
7330.1.1={
	holder=421359
}
7352.1.1={
	holder=521359
}
7378.1.1={
	holder=574800
}
7398.1.1={
	liege="k_beyond_wall"
}
7400.1.1={
	holder=999000666
}


