623.1.1={
	liege="d_linqi_jungle"
}
7095.1.1 = { holder=10069199 } # Khaireddin (nc)
7123.1.1 = { holder=10169199 } # Burhanaddin (nc)
7160.1.1 = { holder=10269199 } # Is'mail (nc)
7161.1.1 = { holder=10669199 } # Halil (nc)
7205.1.1 = { holder=11069199 } # Youkhanna (nc)
7231.1.1 = { holder=11369199 } # Yusuf (nc)
7283.1.1 = { holder=11669199 } # Qadir (nc)
7298.1.1 = { holder=12169199 } # Youkhanna (nc)
7315.1.1 = { holder=12269199 } # Khaireddin (nc)
7326.1.1 = { holder=12469199 } # Qawurd (nc)
7357.1.1 = { holder=12769199 } # Ramadan (nc)
7365.1.1 = { holder=13069199 } # Nasr (nc)

