623.1.1={
	liege="d_hills_tiqui"
}
7095.1.1 = { holder=10069100 } # Ali_Ali (nc)
7141.1.1 = { holder=10169100 } # Youkhanna (nc)
7153.1.1 = { holder=10569100 } # Aram (nc)
7162.1.1 = { holder=10669100 } # Mubarak (nc)
7219.1.1 = { holder=10969100 } # Sami (nc)
7238.1.1 = { holder=11169100 } # Mahdi (nc)
7256.1.1 = { holder=11369100 } # Jibril (nc)
7274.1.1 = { holder=11769100 } # Hasan_Hasan (nc)
7305.1.1 = { holder=11869100 } # Bakr (nc)
7328.1.1 = { holder=12069100 } # Fadl (nc)
7331.1.1 = { holder=12469100 } # Idris (nc)
7398.1.1 = { holder=12669100 } # Ramadan (nc)


