7077.1.1 = { 
	holder=100607300 
	liege = d_jhogwin
} # Fardeen (nc)
7112.1.1 = { holder=101607300 } # Isak (nc)
7147.1.1 = { holder=103607300 } # Mahwak (nc)
7171.1.1 = { holder=106607300 } # Jakar (nc)
7182.1.1 = { holder=109607300 } # Wafa (nc)
7197.1.1 = { holder=110607300 } # Vida (nc)
7226.1.1 = { holder=111607300 } # Tahib (nc)
7242.1.1 = { holder=113607300 } # Lemar (nc)
7273.1.1 = { holder=116607300 } # Barialy (nc)
7280.1.1 = { holder=118607300 } # Sabry (nc)
7295.1.1 = {
	holder = 100607399 #Gharak
}
