623.1.1={
	liege = d_valyria
}

7095.1.1 = { holder=10006045 } # Haerys (nc)
7126.1.1 = { holder=10016045 } # Baelor (nc)
7137.1.1 = { holder=10026045 } # Gaemon (nc)
7175.1.1 = { holder=10056045 } # Jaekar (nc)
7184.1.1 = { holder=10086045 } # Aenys (nc)
7212.1.1 = { holder=10116045 } # Aemon (nc)
7252.1.1 = { holder=10126045 } # Maegor (nc)
7260.1.1 = { holder=10156045 } # Aegon (nc)
7287.1.1 = { holder=10186045 } # Maelys (nc)
7304.1.1 = { holder=10236045 } # Aegon (nc)
7340.1.1 = { holder=10266045 } # Aenar (nc)
7379.1.1 = { holder=10276045 } # Aenar (nc)
7404.1.1 = { holder=10296045 } # Aerion (nc)
