#House Anuxho
7086.1.1 = { 
	holder=100304018 
	liege=d_indigo_straits
	law = succ_seniority
	law = cognatic_succession
} # Olujondo (nc)
7105.1.1 = { holder=101304018 } # Manahuru (nc)
7110.1.1 = { holder=102304018 } # Dubaku (nc)
7131.1.1 = { holder=105304018 } # Dubaku (nc)
7133.1.1 = { holder=107304018 } # Manahuru (nc)
7196.1.1 = { holder=114304018 } # Doshuru (nc)
7233.1.1 = { holder=116304018 } # Tatenda (nc)
7279.1.1 = { holder=117304018 } # Isodo (nc)
7301.1.1 = { holder=120304018 } # Xhal (nc)
7322.1.1 = { holder=127304018 } # Isingodo (nc)
7362.1.1 = { holder=130304018 } # Siboxhoan (nc)
7384.1.1 = { holder=131304018 } # Xhakan (nc)
