#House Ubo
7086.1.1 = { 
	holder=100304033 
	liege=d_indigo_straits
	law = succ_seniority
	law = cognatic_succession
} # Adeyemu (nc)
7123.1.1 = { holder=105304033 } # Chakoro (nc)
7176.1.1 = { holder=107304033 } # Xhonodo (nc)
7195.1.1 = { holder=112304033 } # Sango (nc)
7202.1.1 = { holder=113304033 } # Qaro (nc)
7237.1.1 = { holder=116304033 } # Kwasdo (nc)
7251.1.1 = { holder=117304033 } # Gatubhar (nc)
7262.1.1 = { holder=119304033 } # Arkamun (nc)
7265.1.1 = { holder=120304033 } # Abrafo (nc)
7321.1.1 = { holder=125304033 } # Tal (nc)
7354.1.1 = { holder=129304033 } # Jalabhar (nc)
7388.1.1 = { holder=131304033 } # Oluhuru (nc)
7395.1.1 = { holder=135304033 } # Dubaku (nc)

