623.1.1={
	liege="d_meereen"
}
7095.1.1 = { holder=150360008 } # Skahaz (nc)
7127.1.1 = { holder=100360008 } # Reznak (nc)
7145.1.1 = { holder=101360008 } # Gorhaz (nc)
7187.1.1 = { holder=105360008 } # Grazdan (nc)
7228.1.1 = { holder=109360008 } # Reznak (nc)
7245.1.1 = { holder=116360008 } # Gorzhak (nc)
7271.1.1 = { holder=120360008 } # Haznak (nc)
7304.1.1 = { holder=123360008 } # Mazdhak (nc)
7333.1.1 = { holder=126360008 } # Marghaz (nc)
7349.1.1 = { holder=129360008 } # Grazdan (nc)
7379.1.1={
	holder=16571012 # Reznak
}
7400.1.1={
	liege="d_meereen"
}
