#House Xaq
6138.1.1 = {
	holder=150304037 #Malthar the Windrider
	law = succ_seniority
	law = cognatic_succession
} 
6198.1.1 = { holder=0 }

7038.1.1 = { holder=152304037 } # Malthar (nc)
7080.1.1 = { holder=100304037 } # Jiradhar (nc)
7090.1.1 = { holder=102304037 } # Kwasdo (nc)
7145.1.1 = { holder=106304037 } # Sango (nc)
7195.1.1 = { holder=109304037 } # Tal (nc)
7206.1.1 = { holder=112304037 } # Konde (nc)
7221.1.1 = { holder=115304037 } # Sango (nc)
7241.1.1 = { holder=118304037 } # Punuxharo (nc)
7259.1.1 = { holder=119304037 } # Isingodo (nc)
7285.1.1 = { holder=123304037 } # Qaro (nc)
7287.1.1 = { holder=125304037 } # Gwalahuru (nc)
7299.1.1 = { holder=130304037 } # Simbhar (nc)
7337.1.1 = { holder=133304037 } # Oluhura (nc)
7347.1.1 = { holder=134304037 } # Abrafo (nc)
7386.1.1 = { holder=136304037 } # Manahuru (nc)
7392.1.1 = { holder=137304037 } # Doshuru (nc)

