5300.1.1={
	law = succ_primogeniture
	law = cognatic_succession
}
7096.1.1 = { holder=60009 } # Timeon (nc)
7128.1.1 = { holder=60019 } # Archibald (nc)
7159.1.1 = { holder=60049 } # Dagos (nc)
7191.1.1 = { holder=60099 } # Obara (nc)
7214.1.1 = { holder=60119 } # Orrell (nc)
7243.1.1 = { holder=60129 } # Geleria (nc)
7271.1.1 = { holder=60139 } # Damarya (nc)
7312.1.1 = { holder=60149 } # Castos (nc)
7320.1.1 = { holder=60179 } # Daeron (nc)
7370.1.1 = { holder=60189 } # Cedra (nc)
