623.1.1={
	liege="d_qarth"
}
7068.1.1 = { holder=10035001 } # Saathos (nc)
7102.1.1 = { holder=10235001 } # Zathor (nc)
7124.1.1 = { holder=10635001 } # Lotho (nc)
7176.1.1 = { holder=10935001 } # Regon (nc)
7200.1.1 = { holder=11235001 } # Nyessos (nc)
7217.1.1 = { holder=11735001 } # Gorys (nc)
7264.1.1 = { holder=12235001 } # Gathril (nc)
7289.1.1 = { holder=12535001 } # Navathos (nc)
7292.1.1 = { holder=12635001 } # Pyat (nc)
7322.1.1 = { holder=12835001 } # Zathor (nc)
7342.1.1 = { holder=12935001 } # Urrathon (nc)
7362.1.1 = { holder=13035001 } # Mathos (nc)
7384.1.1 = { holder=13435001 } # Nyessos (nc)
7390.1.1 = { holder=13635001 } # Egon (nc)
