623.1.1={
	liege="d_lhazosh"
	law = succ_ultimogeniture
}
7085.1.1 = { holder=10055916 } # Jommo (nc)
7118.1.1 = { holder=10355916 } # Fogo (nc)
7135.1.1 = { holder=10655916 } # Zollo (nc)
7187.1.1 = { holder=10855916 } # Aggo (nc)
7194.1.1 = { holder=11155916 } # Iggo (nc)
7238.1.1 = { holder=11755916 } # Ogo (nc)
7276.1.1 = { holder=12155916 } # Zollo (nc)
7285.1.1 = { holder=12655916 } # Bharbo (nc)
7298.1.1 = { holder=12955916 } # Haggo (nc)
7339.1.1 = { holder=13455916 } # Cohollo (nc)
7366.1.1 = { holder=13655916 } # Pono (nc)
7369.1.1 = { holder=14055916 } # Rakharo (nc)
