5300.1.1={
	liege="d_the_sisters"
	law = succ_primogeniture
}
7094.1.1 = { holder=3000166 } # Petyr (nc)
7103.1.1 = { holder=3001166 } # Robar (nc)
7141.1.1 = { holder=3005166 } # Eon (nc)
7185.1.1 = { holder=3009166 } # Lyn (nc)
7191.1.1 = { holder=3011166 } # Vardis (nc)
7202.1.1 = { holder=3014166 } # Morton (nc)
7256.1.1 = { holder=3016166 } # Nestor (nc)
7278.1.1 = { holder=3017166 } # Alesandor (nc)
7289.1.1 = { holder=3019166 } # Andar (nc)
7319.1.1 = { holder=3023166 } # Gwayne (nc)
7338.1.1 = { holder=3026166 } # Jasper (nc)
7354.1.1 = { holder=3029166 } # Lyn (nc)

7380.1.1={
	holder=94037
}
