623.1.1={
	liege="k_pentos"
}

7095.1.1 = { holder=100069125 } # Tregar (nc)
7127.1.1 = { holder=100269125 } # Narbo (nc)
7129.1.1 = { holder=100569125 } # Gyleno (nc)
7145.1.1 = { holder=100769125 } # Denyo (nc)
7182.1.1 = { holder=100969125 } # Yorko (nc)
7197.1.1 = { holder=101369125 } # Groleo (nc)
7257.1.1 = { holder=101869125 } # Yorko (nc)
7279.1.1 = { holder=101969125 } # Tregar (nc)
7292.1.1 = { holder=102269125 } # Areo (nc)
7314.1.1 = { holder=102469125 } # Roro (nc)
7337.1.1 = { holder=102869125 } # Pynto (nc)
7382.1.1 = { holder=103169125 } # Myrmello (nc)
