1.1.1={
	liege="d_lorath"
}
7085.1.1 = { holder=100300549 } # Ollo (nc)
7136.1.1 = { holder=101300549 } # Ezzelyno (nc)
7169.1.1 = { holder=106300549 } # Ezzelyno (nc)
7176.1.1 = { holder=110300549 } # Myrmello (nc)
7197.1.1 = { holder=112300549 } # Mellario (nc)
7208.1.1 = { holder=116300549 } # Qarro (nc)
7229.1.1 = { holder=118300549 } # Mero (nc)
7266.1.1 = { holder=121300549 } # Oro (nc)
7269.1.1 = { holder=124300549 } # Lotho (nc)
7302.1.1 = { holder=128300549 } # Tagganaro (nc)
7311.1.1 = { holder=133300549 } # Noho (nc)
7334.1.1 = { holder=135300549 } # Moreo (nc)
7356.1.1 = { holder=136300549 } # Orbelo (nc)
7399.1.1 = { holder=143300549 } # Groleo (nc)
