5300.1.1={
	liege="d_the_sisters"
	law = succ_primogeniture
}
7095.1.1 = { holder=3000164 } # Raymar (nc)
7138.1.1 = { holder=3005164 } # Denys (nc)
7141.1.1 = { holder=3007164 } # Artys (nc)
7171.1.1 = { holder=3010164 } # Waymar (nc)
7190.1.1 = { holder=3012164 } # Denys (nc)
7221.1.1 = { holder=3013164 } # Pate (nc)
7258.1.1 = { holder=3014164 } # Osgood (nc)
7314.1.1 = { holder=3015164 } # Humfrey (nc)
7322.1.1 = { holder=3017164 } # Rolland (nc)
7328.1.1 = { holder=3021164 } # Gilwood (nc)
7367.1.1 = { holder=3024164 } # Horton (nc)
7380.1.1={
	holder=94034
}
