4500.1.1={
	#liege="k_sarnor"
	effect = {
		holder_scope = { 
			k_sarnor = {
				holder_scope = {
					make_tributary = { who = PREVPREV tributary_type = sarnori }
				}
			}
		}	
	}
	law = succ_primogeniture
}
7092.1.1 = { holder=10056814 } # Lakshan (nc)
7138.1.1 = { holder=10156814 } # Chitresh (nc)
7179.1.1 = { holder=10756814 } # Ishan (nc)
7204.1.1 = { holder=10856814 } # Atharvan (nc)
7211.1.1 = { holder=10956814 } # Chanak (nc)
7216.1.1 = { holder=11156814 } # Ishwar (nc)
7250.1.1 = { holder=11356814 } # Parvesh (nc)
7279.1.1 = { holder=11656814 } # Kalpesh (nc)
7299.1.1 = { holder=11756814 } # Girivar (nc)
7312.1.1 = { holder=12256814 } # Balavant (nc)
7338.1.1 = { holder=12656814 } # Kushal (nc)
7368.1.1 = { holder=12856814 } # Avilash (nc)

