1112.1.1={
	liege="d_port_yhos"
}
7096.1.1 = { holder=150350020 } # Izembaro (nc)
7116.1.1 = { holder=100350020 } # Xaro (nc)
7162.1.1 = { holder=101350020 } # Nyessos (nc)
7189.1.1 = { holder=104350020 } # Ognos (nc)
7202.1.1 = { holder=108350020 } # Wullon (nc)
7243.1.1 = { holder=114350020 } # Zathor (nc)
7270.1.1 = { holder=118350020 } # Methyso (nc)
7278.1.1 = { holder=122350020 } # Navathos (nc)
7311.1.1 = { holder=123350020 } # Mathos (nc)
7322.1.1 = { holder=126350020 } # Navathos (nc)
7351.1.1 = { holder=132350020 } # Navathos (nc)
7370.1.1 = { holder=133350020 } # Navathos (nc)
7394.1.1 = { holder=136350020 } # Egon (nc)

