#c_moreland
623.1.1={
	liege="d_hornvale"
}
6999.1.1={ holder=60400209} # Bryce Moreland
7012.1.1={ holder=60600209} # Criston Moreland
7023.1.1={ holder=60500209} # Kennoth Moreland
7028.1.1={ holder=60300209} # Prestor Moreland
7075.1.1={ holder=60200209} # Robin Moreland
7091.1.1={ holder=60000209} # Lyman Moreland
7102.1.1={
	holder=11209
}
7145.1.1={
	holder=13209
}
7152.1.1={
	holder=14209
}
7164.1.1={
	holder=15209
}
7170.1.1={
	holder=16209
}
7212.1.1={
	holder=17209
}
7247.1.1={
	holder=18209
}
7262.1.1={
	holder=19209
}
7278.1.1={
	holder=20209
}
7296.1.1={
	holder=21209
}
7318.1.1={
	holder=22209
}
7343.1.1={
	holder=23209
}
7373.1.1={
	holder=100209 # Robin Moreland
}
