4500.1.1={
	liege="d_kasath"
	law = succ_primogeniture
}
7092.1.1 = { holder=10056804 } # Sahasrad (nc)
7137.1.1 = { holder=10156804 } # Nayan (nc)
7147.1.1 = { holder=10656804 } # Manaar (nc)
7155.1.1 = { holder=10956804 } # Avilash (nc)
7162.1.1 = { holder=11056804 } # Kalpesh (nc)
7181.1.1 = { holder=11156804 } # Burhan (nc)
7221.1.1 = { holder=11656804 } # Vishruth (nc)
7253.1.1 = { holder=11756804 } # Chanak (nc)
7281.1.1 = { holder=11956804 } # Lakshan (nc)
7320.1.1 = { holder=12356804 } # Etash (nc)
7334.1.1 = { holder=12556804 } # Sahat (nc)
7348.1.1 = { holder=12856804 } # Harith (nc)
7365.1.1 = { holder=12956804 } # Sahat (nc)

