623.1.1 = { liege="e_stormlands"}


7094.1.1 = { holder = 300301 } # Lyonel Caron (nc)
7103.1.1 = { holder = 301301 } # Symon Caron (nc)
7127.1.1 = { holder = 302301 } # Rolland Caron (nc)
7153.1.1 = { holder = 303301 } # Byron Caron (nc)
7184.1.1 = { holder = 304301 } # Bryce Caron (nc)
7210.1.1 = { holder = 305301 } # Balon Caron (nc)
7242.1.1 = { holder = 306301 } # Lyonel Caron (nc)
7274.1.1 = { holder = 307301 } # Barrystan Caron (nc)
7287.1.1 = { holder = 308301 } # Pearse Caron (C)
7326.1.1 = { holder = 309301 } # Balon Caron (nc)
7346.1.1 = { holder = 310301 } # Casper Caron (nc)
7362.1.1 = { holder = 301 } # Bryen Caron (C)
