7095.1.1 = { holder=10560345 } # Brogg (nc)
7121.1.1 = { holder=11560345 } # Torwynd (nc)
7149.1.1 = { holder=12560345 } # Bump (nc)
7174.1.1 = { holder=15560345 } # Brogg (nc)
7177.1.1 = { holder=20560345 } # Dormund (nc)
7208.1.1 = { holder=22560345 } # Ondrew (nc)
7232.1.1 = { holder=23560345 } # Jojen (nc)
7266.1.1 = { holder=24560345 } # Bump (nc)
7289.1.1 = { holder=25560345 } # Galbart (nc)
7300.1.1 = { holder=28560345 } # Del (nc)
7313.1.1={
	liege="k_beyond_wall"
}
7319.1.1 = { holder=29560345 } # Bump (nc)
7326.9.9={
	liege=0
}

7373.1.1 = { holder=31560345 } # Errok (nc)
7386.1.1 = { holder=34560345 } # Wallen (nc)

7398.1.1={
	liege="k_beyond_wall"
}
7400.1.1={
	liege="d_haunted_forest"
}
