623.1.1={
	liege="d_trader_town"
}
7095.1.1 = { holder=10069168 } # Murad (nc)
7123.1.1 = { holder=10269168 } # Mahdi (nc)
7176.1.1 = { holder=10569168 } # Wahab (nc)
7199.1.1 = { holder=10769168 } # Hafiz (nc)
7219.1.1 = { holder=10869168 } # Azam (nc)
7237.1.1 = { holder=11269168 } # Mukhtar (nc)
7262.1.1 = { holder=11669168 } # Abdul (nc)
7275.1.1 = { holder=11869168 } # Mukhtar (nc)
7330.1.1 = { holder=12269168 } # Fadil (nc)
7349.1.1 = { holder=12369168 } # Wahab (nc)
7364.1.1 = { holder=12569168 } # Sadiq (nc)
7394.1.1 = { holder=13169168 } # Hussayn (nc)



