6100.1.1 = {
	liege = k_norvos
}

7095.1.1 = { holder=100069156 } # Areo (nc)
7132.1.1 = { holder=100169156 } # Roro (nc)
7135.1.1 = { holder=100469156 } # Yorko (nc)
7163.1.1 = { holder=100569156 } # Tycho (nc)
7188.1.1 = { holder=100869156 } # Terro (nc)
7229.1.1 = { holder=101269156 } # Moredo (nc)
7239.1.1 = { holder=101569156 } # Orbelo (nc)
7293.1.1 = { holder=101869156 } # Ternesio (nc)
7296.1.1 = { holder=101969156 } # Luco (nc)
7334.1.1 = { holder=102369156 } # Gyloro (nc)
7342.1.1 = { holder=102669156 } # Syrio (nc)
7381.1.1 = { holder=103069156 } # Myrmello (nc)
