623.1.1={
	liege="d_ny_sar"
	law = succ_primogeniture
	law = true_cognatic_succession
}
7095.1.1 = { holder=100174407 } # Rycas (nc)
7122.1.1 = { holder=102174407 } # Mors (nc)
7147.1.1 = { holder=106174407 } # Yandry (nc)
7176.1.1 = { holder=108174407 } # Quentyn (nc)
7200.1.1 = { holder=113174407 } # Mors (nc)
7225.1.1 = { holder=116174407 } # Alleras (nc)
7262.1.1 = { holder=6057001 } # Ghoyan (nc)
7266.4.4 = { holder=6086001 } # Nysarin (nc)
7282.4.4 = { holder=6087001 } # Rhyon (nc)
7295.4.4 = { holder=2000001 } # Nymeria (c)

7298.1.1 = {
	holder = 123457
}

