623.1.1={
	liege="d_piqui_jungle"
}
7095.1.1 = { holder=10069107 } # Aram (nc)
7143.1.1 = { holder=10169107 } # Gafur (nc)
7157.1.1 = { holder=10769107 } # Jabir (nc)
7199.1.1 = { holder=10969107 } # Burhanaddin (nc)
7218.1.1 = { holder=11269107 } # Qadir (nc)
7225.1.1 = { holder=11569107 } # Aghlab (nc)
7248.1.1 = { holder=11669107 } # Mukhtar (nc)
7257.1.1 = { holder=12169107 } # Yahya (nc)
7304.1.1 = { holder=12469107 } # Aarif (nc)
7313.1.1 = { holder=12769107 } # Jaleel (nc)
7329.1.1 = { holder=13069107 } # Samir (nc)
7394.1.1 = { holder=13369107 } # Aarif (nc)


