5100.1.1={
	liege="e_north"
	law = succ_primogeniture
}
7096.1.1={
	holder=13097
}
7112.1.1={
	holder=12097
}
7137.1.1={
	holder=11097
}
7178.1.1={
	holder=10097
}
7192.1.1={
	holder=9097
}
7242.1.1={
	holder=8097
}
7276.1.1={
	holder=7097
}
7287.1.1={
	holder=6097
}
7324.1.1={
	holder=5097
}
7367.1.1={
	holder=4097
}
7382.1.5={
	holder=97
}
