623.1.1={
	liege = d_perzyria
}

7095.1.1 = { holder=10006011 } # Aemon (nc)
7132.1.1 = { holder=10016011 } # Daegar (nc)
7154.1.1 = { holder=10046011 } # Aenar (nc)
7178.1.1 = { holder=10076011 } # Matarys (nc)
7205.1.1 = { holder=10096011 } # Gaemon (nc)
7239.1.1 = { holder=10136011 } # Daemon (nc)
7260.1.1 = { holder=10166011 } # Matarys (nc)
7266.1.1 = { holder=10186011 } # Haegon (nc)
7305.1.1 = { holder=10196011 } # Maegon (nc)
7357.1.1 = { holder=10246011 } # Aemon (nc)
7385.1.1 = { holder=10256011 } # Rhaegel (nc)
7390.1.1 = { holder=10296011 } # Jaehaerys (nc)
7431.1.1 = { holder=10306011 } # Vaeron (nc)
7449.1.1 = { holder=10316011 } # Gaemon (nc)



