623.1.1={
	liege="d_qarkash"
}
 7091.1.1 = { holder=150350004 } # Xarvo (nc)
 7117.1.1 = { holder=100350004 } # Sallor (nc)
 7136.1.1 = { holder=102350004 } # Orbelo (nc)
 7182.1.1 = { holder=103350004 } # Bolquello (nc)
 7233.1.1 = { holder=107350004 } # Vogarro (nc)
 7261.1.1 = { holder=108350004 } # Orbelo (nc)
 7284.1.1 = { holder=114350004 } # Yorko (nc)
 7301.1.1 = { holder=117350004 } # Colloquo (nc)
 7321.1.1 = { holder=119350004 } # Qavo (nc)
 7368.1.1 = { holder=122350004 } # Lotho (nc)
 7380.1.1 = { holder=125350004 } # Qarro (nc)
