1112.1.1={
	liege="d_qarkash"
}
7058.1.1 = { holder=10035013 } # Mathos (nc)
7103.1.1 = { holder=10135013 } # Methyso (nc)
7130.1.1 = { holder=10335013 } # Navathos (nc)
7140.1.1 = { holder=10635013 } # Wullon (nc)
7158.1.1 = { holder=11235013 } # Surindos (nc)
7176.1.1 = { holder=11735013 } # Gathril (nc)
7205.1.1 = { holder=11835013 } # Sallor (nc)
7214.1.1 = { holder=12135013 } # Gorys (nc)
7223.1.1 = { holder=12235013 } # Belicho (nc)
7251.1.1 = { holder=12535013 } # Regon (nc)
7289.1.1 = { holder=12735013 } # Belicho (nc)
7308.1.1 = { holder=13135013 } # Surindos (nc)
7347.1.1 = { holder=13235013 } # Sybassion (nc)
7366.1.1 = { holder=13435013 } # Gathril (nc)
7389.1.1 = { holder=14435013 } # Regon (nc)
