﻿623.1.1=
{
	liege="d_griffins_roost"
	law = succ_primogeniture
	law = cognatic_succession
}
7094.1.1 = { holder = 300316 } # Lester Connington (nc)


7115.1.1 = { holder = 301316 } # Narbert Connington (nc)
7119.1.1 = { holder = 302316 } # Myles Connington (nc)
7165.1.1 = { holder = 305316 } # Orys Connington (nc)
7174.1.1 = { holder = 306316 } # Aegon Connington (nc)
7234.1.1 = { holder = 307316 } # Alyn Connington (nc)
7240.1.1 = { holder = 308316 } # Jon Connington (nc)
7272.1.1 = { holder = 309316 } # Aegon Connington (nc)
7296.1.1 = { holder = 310316 } # Alaric Connington (nc)
7330.1.1 = { holder = 311316 } # Renly Connington (nc)
7337.1.1 = { holder = 100316 } # Alyn Connington (nc)
7367.1.1 = { holder = 1316 } # Armond Connington (C)
7379.1.1 = { holder = 316 } # Jon Connington (C)
7383.1.1 = { holder = 2316 } # Ronald Connington (C)
7395.1.1 = { holder = 3316 } # Ronnet Connington (C)

