623.1.1={
	liege = d_perzyria
}

7095.1.1 = { holder=10006007 } # Aenar (nc)
7116.1.1 = { holder=10016007 } # Rhaekar (nc)
7130.1.1 = { holder=10046007 } # Otherys (nc)
7175.1.1 = { holder=10076007 } # Rhaegel (nc)
7187.1.1 = { holder=10116007 } # Haerys (nc)
7252.1.1 = { holder=10136007 } # Otherys (nc)
7266.1.1 = { holder=10146007 } # Rhaekar (nc)
7279.1.1 = { holder=10156007 } # Gaemon (nc)
7326.1.1 = { holder=10186007 } # Maelys (nc)
7339.1.1 = { holder=10236007 } # Maegor (nc)
7354.1.1 = { holder=10286007 } # Daeron (nc)
7394.1.1 = { holder=10316007 } # Gaemon (nc)
7395.1.1 = { holder=10346007 } # Aelix (nc)
7445.1.1 = { holder=10366007 } # Daeron (nc)

