7085.1.1 = { holder=100600211 liege = d_krazaaj_zasque } # Zirqo (nc)
7122.1.1 = { holder=101600211 } # Fogo (nc)
7158.1.1 = { holder=102600211 } # Hezzo (nc)
7166.1.1 = { holder=104600211 } # Jarbo (nc)
7167.1.1 = { holder=106600211 } # Zirqo (nc)
7198.1.1 = { holder=111600211 } # Scoro (nc)
7213.1.1 = { holder=112600211 } # Zollo (nc)
7222.1.1 = { holder=115600211 } # Tihho (nc)
7269.1.1 = { holder=118600211 } # Lanno (nc)
7293.1.1 = { holder=121600211 } # Marro (nc)
7303.1.1 = { holder=123600211 } # Mosko (nc)
7347.1.1 = { holder=128600211 } # Jasso (nc)
7356.1.1 = { holder=130600211 } # Rhogoro (nc)
