623.1.1={
	liege="d_bayasabhad"
	law = succ_seniority
	law = agnatic_succession
}
7045.1.1 = { holder=10055953 } # Alim (nc)
7103.1.1 = { holder=10155953 } # Nizam (nc)
7119.1.1 = { holder=10455953 } # Azam (nc)
7132.1.1 = { holder=10755953 } # Jalil (nc)
7181.1.1 = { holder=10955953 } # Nasr (nc)
7182.1.1 = { holder=11355953 } # Abdullah (nc)
7229.1.1 = { holder=11655953 } # Ali_Ali (nc)
7245.1.1 = { holder=11955953 } # Hussayn (nc)
7247.1.1 = { holder=12355953 } # Youkhanna (nc)
7263.1.1 = { holder=12755953 } # Jaleel (nc)
7287.1.1 = { holder=13055953 } # Youkhanna (nc)
7319.1.1 = { holder=13255953 } # Mukhtar (nc)
7375.1.1 = { holder=13555953 } # Murad (nc)
7385.1.1 = { holder=13655953 } # Shaiban (nc)
