623.1.1={
	liege="d_samyriana"
	law = succ_seniority
	law = agnatic_succession
}
7045.1.1 = { holder=10055948 } # Gafur (nc)
7103.1.1 = { holder=10155948 } # Yusuf (nc)
7119.1.1 = { holder=10455948 } # Bakr (nc)
7132.1.1 = { holder=10755948 } # Abdul (nc)
7181.1.1 = { holder=10955948 } # Nizam (nc)
7182.1.1 = { holder=11355948 } # Ali_Ali (nc)
7229.1.1 = { holder=11655948 } # Ubayd (nc)
7245.1.1 = { holder=11955948 } # Sami (nc)
7247.1.1 = { holder=12355948 } # Burhanaddin (nc)
7263.1.1 = { holder=12755948 } # Halil (nc)
7287.1.1 = { holder=13055948 } # Jalil (nc)
7319.1.1 = { holder=13255948 } # Fadl (nc)
7375.1.1 = { holder=13555948 } # Abdullah (nc)
7385.1.1 = { holder=13655948 } # Mukhtar (nc)
