
6340.1.1={
	liege="d_brimstone"
	law = cognatic_succession
}

7088.1.1 = { holder=60015 } # Allar (nc)
7106.1.1 = { holder=60115 } # Lythene (nc)
7145.1.1 = { holder=60315 } # Leyla (nc)
7159.1.1 = { holder=60415 } # Bedwyck (nc)
7163.1.1 = { holder=60615 } # Arron (nc)
7166.1.1 = { holder=60915 } # Quentyn (nc)
7210.1.1 = { holder=61115 } # Elyana (nc)
7247.1.1 = { holder=61515 } # Perros (nc)
7257.1.1 = { holder=61815 } # Deziel (nc)
7259.1.1 = { holder=61915 } # Obara (nc)
7266.1.1 = { holder=62215 } # Cedra (nc)
7290.1.1 = { holder=62315 } # Arthur (nc)
7309.1.1 = { holder=62515 } # Harmen (nc)
7336.1.1 = { holder=62815 } # Allar (nc)

