
7078.1.1 = { holder=10559161 } # Toregg (nc)
7115.1.1 = { holder=11559161 } # Torwynd (nc)
7138.1.1 = { holder=13559161 } # Joramun (nc)
7168.1.1 = { holder=19559161 } # Jarl (nc)
7181.1.1 = { holder=20559161 } # Quent (nc)
7215.1.1 = { holder=23559161 } # Owen (nc)
7270.1.1 = { holder=24559161 } # Lenyl (nc)
7283.1.1 = { holder=26559161 } # Doss (nc)
7292.1.1 = { holder=31559161 } # Mors (nc)
7313.1.1={
	liege="k_beyond_wall"
}
7326.9.9={
	liege="0"
}
7328.1.1 = { holder=32559161 } # Ryk (nc)
7366.1.1 = { holder=33559161 } # Soren (nc)
7373.1.1 = { holder=36559161 } # Eyron (nc)
#7388.1.1 = { holder=38559161 } # Mors (nc)

7382.1.1={
	holder=157009
}
7398.1.1={
	liege="k_beyond_wall"
	holder=157009
}
7400.1.1={
	holder=999000666
}
