1000.1.1={	
	law = succ_primogeniture
	liege = d_masseys_hook
}
6546.1.1 = {
	holder = 150049 #Togarion Bar Emmon
}
6558.1.1 = { holder = 0 }

7050.1.1 = { holder = 152049 }
7088.1.1 = { holder = 153049 }
7095.1.1 = { holder=3000049 } # Robin Bar Emmon (nc)

7131.1.1 = { holder=3002049 } # Rorge Bar Emmon (nc)
7149.1.1 = { holder=3007049 } # Alliser Bar Emmon (nc)
7175.1.1 = { holder=3009049 } # Rorge Bar Emmon (nc)
7209.1.1 = { holder=3012049 } # Osmund Bar Emmon (nc)
7224.1.1 = { holder=3014049 } # Clarence Bar Emmon (nc)
7288.1.1 = { holder=3016049 } # Leonette Bar Emmon (nc)
7300.1.1 = { holder=3019049 } # Robin Bar Emmon (nc)
7335.1.1 = { holder=3021049 } # Ardrian Bar Emmon (nc)

7369.1.1 = { holder=3027049 } # Devan Bar Emmon (nc)
7377.1.1 = { holder=3028049 } # Guncer Bar Emmon (nc)
7396.1.1 = { holder=3029049 } # Duran Bar Emmon (C)
