623.1.1={
	liege="k_lys"
}

7070.1.1 = { holder=150300539 } # Nyessos (nc)
7129.1.1 = { holder=100300539 } # Doniphos (nc)
7175.1.1 = { holder=104300539 } # Orbelo (nc)
7177.1.1 = { holder=106300539 } # Oro (nc)
7215.1.1 = { holder=107300539 } # Gyleno (nc)
7225.1.1 = { holder=108300539 } # Lysandro (C)
7240.1.1 = { holder=110300539 } # Lysaro (C)
7245.1.1 = { holder=112300539 } # Moredo (C)
7265.1.1 = { holder=114300539 } # Orbelo (nc)
7309.1.1 = { holder=119300539 } # Moreo (nc)
7333.1.1 = { holder=120300539 } # Gyleno (nc)
7352.1.1 = { holder=123300539 } # Orbelo (nc)

