623.1.1={ law=succ_primogeniture law=cognatic_succession
	liege="e_reach"
}
7085.1.1 = { holder=3000276 } # Renly (nc)
7085.1.1={
	liege=e_iron_isles #Qhored Hoare
}
7100.6.6 = { holder=3001276 } # Cliffyrd (nc)
7167.1.1 = { holder=3006276 } # Leyton (nc)
7180.1.1 = { holder=3008276 } # Tommen (nc)
7197.1.1 = { holder=3009276 } # Imry (nc)
7227.1.1 = { holder=3015276 } # Jeffroy (sc)
7246.1.1 = { holder=3019276 } # Justyn (sc)
7293.1.1 = { holder=3022276 } # Audrik(sc)
7300.1.1={
	liege=e_reach
}
7307.1.1 = { holder=3023276 } # Anslem (nc)
7356.1.1 = { holder=3025276 } # Dontos (nc)
7361.1.1={
	holder=88047 #Samwell (nc)
}
7374.1.1={
	holder=276 #Osbert # (C)
}




