5100.1.1={
	liege="d_acornsridge"
	law = succ_primogeniture
}
7076.1.1={
	holder=14157
}
7108.1.1={
	holder=13157
}
7137.1.1={
	holder=12157
}
7152.1.1={
	holder=11157
}
7195.1.1={
	holder=9157
}
7224.1.1={
	holder=8157
}
7237.1.1={
	holder=7157
}
7278.1.1={
	holder=6157
}
7291.1.1={
	holder=5157
}
7314.1.1={
	holder=4157
}
7337.1.1={
	holder=3157
}
7366.1.1={
	holder=2157
}
7374.1.1={
	holder=157
}
