1.1.1 = { liege="d_cockleswhent" }

25.1.1 = { holder=4510281 } # Mervyn (nc)
74.1.1 = { holder=65400298 } # Gormon (nc)

120.1.1 = { holder=0 }

6950.1.1 = { holder=6100298 } # Gwayne (nc)
6987.1.1 = { holder=6200298 } # Mervyn (nc)
6995.1.1 = { holder=65000298 } # Perceon (nc)
7030.1.1 = { holder=65100298 } # Galadon (nc)
7084.1.1 = { holder=65200298 } # Gareth (nc)
7088.1.1 = { holder=3000298 } # Mern (nc)
7098.6.6 = { holder=3001298 } # Tania (nc)
7117.1.1 = { holder=3004298 } # Mathis (nc)
7165.1.1 = { holder=3008298 } # Morm (nc)
7180.1.1 = { holder=3010298 } # Martyn (nc)
7224.1.1 = { holder=3011298 } # Arryn (nc)
7246.1.1 = { holder=3015298 } # Franklyn (nc)
7270.1.1 = { holder=3019298 } # Horas (nc)
7294.1.1 = { holder=65600298 } # Lorrence
7320.1.1 = { holder=3026298 } # Edmyn (nc)
7348.1.1 = { holder=3029298 } # Mace (nc)
7378.1.1={
	holder=3031298 # Talbert(nc)
}
7382.1.1={
	holder=6298 # Laswell 
}
7390.1.1={
	holder=298 #Mervyn (nc)
}
7396.1.1={
	holder=1298 # Titus
}


