623.1.1={
	liege="d_trader_town"
}
7095.1.1 = { holder=10069166 } # Wahab (nc)
7131.1.1 = { holder=10169166 } # Jabir (nc)
7158.1.1 = { holder=10569166 } # Mukhtar (nc)
7180.1.1 = { holder=10769166 } # Abdullah (nc)
7231.1.1 = { holder=11069166 } # Halil (nc)
7236.1.1 = { holder=11169166 } # Khaireddin (nc)
7285.1.1 = { holder=11369166 } # Ubayd (nc)
7291.1.1 = { holder=11769166 } # Hussayn (nc)
7310.1.1 = { holder=11969166 } # Qawurd (nc)
7365.1.1 = { holder=12269166 } # Azam (nc)
7376.1.1 = { holder=12769166 } # Jalil (nc)
7379.1.1 = { holder=13069166 } # Nizam (nc)


