623.1.1={
	liege="d_harlaw"
	law=succ_primogeniture 
	law=agnatic_succession
}
7025.1.1 = { holder=150119 } # Gorold (nc)
7070.1.1 = { holder=151119 } # Erik (nc)
7090.1.1 = { holder=3000119 } # Hilmar (nc)

7101.1.1 = { 
	holder=3003119 # Cragorn (nc)
} 
7133.1.1 = { holder=3004119 } # Urrigon (nc)
7184.1.1 = { holder=3005119 } # Alyn (nc)
7212.1.1 = { holder=3010119 } # Lorren (nc)
7233.1.1 = { holder=3014119 } # Donnel (nc)
7261.1.1 = { holder=3016119 } # Tarle (nc)
7281.1.1 = { holder=3020119 } # Ralf (nc)
7335.1.1 = { holder=3022119 } # Sigfry (nc)
7338.1.1 = { holder=3023119 } # Qalen (nc)
7364.1.1 = { holder=3025119 } # Sylas (nc)
7377.1.1 = {	
	holder=1119 #Harryn (nc)
}
7394.1.1 = {	
	holder=5119 #Maron
}	
