623.1.1={
	liege="k_qohor"
}

7095.1.1 = { holder=100069133 } # Mero (nc)
7142.1.1 = { holder=100269133 } # Moreo (nc)
7154.1.1 = { holder=100969133 } # Narbo (nc)
7161.1.1 = { holder=101269133 } # Gyloro (nc)
7197.1.1 = { holder=101369133 } # Ordello (nc)
7209.1.1 = { holder=101669133 } # Orbelo (nc)
7260.1.1 = { holder=101969133 } # Tagganaro (nc)
7268.1.1 = { holder=102069133 } # Roro (nc)
7293.1.1 = { holder=102269133 } # Noho (nc)
7309.1.1 = { holder=102469133 } # Cossomo (nc)
7358.1.1 = { holder=102969133 } # Meralyn (nc)
7388.1.1 = { holder=103169133 } # Brusco (nc)
