1.1.1={
	liege="d_wayfarersrest"
}
5748.1.1 = {
    holder=650153 #Armistead (C)
}
5775.1.1 = {
	holder = 0
}
6871.1.1 = {
    holder=652153 #Robert (C)
}
6885.1.1 = {
	holder = 0
}

7067.1.1={
    holder=550153
}	
7086.1.1={
	holder=9153
}
7110.1.1={
	holder=21154
}
7144.1.1={
	holder=20154
}
7155.1.1={
	holder=19154
}
7178.1.1={
	holder=18154
}
7202.1.1={
	holder=17154
}
7232.1.1={
	holder=15154
}
7255.1.1={
	holder=14154
}
7274.1.1={
	holder=13154
}
7303.1.1={
	holder=12154
}
7314.1.1={
	holder=11154
}
7366.1.1={
	holder=22154
}
 
