6000.1.1={
	law = succ_primogeniture
}
6529.1.1 = { holder=550170 } # Usula
6538.6.6 = { holder=0 }

6715.1.1 = { holder=552170 } # Elrond
6716.1.1 = { liege="e_vale" }
6723.1.1 = { holder=0 }

6978.1.1 = { holder=3100170 } # Randyll (nc)
7040.1.1 = { holder=3201170 } # Rolley (nc)
7096.1.1 = { holder=3000170 } # Damon (nc)

7146.1.1 = { holder=3001170 } # Albar (nc)
7155.1.1 = { holder=3004170 } # Ronnel (nc)
7198.1.1 = { holder=3011170 } # Othor (nc)
7207.1.1 = { holder=3016170 } # Gyles (nc)
7238.1.1 = { holder=3019170 } # Florian (nc)
7287.1.1 = { holder=3020170 } # Lark (nc)
7314.1.1 = { holder=3022170 } # Denys (nc)
7346.1.1 = { holder=3024170 } # Randyll (nc)
7362.1.1 = { holder=3027170 } # Pate (nc)


