5100.1.1={
liege="d_wolfswood"
}
7094.1.1 = { holder=31444 } # Brandon (nc)
7124.1.1 = { holder=51444 } # Edwyn (nc)
7153.1.1 = { holder=91444 } # Berena (nc)
7162.1.1 = { holder=121444 } # Dacey (nc)
7184.1.1 = { holder=131444 } # Lyra (nc)
7224.1.1 = { holder=141444 } # Howland (nc)
7236.1.1 = { holder=161444 } # Rodrik (nc)
7263.1.1 = { holder=181444 } # Osric (nc)
7318.1.1 = { holder=261444 } # Theon (nc)
7320.1.1 = { holder=291444 } # Donnor (nc)
7355.1.1 = { holder=341444 } # Cellador (nc)
7382.1.1={
	holder=10001444 #Ned
}
