6100.1.1={
	liege="d_stoneway"
}

7090.1.1 = { holder=65019 } # Edwyle (nc)
7112.1.1 = { holder=65119 } # Aryon (nc)
7153.1.1 = { holder=65419 } # Colin (nc)
7175.1.1 = { holder=65619 } # Tremond (nc)
7207.1.1 = { holder=65819 } # Alaric (nc)
7239.1.1 = { holder=651019 } # Gulian (nc)
7257.1.1 = { holder=651619 } # Arthur (nc)
7258.1.1 = { holder=651819 } # Olyvar (nc)
7260.1.1 = { holder=651919 } # Ederyn (nc)
7299.1.1 = { holder=652019 } # Sylva (nc)
7323.1.1 = { holder=652319 } # Willam (nc)
7327.1.1 = { holder=652519 } # Armen (nc)

