6700.1.1={
	liege="k_acornsridgeTK"
	law = succ_primogeniture
}
6939.1.1 = {
	liege=e_riverlands
}
7076.1.1={
	holder=14157
}
7101.1.1 = {
	liege=0
}
7108.1.1={
	holder=13157
}
7137.1.1={
	holder=12157
}
7152.1.1={
	holder=11157
}
7195.1.1={
	holder=9157
}
7200.1.1={
    	liege="e_riverlands"
}
7224.1.1={
	holder=8157
}
7230.5.8={
	holder=7157 # Willem (SC)
}
7278.1.1={
	holder=6157
}
7291.1.1={
	holder=5157
}
7314.1.1={
	holder=4157
}
7337.1.1={
	holder=3157
}
7366.1.1={
	holder=2157
}
7374.1.1={
	holder=157
}
