4100.1.1={
	law = succ_primogeniture
	liege = k_andalos
}
7085.1.1 = { holder=100174900 } # Marwyn (nc)
7123.1.1 = { holder=101174900 } # Uthor (nc)
7165.1.1 = { holder=105174900 } # Pate (nc)
7176.1.1 = { holder=107174900 } # Symond (nc)
7197.1.1 = { holder=108174900 } # Osgood (nc)
7201.1.1 = { holder=109174900 } # Robar (nc)
7218.1.1 = { holder=110174900 } # Denys (nc)
7226.1.1 = { holder=111174900 } # Benedar (nc)
7272.1.1 = { holder=119174900 } # Robar (nc)
7294.1.1 = { holder=120174900 } # Lothor (nc)
7317.1.1 = { holder=123174900 } # Elys (nc)
7341.1.1 = { holder=124174900 } # Jasper (nc)
7389.1.1 = { holder=131174900 } # Ballabar (nc)
