623.1.1={
	#liege="k_asshai"
}
7090.1.1 = { holder=10032901 } # Sumalika (nc)
7117.1.1 = { holder=10532901 } # Awil (nc)
7143.1.1 = { holder=10732901 } # Dadanum (nc)
7154.1.1 = { holder=11132901 } # Mamagal (nc)
7214.1.1 = { holder=11532901 } # Damuzi (nc)
7233.1.1 = { holder=11932901 } # Qasmath (nc)
7247.1.1 = { holder=12132901 } # Samuqan (nc)
7276.1.1 = { holder=12532901 } # Utu (nc)
7315.1.1 = { holder=12932901 } # Ibnatum (nc)
7340.1.1 = { holder=13332901 } # Qasmath (nc)
7373.1.1 = { holder=13632901 } # Bunuth (nc)
7374.1.1 = { holder=13932901 } # Yatum (nc)


