6100.1.1={
	liege="k_blackwoodTK"
	law = succ_primogeniture
}
6982.2.1={holder=60400150} # Torrhen Blackwood
7017.11.7={holder=60300150} # Agnes Blackwood
7033.1.1 = {holder=60200150} # Brynden Blackwood
7080.1.1={holder=60000150} # Rodrik Blackwood
7095.1.1={holder=35150} # Theomar Blackwood

7106.1.1={
	holder=34150
}
7140.1.1={
	holder=33150
}
7154.1.1={
	holder=32150
}
7178.1.1={
	holder=31150
}
7200.1.1={
    	liege="e_riverlands"
}
7209.1.1={
	holder=30150
}
7221.1.1={
	holder=150150
}
7229.8.1={
	holder=28150
}
7290.1.1={
	holder=26150
}
7305.1.1={
	holder=22150
}
7330.1.1={
	holder=21150
}
7358.1.1={
	holder=19150
}
7381.1.1={
	holder=150
}


