1.1.1={ law=succ_primogeniture law=cognatic_succession
	liege="e_reach"
}
21.1.1={holder=65000281} # Florys the Fox
30.1.1={holder=4500281} # Her husband
80.1.1={holder=65100281} # Her son
100.1.1={holder=0}
900.1.1={ law=succ_primogeniture law=cognatic_succession
	liege="e_reach"
}

6970.1.1={
	holder=3000281
}
7040.1.1={
	holder=3002281
}
7078.1.1={
	holder=3003281
}
7098.1.1={
	holder=88252
}

7152.1.1={
	holder=88253
}
7175.1.1={
	holder=88254
}
7190.1.1={
	holder=88255
}
7203.1.1={
	holder=88256
}
7232.1.1={
	holder=88257
}
7265.1.1={
	holder=88258
}
7282.1.1={
	holder=88259
}

7296.1.1={
	holder=88261
}
7314.1.1={
	holder=88263
}
7332.1.1={
	holder=88021
}







