#d_greenfield (Renamed Cornfield)
623.1.1={ liege = "e_westerlands" }
7080.1.1 = { holder=325232 } # Terrence (nc)
7100.6.6 = { holder=327232 } # Cadwyn (nc)
7140.1.1 = { holder=329232 } # Garth (nc)
7161.1.1 = { holder=331232 } # Kevan (nc)
7197.1.1 = { holder=333232 } # Ormond (nc)
7211.1.1 = { holder=335232 } # Myrielle (nc)
7227.1.1 = { holder=337232 } # Joanna (nc)
7275.1.1 = { holder=341232 } # Forley (nc)
7304.1.1 = { holder=342232 } # Willem (nc)
7331.1.1 = { holder=346232 } # Ossifer (nc)
7340.1.1 = { holder=348232 } # Godwyn (nc)
7359.2.8 = { holder=232 } # Garth (c)
