#d_crakehall
50.1.1 = { holder=3990227} # Crake (C)
900.1.1={
	liege="e_westerlands"
}
6920.1.1 = { holder=396227 } # Tymeon (nc)
6940.1.1 = { holder=397227 } # Harys (nc)
6971.1.1 = { holder=398227 } # Ryland (nc)
6988.1.1 = { holder=390227 } # Cragon (nc)
7035.1.1 = { holder=392227 } # Loreon (nc)
7061.1.1 = { holder=394227 } # Roland (nc)
7080.1.1 = { holder=395227 } # Sumner (nc)
7082.1.1 = { holder=31227 } # Lyle (c)
7085.1.1={
	liege=e_iron_isles #Qhored Hoare
}
7145.1.1 = {holder=29227}
7156.1.1 = {holder=28227}
7188.1.1 = {holder=27227}
7200.1.1 = {holder=26227} # Jonos Crakehall
7250.1.1={
	liege=e_westerlands
}
7267.1.1 = {holder=510227} # Burton Crakehall
7275.1.1 = {holder=23227} # Garen Crakehall
7288.1.1 = {holder=22227}
7296.3.1 = {holder=20227}

