6000.1.1={
	law = succ_primogeniture
}
6349.1.1 = { liege="e_vale" }

6506.1.1 = { holder=500177 } #gerold (NC)
6542.1.1 = { holder = 0 }

7088.1.1 = { holder=3000177 } # Vardis (nc)
7123.1.1 = { holder=3001177 } # Eon (nc)
7124.1.1 = { holder=3004177 } # Waymar (nc)
7142.1.1 = { holder=3007177 } # Morton (nc)

7186.1.1 = { holder=3008177 } # Petyr (nc)
7250.1.1 = { holder=3009177 } # Damon (nc)
7258.1.1 = { holder=3010177 } # Triston (nc)
7294.1.1 = { holder=3012177 } # Raymar (nc)
7303.1.1 = { holder=3014177 } # Pate (nc)
7314.1.1 = { holder=3018177 } # Vardis (nc)

7360.1.1={
	holder=94052
}
7400.1.1={
	holder=94053
}
