623.1.1 = {
	liege="k_ibben"
	law = succ_primogeniture
	law = agnatic_succession
}
7090.1.1 = { holder=1055929 } # Slugg (nc)
7136.1.1 = { holder=1255929 } # Bodger (nc)
7148.1.1 = { holder=1655929 } # Tugg (nc)
7185.1.1 = { holder=1855929 } # Jogg (nc)
7189.1.1 = { holder=2055929 } # Bodger (nc)
7221.1.1 = { holder=2455929 } # Quort (nc)
7249.1.1 = { holder=2955929 } # Draloth (nc)
7262.1.1 = { holder=3355929 } # Ygon (nc)
7306.1.1 = { holder=3455929 } # Cull (nc)
7314.1.1 = { holder=3855929 } # Brogg (nc)
7358.1.1 = { holder=3955929 } # Groo (nc)
7397.1.1 = { holder=40055929 } # Slugg (nc)

