5100.1.1={
	liege="e_north"
	law = succ_primogeniture
}
7085.1.1={
	liege=e_iron_isles #Qhored Hoare
}
7095.1.1={
	holder=20077
}
7130.1.1={
	holder=19077
}
7145.1.1={
	holder=18077
}
7175.1.1={
	holder=17077
}
7193.1.1={
	holder=16077
}
7226.1.1={
	holder=15077
}
7270.1.1={
	holder=13077
}
7303.1.1={
	holder=11077
}
7339.1.1={
	holder=10077
}
7350.1.1={
    	liege="e_north"
}
7362.1.1={
	holder=75
}
