4578.1.1 = {
	liege = k_hazdahn
}
7095.1.1 = { holder=100069190 } # Yarkhaz (nc)
7130.1.1 = { holder=100269190 } # Yurkhaz (nc)
7149.1.1 = { holder=100769190 } # Barkhaz (nc)
7178.1.1 = { holder=100869190 } # Grazdan (nc)
7223.1.1 = { holder=101469190 } # Grazdhar (nc)
7228.1.1 = { holder=101769190 } # Barghaz (nc)
7246.1.1 = { holder=101969190 } # Barghaz (nc)
7303.1.1 = { holder=102169190 } # Faezdhar (nc)
7307.1.1 = { holder=102569190 } # Morghaz (nc)
7332.1.1 = { holder=102669190 } # Mazdhan (nc)
7369.1.1 = { holder=103169190 } # Miklaz (nc)
7378.1.1 = { holder=103669190 } # Faezdhar (nc)

