623.1.1={
	liege = e_new_valyria
}

7095.1.1 = { holder=10000351 } # Maegon (nc)
7135.1.1 = { holder=10030351 } # Otherys (nc)
7167.1.1 = { holder=10040351 } # Baelon (nc)
7180.1.1 = { holder=10060351 } # Aelix (nc)
7198.1.1 = { holder=10070351 } # Maegor (nc)
7240.1.1 = { holder=10110351 } # Maerys (nc)
7248.1.1 = { holder=10140351 } # Jaehaerys (nc)
7272.1.1 = { holder=10190351 } # Maelys (nc)
7291.1.1 = { holder=10250351 } # Maerys (nc)
7336.1.1 = { holder=10260351 } # Vaeron (nc)
7366.1.1 = { holder=10270351 } # Maelys (nc)
7375.1.1 = { holder=10340351 } # Daeron (nc)
7430.1.1 = { holder=10360351 } # Rhae (nc)

