623.1.1={
	law = succ_seniority
	law = agnatic_succession
}
7086.1.1 = { holder=10055945 } # Mykoon (nc)
7123.1.1 = { holder=10355945 } # Esko (nc)
7136.1.1 = { holder=10755945 } # Voitto (nc)
7182.1.1 = { holder=11155945 } # Myikku (nc)
7203.1.1 = { holder=11355945 } # Voitto (nc)
7206.1.1 = { holder=11655945 } # Veikko (nc)
7241.1.1 = { holder=11955945 } # Ryku (nc)
7249.1.1 = { holder=12055945 } # Sakari (nc)
7289.1.1 = { holder=12455945 } # Valto (nc)
7337.1.1 = { holder=12755945 } # Nyilo (nc)
7355.1.1 = { holder=13255945 } # Hyrno (nc)
7367.1.1 = { holder=13555945 } # Uljas (nc)
7381.1.1 = { holder=13755945 } # Hannu (nc)



