623.1.1={
	liege="k_chroyane"
	law = succ_primogeniture
	law = true_cognatic_succession
}
7095.1.1 = { holder=110086017 } # Maron (nc)
7119.1.1 = { holder=110286017 } # Anders (nc)
7140.1.1 = { holder=110386017 } # Aryen (nc)
7162.1.1 = { holder=10586017 } # Belyar (nc)
7196.1.1 = { holder=10786017 } # Daemyn (nc)
7201.1.1 = { holder=11386017 } # Mallor (nc)
7243.1.1 = { holder=11586017 } # Anders (nc)
7253.1.1 = { holder=11786017 } # Trebor (nc)
7274.1.1 = { holder=6054001 } # Chroyana (nc)
7282.10.1 = { holder=6000001 } # Garin (c)

7297.9.4 = { 
	holder=0
	liege=0 
}
