623.1.1={
	liege="k_piqui"
}
7095.1.1 = { holder=10069193 } # Najib (nc)
7128.1.1 = { holder=10269193 } # Aghlab (nc)
7129.1.1 = { holder=10369193 } # Mansur (nc)
7165.1.1 = { holder=10669193 } # Mubarak (nc)
7210.1.1 = { holder=11069193 } # Qawurd (nc)
7216.1.1 = { holder=11569193 } # Talib (nc)
7242.1.1 = { holder=11669193 } # Shaiban (nc)
7277.1.1 = { holder=11769193 } # Aghlab (nc)
7298.1.1 = { holder=11969193 } # Jalil (nc)
7325.1.1 = { holder=12169193 } # Halil (nc)
7344.1.1 = { holder=12469193 } # Abdullah (nc)
7364.1.1 = { holder=12869193 } # Aghlab (nc)



