6468.1.1 = { 
	liege="k_theneckTK"
	law = succ_primogeniture
	holder = 1050126 #Last Marsh king
}
6506.1.1={
	liege="e_north"
	holder = 0
}

7085.1.1={
	holder=13126
}
7131.1.1={
	holder=12126
}
7154.1.1={
	holder=11126
}
7167.1.1={
	holder=14126
}
7207.1.1={
	holder=9126
}
7240.1.1={
	holder=7126
}
7272.1.1={
	holder=6126
}
7304.1.1={
	holder=5126
}
7352.1.1={
	holder=4126
}
7367.1.1={
	holder=3126
}
7382.1.1={
	holder=126
}
