1112.1.1={
	liege="k_qarth"
}
7081.1.1 = { holder=10035000 } # Ordello (nc)
7125.1.1 = { holder=10135000 } # Pyat (nc)
7132.1.1 = { holder=10435000 } # Urrathon (nc)
7147.1.1 = { holder=10535000 } # Mathos (nc)
7170.1.1 = { holder=10935000 } # Surindos (nc)
7215.1.1 = { holder=11135000 } # Wendello (nc)
7233.1.1 = { holder=11435000 } # Ordello (nc)
7261.1.1 = { holder=12035000 } # Lotho (nc)
7294.1.1 = { holder=12135000 } # Pyat (nc)
7300.1.1 = { holder=12535000 } # Methyso (nc)
7317.1.1 = { holder=12835000 } # Ognos (nc)
7346.1.1 = { holder=13335000 } # Belicho (nc)
7380.1.1 = { holder=13635000 } # Xaro Xhoan (nc)


