1.1.1={
	liege="e_north"
	name = c_whiteknife
}
7095.1.1 = { holder=1000859 } # Torrhen (nc)
7124.1.1 = { holder=1001859 } # Hother (nc)
7145.1.1 = { holder=1002859 } # Calon (nc)
7156.1.1 = { holder=1003859 } # Jonnel (nc)
7203.1.1 = { holder=1005859 } # Benfred (nc)
7214.1.1 = { holder=1007859 } # Rodrik (nc)
7255.1.1 = { holder=1008859 } # Wyman (nc)
7281.1.1 = { holder=1009859 } # Cregan (nc)

7301.1.1 = { holder=0 }