6939.1.1={
	liege="e_riverlands"
	law = succ_primogeniture
}

7083.1.1={
	holder=25152
}
7101.1.1 = {
	liege=0
}
7107.1.1={
	holder=24152
}
7133.1.1={
	holder=23152
}
7164.1.1={
	holder=21152
}
7198.1.1={
	holder=20152 # Androw Ryger
}
7200.1.1={
	liege="e_riverlands"
}
7225.1.1={
	holder=5500152 # Roger Ryger
}
7235.2.7={
	holder=17152 # Terin Ryger
}
7290.1.1={
	holder=16152
}
7320.1.1={
	holder=14152
}
7345.1.1={
	holder=13152
}

