4100.1.1 = {
	historical_nomad = yes
	law = slavery_2
}
7005.1.1 = {
	holder = 100600207 #Mengo
}
7028.1.1 = {
	holder = 102600207 #Moro
}
7046.1.1 = {
	holder = 100600208 #Horro
}
7051.1.1 = {
	holder = 0 #dothraki splinter
}
7387.1.1 = {
	holder = 300100 #Khal Drogo
}
7398.10.10 = {
	holder = 3300101 #Pono
}

