7087.1.1={
	holder=150300024
	law = slavery_2
	law = centralization_2
	effect = {
		holder_scope = { 
			e_new_valyria = {
				holder_scope = {
					make_tributary = { who = PREVPREV tributary_type = valyrian_tributary }
				}
			}
		}	
	}
}
7128.1.1 = { holder=100300533 } # Groleo (nc)
7151.1.1 = { holder=100300543 } # Mallaquo (nc)
7164.1.1 = { holder=101300544 } # Jaqen (nc)
7179.1.1 = { holder=103300543 } # Roggo (nc)


7198.1.1 = { holder=105300542 } # Syrio (nc)
7208.1.1 = { holder=108300533 } # Qarro Ryndoon (nc)


7234.1.1 = { holder=109300024 } # Ordello (nc)
7246.1.1 = { holder=113300542 } # Beqqo (nc)
7265.1.1 = { holder=122300024 } # Oro (nc)
7303.1.1 = { holder=121300544 } # Ordello (nc)
7334.1.1 = { holder=128300024 } # Tycho (nc)


7370.1.1 = { holder=130300024 } # Gyloro (nc)
7378.1.1 = { holder=131300024 } # Syrio (nc)






