#CODE;ENGLISH;FRENCH;GERMAN;;SPANISH;;;;;;;;;x
title_old_gods_reformed_cardinal;Most Faithful;;;;;;;;;;;;;x
title_beyond_wall_old_gods_reformed_cardinal;Most Faithful;;;;;;;;;;;;;x
title_mountain_old_gods_reformed_cardinal;Most Faithful;;;;;;;;;;;;;x
title_thenn_rel_reformed_cardinal;Most Faithful;;;;;;;;;;;;;x
title_storm_god_reformed_cardinal;Most Fearful;;;;;;;;;;;;;x
title_drowned_god_reformed_cardinal;Drowned Man;;;;;;;;;;;;;x
title_black_goat_reformed_cardinal;Most Resolute;;;;;;;;;;;;;x
title_gods_lorath_reformed_cardinal;Most Genuine;;;;;;;;;;;;;x
title_moonsingers_reformed_cardinal;Most Adoring;;;;;;;;;;;;;x
title_trios_reformed_cardinal;Most Loyal;;;;;;;;;;;;;x
title_father_of_waters_reformed_cardinal;Most Loyal;;;;;;;;;;;;;x
title_rhoynar_pagan_reformed_cardinal;Most Fervent;;;;;;;;;;;;;x
title_boash_reformed_cardinal;Most Fanatic;;;;;;;;;;;;;x
title_weeping_lady_reformed_cardinal;Most Sincere;;;;;;;;;;;;;x
title_valyrian_rel_reformed_cardinal;Most Pious;;;;;;;;;;;;;x
title_gods_sarnor_reformed_cardinal;Most Profound;;;;;;;;;;;;;x
title_harpy_reformed_cardinal;Most Ardent;;;;;;;;;;;;;x
title_yiti_gods_reformed_cardinal;Most Obedient;;;;;;;;;;;;;x
title_lion_night_reformed_cardinal;Most Diligent;;;;;;;;;;;;;x
title_shadowbinders_reformed_cardinal;Most Reverent;;;;;;;;;;;;;x
title_gods_bone_mountains_reformed_cardinal;Most Zealous;;;;;;;;;;;;;x
title_gods_nghai_reformed_cardinal;Most Focused;;;;;;;;;;;;;x
title_stone_cow_reformed_cardinal;Most Temperate;;;;;;;;;;;;;x
title_jogos_pagan_reformed_cardinal;Most Adoring;;;;;;;;;;;;;x
title_great_shepherd_reformed_cardinal;Most Earnest;;;;;;;;;;;;;x
title_summer_rel_reformed_cardinal;Most Venerated;;;;;;;;;;;;;x
title_nath_pagan_reformed_cardinal;Most True;;;;;;;;;;;;;x
title_lady_of_the_waves_reformed_cardinal;Most Revering;;;;;;;;;;;;;x

#Old_Gods;;;;;;;;;;;;;;
best_candidate_title_old_gods_reformed_cardinal;My Best Most Faithful Candidate;;;;;;;;;;;;;x
expected_next_title_old_gods_reformed_cardinal;Expected Next Most Faithful;;;;;;;;;;;;;x
OLD_GODS_PREFERATI;Expected Successor;;;;;;;;;;;;;x
OLD_GODS_PREFERATI_TOOLTIP;This is the member of The Old Gods Faithful most expected to succeed the current High Priest.;;;;;;;;;;;;;x
OLD_GODS_HEAD_PRIEST;High Priest;;;;;;;;;;;;;x
COLLEGE_OF_OLD_GODS_CARDINALS;The Old Gods Faithful;;;;;;;;;;;;;x

#Beyond_Wall_Gods;;;;;;;;;;;;;;
best_candidate_title_beyond_wall_old_gods_reformed_cardinal;My Best Most Faithful Candidate;;;;;;;;;;;;;x
expected_next_title_beyond_wall_old_gods_reformed_cardinal;Expected Next Most Faithful;;;;;;;;;;;;;x
BWOG_PREFERATI;Expected Successor;;;;;;;;;;;;;x
BWOG_PREFERATI_TOOLTIP;This is the member of The True Old Gods Right most expected to succeed the current High Priest.;;;;;;;;;;;;;x
BWOG_HEAD_PRIEST;High Priest;;;;;;;;;;;;;x
COLLEGE_OF_BWOG_CARDINALS;The True Old Gods Rite;;;;;;;;;;;;;x

#Beyond_Wall_Gods;;;;;;;;;;;;;;
best_candidate_title_beyond_wall_old_gods_reformed_cardinal;My Best Most Faithful Candidate;;;;;;;;;;;;;x
expected_next_title_beyond_wall_old_gods_reformed_cardinal;Expected Next Most Faithful;;;;;;;;;;;;;x
BWOG_PREFERATI;Expected Successor;;;;;;;;;;;;;x
BWOG_PREFERATI_TOOLTIP;This is the member of The True Old Gods Right most expected to succeed the current High Priest.;;;;;;;;;;;;;x
BWOG_HEAD_PRIEST;High Priest;;;;;;;;;;;;;x
COLLEGE_OF_BWOG_CARDINALS;The True Old Gods Rite;;;;;;;;;;;;;x

#Drowned_God;;;;;;;;;;;;;;
best_candidate_title_drowned_reformed_cardinal;My Best Drowned Man Candidate;;;;;;;;;;;;;x
expected_next_title_drowned_reformed_cardinal;Expected Next Drowned Man;;;;;;;;;;;;;x
DROWNED_PREFERATI;Expected Successor;;;;;;;;;;;;;x
DROWNED_PREFERATI_TOOLTIP;This is the member of The Drowned Men most expected to succeed the current Drowned Lord.;;;;;;;;;;;;;x
DROWNED_HEAD_PRIEST;Drowned Lord;;;;;;;;;;;;;x
COLLEGE_OF_DROWNED_CARDINALS;The Drowned Men;;;;;;;;;;;;;x

#Black_Goat;;;;;;;;;;;;;;
best_candidate_title_bgoat_reformed_cardinal;My Best Most Resolute Candidate;;;;;;;;;;;;;x
expected_next_title_bgoat_reformed_cardinal;Expected Next Most Resolute;;;;;;;;;;;;;x
BGOAT_PREFERATI;Expected Successor;;;;;;;;;;;;;x
BGOAT_PREFERATI_TOOLTIP;This is the member of The Black Goat Priests most expected to succeed the current High Priest.;;;;;;;;;;;;;x
BGOAT_HEAD_PRIEST;High Priest;;;;;;;;;;;;;x
COLLEGE_OF_BGOAT_CARDINALS;The Black Goat Priests;;;;;;;;;;;;;x

#Gods_Lorath;;;;;;;;;;;;;;
best_candidate_title_gods_lorath_reformed_cardinal;My Best Most Genuine Candidate;;;;;;;;;;;;;x
expected_next_title_gods_lorath_reformed_cardinal;Expected Next Most Genuine;;;;;;;;;;;;;x
LORATH_PREFERATI;Expected Successor;;;;;;;;;;;;;x
LORATH_PREFERATI_TOOLTIP;This is the member of The Lorathi Priests most expected to succeed the current High Priest.;;;;;;;;;;;;;x
LORATH_HEAD_PRIEST;High Priest;;;;;;;;;;;;;x
COLLEGE_OF_LORATH_CARDINALS;The Lorathi Priests;;;;;;;;;;;;;x

#Moonsingers;;;;;;;;;;;;;;
best_candidate_title_moonsingers_reformed_cardinal;My Best Most Adoring Candidate;;;;;;;;;;;;;x
expected_next_title_moonsingers_reformed_cardinal;Expected Next Most Adoring;;;;;;;;;;;;;x
MOONSINGER_PREFERATI;Expected Successor;;;;;;;;;;;;;x
MOONSINGER_PREFERATI_TOOLTIP;This is the member of The Moonsingers most expected to succeed the current High Moonsinger.;;;;;;;;;;;;;x
MOONSINGER_HEAD_PRIEST;High Moonsinger;;;;;;;;;;;;;x
COLLEGE_OF_MOONSINGER_CARDINALS;The Moonsingers;;;;;;;;;;;;;x

#Trios;;;;;;;;;;;;;;
best_candidate_title_trios_reformed_cardinal;My Best Most Genuine Candidate;;;;;;;;;;;;;x
expected_next_title_trios_reformed_cardinal;Expected Next Most Genuine;;;;;;;;;;;;;x
TRIOS_PREFERATI;Expected Successor;;;;;;;;;;;;;x
TRIOS_PREFERATI_TOOLTIP;This is the member of The Lorathi Priests most expected to succeed the current High Priest.;;;;;;;;;;;;;x
TRIOS_HEAD_PRIEST;High Priest;;;;;;;;;;;;;x
COLLEGE_OF_TRIOS_CARDINALS;The Lorathi Priests;;;;;;;;;;;;;x

#Father_of_Waters;;;;;;;;;;;;;;
best_candidate_title_father_of_waters_reformed_cardinal;My Best Most Loyal Candidate;;;;;;;;;;;;;x
expected_next_title_father_of_waters_reformed_cardinal;Expected Next Most Loyal;;;;;;;;;;;;;x
FOW_PREFERATI;Expected Successor;;;;;;;;;;;;;x
FOW_PREFERATI_TOOLTIP;This is the member of The Water Priests most expected to succeed the current High Priest.;;;;;;;;;;;;;x
FOW_HEAD_PRIEST;High Priest;;;;;;;;;;;;;x
COLLEGE_OF_FOW_CARDINALS;The Water Priests;;;;;;;;;;;;;x

#Rhoynar;;;;;;;;;;;;;;
best_candidate_title_rhoynar_pagan_reformed_cardinal;My Best Most Fervent Candidate;;;;;;;;;;;;;x
expected_next_title_rhoynar_pagan_reformed_cardinal;Expected Next Most Fervent;;;;;;;;;;;;;x
RHOYNAR_PREFERATI;Expected Successor;;;;;;;;;;;;;x
RHOYNAR_PREFERATI_TOOLTIP;This is the member of The Rhoyne's Priests most expected to succeed the current High Priest.;;;;;;;;;;;;;x
RHOYNAR_HEAD_PRIEST;High Priest;;;;;;;;;;;;;x
COLLEGE_OF_RHOYNAR_CARDINALS;The Rhoyne's Priests;;;;;;;;;;;;;x

#Boash;;;;;;;;;;;;;;
best_candidate_title_boash_reformed_cardinal;My Best Most Fanatic Candidate;;;;;;;;;;;;;x
expected_next_title_boash_reformed_cardinal;Expected Next Most Fanatic;;;;;;;;;;;;;x
BOASH_PREFERATI;Expected Successor;;;;;;;;;;;;;x
BOASH_PREFERATI_TOOLTIP;This is the member of The Boash'i Priests most expected to succeed the current High Priest.;;;;;;;;;;;;;x
BOASH_HEAD_PRIEST;High Priest;;;;;;;;;;;;;x
COLLEGE_OF_BOASH_CARDINALS;The Boash'i Priests;;;;;;;;;;;;;x

#Weeping_Lady;;;;;;;;;;;;;;
best_candidate_title_weeping_lady_reformed_cardinal;My Best Most Sincere Candidate;;;;;;;;;;;;;x
expected_next_title_weeping_lady_reformed_cardinal;Expected Next Most Sincere;;;;;;;;;;;;;x
WEEPING_PREFERATI;Expected Successor;;;;;;;;;;;;;x
WEEPING_PREFERATI_TOOLTIP;This is the member of The Weeping Priests most expected to succeed the current High Priest.;;;;;;;;;;;;;x
WEEPING_HEAD_PRIEST;High Priest;;;;;;;;;;;;;x
COLLEGE_OF_WEEPING_CARDINALS;The Weeping Priests;;;;;;;;;;;;;x

#Valyrian;;;;;;;;;;;;;;
best_candidate_title_valyrian_rel_reformed_cardinal;My Best Most Pious Candidate;;;;;;;;;;;;;x
expected_next_title_valyrian_rel_reformed_cardinal;Expected Next Most Pious;;;;;;;;;;;;;x
VALYRIAN_PREFERATI;Expected Successor;;;;;;;;;;;;;x
VALYRIAN_PREFERATI_TOOLTIP;This is the member of The Stormsingers most expected to succeed the current High Stormsinger.;;;;;;;;;;;;;x
VALYRIAN_HEAD_PRIEST;High Stormsinger;;;;;;;;;;;;;x
COLLEGE_OF_VALYRIAN_CARDINALS;The Stormsingers;;;;;;;;;;;;;x

#Gods_Sarnor;;;;;;;;;;;;;;
best_candidate_title_gods_sarnor_reformed_cardinal;My Best Most Profound Candidate;;;;;;;;;;;;;x
expected_next_title_gods_sarnor_reformed_cardinal;Expected Most Profound;;;;;;;;;;;;;x
SARNOR_PREFERATI;Expected Successor;;;;;;;;;;;;;x
SARNOR_PREFERATI_TOOLTIP;This is the member of The Sarnori Priests most expected to succeed the current High Priest.;;;;;;;;;;;;;x
SARNOR_HEAD_PRIEST;High Priest;;;;;;;;;;;;;x
COLLEGE_OF_SARNOR_CARDINALS;The Sarnori Priests;;;;;;;;;;;;;x

#Harpy;;;;;;;;;;;;;;
best_candidate_title_harpy_reformed_cardinal;My Best Most Ardent Candidate;;;;;;;;;;;;;x
expected_next_title_harpy_reformed_cardinal;Expected Next Most Ardent;;;;;;;;;;;;;x
HARPY_PREFERATI;Expected Successor;;;;;;;;;;;;;x
HARPY_PREFERATI_TOOLTIP;This is the member of The Graces Council most expected to succeed the current Black Grace.;;;;;;;;;;;;;x
HARPY_HEAD_PRIEST;Black Grace;;;;;;;;;;;;;x
COLLEGE_OF_HARPY_CARDINALS;The Graces Council;;;;;;;;;;;;;x

#Yiti_Gods;;;;;;;;;;;;;;
best_candidate_title_yiti_gods_reformed_cardinal;My Best Most Obedient Candidate;;;;;;;;;;;;;x
expected_next_title_yiti_gods_reformed_cardinal;Expected Next Most Obedient;;;;;;;;;;;;;x
YITI_PREFERATI;Expected Successor;;;;;;;;;;;;;x
YITI_PREFERATI_TOOLTIP;This is the member of The Golden Priests most expected to succeed the current High Priest.;;;;;;;;;;;;;x
YITI_HEAD_PRIEST;High Priest;;;;;;;;;;;;;x
COLLEGE_OF_YITI_CARDINALS;The Golden Priests;;;;;;;;;;;;;x

#Lion_Night;;;;;;;;;;;;;;
best_candidate_title_lion_night_reformed_cardinal;My Best Most Diligent Candidate;;;;;;;;;;;;;x
expected_next_title_lion_night_reformed_cardinal;Expected Next Most Diligent;;;;;;;;;;;;;x
LION_PREFERATI;Expected Successor;;;;;;;;;;;;;x
LION_PREFERATI_TOOLTIP;This is the member of The Golden Priests most expected to succeed the current High Priest.;;;;;;;;;;;;;x
LION_HEAD_PRIEST;High Priest;;;;;;;;;;;;;x
COLLEGE_OF_LION_CARDINALS;The Lion of the Night Rite;;;;;;;;;;;;;x

#Shadowbinders;;;;;;;;;;;;;;
best_candidate_title_shadowbinders_reformed_cardinal;My Best Most Reverent Candidate;;;;;;;;;;;;;x
expected_next_title_shadowbinders_reformed_cardinal;Expected Next Most Reverent;;;;;;;;;;;;;x
SHADOW_PREFERATI;Expected Successor;;;;;;;;;;;;;x
SHADOW_PREFERATI_TOOLTIP;This is the member of The Golden Priests most expected to succeed the current First Shadowbinder.;;;;;;;;;;;;;x
SHADOW_HEAD_PRIEST;First Shadowbinder;;;;;;;;;;;;;x
COLLEGE_OF_SHADOW_CARDINALS;The Shadowbinders;;;;;;;;;;;;;x

#Gods_Bone_Mountains;;;;;;;;;;;;;;
best_candidate_title_gods_bone_mountains_reformed_cardinal;My Best Most Zealous Candidate;;;;;;;;;;;;;x
expected_next_title_gods_bone_mountains_reformed_cardinal;Expected Next Most Zealous;;;;;;;;;;;;;x
BONE_PREFERATI;Expected Successor;;;;;;;;;;;;;x
BONE_PREFERATI_TOOLTIP;This is the member of The Hyrkooni Priests most expected to succeed the current High Priest.;;;;;;;;;;;;;x
BONE_HEAD_PRIEST;High Priest;;;;;;;;;;;;;x
COLLEGE_OF_BONE_CARDINALS;The Hyrkooni Priests;;;;;;;;;;;;;x

#Gods_Nghai;;;;;;;;;;;;;;
best_candidate_title_gods_nghai_reformed_cardinal;My Best Most Focused Candidate;;;;;;;;;;;;;x
expected_next_title_gods_nghai_reformed_cardinal;Expected Next Most Focused;;;;;;;;;;;;;x
NGHAI_PREFERATI;Expected Successor;;;;;;;;;;;;;x
NGHAI_PREFERATI_TOOLTIP;This is the member of The N'Ghai Priests most expected to succeed the current High Priest.;;;;;;;;;;;;;x
NGHAI_HEAD_PRIEST;High Priest;;;;;;;;;;;;;x
COLLEGE_OF_NGHAI_CARDINALS;The N'Ghai Priests;;;;;;;;;;;;;x

#Stone_Cow;;;;;;;;;;;;;;
best_candidate_title_stone_cow_reformed_cardinal;My Best Most Temperate Candidate;;;;;;;;;;;;;x
expected_next_title_stone_cow_reformed_cardinal;Expected Next Most Temperate;;;;;;;;;;;;;x
COW_PREFERATI;Expected Successor;;;;;;;;;;;;;x
COW_PREFERATI_TOOLTIP;This is the member of The Stone Cow Rite most expected to succeed the current High Priest.;;;;;;;;;;;;;x
COW_HEAD_PRIEST;High Priest;;;;;;;;;;;;;x
COLLEGE_OF_COW_CARDINALS;The Stone Cow Rite;;;;;;;;;;;;;x

#Jogos;;;;;;;;;;;;;;
best_candidate_title_jogos_pagan_reformed_cardinal;My Best Most Adoring Candidate;;;;;;;;;;;;;x
expected_next_title_jogos_pagan_reformed_cardinal;Expected Next Most Adoring;;;;;;;;;;;;;x
JOGOS_PREFERATI;Expected Successor;;;;;;;;;;;;;x
JOGOS_PREFERATI_TOOLTIP;This is the member of The First Moonsingers most expected to succeed the current High Moonsinger.;;;;;;;;;;;;;x
JOGOS_HEAD_PRIEST;High Moonsinger;;;;;;;;;;;;;x
COLLEGE_OF_JOGOS_CARDINALS;The First Moonsingers;;;;;;;;;;;;;x

#Great_Shepherd;;;;;;;;;;;;;;
best_candidate_title_great_shepherd_reformed_cardinal;My Best Most Earnest Candidate;;;;;;;;;;;;;x
expected_next_title_great_shepherd_reformed_cardinal;Expected Next Most Earnest;;;;;;;;;;;;;x
SHEPHERD_PREFERATI;Expected Successor;;;;;;;;;;;;;x
SHEPHERD_PREFERATI_TOOLTIP;This is the member of The Stone Cow Rite most expected to succeed the current High Priest.;;;;;;;;;;;;;x
SHEPHERD_HEAD_PRIEST;High Priest;;;;;;;;;;;;;x
COLLEGE_OF_SHEPHERD_CARDINALS;The Stone Cow Rite;;;;;;;;;;;;;x
#;;;;;;;;;;;;;;
#Summer_Religion;;;;;;;;;;;;;;
best_candidate_title_summer_rel_reformed_cardinal;My Best Most Venerated Candidate;;;;;;;;;;;;;x
expected_next_title_summer_rel_reformed_cardinal;Expected Next Most Venerated;;;;;;;;;;;;;x
SUMMER_PREFERATI;Expected Successor;;;;;;;;;;;;;x
SUMMER_PREFERATI_TOOLTIP;This is the member of The Summer Priests most expected to succeed the current High Priest.;;;;;;;;;;;;;x
SUMMER_HEAD_PRIEST;High Priest;;;;;;;;;;;;;x
COLLEGE_OF_SUMMER_CARDINALS;The Summer Priests;;;;;;;;;;;;;x

#Nath;;;;;;;;;;;;;;
best_candidate_title_nath_pagan_reformed_cardinal;My Best Most True Candidate;;;;;;;;;;;;;x
expected_next_title_nath_pagan_reformed_cardinal;Expected Next Most True;;;;;;;;;;;;;x
NATH_PREFERATI;Expected Successor;;;;;;;;;;;;;x
NATH_PREFERATI_TOOLTIP;This is the member of The Harmonious Faithful most expected to succeed the current High Priest.;;;;;;;;;;;;;x
NATH_HEAD_PRIEST;High Priest;;;;;;;;;;;;;x
COLLEGE_OF_NATH_CARDINALS;The Harmonious Faithful;;;;;;;;;;;;;x

#Lady_of_the_Waves;;;;;;;;;;;;;;
best_candidate_title_lady_of_the_waves_reformed_cardinal;My Best Most Revering Candidate;;;;;;;;;;;;;x
expected_next_title_lady_of_the_waves_reformed_cardinal;Expected Next Most Revering;;;;;;;;;;;;;x
WAVES_PREFERATI;Expected Successor;;;;;;;;;;;;;x
WAVES_PREFERATI_TOOLTIP;This is the member of The Lady of the Waves Rite most expected to succeed the current High Priest.;;;;;;;;;;;;;x
WAVES_HEAD_PRIEST;High Priest;;;;;;;;;;;;;x
COLLEGE_OF_WAVES_CARDINALS;The Lady of the Waves Rite;;;;;;;;;;;;;x