#CODE;ENGLISH;FRENCH;GERMAN;;SPANISH;;;;;;;;;x
# Westeros (from South to North)
## Targaryen Islands

## Dorne

## the Reach
e_beesbury_empire;Honeylands;;;;;;;;;;;;;x
e_beesbury_empire_adj;Honeylander;;;;;;;;;;;;;x

## Stormlands

## Crownlands

## Riverlands

## Westerlands

## Iron Islands

## the Vale

## the North

## the Wall

## Beyond the Wall


# Essos (from West to East)
## North East
### Thousand Islands
e_dagonos;Dagonos;FRENCH;GERMAN;;SPANISH;;;;;;;;;x
e_dagonos_adj;Dagonosi;FRENCH;GERMAN;;SPANISH;;;;;;;;;x