#CODE;ENGLISH;FRENCH;GERMAN;;SPANISH;;;;;;;;;x
narrowsea_route;Narrow Sea Trade Route;;;;;;;;;x
kingsroad_route;King's Road;;;;;;;;;x
goldroad_route;Gold Road;;;;;;;;;x
high_road_route;High Road;;;;;;;;;x
river_road_route;River Road;;;;;;;;;x
roseroad_route;Rose Road;;;;;;;;;x
oceanroad_route;Ocean Road;;;;;;;;;x
reach_coast_route;Reach Coast Trade Route;;;;;;;;;x
dorneroad_route;Boneway;;;;;;;;;x
princespass_route;Prince's Pass;;;;;;;;;x