northern_winter_soldier;Northern Soldier;;;;;;;;;x
northern_winter_soldier_desc;Those who live in the North, at The Wall, and beyond are no strangers to winter. This gives them a slight advantage in the cold and snow.;;;;;;;;;x
white_walker_winter_soldier;Winter Soldier;;;;;;;;;x
white_walker_winter_soldier_desc;The White Walkers are the embodiment of winter. The cold and snow have no effect on them.;;;;;;;;;x
winter_soldier_mild_winter;Northern countereffects for mild winter;;;;;;;;;x
winter_soldier_normal_winter;Northern countereffects for normal winter;;;;;;;;;x
winter_soldier_harsh_winter;Northern countereffects for harsh winter;;;;;;;;;x
white_walker_mild_winter;White Walker countereffects for mild winter;;;;;;;;;x
white_walker_normal_winter;White Walker countereffects for normal winter;;;;;;;;;x
white_walker_harsh_winter;White Walker countereffects for harsh winter;;;;;;;;;x