#CODE;ENGLISH;FRENCH;GERMAN;;SPANISH;;;;;;;;;x
b_gormon_point;Gormon's Point;;;;;;;;;;;;;x
b_peakesbridge;Peake's Bridge;;;;;;;;;;;;;x
b_firemeadow;Fire Meadow;;;;;;;;;;;;;x
b_seadragonwatch1;Greywolf's Den;;;;;;;;;;;;;x
b_seadragonwatch2;Shipwright's Watch;;;;;;;;;;;;;x
b_seadragonwatch3;Brandon's Lament;;;;;;;;;;;;;x
b_drakedwelling;Drake's Dwelling;;;;;;;;;;;;;x
b_dragon_hall;Drake Hall;;;;;;;;;;;;;x
b_drakesdale;Drake's Dale;;;;;;;;;;;;;x
b_snow;Snow Keep;Colser;;;Nieve;;;;;;;;;x
b_sky;Sky Keep;Harbot;;;Cielo;;;;;;;;;x
d_skane;Skane;Skane;;;Skane;;;;;;;;;x
c_skane;Skane;Skane;;;Skane;;;;;;;;;x
b_skaggswatch;Skagg Watch;;;;;;;;;;;;;x
b_skane;Skane;Skane;;;Skane;;;;;;;;;x
PROV1200;Skane;Skane;;;;;;;;;;;;x
c_the_gates_of_the_moon;Gates of the Moon;Les Portes de la Lune;Gates of the Moon;Gates of the Moon;Puertas de la Luna;;;;;;;;;x
b_the_gates_of_the_moon;The Gates of the Moon;Les Portes de la Lune;The Gates of the Moon;The Gates of the Moon;Puertas de la Luna;;;;;;;;;x
b_the_gates_of_the_moon_town;Gateston;;;;;;;;;;;;;x
b_the_gates_of_the_moon_sept;the Gate;;;;;;;;;;;;;x
PROV1201;Gates of the Moon;Les Portes de la Lune;The Gates of the Moon;The Gates of the Moon;Puertas de la Luna;;;;;;;;;x
PROV1202;The City of Oldtown;;;;;;;;;;;;;x
c_oldtown_city;Oldtown City;;;;;;;;;;;;;x
b_oldtown_city_walls;The Gates of Oldtown;;;;;;;;;;;;;x
b_oldtown_city;Oldtown;;;;;;;;;;;;;x
b_oldtown_ragpickers_wynd;Ragpicker's Wynd;;;;;;;;;;;;;x
b_oldtown_thieves_market;Thieves Market;;;;;;;;;;;;;x
b_oldtown_docklands;Oldtown Docks;;;;;;;;;;;;;x
b_oldtown_sailors_sept;The Sailor's Sept;;;;;;;;;;;;;x
b_oldtown_seven_shrines;The Seven Shrines;;;;;;;;;;;;;x
b_oldtown_guildhalls;The Oldtown Guildhalls;;;;;;;;;;;;;x
PROV286;The Hightower;;;;;;;;;;;;;x
c_oldtown;The Hightower;;;;;;;;;;;;;x
b_oldtown;The Black Stone Fortress;;;;;;;;;;;;;x
b_oakmere;The Hightower Vaults;;;;;;;;;;;;;x
b_hapsford;The Hightower Beacon;;;;;;;;;;;;;x
b_mbs_oldtown_new;Battle Isle Docks;;;;;;;;;;;;;x
PROV1203;King's Landing;;;;;;;;;;;;;x
c_kl_city;King's Landing;;;;;;;;;;;;;x
b_kl_dragon_gate;The Dragon Gate;;;;;;;;;;;;;x
b_kl_kings_gate;The King's Gate;;;;;;;;;;;;;x
b_kl_baelor_sept;The Great Sept of Baelor;;;;;;;;;;;;;x
b_kl_flea_bottom;Flea Bottom;;;;;;;;;;;;;x
b_kl_dragon_pit;The Dragon Pit;;;;;;;;;;;;;x
b_kl_cobblers_square;Cobbler's Square;;;;;;;;;;;;;x
b_kl_dockyards;The King's Landing Docks;;;;;;;;;;;;;x
PROV226;The Red Keep;;;;;;;;;;;;;x
c_kings_landing;The Red Keep;;;;;;;;;;;;;x
b_red_keep;Maegor's Holdfast;;;;;;;;;;;;;x
b_rk_tower_hand;The Tower of the Hand;;;;;;;;;;;;;x
b_rk_kitchen_keep;The Kitchen Keep;;;;;;;;;;;;;x
b_rk_sept;The Red Keep;;;;;;;;;;;;;x
b_rk_maidenvault;The Maidenvault;;;;;;;;;;;;;x
b_rk_black_cells;The Black Cells;;;;;;;;;;;;;x
D_BLACKWATER_MOUTH;Blackwater Estuary;Baie de la Néra;;;Bahía del Aguasnegras;;;;;;;;;x
c_iron_holt;Iron Holt;;;;;;;;;;;;;x
b_iron_holt;Iron Holt;;;;;;;;;;;;;x
d_saltcliffe;Saltcliffe;;;;;;;;;;;;;x
PROV1205;Shield Row;;;;;;;;;;;;;x
c_shield_row;Shield Row;;;;;;;;;;;;;x
b_shield_row_mbs;Shield Row;;;;;;;;;;;;;x
PROV1206;Hangmyre;;;;;;;;;;;;;x
c_hangmyre;Hangmyre;;;;;;;;;;;;;x
b_hangmyre_mbs;Hangmyre;;;;;;;;;;;;;x
PROV1207;Grey Garden;;;;;;;;;;;;;x
c_grey_garden;Grey Garden;;;;;;;;;;;;;x
b_grey_garden_mbs;Grey Garden;;;;;;;;;;;;;x
PROV1208;Glimmering Tower;;;;;;;;;;;;;x
c_tower_of_glimmering;Tower of Glimmering;;;;;;;;;;;;;x
b_tower_of_glimmering_mbs;Tower of Glimmering;;;;;;;;;;;;;x
PROV1209;Nettlebank;;;;;;;;;;;;;x
c_nettlebank;Nettlebank;;;;;;;;;;;;;x
b_nettlebank_mbs;Nettlebank;;;;;;;;;;;;;x
d_orkmont;Orkmont;;;;;;;;;;;;;x
PROV1210;Faroar;;;;;;;;;;;;;x
c_faroar_mbs;Faroar;;;;;;;;;;;;;x
b_faroar_mbs;Faroar;;;;;;;;;;;;;x
PROV1211;Corpse Lake;;;;;;;;;;;;;x
c_corpse_lake;Corpse Lake;;;;;;;;;;;;;x
b_corpse_lake_mbs;Corpse Lake;;;;;;;;;;;;;x
PROV1212;Stonehouse;;;;;;;;;;;;;x
c_stonehouse;Stonehouse;;;;;;;;;;;;;x
b_stonehouse_mbs;Stonehouse;;;;;;;;;;;;;x
d_old_wyk;Old Wyk;;;;;;;;;;;;;x
d_seastone_isles;Blacktyde;;;;;;;;;;;;;x
PROV1213;Saltford;;;;;;;;;;;;;x
c_saltford;Saltford;;;;;;;;;;;;;x
b_saltford_mbs;Saltford;;;;;;;;;;;;;x
b_ironmaker_mbs;Ironmaker Keep;;;;;;;;;;;;;x
b_hardstone_mbs;Hardstone Hills;;;;;;;;;;;;;x
b_hammerhome_temple_mbs;Hammergrave;;;;;;;;;;;;;x
PROV1214;Bay of Morne;;;;;;;;;;;;;x
PROV1215;Hoare Bay;;;;;;;;;;;;;x
PROV1216;Hoare Castle;;;;;;;;;;;;;x
c_hoare_castle;Hoare Castle;;;;;;;;;;;;;x
b_hoare_castle_mbs;Hoare Castle;;;;;;;;;;;;;x
b_hoareton_mbs;Chainton;;;;;;;;;;;;;x
b_hoaregrave_mbs;Blackgrave;;;;;;;;;;;;;x
b_hoare_soundship_mbs;Soundship;;;;;;;;;;;;;x
PROV1217;Morne;;;;;;;;;;;;;x
c_morne;Morne;;;;;;;;;;;;;x
b_morne_mbs;Morne;;;;;;;;;;;;;x
b_morne_sept_mbs;Just Maiden;;;;;;;;;;;;;x
b_morne_town_mbs;Sunwatch;;;;;;;;;;;;;x
b_morne_new_mbs;Galladon's Lament;;;;;;;;;;;;;x
d_cotf_mbs;The Caves of the Children;;;;;;;;;;;;;x
PROV1218;Blackwood Grove;;;;;;;;;;;;;x
c_e_wolfwood;Blackwood Grove;;;;;;;;;;;;;x
b_e_wolfwood_mbs_keep;Black Brier Holdfast;;;;;;;;;;;;;x
b_e_wolfwood_mbs_temple;Island Weirwood;;;;;;;;;;;;;x
b_e_wolfwood_mbs_croft;Crofter's Village;;;;;;;;;;;;;x
b_e_wolfwood_mbs_keep_2;Timber Watch;;;;;;;;;;;;;x
k_oldcastleTK;Oldcastle;;;;;;;;;;;;;x
k_blackpoolTK;Blackpool;;;;;;;;;;;;;x
d_blackmont;Blackmont;;;;;;;;;;;;;x
PROV1219;Slaynemouth;;;;;;;;;;;;;x
c_slaynemouth;Slaynemouth;;;;;;;;;;;;;x
b_slaynemouth;Slayne Guard;;;;;;;;;;;;;x
b_slaynemouth_1;Storm Watch;;;;;;;;;;;;;x
PROV1220;Gull Tower;;;;;;;;;;;;;x
c_gulltower_mbs;Gull Tower;;;;;;;;;;;;;x
b_gulltower_mbs;Gull Tower;;;;;;;;;;;;;x
b_gullsept_mbs;Osgrave;;;;;;;;;;;;;x
b_gulltower_mbs_1;Shett Hall;;;;;;;;;;;;;x
b_gull_tower;Gulltown Keep;;;;;;;;;;;;;x
PROV1221;Westwatch;;;;;;;;;;;;;x
c_westwatch_mbs;Westwatch-by-the-Bridge;;;;;;;;;;;;;x
b_westwatch_mbs;Westwatch-by-the-Bridge;;;;;;;;;;;;;x
PROV1222;Upper Gorge;;;;;;;;;;;;;x
PROV1223;Lower Gorge;;;;;;;;;;;;;x
d_claw_isle;Claw Isle;;;;;;;;;;;;;x
d_driftmark;Driftmark;;;;;;;;;;;;;x
d_widowswatch;Widow's Point;;;;;;;;;;;;;x
b_higharden_7_mbs;Halls of the Greenhand;;;;;;;;;;;;;x
k_carcosa;Carcosa;;;;;;;;;;;;;x
d_carcosa;Carcosa;;;;;;;;;;;;;x
c_carcosa;Carcosa;;;;;;;;;;;;;x
b_carcosa;Carcosa;;;;;;;;;;;;;x
b_carcosa_city;Carcosa;;;;;;;;;;;;;x
b_carcosa_temple;Yellow Temple;;;;;;;;;;;;;x
b_walls_carcosa;The Yellow Tower;;;;;;;;;;;;;x
b_carcosa_harbour;Hidden Harbour;;;;;;;;;;;;;x
b_carcosa_market;Sunrise Market;;;;;;;;;;;;;x
c_hidden_valley;Hidden Valley;;;;;;;;;;;;;x
b_hidden_valley;Hidden Keep;;;;;;;;;;;;;x
b_hidden_valley_city;Yellow Fields;;;;;;;;;;;;;x
b_hidden_valley_city_2;Foothills of Morn;;;;;;;;;;;;;x
b_hidden_valley_temple;Steps of the Sun;;;;;;;;;;;;;x
c_hidden_shore;Hidden Shore;;;;;;;;;;;;;x
b_hidden_shore;Hidden Shore;;;;;;;;;;;;;x
b_hidden_shore_city;Morning Shore;;;;;;;;;;;;;x
b_hidden_shore_city_2;Secret Sands;;;;;;;;;;;;;x
b_hidden_shore_temple;Sunrise;;;;;;;;;;;;;x
PROV1224;Hidden Fort;;;;;;;;;;;;;x
d_carcosa_pass;Carcosa Pass;;;;;;;;;;;;;x
c_hidden_fort;Hidden Fort;;;;;;;;;;;;;x
b_hidden_fort;Hidden Fort;;;;;;;;;;;;;x
b_hidden_fort_temple;Hidden Temple;;;;;;;;;;;;;x
b_hidden_fort_2;Carcosa Gate;;;;;;;;;;;;;x
PROV1225;River of Morn;;;;;;;;;;;;;x
c_river_of_morn;River of Morn;;;;;;;;;;;;;x
b_river_of_morn;River of Morn;;;;;;;;;;;;;x
b_river_of_morn_temple;Sun's River;;;;;;;;;;;;;x
b_river_of_morn_2;Pilgrim's Road;;;;;;;;;;;;;x
b_river_of_morn_3;Secret Steps;;;;;;;;;;;;;x
PROV1226;Hidden Pass;;;;;;;;;;;;;x
c_hidden_pass;Hidden Pass;;;;;;;;;;;;;x
b_hidden_pass;Hidden Pass;;;;;;;;;;;;;x
b_hidden_pass_temple;The Pass;;;;;;;;;;;;;x
b_hidden_pass_2;Gates of the Sun;;;;;;;;;;;;;x
world_carcosa;Carcosa;;;;;;;;;;;;;x
PROV1227;Red Hills;;;;;;;;;;;;;x
c_red_hills;Red Hills;;;;;;;;;;;;;x
b_red_hills;Red Hill Keep;;;;;;;;;;;;;x
b_red_hills_temple;High Hill;;;;;;;;;;;;;x
b_red_hills_2;Highview;;;;;;;;;;;;;x
PROV1228;Goldengrass Hills;;;;;;;;;;;;;x
c_goldengrass_hills;Goldengrass Hills;;;;;;;;;;;;;x
b_goldengrass_hills;Vikary Hall;;;;;;;;;;;;;x
b_goldengrass_hills_temple;Goldengrass Hill;;;;;;;;;;;;;x
b_goldengrass_hills_2;Lionhill;;;;;;;;;;;;;x
PROV1229;Longwatch;;;;;;;;;;;;;x
c_longwatch;Longwatch;;;;;;;;;;;;;x
b_harclay_hall;Harclay Hall;;;;;;;;;;;;;x
b_harclay_hall_2;Icewatch;;;;;;;;;;;;;x
PROV1230;Burley Vale;;;;;;;;;;;;;x
c_burley_vale;Burley Vale;;;;;;;;;;;;;x
b_burley_hall;Burley Hall;;;;;;;;;;;;;x
b_burley_hall_2;Coldspring;;;;;;;;;;;;;x
PROV1231;White Firth;;;;;;;;;;;;;x
c_white_firth_mbs;White Firth;;;;;;;;;;;;;x
b_white_firth_1;Waterman Hall;;;;;;;;;;;;;x
b_white_firth_2;Seal Watch;;;;;;;;;;;;;x
b_white_firth_3;Sandy Shore;;;;;;;;;;;;;x
k_godseyeTK;The Gods Eye;;;;;;;;;;;;;x
PROV1232;Westford;;;;;;;;;;;;;x
c_westford_mbs;Westford;;;;;;;;;;;;;x
b_westford_mbs;Castle Westford;;;;;;;;;;;;;x
b_westford_mbs_village;Rushing Ford;;;;;;;;;;;;;x
b_westford_mbs_3;Eastford;;;;;;;;;;;;;x
PROV1233;The Boneway;;;;;;;;;;;;;x
c_boneway_mbs;The Boneway;;;;;;;;;;;;;x
b_boneway_mbs_keep;Boneway Keep;;;;;;;;;;;;;x
b_boneway_mbs_sept;Sunshade;;;;;;;;;;;;;x
b_boneway_mbs_town;Wyl Water;;;;;;;;;;;;;x
PROV1234;Longhall;;;;;;;;;;;;;x
c_longhall_mbs;Longhall;;;;;;;;;;;;;x
b_longhall_mbs;The Longhall;;;;;;;;;;;;;x
b_longhall_mbs_2;Sistershield;;;;;;;;;;;;;x
b_longhall_mbs_3;Longshore Bay;;;;;;;;;;;;;x
b_longhouse;Coldhouse;;;;;;;;;;;;;x
PROV1235;Maris' Motherhouse;;;;;;;;;;;;;x
c_mbs_maris_motherhouse;Motherhouse of Maris;;;;;;;;;;;;;x
b_mbs_maris_motherhouse;Motherhouse of Maris;;;;;;;;;;;;;x
b_mbs_maris_motherhouse2;Rocky Isle;;;;;;;;;;;;;x
PROV1236;Quiet Isle;;;;;;;;;;;;;x
c_mbs_quiet_isle;Quiet Isle;;;;;;;;;;;;;x
b_mbs_quiet_isle;Quiet Isle;;;;;;;;;;;;;x
b_quietisle;Saltpans;;;;;;;;;;;;;x
d_mbs_sparrows;The Sparrows;;;;;;;;;;;;;x
c_mbs_starry_sept;The Starry Sept;;;;;;;;;;;;;x
c_mbs_lannisport_sept;The Lannisport Sept;;;;;;;;;;;;;x
b_mbs_lannisport_sept;The Grand Lannisport Sept;;;;;;;;;;;;;x
c_mbs_stonysept_sept;Stoney Sept;;;;;;;;;;;;;x
c_mbs_highgarden_sept;Highgarden Sept;;;;;;;;;;;;;x
c_mbs_whiteharbour_sept;The Sept of Snows;;;;;;;;;;;;;x
c_mbs_kingslandingcc_sept;The Septs of Kings Landing;;;;;;;;;;;;;x
c_mbs_braavos_sept;The Sept-Beyond-The-Sea;;;;;;;;;;;;;x
c_mbs_duskendale_sept;Duskendale Sept;;;;;;;;;;;;;x
c_mbs_lords_sept;The Lord's Sept;;;;;;;;;;;;;x
c_mbs_sunspear_sept;The Septs of Sunspear;;;;;;;;;;;;;x
c_mbs_red_mountains_sept;The Septs of the Red Mountains;;;;;;;;;;;;;x
c_mbs_stormlands_sept;The Septs of Shipbreaker Bay;;;;;;;;;;;;;x
c_mbs_gulltown_sept;The Gull Sept;;;;;;;;;;;;;x
b_mbs_gulltown_sept;The Gull Sept;;;;;;;;;;;;;x
c_mbs_eyrie_sept;The Septs of the Vale;;;;;;;;;;;;;x
c_mbs_casterly_sept;The Lion Sept;;;;;;;;;;;;;x
PROV1237;The Starry Sept;;;;;;;;;;;;;x
PROV1238;The Lord's Sept;;;;;;;;;;;;;x
PROV1239;The Lannisport Sept;;;;;;;;;;;;;x
PROV1240;The Gulltown Sept;;;;;;;;;;;;;x
PROV1241;Grand Motherhouse;;;;;;;;;;;;;x
c_mbs_lannisport_motherhouse;Grand Motherhouse;;;;;;;;;;;;;x
b_mbs_lannisport_motherhouse;Grand Lannisport Motherhouse;;;;;;;;;;;;;x
b_mbs_lannisport_motherhouse2;Motherhouse Farms;;;;;;;;;;;;;x
b_mbs_oldtown_motherhouse;Motherhouse of Oldtown;;;;;;;;;;;;;x
PROV1242;Maidenpool Sept;;;;;;;;;;;;;x
c_mbs_maidenpool_motherhouse;Motherhouse of Maidenpool;;;;;;;;;;;;;x
b_mbs_maidenpool_motherhouse;Motherhouse of Maidenpool;;;;;;;;;;;;;x
b_mbs_maidenpool_motherhouse2;The Sacred Pool;;;;;;;;;;;;;x
PROV1243;Highgarden Sept;;;;;;;;;;;;;x
c_mbs_highgarden_sept;Highgarden Castle Sept;;;;;;;;;;;;;x
b_mbs_highgarden_sept;Highgarden Castle Sept;;;;;;;;;;;;;x
PROV1244;Holy House;;;;;;;;;;;;;x
c_mbs_holy_house;Holy House;;;;;;;;;;;;;x
b_mbs_holy_house;Holy House;;;;;;;;;;;;;x
PROV1245;Iron Gate;;;;;;;;;;;;;x
c_mbs_iron_gate;Iron Gate;;;;;;;;;;;;;x
b_mbs_iron_gate_keep;Iron Gate;;;;;;;;;;;;;x
b_mbs_iron_gate_town;Rhysgrove;;;;;;;;;;;;;x
b_mbs_iron_gate_3;Oak Gate;;;;;;;;;;;;;x
b_mbs_iron_gate_4;Jouster's Meadow;;;;;;;;;;;;;x
PROV1246;Sweetmeadow;;;;;;;;;;;;;x
c_mbs_sweetmeadow;Sweetmeadow;;;;;;;;;;;;;x
b_mbs_sweetmeadow_keep;Sweetmeadow;;;;;;;;;;;;;x
b_mbs_sweetmeadow_town;Oak Grove;;;;;;;;;;;;;x
b_mbs_sweetmeadow_sept;Sage Sept;;;;;;;;;;;;;x
d_sweetport_sound;Sweetport Sound;;;;;;;;;;;;;x
d_sharp_point;Sharp Point;;;;;;;;;;;;;x
d_ravens_teeth_mbs;The Raven's Teeth;;;;;;;;;;;;;x
PROV1247;Glitch;;;;;;;;;;;;;x
