# Demesne type (de facto) laws (set for the PRIMARY title in a demesne but affects the whole demesne)

law_groups = {	
	republic_law = {
		law_type = realm
	}
	valyria_colony = {
		law_type = realm
	}
	privileges = {
		law_type = realm
	}
	first_night = {
		law_type = realm
	}
	# tribal_organization = {
		# law_type = realm
	# }
	feudal_contract = {
		law_type = realm
	}
	feudal_tax = {
		law_type = realm
	}
	city_contract = {
		law_type = realm
	}
	city_tax = {
		law_type = realm
	}
	temple_contract = {
		law_type = realm
	}
	temple_tax = {
		law_type = realm
	}
	# tribal_contract = {
		# law_type = realm
	# }
	# tribal_tax = {
		# law_type = realm
	# }
	
}
laws = {

	# REPUBLIC
	republic_law_0 = {
		show_as_title = yes
		group = republic_law
		default = yes
		potential = {
			is_primary_holder_title = yes
			higher_tier_than = COUNT
			holder_scope = {
				OR = {
					is_merchant_republic = yes
					government = alliance_government						
					government = noble_oligarchy
				}	
			}	
		}
		allow = {
			NOT = { has_law = republic_triarch_for_life } 
			NOT = { has_law = republic_alliance_member }
			NOT = { has_law = republic_law_oligarchy }
		}
		revoke_allowed = {
			always = no
		}
		default_selection = {
			factor = 1
		}		
		ai_will_do = {
			factor = 0
		}
		ai_will_revoke = {
			factor = 0
		}
		effect = {
			hidden_tooltip = {
				revoke_law = republic_law_1
				revoke_law = republic_triarch_for_life
				revoke_law = republic_law_oligarchy
			}
		}
	}
	
	republic_law_oligarchy = { #Qarth
		show_as_title = yes
		group = republic_law
		default = yes
		city_opinion = 10
		feudal_opinion = 10
		potential = {
			is_primary_holder_title = yes
			higher_tier_than = DUKE
			OR = {
				has_law = republic_law_oligarchy
				holder_scope = {
					OR = {
						is_merchant_republic = yes
						government = alliance_government						
						government = noble_oligarchy
					}	
				}	
			}	
		}
		allow = {
			always = no
		}
		revoke_allowed = {
			always = no
		}
		default_selection = {
			factor = 1
		}		
		ai_will_do = {
			factor = 0
		}
		ai_will_revoke = {
			factor = 0
		}
		effect = {
			hidden_tooltip = {
				revoke_law = republic_law_0
				revoke_law = republic_law_1
				revoke_law = republic_triarch_for_life
			}
		}
	}
	
	republic_triarch_for_life = { #localised as Archon for Life for valyrian Freehold
		show_as_title = yes
		group = republic_law
		city_opinion = -15
		feudal_opinion = -15
		potential = {
			is_primary_holder_title = yes
			higher_tier_than = COUNT
			holder_scope = {
				OR = {
					is_merchant_republic = yes
					government = alliance_government						
					government = noble_oligarchy
				}	
			}
		}
		allow = {
			holder_scope = {
				OR = {
					is_valyrian_freehold_trigger = yes
					government = triarch_merchant_republic_government	
				}
				
				prisoner = no
				NOT = { trait = incapable }	
				is_adult = yes
				prestige = 1000
				conditional_tooltip = {
					trigger = { government = triarch_merchant_republic_government }
					ruled_years = 15
				}	
				conditional_tooltip = {
					trigger = { is_valyrian_freehold_trigger = yes }
					ruled_years = 3
				}
				OR = {
					diplomacy = 12
					primary_title = { has_law = law_voting_power_1 }
					custom_tooltip = {
						text = TOOLTIPrepublic_law_1DRAGON
						hidden_tooltip = {
							trait = dragon_rider
							NAND = {
								is_merchant_republic = yes
								any_vassal = {
									is_patrician = yes
									trait = dragon_rider
								}
							}
							NAND = {
								is_merchant_republic = no
								any_vassal = {
									higher_tier_than = COUNT
									trait = dragon_rider
								}
							}
						}
					}
				}
				conditional_tooltip = {
					trigger = { government = triarch_merchant_republic_government }
					custom_tooltip = {
						text = TOOLTIPrepublic_triarch_for_lifeTRIARCH
						hidden_tooltip = {
							any_realm_character = {
								has_character_flag = triarch
								opinion = { who = PREV value = 75 }
							}
						}
					}
				}	
			}	
		}
		revoke_allowed = {
			always = no
		}	
		default_selection = {
			factor = 0
		}		
		ai_will_do = {
			factor = 1
			modifier = {
				factor = 0.05
			}
			modifier = {
				factor = 0
				holder_scope = {
					NOT = {
						OR = {
							trait = ambitious
							trait = ruthless
							trait = dragon_rider
							trait = lunatic
							trait = greedy
							trait = proud
						}
					}	
				}	
			}
			modifier = {
				factor = 0
				holder_scope = {
					OR = {
						war = yes
						trait = content
						trait = just
						trait = craven
						any_vassal = {
							relative_power = {
								who = PREV
								power = 0.4
							}
							NOT = { opinion = { who = PREV value = 0 } }
						}
					}
				}	
			}
		}
		ai_will_revoke = {
			factor = 0
		}
		pass_effect = {
			hidden_tooltip = {
				holder_scope = {
					if = {
						limit = { trait = tiger }
						any_realm_character = {
							limit = {
								trait = tiger 
								NOT = { dynasty = PREV }
							}
							opinion = { who = PREV modifier = opinion_triarch_for_life_1 }
						}
						any_realm_character = {
							limit = { 
								trait = elephant 
								NOT = { dynasty = PREV }
							}
							opinion = { who = PREV modifier = opinion_triarch_for_life_2 }
						}
					}	
					else_if = {
						limit = { trait = elephant }
						any_realm_character = {
							limit = {
								trait = tiger 
								NOT = { dynasty = PREV }
							}
							opinion = { who = PREV modifier = opinion_triarch_for_life_2 }
						}
						any_realm_character = {
							limit = { 
								trait = elephant 
								NOT = { dynasty = PREV }
							}
							opinion = { who = PREV modifier = opinion_triarch_for_life_1 }
						}
					}
					else = {
						any_realm_character = {
							limit = {
								true_valyrian_culture_trigger = yes
								NOT = { dynasty = PREV }
							}
							opinion = { who = PREV modifier = opinion_archon_for_life }
						}
					}
					if = {
						limit = { 
							ai = no 
							government = triarch_merchant_republic_government
						}
						chronicle = {
							entry = CHRONICLE_TRIARCH_FOR_LIFE
							picture = GFX_evt_volantis
						}
					}
				}	
			}
		}
		effect = {
			hidden_tooltip = {
				revoke_law = republic_law_0
				revoke_law = republic_law_1
				revoke_law = republic_law_oligarchy
			}
			holder_scope = { custom_tooltip = { text = TOOLTIPrepublic_triarch_for_life } }
		}
	}
	
	republic_law_1 = { #Sieze Republic and Establish Kingdom
		show_as_title = yes
		group = republic_law
		potential = {
			is_primary_holder_title = yes
			higher_tier_than = COUNT
			holder_scope = {
				OR = {
					is_merchant_republic = yes
					government = alliance_government						
					government = noble_oligarchy
				}	
			}
		}
		allow = {
			holder_scope = {
				prisoner = no
				NOT = { trait = incapable }	
				is_adult = yes
				prestige = 2000
				ruled_years = 15
				OR = {
					diplomacy = 18
					custom_tooltip = {
						text = TOOLTIPrepublic_law_1DRAGON
						hidden_tooltip = {
							trait = dragon_rider
							NOT = {
								any_vassal = {
									is_patrician = yes
									trait = dragon_rider
								}
							}
						}
					}
				}
				conditional_tooltip = {
					trigger = { government = triarch_merchant_republic_government }
					custom_tooltip = {
						text = TOOLTIPrepublic_law_1TRIARCHY
						hidden_tooltip = {
							any_realm_character = {
								has_character_flag = triarch
								opinion = { who = PREV value = 75 }
							}
						}
					}
				}
				
			}
			conditional_tooltip = {
				trigger = { holder_scope = { government = alliance_government } }
				custom_tooltip = {
					text = TOOLTIPrepublic_law_1THREEDAUGHTERS
					hidden_tooltip = {
						OR = {
							has_law = centralization_2
							has_law = centralization_3
							has_law = centralization_4
						}
						holder_scope = {
							NOT = {
								any_vassal = {
									is_merchant_republic = yes
									NOT = { opinion = { who = PREV value = 25 } }
								}
							}
						}	
					}
				}
			}	
		}
		
		revoke_allowed = {
			always = no
		}		
		default_selection = {
			factor = 0
		}		
		ai_will_do = {
			factor = 1
			modifier = {
				factor = 0
				holder_scope = {
					NOT = {
						OR = {
							trait = ambitious
							trait = ruthless
							trait = dragon_rider
							trait = lunatic
							trait = greedy
							trait = proud
						}
					}	
				}	
			}
			modifier = {
				factor = 0
				holder_scope = {
					OR = {
						war = yes
						has_character_flag = revived_valyrian_freehold
						trait = content
						trait = just
						trait = craven
						any_vassal = {
							relative_power = {
								who = PREV
								power = 0.4
							}
							NOT = { opinion = { who = PREV value = 0 } }
						}
					}
				}	
			}
		}
		ai_will_revoke = {
			factor = 0
		}
		effect = {
			hidden_tooltip = {
				clr_title_flag = alliance_government
				revoke_law = republic_law_0
				revoke_law = republic_law_oligarchy
			}
			holder_scope = {
				character_event = { id = REP.900 tooltip = TOOLTIPrepublic_law_1 }
				if = {
					limit = { ai = no }
					chronicle = {
						entry = CHRONICLE_REPUBLIC_KINGDOM
						picture = GFX_evt_coronation
					}
				}
			}
			tooltip = { succession = primogeniture }
		}
	}
	
	republic_alliance_member = { #Denotes member of alliance (Three Daughters)
		show_as_title = yes
		group = republic_law
		potential = {
			tier = KING
			OR = {
				is_merchant_republic = yes
				has_law = republic_alliance_member
			}
			holder_scope = {
				liege = {
					tier = EMPEROR
					government = alliance_government
				}
			}	
		}
		allow = {	
			always = no
		}
		revoke_allowed = {
			always = no
		}	
		default_selection = {
			factor = 0
		}		
		ai_will_do = {
			factor = 0
		}
		ai_will_revoke = {
			factor = 0
		}
		effect = {
		}
	}
	
	valyria_colony = { #Denotes a valyrian colony
		show_as_title = yes
		group = valyria_colony
		potential = {
			NOT = { tier = BARON }
			OR = {
				has_law = valyria_colony
				has_title_flag = valyria_colony
				holder_scope = {
					OR = {
						is_valyrian_freehold_trigger = yes
						top_liege = {
							is_valyrian_freehold_trigger = yes
						}
					}	
				}	
			}	
		}
		allow = {	
			always = no
		}
		revoke_allowed = {
			always = no
		}	
		default_selection = {
			factor = 10
			modifier = {
				factor = 0
				NOT = { has_title_flag = valyria_colony }
			}
		}		
		ai_will_do = {
			factor = 0
		}
		ai_will_revoke = {
			factor = 0
		}
		effect = {
		}
	}
	
	# # TRIBAL ORGANIZATION
	# ##############################
	
	# tribal_organization_0 = {
		# group = tribal_organization
		# default = yes
		
		# tribal_opinion = 5
		
		# allow = {
			# OR = {
				# has_law = tribal_organization_1
				# AND = {
					# NOT = { has_law = tribal_organization_0 }
					# NOT = { has_law = tribal_organization_1 }
					# NOT = { has_law = tribal_organization_2 }
					# NOT = { has_law = tribal_organization_3 }
					# NOT = { has_law = tribal_organization_4 }
				# }
			# }
		# }
		# potential = {
			# holder_scope = {
				# is_tribal = yes
				# independent = yes
			# }
		# }
		# revoke_allowed = {
			# always = no
		# }			
		# ai_will_do = {
			# factor = 1
			# modifier = {
				# factor = 0
				# has_law = tribal_organization_1
				# holder_scope = {
					# NOT = {
						# any_vassal = {
							# is_tribal = yes
							# dislike_tribal_organization = yes
							# NOT = {
								# opinion = {
									# who = liege
									# value = 0
								# }
							# }
						# }
					# }
				# }
			# }
			# modifier = {
				# factor = 0.5
				# has_law = tribal_organization_1
				# dislike_tribal_organization = no
			# }
		# }
		# ai_will_revoke = {
			# factor = 0
		# }
		# effect = {
			# hidden_tooltip = {
				# revoke_law = tribal_organization_0
				# revoke_law = tribal_organization_1
				# revoke_law = tribal_organization_2
				# revoke_law = tribal_organization_3
				# revoke_law = tribal_organization_4
				# if = {
					# limit = {
						# OR = {
							# has_law = centralization_1
							# has_law = centralization_2
							# has_law = centralization_3
							# has_law = centralization_4
						# }
					# }
					# add_law = centralization_0
				# }
			# }
			# set_allow_title_revokation = no
			# set_allow_free_infidel_revokation = no
			# if = {
				# limit = { 
					# OR = {
						# has_law = tribal_organization_1
					# }
				# }
				# custom_tooltip = {
					# text = disables_centralization_1
				# }
			# }
			# if = {
				# limit = { 
					# OR = {
						# has_law = tribal_organization_2
					# }
				# }
				# custom_tooltip = {
					# text = disables_centralization_2
				# }
			# }
			# if = {
				# limit = { 
					# OR = {
						# has_law = tribal_organization_3
					# }
				# }
				# custom_tooltip = {
					# text = disables_centralization_3
				# }
			# }
			# if = {
				# limit = { 
					# OR = {
						# has_law = tribal_organization_4
					# }
				# }
				# custom_tooltip = {
					# text = disables_centralization_4
				# }
			# }
			# set_tribal_vassal_levy_control = no
			# set_tribal_vassal_tax_income = no
			# if = {
				# limit = { 
					# OR = {
						# has_law = tribal_organization_4
					# }
				# }
				# custom_tooltip = {
					# text = disallows_change_government
				# }
			# }
		# }
	# }
	
	# tribal_organization_1 = {
		# group = tribal_organization
		
		# tribal_opinion = -5
		
		# allow = {
			# OR = {
				# has_law = tribal_organization_0
				# has_law = tribal_organization_2
			# }
		# }
		# potential = {
			# holder_scope = {
				# is_tribal = yes
				# independent = yes
			# }
		# }
		# revoke_allowed = {
			# always = no
		# }			
		# ai_will_do = {
			# factor = 1
			# modifier = {
				# factor = 0.5
				# has_law = tribal_organization_0
				# holder_scope = {
					# any_vassal = {
						# is_tribal = yes
						# dislike_tribal_organization = yes
						# NOT = {
							# opinion = {
								# who = liege
								# value = 10
							# }
						# }
					# }
				# }
			# }
			# modifier = {
				# factor = 0
				# has_law = tribal_organization_2
				# holder_scope = {
					# NOT = {
						# any_vassal = {
							# is_tribal = yes
							# dislike_tribal_organization = yes
							# NOT = {
								# opinion = {
									# who = liege
									# value = 0
								# }
							# }
						# }
					# }
				# }
			# }
			# modifier = {
				# factor = 2
				# has_law = tribal_organization_0
				# dislike_tribal_organization = no
			# }
			# modifier = {
				# factor = 0.5
				# has_law = tribal_organization_2
				# dislike_tribal_organization = no
			# }
		# }
		# ai_will_revoke = {
			# factor = 0
		# }
		# pass_effect = {
			# hidden_tooltip = {
				# if = { 
					# limit = {
						# has_law = tribal_organization_0
					# }
					# holder_scope = {
						# any_vassal = {
							# limit = {
								# is_tribal = yes
								# dislike_tribal_organization = yes
							# }
							# opinion = {
								# who = ROOT
								# modifier = opinion_increased_tribal_organization
								# months = 60
							# }
						# }
					# }
				# }
			# }
		# }
		# effect = {
			# hidden_tooltip = {
				# revoke_law = tribal_organization_0
				# revoke_law = tribal_organization_1
				# revoke_law = tribal_organization_2
				# revoke_law = tribal_organization_3
				# revoke_law = tribal_organization_4
				# if = {
					# limit = {
						# OR = {
							# has_law = centralization_2
							# has_law = centralization_3
							# has_law = centralization_4
						# }
					# }
					# add_law = centralization_1
				# }
			# }
			# set_allow_title_revokation = yes
			# if = {
				# limit = { 
					# OR = {
						# has_law = tribal_organization_0
					# }
				# }
				# custom_tooltip = {
					# text = enables_centralization_1
				# }
			# }
			# if = {
				# limit = { 
					# OR = {
						# has_law = tribal_organization_2
					# }
				# }
				# custom_tooltip = {
					# text = disables_centralization_2
				# }
			# }
			# if = {
				# limit = { 
					# OR = {
						# has_law = tribal_organization_3
					# }
				# }
				# custom_tooltip = {
					# text = disables_centralization_3
				# }
			# }
			# if = {
				# limit = { 
					# OR = {
						# has_law = tribal_organization_4
					# }
				# }
				# custom_tooltip = {
					# text = disables_centralization_4
				# }
			# }
			# set_allow_free_infidel_revokation = no
			# set_tribal_vassal_levy_control = no
			# set_tribal_vassal_tax_income = no
			# if = {
				# limit = { 
					# OR = {
						# has_law = tribal_organization_4
					# }
				# }
				# custom_tooltip = {
					# text = disallows_change_government
				# }
			# }
		# }
	# }
	
	# tribal_organization_2 = {
		# group = tribal_organization
		
		# tribal_opinion = -10
		
		# allow = {
			# OR = {
				# has_law = tribal_organization_1
				# has_law = tribal_organization_3
			# }
		# }
		# potential = {
			# holder_scope = {
				# is_tribal = yes
				# independent = yes
			# }
		# }
		# revoke_allowed = {
			# always = no
		# }			
		# ai_will_do = {
			# factor = 1
			# modifier = {
				# factor = 0.5
				# has_law = tribal_organization_1
				# holder_scope = {
					# any_vassal = {
						# is_tribal = yes
						# dislike_tribal_organization = yes
						# NOT = {
							# opinion = {
								# who = liege
								# value = 5
							# }
						# }
					# }
				# }
			# }
			# modifier = {
				# factor = 0
				# has_law = tribal_organization_3
				# holder_scope = {
					# NOT = {
						# any_vassal = {
							# is_tribal = yes
							# dislike_tribal_organization = yes
							# NOT = {
								# opinion = {
									# who = liege
									# value = 0
								# }
							# }
						# }
					# }
				# }
			# }
			# modifier = {
				# factor = 2
				# has_law = tribal_organization_1
				# dislike_tribal_organization = no
			# }
			# modifier = {
				# factor = 0.5
				# has_law = tribal_organization_3
				# dislike_tribal_organization = no
			# }
		# }
		# ai_will_revoke = {
			# factor = 0
		# }
		# pass_effect = {
			# hidden_tooltip = {
				# if = { 
					# limit = {
						# has_law = tribal_organization_1
					# }
					# holder_scope = {
						# any_vassal = {
							# limit = {
								# is_tribal = yes
								# dislike_tribal_organization = yes
							# }
							# opinion = {
								# who = ROOT
								# modifier = opinion_increased_tribal_organization
								# months = 60
							# }
						# }
					# }
				# }
			# }
		# }
		# effect = {
			# hidden_tooltip = {
				# revoke_law = tribal_organization_0
				# revoke_law = tribal_organization_1
				# revoke_law = tribal_organization_2
				# revoke_law = tribal_organization_3
				# revoke_law = tribal_organization_4
				# if = {
					# limit = {
						# OR = {
							# has_law = centralization_3
							# has_law = centralization_4
						# }
					# }
					# add_law = centralization_2
				# }
			# }
			# set_allow_title_revokation = yes
			# set_allow_free_infidel_revokation = no
			# if = {
				# limit = { 
					# OR = {
						# has_law = tribal_organization_0
						# has_law = tribal_organization_1
					# }
				# }
				# custom_tooltip = {
					# text = enables_centralization_2
				# }
			# }
			# if = {
				# limit = { 
					# OR = {
						# has_law = tribal_organization_3
					# }
				# }
				# custom_tooltip = {
					# text = disables_centralization_3
				# }
			# }
			# if = {
				# limit = { 
					# OR = {
						# has_law = tribal_organization_4
					# }
				# }
				# custom_tooltip = {
					# text = disables_centralization_4
				# }
			# }
			# set_tribal_vassal_levy_control = no
			# set_tribal_vassal_tax_income = no
			# if = {
				# limit = { 
					# OR = {
						# has_law = tribal_organization_4
					# }
				# }
				# custom_tooltip = {
					# text = disallows_change_government
				# }
			# }
		# }
	# }
	
	# tribal_organization_3 = {
		# group = tribal_organization
		
		# tribal_opinion = -20
		
		# allow = {
			# OR = {
				# has_law = tribal_organization_2
				# has_law = tribal_organization_4
			# }
		# }
		# potential = {
			# holder_scope = {
				# is_tribal = yes
				# independent = yes
			# }
		# }
		# revoke_allowed = {
			# always = no
		# }			
		# ai_will_do = {
			# factor = 1
			# modifier = {
				# factor = 0.5
				# has_law = tribal_organization_2
				# holder_scope = {
					# any_vassal = {
						# is_tribal = yes
						# dislike_tribal_organization = yes
						# NOT = {
							# opinion = {
								# who = liege
								# value = 10
							# }
						# }
					# }
				# }
			# }
			# modifier = {
				# factor = 0
				# has_law = tribal_organization_4
				# holder_scope = {
					# NOT = {
						# any_vassal = {
							# is_tribal = yes
							# dislike_tribal_organization = yes
							# NOT = {
								# opinion = {
									# who = liege
									# value = 0
								# }
							# }
						# }
					# }
				# }
			# }
			# modifier = {
				# factor = 2
				# has_law = tribal_organization_2
				# dislike_tribal_organization = no
			# }
			# modifier = {
				# factor = 0.5
				# has_law = tribal_organization_4
				# dislike_tribal_organization = no
			# }
		# }
		# ai_will_revoke = {
			# factor = 0
		# }
		# pass_effect = {
			# hidden_tooltip = {
				# if = { 
					# limit = {
						# has_law = tribal_organization_2
					# }
					# holder_scope = {
						# any_vassal = {
							# limit = {
								# is_tribal = yes
								# dislike_tribal_organization = yes
							# }
							# opinion = {
								# who = ROOT
								# modifier = opinion_increased_tribal_organization
								# months = 60
							# }
						# }
					# }
					# add_law = centralization_0
				# }
			# }
		# }
		# effect = {
			# hidden_tooltip = {
				# revoke_law = tribal_organization_0
				# revoke_law = tribal_organization_1
				# revoke_law = tribal_organization_2
				# revoke_law = tribal_organization_3
				# revoke_law = tribal_organization_4
				# if = {
					# limit = {
						# OR = {
							# has_law = centralization_4
						# }
					# }
					# add_law = centralization_3
				# }
			# }
			# set_allow_title_revokation = yes
			# set_allow_free_infidel_revokation = no
			# set_tribal_vassal_levy_control = yes
			# set_tribal_vassal_tax_income = yes
			# if = {
				# limit = { 
					# OR = {
						# has_law = tribal_organization_0
						# has_law = tribal_organization_1
						# has_law = tribal_organization_2
					# }
				# }
				# custom_tooltip = {
					# text = enables_centralization_3
				# }
			# }
			# if = {
				# limit = { 
					# OR = {
						# has_law = tribal_organization_4
					# }
				# }
				# custom_tooltip = {
					# text = disables_centralization_4
				# }
			# }
			# if = {
				# limit = { 
					# OR = {
						# has_law = tribal_organization_4
					# }
				# }
				# custom_tooltip = {
					# text = disallows_change_government
				# }
			# }
		# }
	# }
	
	# tribal_organization_4 = {
		# group = tribal_organization
		
		# tribal_opinion = -30
		
		# allow = {
			# has_law = tribal_organization_3
		# }
		# potential = {
			# holder_scope = {
				# is_tribal = yes
				# independent = yes
			# }
		# }
		# revoke_allowed = {
			# always = no
		# }			
		# ai_will_do = {
			# factor = 1
			# modifier = {
				# factor = 0.5
				# has_law = tribal_organization_3
				# holder_scope = {
					# any_vassal = {
						# is_tribal = yes
						# dislike_tribal_organization = yes
						# NOT = {
							# opinion = {
								# who = liege
								# value = 10
							# }
						# }
					# }
				# }
			# }
			# modifier = {
				# factor = 2
				# has_law = tribal_organization_3
				# dislike_tribal_organization = no
			# }
		# }
		# ai_will_revoke = {
			# factor = 0
		# }
		# pass_effect = {
			# hidden_tooltip = {
				# if = { 
					# limit = {
						# has_law = tribal_organization_3
					# }
					# holder_scope = {
						# any_vassal = {
							# limit = {
								# is_tribal = yes
								# dislike_tribal_organization = yes
							# }
							# opinion = {
								# who = ROOT
								# modifier = opinion_increased_tribal_organization
								# months = 60
							# }
						# }
					# }
				# }
			# }
		# }
		# effect = {
			# hidden_tooltip = {
				# revoke_law = tribal_organization_0
				# revoke_law = tribal_organization_1
				# revoke_law = tribal_organization_2
				# revoke_law = tribal_organization_3
				# revoke_law = tribal_organization_4
			# }
			# set_allow_title_revokation = yes
			# set_allow_free_infidel_revokation = no
			# set_tribal_vassal_levy_control = yes
			# set_tribal_vassal_tax_income = yes
			# if = {
				# limit = { 
					# OR = {
						# has_law = tribal_organization_0
						# has_law = tribal_organization_1
						# has_law = tribal_organization_2
						# has_law = tribal_organization_3
					# }
				# }
				# custom_tooltip = {
					# text = enables_centralization_4
				# }
			# }
			# if = {
				# limit = { 
					# OR = {
						# has_law = tribal_organization_0
						# has_law = tribal_organization_1
						# has_law = tribal_organization_2
						# has_law = tribal_organization_3
					# }
				# }
				# custom_tooltip = {
					# text = allows_change_government
				# }
			# }
		# }
	# }
	
	# PRIVILEGES
	privilege_vassal_king = {
		show_as_title = yes
		group = privileges
		potential = {
			tier = KING
			has_law = privilege_vassal_king
			NOT = { check_variable = { which = "lord_paramount_status" value = 0.9 } } #1 = lord paramount, 2 = interregnum
			holder_scope = { is_feudal = yes }
			# OR = {	
				# holder_scope = { liege = { tier = EMPEROR } }
				# check_variable = { which = "de_facto_empire" value = 1 }
			# }
			#is_titular = yes
			controls_religion = no
			is_landless_type_title = no
		}
		allow = {
			always = no
		}
		revoke_allowed = {
			always = no
		}			
		ai_will_do = {
			factor = 0
		}
		ai_will_revoke = {
			factor = 0
		}
		effect = {
			hidden_tooltip = {
			}
		}
	}
	
	# FIRST NIGHT

	first_night_0 = { #Illegal
		show_as_title = yes
		group = first_night
		default = yes
		
		potential = {
			higher_tier_than = DUKE
			OR = {
				tier = EMPEROR
				NOT = { check_variable = { which = "de_facto_empire" value = 1 } }
			}
			holder_scope = {
				NOT = { trait = wildling }
				OR = {
					religion = the_seven
					religion = old_gods
					religion = old_gods_reformed
					culture_group = andal
					culture_group = iron_isles_culture
					AND = {
						culture_group = dornish
						NOT = { culture = rhoynar }
					}
					culture_group = first_men
					culture = skagosi
					capital_scope = { region = world_westeros }
					culture_group = valyrian
				}
			}
		}
		allow = {
			#has_law = first_night_1
			hidden_tooltip = {
				OR = {
					tier = EMPEROR
					NOT = { check_variable = { which = "de_facto_empire" value = 1 } }
				}
			}
		}
		revoke_allowed = {
			always = no
		}			
		ai_will_do = {
			factor = 1
			modifier = {
				factor = 0.001
			}
			modifier = {
				factor = 0.1
				holder_scope = { trait = proud }
			}
			modifier = {
				factor = 0.1
				holder_scope = { trait = cruel }
			}
			modifier = {
				factor = 0.1
				holder_scope = { trait = arbitrary }
			}
			modifier = {
				factor = 0.1
				holder_scope = { trait = lustful }
			}
			modifier = {
				factor = 0
				holder_scope = {
					NOT = {
						OR = {
							trait = kind
							trait = honorable
							trait = chaste
						}
					}
				}	
			}
			modifier = {
				factor = 0
				holder_scope = {
					OR = {
						war = yes
						trait = content
						trait = just
						trait = craven
						any_vassal = {
							relative_power = {
								who = PREV
								power = 0.4
							}
							NOT = { trait = kind }
							OR = {
								trait = proud
								trait = just
								trait = lustful
							}
						}
					}
				}	
			}
		}
		ai_will_revoke = {
			factor = 0
		}
		default_selection = {
			factor = 1
		}
		pass_effect = {
			if = {
				limit = { NOT = { holder_scope = { has_character_flag = passive_crownlaw_change } } }
				holder_scope = {
					add_character_modifier = {
						name = abolished_first_night
						duration = 7300
					}
					if = {
						limit = { ai = no }
						chronicle = {
							entry = CHRONICLE_ABOLISHED_FIRST_NIGHT
							portrait = [This.GetID]
						}
					}
				}
				hidden_tooltip = {
					any_de_jure_vassal = {
						limit = { 
							NOT = { trait = kind }
							NOT = { trait = honorable }
							NOT = { trait = chaste }
							OR = {
								trait = proud
								trait = just
								trait = lustful
							}
						}
						opinion = { who = ROOT modifier = opinion_abolished_first_night_bad months = 60 }
					}
					any_de_jure_vassal = {
						limit = { 
							NOT = { trait = proud }
							NOT = { trait = just }
							NOT = { trait = lustful }
							OR = {
								trait = kind
								trait = honorable
								trait = chaste
							}
						}
						opinion = { who = ROOT modifier = opinion_abolished_first_night_good months = 60 }
					}					
				}
			}	
		}
		effect = {
			hidden_tooltip = {
				revoke_law = first_night_1
				holder_scope = { clr_character_flag = passive_crownlaw_change }
			}
		}
	}
	
	first_night_1 = { #Legal
		show_as_title = yes
		group = first_night
		default = yes
		
		potential = {
			higher_tier_than = DUKE
			OR = {
				tier = EMPEROR
				NOT = { check_variable = { which = "de_facto_empire" value = 1 } }
			}
			holder_scope = {
				NOT = { trait = wildling }
				OR = {
					religion = the_seven
					religion = old_gods
					religion = old_gods_reformed
					culture_group = andal
					culture_group = iron_isles_culture
					AND = {
						culture_group = dornish
						NOT = { culture = rhoynar }
					}				
					culture_group = first_men
					culture = skagosi
					capital_scope = { region = world_westeros }
					culture_group = valyrian
				}
			}
		}		
		allow = {
			#has_law = first_night_0
			hidden_tooltip = {
				OR = {
					tier = EMPEROR
					NOT = { check_variable = { which = "de_facto_empire" value = 1 } }
				}
			}
		}
		revoke_allowed = {
			always = no
		}		
		default_selection = {
			factor = 0
			
			additive_modifier = { 
				value = 10			
				NOT = { year = 7996 }
			}
		}	
		ai_will_do = {
			factor = 1
			modifier = {
				factor = 0.001
			}
			modifier = {
				factor = 0.1
				holder_scope = { trait = humble }
			}
			modifier = {
				factor = 0
				holder_scope = { trait = kind }
			}
			modifier = {
				factor = 0.1
				holder_scope = { trait = chaste }
			}		
			modifier = {
				factor = 0
				holder_scope = {				
					NOT = {
						OR = {
							AND = {
								trait = lustful
								trait = proud
							}	
							AND = {
								trait = lustful
								trait = cruel
							}	
							AND = {
								trait = cruel
								trait = proud
							}
						}
					}
				}	
			}
			modifier = {
				factor = 0
				holder_scope = {
					OR = {
						war = yes
						trait = content
						trait = just
						trait = craven
						is_female = yes
						any_vassal = {
							relative_power = {
								who = PREV
								power = 0.4
							}
							OR = {
								trait = kind
								trait = honorable
								trait = chaste
							}
						}
					}
				}	
			}
		}
		ai_will_revoke = {
			factor = 0
		}
		pass_effect = {
			if = {
				limit = { NOT = { holder_scope = { has_character_flag = passive_crownlaw_change } } }
				holder_scope = {
					add_character_modifier = {
						name = legalised_first_night
						duration = 7300
					}
					if = {
						limit = { ai = no }
						chronicle = {
							entry = CHRONICLE_LEGALISED_FIRST_NIGHT
							portrait = [This.GetID]
						}
					}
				}
				hidden_tooltip = {
					any_de_jure_vassal = {
						limit = { 
							NOT = { trait = kind }
							NOT = { trait = honorable }
							NOT = { trait = chaste }
							OR = {
								trait = proud
								trait = just
								trait = lustful
							}
						}
						opinion = { who = ROOT modifier = opinion_legalised_first_night_good months = 60 }
					}
					any_de_jure_vassal = {
						limit = { 
							NOT = { trait = proud }
							NOT = { trait = just }
							NOT = { trait = lustful }
							OR = {
								trait = kind
								trait = honorable
								trait = chaste
							}
						}
						opinion = { who = ROOT modifier = opinion_legalised_first_night_bad months = 60 }
					}	
					holder_scope = {
						if = {
							limit = { ai = no }
							character_event = { id = 76110 days = 250 random = 50 }
						}
					}					
				}
			}	
		}
		effect = {
			hidden_tooltip = {
				revoke_law = first_night_0
				holder_scope = { clr_character_flag = passive_crownlaw_change }
			}
		}
	}
	
	# FEUDAL VASSAL LEVY SIZE LAWS
	##############################
	
	feudal_contract_NW = {
		group = feudal_contract
		
		potential = {
			holder_scope = { trait = nightswatch }
		}
		revoke_allowed = {
			always = no
		}
		ai_will_do = {
			factor = 100
		}
		ai_will_revoke = {
			factor = 0
		}
		effect = {
			revoke_law = feudal_contract_0
			revoke_law = feudal_contract_1
			revoke_law = feudal_contract_2
			revoke_law = feudal_contract_3
		}
		castle_vassal_min_levy = 1
	}
	feudal_contract_0 = {
		group = feudal_contract
		feudal_opinion = 10
		
		potential = {
			NOT = { has_dlc = "Zeus" }
			OR = {
				NOT = { tier = baron }
				holder_scope = { is_patrician = yes }
			}
			holder_scope = { NOT = { trait = nightswatch } }
		}
		revoke_allowed = {
			always = no
		}			
		ai_will_do = {
			factor = 0
		}
		ai_will_revoke = {
			factor = 0
		}
		effect = {
			hidden_tooltip = {
				revoke_law = feudal_contract_1
				revoke_law = feudal_contract_2
				revoke_law = feudal_contract_3
				revoke_law = feudal_contract_NW
			}
		}
		
		castle_vassal_max_levy = -0.4
	}
	
	feudal_contract_1 = {
		group = feudal_contract
		feudal_opinion = 5
		
		potential = {
			NOT = { has_dlc = "Zeus" }
			OR = {
				NOT = { tier = baron }
				holder_scope = { is_patrician = yes }
			}
			holder_scope = { NOT = { trait = nightswatch } }
		}
		revoke_allowed = {
			always = no
		}			
		ai_will_do = {
			factor = 0
		}
		ai_will_revoke = {
			factor = 0
		}
		effect = {
			hidden_tooltip = {
				revoke_law = feudal_contract_0
				revoke_law = feudal_contract_2
				revoke_law = feudal_contract_3
				revoke_law = feudal_contract_NW
			}
		}
		castle_vassal_max_levy = -0.3
	}
	
	feudal_contract_2 = {
		group = feudal_contract
		feudal_opinion = 0
		default = yes
		
		potential = {
			NOT = { has_dlc = "Zeus" }
			OR = {
				NOT = { tier = baron }
				holder_scope = { is_patrician = yes }
			}
			holder_scope = { NOT = { trait = nightswatch } }
		}
		revoke_allowed = {
			always = no
		}			
		ai_will_do = {
			factor = 1
		}
		ai_will_revoke = {
			factor = 0
		}
		effect = {
			hidden_tooltip = {
				revoke_law = feudal_contract_0
				revoke_law = feudal_contract_1
				revoke_law = feudal_contract_3
				revoke_law = feudal_contract_NW
			}
		}
		
		castle_vassal_max_levy = -0.2
	}
	
	feudal_contract_3 = {
		group = feudal_contract
		feudal_opinion = -5
		
		potential = {
			NOT = { has_dlc = "Zeus" }
			OR = {
				NOT = { tier = baron }
				holder_scope = { is_patrician = yes }
			}
			holder_scope = { NOT = { trait = nightswatch } }
		}
		revoke_allowed = {
			always = no
		}
		ai_will_do = {
			factor = 0
		}
		ai_will_revoke = {
			factor = 0
		}
		effect = {
			revoke_law = feudal_contract_0
			revoke_law = feudal_contract_1
			revoke_law = feudal_contract_2
			revoke_law = feudal_contract_NW
		}
	}
	
	# FEUDAL VASSAL TAX SIZE LAWS
	##############################
	
	feudal_tax_0 = {
		group = feudal_tax
		feudal_opinion = 5
		
		potential = {
			NOT = { has_dlc = "Zeus" }
			OR = {
				NOT = { tier = baron }
				holder_scope = { is_patrician = yes }
			}
		}
		revoke_allowed = {
			always = no
		}			
		ai_will_do = {
			factor = 0.005
			modifier = {
				factor = 0
				holder_scope = {
					NOT = {
						OR = {
							trait = charitable
							trait = humble
							trait = kind
						}
					}
				}	
			}
		}
		ai_will_revoke = {
			factor = 0
		}
		effect = {
			hidden_tooltip = {
				revoke_law = feudal_tax_0
				revoke_law = feudal_tax_1
				revoke_law = feudal_tax_2
				revoke_law = feudal_tax_3
			}
		}
		castle_vassal_tax_modifier = 0
	}

	feudal_tax_1 = {
		group = feudal_tax
		feudal_opinion = 0
		default = yes
		
		potential = {
			NOT = { has_dlc = "Zeus" }
			OR = {
				NOT = { tier = baron }
				holder_scope = { is_patrician = yes }
			}
		}
		revoke_allowed = {
			always = no
		}			
		ai_will_do = {
			factor = 0.01
			modifier = {
				factor = 0
				OR = {
					has_law = feudal_tax_2
					has_law = feudal_tax_3
				}	
				holder_scope = {
					NOT = {
						OR = {
							trait = charitable
							trait = humble
							trait = kind						
						}
					}
				}	
			}
			modifier = {
				factor = 0
				has_law = feudal_tax_0
				holder_scope = {
					NOT = {
						OR = {
							trait = greedy
							trait = proud
							trait = wroth
							NOT = { wealth = 0 }
						}
					}
				}	
			}
		}
		ai_will_revoke = {
			factor = 0
		}
		effect = {
			hidden_tooltip = {
				revoke_law = feudal_tax_0
				revoke_law = feudal_tax_1
				revoke_law = feudal_tax_2
				revoke_law = feudal_tax_3
			}
		}
		
		castle_vassal_tax_modifier = 0.1
		
	}
	
	feudal_tax_2 = {
		group = feudal_tax
		feudal_opinion = -15
		potential = {
			NOT = { has_dlc = "Zeus" }
			OR = {
				NOT = { tier = baron }
				holder_scope = { is_patrician = yes }
			}
		}
		revoke_allowed = {
			always = no
		}			
		ai_will_do = {
			factor = 0.001
			modifier = {
				factor = 0
				has_law = feudal_tax_3
				holder_scope = {
					NOT = {
						OR = {
							trait = charitable
							trait = humble
							trait = kind						
						}
					}
				}	
			}
			modifier = {
				factor = 0
				OR = {
					has_law = feudal_tax_0
					has_law = feudal_tax_1
				}	
				holder_scope = {
					NOT = {
						OR = {
							trait = greedy
							trait = proud
							trait = wroth
							NOT = { wealth = 0 }
						}
					}
				}	
			}
		}
		ai_will_revoke = {
			factor = 0
		}
		effect = {
			hidden_tooltip = {
				revoke_law = feudal_tax_0
				revoke_law = feudal_tax_1
				revoke_law = feudal_tax_2
				revoke_law = feudal_tax_3
			}
		}
		castle_vassal_tax_modifier = 0.2
	}
	
	feudal_tax_3 = {
		group = feudal_tax
		feudal_opinion = -30
		potential = {
			NOT = { has_dlc = "Zeus" }
			OR = {
				NOT = { tier = baron }
				holder_scope = { is_patrician = yes }
			}
		}
		revoke_allowed = {
			always = no
		}			
		ai_will_do = {
			factor = 0.00001
			modifier = {
				factor = 0
				holder_scope = {
					NOT = {
						OR = {
							trait = greedy
							trait = proud
							trait = wroth
						}
					}
				}	
			}
		}
		ai_will_revoke = {
			factor = 0
		}
		effect = {
			hidden_tooltip = {
				revoke_law = feudal_tax_0
				revoke_law = feudal_tax_1
				revoke_law = feudal_tax_2
				revoke_law = feudal_tax_3
			}
		}
		
		castle_vassal_tax_modifier = 0.3
	}
	
	# CITY VASSAL LEVY SIZE LAWS
	##############################
	
	city_contract_0 = {
		group = city_contract
		city_opinion = 10
		potential = {
			NOT = { has_dlc = "Zeus" }
			OR = {
				NOT = { tier = baron }
				holder_scope = { is_patrician = yes }
			}
		}
		revoke_allowed = {
			always = no
		}			
		ai_will_do = {
			factor = 0
		}
		ai_will_revoke = {
			factor = 0
		}
		effect = {
			hidden_tooltip = {
				revoke_law = city_contract_0
				revoke_law = city_contract_1
				revoke_law = city_contract_2
				revoke_law = city_contract_3
			}
		}
		
		city_vassal_max_levy = -0.5
	}

	city_contract_1 = {
		group = city_contract
		city_opinion = 0
		default = yes
		potential = {
			NOT = { has_dlc = "Zeus" }
			OR = {
				NOT = { tier = baron }
				holder_scope = { is_patrician = yes }
			}
		}
		revoke_allowed = {
			always = no
		}			
		ai_will_do = {
			factor = 1
		}
		ai_will_revoke = {
			factor = 0
		}
		effect = {
			hidden_tooltip = {
				revoke_law = city_contract_0
				revoke_law = city_contract_1
				revoke_law = city_contract_2
				revoke_law = city_contract_3
			}
		}
		
		city_vassal_max_levy = -0.35
	}
	
	city_contract_2 = {
		group = city_contract
		city_opinion = -10
		potential = {
			NOT = { has_dlc = "Zeus" }
			OR = {
				NOT = { tier = baron }
				holder_scope = { is_patrician = yes }
			}
		}
		revoke_allowed = {
			always = no
		}			
		ai_will_do = {
			factor = 0
		}
		ai_will_revoke = {
			factor = 0
		}
		effect = {
			hidden_tooltip = {
				revoke_law = city_contract_0
				revoke_law = city_contract_1
				revoke_law = city_contract_2
				revoke_law = city_contract_3
			}
		}
		city_vassal_max_levy = -0.2
	}
	
	city_contract_3 = {
		group = city_contract
		city_opinion = -20
		potential = {
			NOT = { has_dlc = "Zeus" }
			OR = {
				NOT = { tier = baron }
				holder_scope = { is_patrician = yes }
			}
		}
		revoke_allowed = {
			always = no
		}			
		ai_will_do = {
			factor = 0
		}
		ai_will_revoke = {
			factor = 0
		}
		effect = {
			hidden_tooltip = {
				revoke_law = city_contract_0
				revoke_law = city_contract_1
				revoke_law = city_contract_2
				revoke_law = city_contract_3
			}
		}
		
		city_vassal_max_levy = -0.05
	}
	
	
	# CITY VASSAL TAX SIZE LAWS
	##############################
	
	city_tax_0 = {
		group = city_tax
		city_opinion = 10
		potential = {
			NOT = { has_dlc = "Zeus" }
			OR = {
				NOT = { tier = baron }
				holder_scope = { is_patrician = yes }
			}
		}
		revoke_allowed = {
			always = no
		}			
		ai_will_do = {
			factor = 0.001
			modifier = {
				factor = 0
				holder_scope = {
					NOT = {
						OR = {
							trait = charitable
							trait = humble
							trait = kind
						}
					}
				}	
			}
		}
		ai_will_revoke = {
			factor = 0
		}
		effect = {
			hidden_tooltip = {
				revoke_law = city_tax_0
				revoke_law = city_tax_1
				revoke_law = city_tax_2
				revoke_law = city_tax_3
			}
		}
		
		city_vassal_tax_modifier = 0.15
	}

	city_tax_1 = {
		group = city_tax
		city_opinion = 0
		default = yes
		
		potential = {
			NOT = { has_dlc = "Zeus" }
			OR = {
				NOT = { tier = baron }
				holder_scope = { is_patrician = yes }
			}
		}
		revoke_allowed = {
			always = no
		}			
		ai_will_do = {
			factor = 0.05
			modifier = {
				factor = 0
				OR = {
					has_law = city_tax_2
					has_law = city_tax_3
				}	
				holder_scope = {
					NOT = {
						OR = {
							trait = charitable
							trait = humble
							trait = kind						
						}
					}
				}	
			}
			modifier = {
				factor = 0
				has_law = city_tax_0
				holder_scope = {
					NOT = {
						OR = {
							trait = greedy
							trait = proud
							trait = wroth
							NOT = { wealth = 0 }
						}
					}
				}	
			}
		}
		ai_will_revoke = {
			factor = 0
		}
		effect = {
			hidden_tooltip = {
				revoke_law = city_tax_0
				revoke_law = city_tax_1
				revoke_law = city_tax_2
				revoke_law = city_tax_3
			}
		}
		
		city_vassal_tax_modifier = 0.25
	}
	
	city_tax_2 = {
		group = city_tax
		city_opinion = -10
		potential = {
			NOT = { has_dlc = "Zeus" }
			OR = {
				NOT = { tier = baron }
				holder_scope = { is_patrician = yes }
			}
		}
		revoke_allowed = {
			always = no
		}			
		ai_will_do = {
			factor = 0.001
			modifier = {
				factor = 0
				has_law = city_tax_3
				holder_scope = {
					NOT = {
						OR = {
							trait = charitable
							trait = humble
							trait = kind						
						}
					}
				}	
			}
			modifier = {
				factor = 0
				OR = {
					has_law = city_tax_0
					has_law = city_tax_1
				}	
				holder_scope = {
					NOT = {
						OR = {
							trait = greedy
							trait = proud
							trait = wroth
							NOT = { wealth = 0 }
						}
					}
				}	
			}
		}
		ai_will_revoke = {
			factor = 0
		}
		effect = {
			hidden_tooltip = {
				revoke_law = city_tax_0
				revoke_law = city_tax_1
				revoke_law = city_tax_2
				revoke_law = city_tax_3
			}
		}
		city_vassal_tax_modifier = 0.35
	}
	
	city_tax_3 = {
		group = city_tax
		city_opinion = -20
		
		potential = {
			NOT = { has_dlc = "Zeus" }
			OR = {
				NOT = { tier = baron }
				holder_scope = { is_patrician = yes }
			}
		}
		revoke_allowed = {
			always = no
		}			
		ai_will_do = {
			factor = 0.0001
			modifier = {
				factor = 0
				holder_scope = {
					NOT = {
						OR = {
							trait = greedy
							trait = proud
							trait = wroth
						}
					}
				}	
			}
		}
		ai_will_revoke = {
			factor = 0
		}
		effect = {
			hidden_tooltip = {
				revoke_law = city_tax_0
				revoke_law = city_tax_1
				revoke_law = city_tax_2
				revoke_law = city_tax_3
			}
		}
		
		city_vassal_tax_modifier = 0.45
	}
	
	# TEMPLE VASSAL LEVY SIZE LAWS
	##############################
	
	temple_contract_0 = {
		group = temple_contract
		temple_opinion = 10
		potential = {
			NOT = { has_dlc = "Zeus" }
			OR = {
				NOT = { tier = baron }
				holder_scope = { is_patrician = yes }
			}
		}
		revoke_allowed = {
			always = no
		}			
		ai_will_do = {
			factor = 0
		}
		ai_will_revoke = {
			factor = 0
		}
		effect = {
			hidden_tooltip = {
				revoke_law = temple_contract_0
				revoke_law = temple_contract_1
				revoke_law = temple_contract_2
				revoke_law = temple_contract_3
			}
		}
		
		temple_vassal_max_levy = -0.6
		
	}

	temple_contract_1 = {
		group = temple_contract
		temple_opinion = 0
		default = yes
		
		potential = {
			NOT = { has_dlc = "Zeus" }
			OR = {
				NOT = { tier = baron }
				holder_scope = { is_patrician = yes }
			}
		}
		revoke_allowed = {
			always = no
		}			
		ai_will_do = {
			factor = 1
		}
		ai_will_revoke = {
			factor = 0
		}
		effect = {
			hidden_tooltip = {
				revoke_law = temple_contract_0
				revoke_law = temple_contract_1
				revoke_law = temple_contract_2
				revoke_law = temple_contract_3
			}
		}
		temple_vassal_max_levy = -0.4
	}
	
	temple_contract_2 = {
		group = temple_contract
		temple_opinion = -10
		potential = {
			NOT = { has_dlc = "Zeus" }
			OR = {
				NOT = { tier = baron }
				holder_scope = { is_patrician = yes }
			}
		}
		revoke_allowed = {
			always = no
		}			
		ai_will_do = {
			factor = 0
		}
		ai_will_revoke = {
			factor = 0
		}
		effect = {
			hidden_tooltip = {
				revoke_law = temple_contract_0
				revoke_law = temple_contract_1
				revoke_law = temple_contract_2
				revoke_law = temple_contract_3
			}
		}
		temple_vassal_max_levy = -0.3
	}
	
	temple_contract_3 = {
		group = temple_contract
		temple_opinion = -20
		potential = {
			NOT = { has_dlc = "Zeus" }
			OR = {
				NOT = { tier = baron }
				holder_scope = { is_patrician = yes }
			}
		}
		revoke_allowed = {
			always = no
		}			
		ai_will_do = {
			factor = 0
		}
		ai_will_revoke = {
			factor = 0
		}
		effect = {
			hidden_tooltip = {
				revoke_law = temple_contract_0
				revoke_law = temple_contract_1
				revoke_law = temple_contract_2
				revoke_law = temple_contract_3
			}
		}
		temple_vassal_max_levy = -0.2
	}
	
	
	
	# TEMPLE VASSAL TAX SIZE LAWS
	##############################
	
	temple_tax_0 = {
		group = temple_tax
		temple_opinion = 20
		potential = {
			NOT = { has_dlc = "Zeus" }
			OR = {
				NOT = { tier = baron }
				holder_scope = { is_patrician = yes }
			}
		}
		revoke_allowed = {
			always = no
		}			
		ai_will_do = {
			factor = 0
		}
		ai_will_revoke = {
			factor = 0
		}
		effect = {
			hidden_tooltip = {
				revoke_law = temple_tax_0
				revoke_law = temple_tax_1
				revoke_law = temple_tax_2
				revoke_law = temple_tax_3
			}
		}
		
		temple_vassal_tax_modifier = 0.0
		
	}

	temple_tax_1 = {
		group = temple_tax
		temple_opinion = 0
		default = yes
		
		potential = {
			NOT = { has_dlc = "Zeus" }
			OR = {
				NOT = { tier = baron }
				holder_scope = { is_patrician = yes }
			}
		}
		revoke_allowed = {
			always = no
		}			
		ai_will_do = {
			factor = 1
		}
		ai_will_revoke = {
			factor = 0
		}
		effect = {
			hidden_tooltip = {
				revoke_law = temple_tax_0
				revoke_law = temple_tax_1
				revoke_law = temple_tax_2
				revoke_law = temple_tax_3
			}
		}
		temple_vassal_tax_modifier = 0.3
	}
	
	temple_tax_2 = {
		group = temple_tax
		temple_opinion = -10
		potential = {
			NOT = { has_dlc = "Zeus" }
			OR = {
				NOT = { tier = baron }
				holder_scope = { is_patrician = yes }
			}
		}
		revoke_allowed = {
			always = no
		}			
		ai_will_do = {
			factor = 0
		}
		ai_will_revoke = {
			factor = 0
		}
		effect = {
			hidden_tooltip = {
				revoke_law = temple_tax_0
				revoke_law = temple_tax_1
				revoke_law = temple_tax_2
				revoke_law = temple_tax_3
			}
		}
		temple_vassal_tax_modifier = 0.5
	}
	
	temple_tax_3 = {
		group = temple_tax
		temple_opinion = -20
		potential = {
			NOT = { has_dlc = "Zeus" }
			OR = {
				NOT = { tier = baron }
				holder_scope = { is_patrician = yes }
			}
		}
		revoke_allowed = {
			always = no
		}			
		ai_will_do = {
			factor = 0
		}
		ai_will_revoke = {
			factor = 0
		}
		effect = {
			hidden_tooltip = {
				revoke_law = temple_tax_0
				revoke_law = temple_tax_1
				revoke_law = temple_tax_2
				revoke_law = temple_tax_3
			}
		}
		temple_vassal_tax_modifier = 0.7
	}
	
	
	# ##############################
	# # MUSLIM FEUDAL LAWS
	# ##############################
	
	# # IQTA VASSAL LEVY SIZE LAWS
	# ##############################
	
	# iqta_contract_0 = {
		# group = iqta_contract
		# feudal_opinion = 10
		
		# potential = {
			# OR = {
				# NOT = { tier = baron }
				# holder_scope = { is_patrician = yes }
			# }
			# holder_scope = { religion_group = muslim }
		# }
		# revoke_allowed = {
			# always = no
		# }			
		# ai_will_do = {
			# factor = 0
		# }
		# ai_will_revoke = {
			# factor = 0
		# }
		# effect = {
			# hidden_tooltip = {
				# revoke_law = iqta_contract_0
				# revoke_law = iqta_contract_1
				# revoke_law = iqta_contract_2
				# revoke_law = iqta_contract_3
			# }
		# }
		
		# castle_vassal_max_levy = -0.4
	# }
	
	# iqta_contract_1 = {
		# group = iqta_contract
		# feudal_opinion = 5
		
		# potential = {
			# OR = {
				# NOT = { tier = baron }
				# holder_scope = { is_patrician = yes }
			# }
			# holder_scope = { religion_group = muslim }
		# }
		# revoke_allowed = {
			# always = no
		# }			
		# ai_will_do = {
			# factor = 0
		# }
		# ai_will_revoke = {
			# factor = 0
		# }
		# effect = {
			# hidden_tooltip = {
				# revoke_law = iqta_contract_0
				# revoke_law = iqta_contract_1
				# revoke_law = iqta_contract_2
				# revoke_law = iqta_contract_3
			# }
		# }
		# castle_vassal_max_levy = -0.3
	# }
	
	# iqta_contract_2 = {
		# group = iqta_contract
		# feudal_opinion = 0
		# default = yes
		
		# potential = {
			# OR = {
				# NOT = { tier = baron }
				# holder_scope = { is_patrician = yes }
			# }
			# holder_scope = { religion_group = muslim }
		# }
		# revoke_allowed = {
			# always = no
		# }			
		# ai_will_do = {
			# factor = 1
		# }
		# ai_will_revoke = {
			# factor = 0
		# }
		# effect = {
			# hidden_tooltip = {
				# revoke_law = iqta_contract_0
				# revoke_law = iqta_contract_1
				# revoke_law = iqta_contract_2
				# revoke_law = iqta_contract_3
			# }
		# }
		
		# castle_vassal_max_levy = -0.2
	# }
	
	# iqta_contract_3 = {
		# group = iqta_contract
		# feudal_opinion = -5
		
		# potential = {
			# OR = {
				# NOT = { tier = baron }
				# holder_scope = { is_patrician = yes }
			# }
			# holder_scope = { religion_group = muslim }
		# }
		# revoke_allowed = {
			# always = no
		# }
		# ai_will_do = {
			# factor = 0
		# }
		# ai_will_revoke = {
			# factor = 0
		# }
		# effect = {
			# revoke_law = iqta_contract_0
			# revoke_law = iqta_contract_1
			# revoke_law = iqta_contract_2
		# }
	# }
	
	
	# # FEUDAL VASSAL TAX SIZE LAWS
	# ##############################
	
	# iqta_tax_0 = {
		# group = iqta_tax
		# feudal_opinion = 10
		
		# potential = {
			# OR = {
				# NOT = { tier = baron }
				# holder_scope = { is_patrician = yes }
			# }
			# holder_scope = { religion_group = muslim }
		# }
		# revoke_allowed = {
			# always = no
		# }			
		# ai_will_do = {
			# factor = 0
		# }
		# ai_will_revoke = {
			# factor = 0
		# }
		# effect = {
			# hidden_tooltip = {
				# revoke_law = iqta_tax_0
				# revoke_law = iqta_tax_1
				# revoke_law = iqta_tax_2
				# revoke_law = iqta_tax_3
			# }
		# }
		# castle_vassal_tax_modifier = 0.0
	# }

	# iqta_tax_1 = {
		# group = iqta_tax
		# default = yes
		# feudal_opinion = -0
		
		# potential = {
			# OR = {
				# NOT = { tier = baron }
				# holder_scope = { is_patrician = yes }
			# }
			# holder_scope = { religion_group = muslim }
		# }
		# revoke_allowed = {
			# always = no
		# }			
		# ai_will_do = {
			# factor = 1
		# }
		# ai_will_revoke = {
			# factor = 0
		# }
		# effect = {
			# hidden_tooltip = {
				# revoke_law = iqta_tax_0
				# revoke_law = iqta_tax_1
				# revoke_law = iqta_tax_2
				# revoke_law = iqta_tax_3
			# }
		# }
		
		# castle_vassal_tax_modifier = 0.1
	# }
	
	# iqta_tax_2 = {
		# group = iqta_tax
		# feudal_opinion = -10
		# potential = {
			# OR = {
				# NOT = { tier = baron }
				# holder_scope = { is_patrician = yes }
			# }
			# holder_scope = { religion_group = muslim }
		# }
		# revoke_allowed = {
			# always = no
		# }			
		# ai_will_do = {
			# factor = 0
		# }
		# ai_will_revoke = {
			# factor = 0
		# }
		# effect = {
			# hidden_tooltip = {
				# revoke_law = iqta_tax_0
				# revoke_law = iqta_tax_1
				# revoke_law = iqta_tax_2
				# revoke_law = iqta_tax_3
			# }
		# }
		# castle_vassal_tax_modifier = 0.2
	# }
	
	# iqta_tax_3 = {
		# group = iqta_tax
		# feudal_opinion = -20
		# potential = {
			# OR = {
				# NOT = { tier = baron }
				# holder_scope = { is_patrician = yes }
			# }
			# holder_scope = { religion_group = muslim }
		# }
		# revoke_allowed = {
			# always = no
		# }			
		# ai_will_do = {
			# factor = 0
		# }
		# ai_will_revoke = {
			# factor = 0
		# }
		# effect = {
			# hidden_tooltip = {
				# revoke_law = iqta_tax_0
				# revoke_law = iqta_tax_1
				# revoke_law = iqta_tax_2
				# revoke_law = iqta_tax_3
			# }
		# }
		
		# castle_vassal_tax_modifier = 0.3
	# }
	
	# DE FACTO EMPIRE RECORD #redundant
	##############################
	
	

}
