1.1.1={ 
	liege="k_pentos"
	holding_dynasty = 55926
}
6464.1.1 = { holder=100174360 } # Luco (nc)
6503.1.1 = { holder=102174360 } # Narbo (nc)
6535.1.1 = { holder=109174360 } # Izembaro (nc)
6572.1.1 = { holder=110174360 } # Ezzelyno (nc)
6587.1.1 = { holder=111174360 } # Narbo (nc)
6604.1.1 = { holder=113174360 } # Collio (nc)
6615.1.1 = { holder=115174360 } # Yorko (nc)
6621.1.1 = { holder=121174360 } # Yollo (sc)
6676.1.1 = { holder=127174360 } # Groleo (nc)
6701.1.1 = { holder=129174360 } # Collio (nc)
6726.1.1 = { holder=133174360 } # Mero (nc)
6747.1.1 = { holder=0 liege=0 } 







