1.1.1={ 
	liege="c_qarth"
}
6473.1.1 = { holder=100069162 } # Doniphos (nc)
6514.1.1 = { holder=100169162 } # Meralyn (nc)
6528.1.1 = { holder=100569162 } # Sybassion (nc)
6554.1.1 = { holder=100669162 } # Pyat (nc)
6570.1.1 = { holder=101369162 } # Doniphos (nc)
6631.1.1 = { holder=101569162 } # Vogarro (nc)
6638.1.1 = { holder=101769162 } # Pyat (nc)
6641.1.1 = { holder=101869162 } # Nyessos (nc)
6669.1.1 = { holder=102569162 } # Regon (nc)
6717.1.1 = { holder=102969162 } # Methyso (nc)
6744.1.1 = { holder=103169162 } # Surindos (nc)
