1.1.1={ 
	liege="k_myr"
	holding_dynasty = 300516 # Lornel
}

6448.1.1 = { holder=150300516 } # Belequo (nc)
6501.1.1 = { holder=100300516 } # Vogarro (nc)
6540.1.1 = { holder=103300516 } # Areo (nc)
6547.1.1 = { holder=109300516 } # Terro (nc)
6553.1.1 = { holder=111300516 } # Mero (nc)
6583.1.1 = { holder=113300516 } # Cossomo (nc)
6611.1.1 = { holder=115300516 } # Tormo (nc)
6622.1.1 = { holder=118300516 } # Narbo (nc)
6660.1.1 = { holder=121300516 } # Moreo (nc)
6695.1.1 = { holder=126300516 } # Cossomo (nc)
6714.1.1 = { holder=133300516 } # Terro (nc)
6747.1.1 = { holder=135300516 } # Groleo (nc)
6768.1.1 = { holder=138300516 } # Roggo (nc)







