5478.1.1 = {
	liege = c_noyne
}
6433.1.1 = { holder=100300561 } # Gyloro (nc)
6481.1.1 = { holder=104300561 } # Myrmello (nc)
6508.1.1 = { holder=108300561 } # Meralyn (nc)
6538.1.1 = { holder=111300561 } # Syrio (nc)
6567.1.1 = { holder=113300561 } # Meralyn (nc)
6572.1.1 = { holder=114300561 } # Moredo (nc)
6608.1.1 = { holder=119300561 } # Lotho (nc)
6613.1.1 = { holder=123300561 } # Izembaro (nc)
6655.1.1 = { holder=124300561 } # Roggo (nc)
6678.1.1 = { holder=126300561 } # Ferrego (nc)
6703.1.1 = { holder=128300561 } # Izembaro (nc)
6721.1.1 = { holder=132300561 } # Pynto (nc)
6727.1.1 = { holder=133300561 } # Roggo (nc)
6746.1.1 = { holder=135300561 } # Tormo (nc)
6777.1.1 = { holder=138300561 } # Luco (nc)
