5478.1.1 = {
	liege = d_norvos
	holding_dynasty = 300522 #Nyelossos
}
6452.1.1 = { holder=100300522 } # Roggo (nc)
6499.1.1 = { holder=101300522 } # Gyloro (nc)
6504.1.1 = { holder=103300522 } # Terro (nc)
6550.1.1 = { holder=105300522 } # Byan (nc)
6570.1.1 = { holder=106300522 } # Ordello (nc)
6573.1.1 = { holder=107300522 } # Ollo (nc)
6585.1.1 = { holder=116300522 } # Terro (nc)
6601.1.1 = { holder=119300522 } # Byan (nc)
6647.1.1 = { holder=123300522 } # Moreo (nc)
6655.1.1 = { holder=127300522 } # Noho (nc)
6656.1.1 = { holder=129300522 } # Myrmello (nc)
6709.1.1 = { holder=130300522 } # Lotho (nc)
6723.1.1 = { holder=134300522 } # Ternesio (nc)
6755.1.1 = { holder=139300522 } # Moredo (nc)



