1.1.1={ 
	liege="c_meereen"
}
6473.1.1 = { holder=150360009 } # Marghaz (nc)
6503.1.1 = { holder=100360009 } # Grazdan (nc)
6526.1.1 = { holder=101360009 } # Kraznys (nc)
6540.1.1 = { holder=106360009 } # Maezon (nc)
6561.1.1 = { holder=110360009 } # Skahaz (nc)
6603.1.1 = { holder=114360009 } # Hizdhar (nc)
6618.1.1 = { holder=117360009 } # Maezon (nc)
6679.1.1 = { holder=120360009 } # Gorzhak (nc)
6701.1.1 = { holder=126360009 } # Grazdan (nc)
6723.1.1 = { holder=127360009 } # Harghaz (nc)
6753.1.1={
	holder=16571011 # Skahaz Shavepate
}
6778.1.1={ 
	liege="d_meereen"
}
