1.1.1={
	liege="k_qohor"
	holding_dynasty = 300567 #Qarit
}
6443.1.1 = { holder=100300567 } # Daario (nc)
6485.1.1 = { holder=101300567 } # Moredo (nc)
6510.1.1 = { holder=105300567 } # Orbelo (nc)
6533.1.1 = { holder=107300567 } # Ezzelyno (nc)
6554.1.1 = { holder=110300567 } # Lotho (nc)
6563.1.1 = { holder=112300567 } # Ollo (nc)
6590.1.1 = { holder=113300567 } # Brusco (nc)
6591.1.1 = { holder=114300567 } # Syrio (nc)
6613.1.1 = { holder=117300567 } # Gyloro (nc)
6640.1.1 = { holder=120300567 } # Denyo (nc)
6656.1.1 = { holder=123300567 } # Meralyn (nc)
6683.1.1 = { holder=126300567 } # Gyleno (nc)
6685.1.1 = { holder=128300567 } # Ferrego (nc)
6730.1.1 = { holder=132300567 } # Izembaro (nc)
6749.1.1 = { holder=133300567 } # Ternesio (nc)
6755.1.1 = { holder=134300567 } # Ezzelyno (nc)
6759.1.1 = { holder=138300567 } # Cossomo (nc)



