1.1.1={ 
	liege="c_qohor"
	law = succ_appointment	
	effect = {
		set_title_flag = military_command
		holder_scope = {
			if = {
				limit = { primary_title = { title = PREVPREV } }
				set_government_type = military_command_government 
				PREV = { succession = appointment }
				recalc_succession = yes
			}
		}
	}
}
6449.1.1 = { holder=100300564 } # Meralyn (nc)
6486.1.1 = { holder=101300564 } # Tagganaro (nc)
6524.1.1 = { holder=104300564 } # Joss (nc)
6537.1.1 = { holder=105300564 } # Collio (nc)
6560.1.1 = { holder=108300564 } # Tagganaro (nc)
6582.1.1 = { holder=111300564 } # Cossomo (nc)
6589.1.1 = { holder=112300564 } # Tycho (nc)
6604.1.1 = { holder=116300564 } # Tycho (nc)
6635.1.1 = { holder=120300564 } # Byan (nc)
6682.1.1 = { holder=123300564 } # Terro (nc)
6695.1.1 = { holder=126300564 } # Byan (nc)
6736.1.1 = { holder=131300564 } # Illyrio (nc)
6740.1.1 = { holder=133300564 } # Tagganaro (nc)
6772.1.1 = { holder=134300564 } # Groleo (nc)


