1.1.1={ 
	liege="k_pentos"
	holding_dynasty = 300526 
}
6453.1.1 = { holder=100300526 } # Gyleno (nc)
6493.1.1 = { holder=101300526 } # Jaqen (nc)
6532.1.1 = { holder=108300526 } # Tregar (nc)
6538.1.1 = { holder=114300526 } # Narbo (nc)
6563.1.1 = { holder=115300526 } # Gyloro (nc)
6565.1.1 = { holder=116300526 } # Orbelo (nc)
6586.1.1 = { holder=119300526 } # Izembaro (nc)
6621.1.1 = { holder=123300526 } # Ternesio (nc)
6643.1.1 = { holder=125300526 } # Gyleno (nc)
6665.1.1 = { holder=128300526 } # Daario (nc)
6689.1.1 = { holder=130300526 } # Ordello (nc)
6698.1.1 = { holder=131300526 } # Luco (nc)
6706.1.1 = { holder=134300526 } # Terro (nc)
6715.1.1 = { holder=136300526 } # Syrio (nc)
6728.1.1 = { holder=140300526 } # Ternesio (nc)
6754.1.1 = { holder=141300526 } # Brusco (nc)
6755.1.1 = { holder=143300526 } # Ordello (nc)
6759.1.1 = { holder=145300526 } # Ordello(nc)
6777.6.1 = { holder=149300526 } # Tycho (nc)




