1.1.1={ 
	liege="k_tyrosh"
	holding_dynasty = 300544 # Tumitis
}

6448.1.1 = { holder=155300544 } # Denzo (nc)
6502.1.1 = { holder=100300544 } # Doniphos (nc)
6524.1.1 = { holder=101300544 } # Jaqen (nc)
6557.1.1 = { holder=106300544 } # Ordello (nc)
6589.1.1 = { holder=110300544 } # Pynto (nc)
6612.1.1 = { holder=114300544 } # Tormo (nc)
6613.1.1 = { holder=116300544 } # Lucerre (nc)
6619.1.1 = { holder=117300544 } # Ferrego (nc)
6645.1.1 = { holder=118300544 } # Allaquo (nc)
6657.1.1 = { holder=121300544 } # Ordello (nc)
6712.1.1 = { holder=126300544 } # Ezzelyno (nc)
6728.1.1 = { holder=127300544 } # Pynto (nc)
6731.1.1 = { holder=129300544 } # Tagganaro (nc)
# 6737.1.1={ liege="d_tyrosh" } #Ninepenny king
# 6737.12.31 = { liege="k_tyrosh" }
6752.1.1 = { holder=131300544 } # Moreo (nc)



