1.1.1={ 
	liege="k_valyria"
	holding_dynasty = 496045 # Tyvar
}

6473.1.1 = { holder=10006045 } # Haerys (nc)
6504.1.1 = { holder=10016045 } # Baelor (nc)
6515.1.1 = { holder=10026045 } # Gaemon (nc)
6553.1.1 = { holder=10056045 } # Jaekar (nc)
6562.1.1 = { holder=10086045 } # Aenys (nc)
6590.1.1 = { holder=10116045 } # Aemon (nc)
6630.1.1 = { holder=10126045 } # Maegor (nc)
6638.1.1 = { holder=10156045 } # Aegon (nc)
6665.1.1 = { holder=10186045 } # Maelys (nc)
6682.1.1 = { holder=10236045 } # Aegon (nc)
6718.1.1 = { holder=10266045 } # Aenar (nc)
6757.1.1 = { holder=10276045 } # Aenar (nc)
6782.1.1 = { holder=10296045 } # Aerion (nc)
