1.1.1={ 
	liege="c_yunkai"
}

6473.1.1 = { holder=150360023 } # Grazdhan (nc)
6490.1.1 = { holder=100360024 } # Yezzan (nc)
6506.1.1 = { holder=100360022 } # Maezon (nc)
6528.1.1 = { holder=101360020 } # Haezdhar (nc)
6550.1.1 = { holder=106360023 } # Maezon (nc)
6591.1.1 = { holder=106360024 } # Sharkaz (nc)
6613.1.1 = { holder=109360022 } # Mizlak (nc)
6620.1.1 = { holder=116360020 } # Grazdan (nc)
6648.1.1 = { holder=112360024 } # Ghazdor (nc)
6665.1.1 = { holder=116360023 } # Yurkhaz (nc)
6678.1.1 = { holder=117360022 } # Lazhak (nc)
6696.1.1 = { holder=113360024 } # Skahaz (nc)
6702.1.1 = { holder=122360020 } # Grazdhan (nc)
6717.1.1 = { holder=125360023 } # Kraznys (nc)
6742.1.1 = { holder=130360020 } # Gazdhor (nc)
6758.1.1={
	holder=6571003 # Yurkhaz
}
