1.1.1={
	liege="k_qohor"
	holding_dynasty = 300520 #Zhander
}
6462.1.1 = { holder=100300520 } # Joss (nc)
6501.1.1 = { holder=101300520 } # Beqqo (nc)
6527.1.1 = { holder=105300520 } # Luco (nc)
6556.1.1 = { holder=109300520 } # Byan (nc)
6588.1.1 = { holder=114300520 } # Areo (nc)
6601.1.1 = { holder=117300520 } # Beqqo (nc)
6631.1.1 = { holder=119300520 } # Moreo (nc)
6642.1.1 = { holder=122300520 } # Orbelo (nc)
6662.1.1 = { holder=125300520 } # Joss (nc)
6705.1.1 = { holder=128300520 } # Myrmello (nc)
6708.1.1 = { holder=130300520 } # Brusco (nc)
6719.1.1 = { holder=132300520 } # Collio (nc)
6753.1.1 = { holder=136300520 } # Mero (nc)
6764.1.1 = { holder=142300520 } # Allaquo (nc)
