1.1.1={
	liege="d_bayasabhad"
	law = succ_seniority
	law = agnatic_succession
}
6423.1.1 = { holder=10055951 } # Qawurd (nc)
6481.1.1 = { holder=10155951 } # Abdullah (nc)
6497.1.1 = { holder=10455951 } # Husam (nc)
6510.1.1 = { holder=10755951 } # Sadiq (nc)
6559.1.1 = { holder=10955951 } # Mirza (nc)
6560.1.1 = { holder=11355951 } # Bakr (nc)
6607.1.1 = { holder=11655951 } # Nizam (nc)
6623.1.1 = { holder=11955951 } # Nizam (nc)
6625.1.1 = { holder=12355951 } # Hafiz (nc)
6641.1.1 = { holder=12755951 } # Abdul (nc)
6665.1.1 = { holder=13055951 } # Isa (nc)
6697.1.1 = { holder=13255951 } # Mirza (nc)
6753.1.1 = { holder=13555951 } # Shamir (nc)
6763.1.1 = { holder=13655951 } # Youkhanna (nc)
