1.1.1={
	liege = d_gelios
}

6473.1.1 = { holder=10006034 } # Maerys (nc)
6500.1.1 = { holder=10016034 } # Matarys (nc)
6543.1.1 = { holder=10056034 } # Maelys (nc)
6548.1.1 = { holder=10076034 } # Aemond (nc)
6576.1.1 = { holder=10086034 } # Rhaekar (nc)
6606.1.1 = { holder=10136034 } # Aerys (nc)
6642.1.1 = { holder=10146034 } # Aerion (nc)
6660.1.1 = { holder=10176034 } # Aemon (nc)
6702.1.1 = { holder=10226034 } # Daemon (nc)
6708.1.1 = { holder=10246034 } # Matarys (nc)
6730.1.1 = { holder=10276034 } # Aemond (nc)
6752.1.1 = { holder=10306034 } # Rhaekar (nc)
6795.1.1 = { holder=10336034 } # Rhaekar (nc)
