1.1.1={ law=succ_primogeniture law=cognatic_succession
	liege="e_reach"
	name = c_stonebridge
	effect = {
		if = {
			limit = { NOT = { year = 8050 } }
			location = { set_name = c_stonebridge }
		}	
	}
}





