1.1.1={ law=succ_primogeniture law=cognatic_succession
	liege="d_brightwater"
}

21.1.1={holder=65000281} # Florys the Fox
60.1.1={holder=4500281} # Her husband
100.1.1={holder=0} 

6348.1.1={
	holder=3000281
}
6418.1.1={
	holder=3002281
}
6456.1.1={
	holder=3003281
}
6476.1.1={
	holder=88252
}
6530.1.1={
	holder=88253
}
6553.1.1={
	holder=88254
}
6568.1.1={
	holder=88255
}
6581.1.1={
	holder=88256
}
6610.1.1={
	holder=88257
}
6643.1.1={
	holder=88258
}
6660.1.1={
	holder=88259
}
6674.1.1={
	holder=88261
}
6692.1.1={
	holder=88263
}
6710.1.1={
	holder=88021
}
6743.1.1={
	holder=281
}
6778.1.3={
	holder=1281
}


