#NOTE: The holder of this title has the House Cerwyn dynasty tracker set in roberts_rebellion_events
1.1.1={
	liege="d_winterfell"
	law = succ_primogeniture
}
6436.1.1={
	holder=18061
}
6482.1.1={
	holder=17061
}
6529.1.1={
	holder=13061
}
6547.1.1={
	holder=12061
}
6576.1.1={
	holder=11061
}
6586.1.1={
	holder=10061
}
6611.1.1={
	holder=9061
}
6627.1.1={
	holder=8061
}
6636.8.1 = {
	holder=21061
}
6650.1.1={
	holder=7061
}
6662.9.9 = {
	holder=6061
}
6710.1.1={
	holder=5061
}
6736.1.1={
	holder=4061
}
6760.1.1={
	holder=61
}
6777.3.1 = {
	holder=1061
}
6777.6.29 = {
	holder=2061
}
