4478.1.1={
	liege="e_north"
	law = succ_primogeniture
}
6467.1.1={
	holder=42099
}
6505.1.1={
	holder=40099
}
6522.1.1={
	holder=39099
}
6529.1.1={
	holder=38099
}
6554.1.1={
	holder=37099
}
6587.1.1={
	holder=36099
}
6596.1.1={
	holder=35099
}
6609.1.1={
	holder=34099
}
6657.1.1={
	holder=33099
}
6669.1.1={
	holder=32099
}
6679.1.1={
	holder=31099
}
6721.1.1={
	holder=10099
}
6740.1.1={
	holder=99
}
