5478.1.1 = {
	liege = k_norvos
}

6473.1.1 = { holder=100069119 } # Ordello (nc)
6493.1.1 = { holder=100169119 } # Terro (nc)
6510.1.1 = { holder=100269119 } # Meralyn (nc)
6546.1.1 = { holder=100569119 } # Cossomo (nc)
6551.1.1 = { holder=100769119 } # Pynto (nc)
6606.1.1 = { holder=100869119 } # Ferrego (nc)
6615.1.1 = { holder=101269119 } # Luco (nc)
6621.1.1 = { holder=101469119 } # Beqqo (nc)
6658.1.1 = { holder=101669119 } # Illyrio (nc)
6684.1.1 = { holder=102069119 } # Ferrego (nc)
6714.1.1 = { holder=102669119 } # Ordello (nc)
6744.1.1 = { holder=102869119 } # Myrmello (nc)
6748.1.1 = { holder=103269119 } # Ezzelyno (nc)

