1.1.1={
	liege="k_leng"
}

6457.1.1 = { holder=10055988 } # Shathak (nc)
6494.1.1 = { holder=10155988 } # Vibur (nc)
6500.1.1 = { holder=10255988 } # Yakthoob (nc)
6552.1.1 = { holder=10555988 } # Japhet (nc)
6568.1.1 = { holder=11055988 } # Pharol (nc)
6602.1.1 = { holder=11155988 } # Hastalyk (nc)
6621.1.1 = { holder=11555988 } # Summanus (nc)
6653.1.1 = { holder=11755988 } # Kaalut (nc)
6660.1.1 = { holder=11855988 } # Kassogtha (nc)
6715.1.1 = { holder=12055988 } # Abdul (nc)
6740.1.1 = { holder=12255988 } # Chaugnar (nc)
6756.1.1 = { holder=12355988 } # Byatis (nc)



