1.1.1={
	liege="k_myr"
}

6473.1.1 = { holder=100300702 } # Yorko (nc)
6514.1.1 = { holder=102300702 } # Ezzelyno (nc)
6521.1.1 = { holder=106300702 } # Tormo (nc)
6540.1.1 = { holder=110300702 } # Brusco (nc)
6549.1.1 = { holder=114300702 } # Tormo (nc)
6588.1.1 = { holder=118300702 } # Qarro (nc)
6611.1.1 = { holder=120300702 } # Izembaro (nc)
6624.1.1 = { holder=123300702 } # Oro (nc)
6676.1.1 = { holder=126300702 } # Ezzelyno (nc)
6694.1.1 = { holder=132300702 } # Areo (nc)
6716.1.1 = { holder=134300702 } # Roro (nc)
6735.1.1 = { holder=135300702 } # Noho (nc)

