4478.1.1={
	liege="e_north"
	law = succ_primogeniture
}
6471.1.1={
	holder=16106
}
6489.1.1={
	holder=15106
}
6507.1.1={
	holder=14106
}
6529.1.1={
	holder=13106
}
6555.1.1={
	holder=12106
}
6573.1.1={
	holder=11106
}
6579.1.1={
	holder=10106
}
6623.1.1={
	holder=9106
}
6628.1.1={
	holder=8106
}
6672.1.1={
	holder=7106
}
6681.1.1={
	holder=6106
}
6701.1.1={
	holder=5106
}
6708.1.1={
	holder=4106
}
6750.1.5={
	holder=106
}
