6470.1.1 = { holder=10033911 } # Kurum (nc)
6512.1.1 = { holder=10233911 } # Yasmath (nc)
6521.1.1 = { holder=10533911 } # Mushtal (nc)
6550.1.1 = { holder=11033911 } # Arganth (nc)
6568.1.1 = { holder=11333911 } # Belshun (nc)
6632.1.1 = { holder=11933911 } # Lugatum (nc)
6642.1.1 = { holder=12233911 } # Kugbau (nc)
6666.1.1 = { holder=12633911 } # Munawirtum (nc)
6678.1.1 = { holder=12833911 } # Ibnatum (nc)
6693.1.1 = { holder=13033911 } # Sumalika (nc)
6701.1.1 = { holder=13233911 } # Iluath (nc)
6750.1.1 = { holder=13733911 } # Shepsin (nc)
6775.1.1 = { holder=14233911 } # Shusuen (nc)


