#House Gowonu
6464.1.1 = { 
	holder=100304021 
	liege=d_parrot_bay
	law = succ_seniority
	law = cognatic_succession
} # Mermesbhar (nc)
6490.1.1 = { holder=102304021 } # Chakoro (nc)
6523.1.1 = { holder=105304021 } # Xhelimo (nc)
6552.1.1 = { holder=109304021 } # Tapuhuru (nc)
6554.1.1 = { holder=110304021 } # Jiradhar (nc)
6580.1.1 = { holder=112304021 } # Simbhar (nc)
6603.1.1 = { holder=117304021 } # Paro (nc)
6663.1.1 = { holder=120304021 } # Lusaxharo (nc)
6678.1.1 = { holder=122304021 } # Thabo (nc)
6720.1.1 = { holder=125304021 } # Ujja (nc)
6729.1.1 = { holder=126304021 } # Simbhar (nc)
6744.1.1 = { holder=128304021 } # Xhelimo (nc)
6755.1.1 = { holder=129304021 } # Jiradhar (nc)
6772.1.1 = { holder=132304021 } # Paro (nc)

