4482.1.1={
	liege="d_harrenhal"
	law = succ_primogeniture
}
6467.1.1={
	holder=25143
}
6490.1.1={
	holder=24143
}
6522.1.1={
	holder=23143
}
6564.1.1={
	holder=22143
}
6580.1.1={
	holder=21143
}
6589.1.1={
	holder=20143
}
6614.1.1={
	holder=19143
}
6636.1.1={
	holder=17143
}
6655.1.1={
	holder=13143
}
6662.1.1={
	holder=3143
}
