6469.1.1 = { holder=104500017 } # Torghen (nc)
6524.1.1 = { holder=134500017 } # Galbart (nc)
6560.1.1 = { holder=144500017 } # Torghen (nc)
6567.1.1 = { holder=154500017 } # Varamyr (nc)
6584.1.1 = { holder=164500017 } # Wayn (nc)
6609.1.1 = { holder=174500017 } # Kyleg (nc)
6627.1.1 = { holder=184500017 } # Harlon (nc)
6666.1.1 = { holder=214500017 } # Gorne (nc)
6674.1.1 = { holder=224500017 } # Joramun (nc)
6691.1.1={
	liege="k_beyond_wall"
}
6704.9.9={
	liege="0"
}
6728.1.1 = { holder=234500017 } # Mikken (nc)
6729.1.1 = { holder=244500017 } # Bodger (nc)
#6776.1.1 = { holder=254500017 } # Gorne (nc)
6776.1.1={
	liege="k_beyond_wall"
	holder=174347
}
6778.1.1={
	holder=999000666
}
