#Ajaxos
6463.1.1 = { 
	holder=100304012 
	liege=d_moluu
	law = succ_seniority
	law = cognatic_succession
} # Orengo (nc)
6497.1.1 = { holder=102304012 } # Qaro (nc)
6529.1.1 = { holder=106304012 } # Xhondo (nc)
6577.1.1 = { holder=107304012 } # Bapato (nc)
6581.1.1 = { holder=109304012 } # Eskender (nc)
6604.1.1 = { holder=113304012 } # Lusaxharo (nc)
6635.1.1 = { holder=117304012 } # Delmabhar (nc)
6637.1.1 = { holder=122304012 } # Jalabhar (nc)
6687.1.1 = { holder=125304012 } # Quhuru (nc)
6703.1.1 = { holder=127304012 } # Rudo (nc)
6718.1.1 = { holder=132304012 } # Koroxhar (nc)
6756.1.1 = { holder=136304012 } # Jiradhar (nc)


