3878.1.1={
	liege="d_gornath"
	law = succ_primogeniture
}
6473.1.1 = { holder=10056811 } # Ishwar (nc)
6495.1.1 = { holder=10156811 } # Nayan (nc)
6500.1.1 = { holder=10356811 } # Avilash (nc)
6538.1.1 = { holder=10556811 } # Ganesh (nc)
6575.1.1 = { holder=11056811 } # Rathin (nc)
6610.1.1 = { holder=11256811 } # Kirthana (nc)
6632.1.1 = { holder=11656811 } # Utkarsh (nc)
6654.1.1 = { holder=11756811 } # Rathin (nc)
6685.1.1 = { holder=12156811 } # Yathavan (nc)
6707.1.1 = { holder=12556811 } # Avilash (nc)
6740.1.1 = { holder=13056811 } # Bhagesh (nc)
6761.1.1 = { holder=13356811 } # Zaara (nc)
