4661.1.1={
	liege="d_runestone"
}
6539.1.1 = { holder=3100162 } # Robert (nc)
6601.1.1 = { holder=3201162 } # Bryen (nc)
6649.1.1 = { holder=3000162 } # Robar (nc)
6695.1.1 = { holder=3004162 } # Florian (nc)
6741.1.1 = { holder=3005162 } # Bryen (nc)
6766.1.1 = { holder=3008162 } # Artys (nc)
6767.1.1 = { holder=3010162 } # Alaric (nc)
6816.1.1 = { holder=3013162 } # Wallace (nc)
6837.1.1 = { holder=3018162 } # Uthor (nc)
6862.1.1 = { holder=3019162 } # Godric (nc)
6887.1.1 = { holder=3023162 } # Lyn (nc)
