#c_hawthorn
1.1.1={
	liege="e_westerlands"
}

6472.1.1 = { holder=300220 } # Steffon (nc)
6493.1.1 = { holder=301220 } # Daven (nc)
6518.1.1 = { holder=303220 } # Manfryd (nc)
6534.1.1 = { holder=306220 } # Manfryd (nc)
6570.1.1 = { holder=309220 } # Polliver (nc)
6599.1.1 = { holder=313220 } # Andros (nc)
6607.1.1 = { holder=317220 } # Rosamund (nc)
6622.1.1 = { holder=318220 } # Marissa (nc)
6662.1.1 = { holder=320220 } # Lorimer (nc)
6674.1.1 = { holder=322220 } # Dennis (nc)
6711.1.1 = { holder=327220 } # Gerold (nc)
6715.1.1 = { holder=328220 } # Gareth (nc)
