6460.1.1 = { holder=10174353 } # Sigorn (nc)
6494.1.1 = { holder=11174353 } # Borroq (nc)
6515.1.1 = { holder=13174353 } # Vayon (nc)
6562.1.1 = { holder=14174353 } # Lenyl (nc)
6591.1.1 = { holder=17174353 } # Harle (nc)
6593.1.1 = { holder=18174353 } # Howd (nc)
6631.1.1 = { holder=21174353 } # Soren (nc)
6653.1.1={
	holder=1021359
}
6675.1.1={
	holder=21359
}
6691.1.1={
	liege="k_beyond_wall"
}
6704.9.9={
	holder=121359
	liege=0
}
6708.1.1={
	holder=421359
}
6730.1.1={
	holder=521359
}
6756.1.1={
	holder=574800
}
6776.1.1={
	liege="k_beyond_wall"
}
6778.1.1={
	holder=999000666
}


