3878.1.1={
	#liege="k_sarnor"
	effect = {
		holder_scope = { 
			k_sarnor = {
				holder_scope = {
					make_tributary = { who = PREVPREV tributary_type = sarnori }
				}
			}
		}	
	}
	law = succ_primogeniture
}
6470.1.1 = { holder=10056809 } # Ranak (nc)
6515.1.1 = { holder=10356809 } # Ekavir (nc)
6537.1.1 = { holder=10556809 } # Sagar (nc)
6564.1.1 = { holder=10856809 } # Uttamesh (nc)
6607.1.1 = { holder=11056809 } # Sahat (nc)
6631.1.1 = { holder=11456809 } # Manish (nc)
6656.1.1 = { holder=11656809 } # Ishwar (nc)
6688.1.1 = { holder=12156809 } # Avilash (nc)
6696.1.1 = { holder=12756809 } # Burhan (nc)
6744.1.1 = { holder=12956809 } # Lakshan (nc)
6767.1.1 = { holder=13156809 } # Kalpesh (nc)

