#House Xhaxos
6438.1.1 = { 
	holder=100304008 
	liege=d_walano
	law = succ_seniority
	law = cognatic_succession
} # Adeyemu (nc)
6481.1.1 = { holder=101304008 } # Odingaxho (nc)
6498.1.1 = { holder=103304008 } # Bapato (nc)
6520.1.1 = { holder=107304008 } # Doshuru (nc)
6580.1.1 = { holder=108304008 } # Rudo (nc)
6595.1.1 = { holder=112304008 } # Odingaxho (nc)
6622.1.1 = { holder=114304008 } # Quhura (nc)
6643.1.1 = { holder=115304008 } # Simbhar (nc)
6654.1.1 = { holder=117304008 } # Orengo (nc)
6700.1.1 = { holder=122304008 } # Bapato (nc)
6710.1.1 = { holder=123304008 } # Doshuru (nc)
6755.1.1 = { holder=126304008 } # Adeyemu (nc)
6768.1.1 = { holder=130304008 } # Kwasdo (nc)
