3878.1.1={
	liege="d_kasath"
	law = succ_primogeniture
}
6473.1.1 = { holder=10056815 } # Nitish (nc)
6504.1.1 = { holder=10156815 } # Paarth (nc)
6524.1.1 = { holder=10456815 } # Onkar (nc)
6564.1.1 = { holder=10756815 } # Kushal (nc)
6590.1.1 = { holder=11056815 } # Chitresh (nc)
6631.1.1 = { holder=11456815 } # Atharvan (nc)
6651.1.1 = { holder=11756815 } # Mukesh (nc)
6669.1.1 = { holder=11856815 } # Ganesh (nc)
6690.1.1 = { holder=12056815 } # Tarakesh (nc)
6727.1.1 = { holder=12556815 } # Dinesh (nc)
6754.1.1 = { holder=12956815 } # Shyam (nc)
