1.1.1={
	liege="d_meereen"
}
6473.1.1 = { holder=150360008 } # Skahaz (nc)
6505.1.1 = { holder=100360008 } # Reznak (nc)
6523.1.1 = { holder=101360008 } # Gorhaz (nc)
6565.1.1 = { holder=105360008 } # Grazdan (nc)
6606.1.1 = { holder=109360008 } # Reznak (nc)
6623.1.1 = { holder=116360008 } # Gorzhak (nc)
6649.1.1 = { holder=120360008 } # Haznak (nc)
6682.1.1 = { holder=123360008 } # Mazdhak (nc)
6711.1.1 = { holder=126360008 } # Marghaz (nc)
6727.1.1 = { holder=129360008 } # Grazdan (nc)
6757.1.1={
	holder=16571012 # Reznak
}
6778.1.1={
	liege="d_meereen"
}
