#House Xaq
5516.1.1 = {
	holder=150304037 #Malthar the Windrider
	law = succ_seniority
	law = cognatic_succession
} 
5576.1.1 = { holder=0 }

6416.1.1 = { holder=152304037 } # Malthar (nc)
6458.1.1 = { holder=100304037 } # Jiradhar (nc)
6468.1.1 = { holder=102304037 } # Kwasdo (nc)
6523.1.1 = { holder=106304037 } # Sango (nc)
6573.1.1 = { holder=109304037 } # Tal (nc)
6584.1.1 = { holder=112304037 } # Konde (nc)
6599.1.1 = { holder=115304037 } # Sango (nc)
6619.1.1 = { holder=118304037 } # Punuxharo (nc)
6637.1.1 = { holder=119304037 } # Isingodo (nc)
6663.1.1 = { holder=123304037 } # Qaro (nc)
6665.1.1 = { holder=125304037 } # Gwalahuru (nc)
6677.1.1 = { holder=130304037 } # Simbhar (nc)
6715.1.1 = { holder=133304037 } # Oluhura (nc)
6725.1.1 = { holder=134304037 } # Abrafo (nc)
6764.1.1 = { holder=136304037 } # Manahuru (nc)
6770.1.1 = { holder=137304037 } # Doshuru (nc)

