1.1.1={
	liege="k_tyrosh"
}
6448.1.1 = { holder=150300024 } # Myrmello (nc)
6506.1.1 = { holder=100300024 } # Illyrio (nc)
6531.1.1 = { holder=102300024 } # Tycho (nc)
6543.1.1 = { holder=105300024 } # Collio (nc)
6589.1.1 = { holder=109300024 } # Ordello (nc)
6624.1.1 = { holder=113300024 } # Cossoma (nc)
6663.1.1 = { holder=122300024 } # Oro (nc)
6681.1.1 = { holder=123300024 } # Moreo (nc)
6703.1.1 = { holder=128300024 } # Tycho (nc)
6737.1.1={
	holder=600000059 # Alequo Adarys
	liege="d_tyrosh"
}
6737.12.31 = { holder=128300024 liege="k_tyrosh" } # Tycho (nc)
6748.1.1 = { holder=130300024 } # Gyloro (nc)
6756.1.1 = { holder=131300024 } # Syrio (nc)
