#c_maunhill
1.1.1={
	liege="e_westerlands"
}
6472.1.1 = {	
holder=312226
}
6478.6.6 = {	
holder=309226 
}
6515.1.1 = {	
holder=308226
}
6532.1.1 = {	
holder=307226
}
6565.1.1 = {	
holder=306226
}
6593.1.1 = {	
holder=305226
}
6599.1.1 = {	
holder=304226
}
6625.1.1 = {	
holder=303226
}
6646.1.1 = {	
holder=203226
}
6654.6.3 = {	
holder=3050226
}
6673.1.1 = {	
holder=202226
}
6709.1.1 = {	
holder=302226
}
6724.1.1 = {	
holder=301226
}	
6745.1.1 = {	
holder=20266
}
