1.1.1={
	liege="d_nefer"
}
6473.1.1 = { holder=10069208 } # Jalil (nc)
6501.1.1 = { holder=10369208 } # Jalil (nc)
6506.1.1 = { holder=10469208 } # Fadil (nc)
6546.1.1 = { holder=10769208 } # Mansur (nc)
6568.1.1 = { holder=10869208 } # Zeyd (nc)
6595.1.1 = { holder=11069208 } # Mansur (nc)
6597.1.1 = { holder=11169208 } # Gafur (nc)
6629.1.1 = { holder=11569208 } # Mahdi (nc)
6663.1.1 = { holder=11869208 } # Azam (nc)
6686.1.1 = { holder=12069208 } # Ramadan (nc)
6707.1.1 = { holder=12269208 } # Husam (nc)
6740.1.1 = { holder=12469208 } # Uways (nc)
6770.1.1 = { holder=12769208 } # Halil (nc)



