6473.1.1 = { holder=10560345 } # Brogg (nc)
6499.1.1 = { holder=11560345 } # Torwynd (nc)
6527.1.1 = { holder=12560345 } # Bump (nc)
6552.1.1 = { holder=15560345 } # Brogg (nc)
6555.1.1 = { holder=20560345 } # Dormund (nc)
6586.1.1 = { holder=22560345 } # Ondrew (nc)
6610.1.1 = { holder=23560345 } # Jojen (nc)
6644.1.1 = { holder=24560345 } # Bump (nc)
6667.1.1 = { holder=25560345 } # Galbart (nc)
6678.1.1 = { holder=28560345 } # Del (nc)
6691.1.1={
	liege="k_beyond_wall"
}
6697.1.1 = { holder=29560345 } # Bump (nc)
6704.9.9={
	liege=0
}

6751.1.1 = { holder=31560345 } # Errok (nc)
6764.1.1 = { holder=34560345 } # Wallen (nc)

6776.1.1={
	liege="k_beyond_wall"
}
6778.1.1={
	liege="d_haunted_forest"
}
