6078.1.1={
	#liege="e_stormlands"
	law = succ_primogeniture
}
6398.1.1={
	#liege="e_iron_isles"
}
6446.1.1 = { holder=312174410 } # Davos (nc)
6489.1.1 = { holder=313174410 } # Guncer (nc)
6505.1.1 = { holder=311174410 } # Humfrey (nc)
6530.1.1 = { holder=310174410 } # Allar (nc)
6554.1.1 = { holder=308174410 } # Dale (nc)
6575.1.1 = { holder=307174410 } # Triston (nc)
6601.1.1 = { holder=306174410 } # Perkin (nc)
6630.1.1 = { holder=305174410 } # Symon (nc)
6654.1.1 = { holder=304174410 } # Florian (nc)
6674.1.1 = { holder=303174410 } # Mortimer  (Whitewalls Tourney in 212)
6693.1.1 = { holder=302174410 } # Denys (nc)
6732.1.1 = { holder=300174410 } # Eustace (nc)
6738.1.1 = { holder=301174410 } # Perkin (nc)
