1.1.1={ 
	liege="k_pentos"
}
6458.1.1 = { holder=100174366 } # Roggo (nc)
6497.1.1 = { holder=102174366 } # Moredo (nc)
6505.1.1 = { holder=104174366 } # Denyo (nc)
6567.1.1 = { holder=108174366 } # Brusco (nc)
6576.1.1 = { holder=110174366 } # Allaquo (nc)
6600.1.1 = { holder=114174366 } # Lotho (nc)
6649.1.1 = { holder=116174366 } # Gyloro (nc)
6653.1.1 = { holder=120174366 } # Terro (nc)
6660.1.1 = { holder=125174366 } # Brusco (nc)
6678.1.1 = { holder=126174366 } # Ternesio (nc)
6736.1.1 = { holder=129174366 } # Terro (nc)
6763.1.1 = { holder=130174366 } # Moreo (nc)
6768.1.1 = { holder=132174366 } # Joss (nc)








