5478.1.1={
	law = cognatic_succession
}

6640.1.1 = { holder=62113 } # Boran (nc)
6665.1.1 = { holder=62513 } # Symon (nc)
6674.4.18 = { holder=62913 } # Theodan (nc)
6689.2.10 = { holder=63113 } # Doran (nc)
6721.1.1 = { holder=63613 } # Daemon (nc)
6737.2.17 = { holder=9013 } # Boran (nc)
6754.2.12 = { holder=13 } # Harman (C)
