1.1.1={
	liege="d_piqui_jungle"
}
6473.1.1 = { holder=10069107 } # Aram (nc)
6521.1.1 = { holder=10169107 } # Gafur (nc)
6535.1.1 = { holder=10769107 } # Jabir (nc)
6577.1.1 = { holder=10969107 } # Burhanaddin (nc)
6596.1.1 = { holder=11269107 } # Qadir (nc)
6603.1.1 = { holder=11569107 } # Aghlab (nc)
6626.1.1 = { holder=11669107 } # Mukhtar (nc)
6635.1.1 = { holder=12169107 } # Yahya (nc)
6682.1.1 = { holder=12469107 } # Aarif (nc)
6691.1.1 = { holder=12769107 } # Jaleel (nc)
6707.1.1 = { holder=13069107 } # Samir (nc)
6772.1.1 = { holder=13369107 } # Aarif (nc)


