6464.1.1 = { 
	holder=100600215
} # Kovarro (nc)
6487.1.1 = { holder=101600215 } # Drogo (nc)
6489.1.1 = { holder=102600215 } # Jommo (nc)
6513.1.1 = { holder=104600215 } # Mago (nc)
6548.1.1 = { holder=107600215 } # Jommo (nc)
6552.1.1 = { holder=109600215 } # Dhako (nc)
6580.1.1 = { holder=113600215 } # Bharbo (nc)
6606.1.1 = { holder=114600215 } # Mago (nc)
6625.1.1 = { holder=116600215 } # Loso (nc)
6653.1.1 = { holder=117600215 } # Azho (nc)
6675.1.1 = { holder=120600215 } # Jhaquo (nc)
6702.1.1 = { holder=122600215 } # Zhako (nc)
6747.1.1 = { holder=123600215 } # Rhogoro (nc)
6761.1.1 = { holder=124600215 } # Tihho (nc)
6765.1.1 = { holder=126600215 } # Temmo (nc)
