5478.1.1 = {
	liege = k_norvos
}

6473.1.1 = { holder=100069117 } # Jaqen (nc)
6501.1.1 = { holder=100269117 } # Ordello (nc)
6532.1.1 = { holder=100469117 } # Oro (nc)
6544.1.1 = { holder=100669117 } # Ezzelyno (nc)
6575.1.1 = { holder=100769117 } # Ferrego (nc)
6600.1.1 = { holder=101069117 } # Ezzelyno (nc)
6623.1.1 = { holder=101269117 } # Gyloro (nc)
6676.1.1 = { holder=101469117 } # Meralyn (nc)
6707.1.1 = { holder=101869117 } # Byan (nc)
6730.1.1 = { holder=102069117 } # Groleo (nc)
6762.1.1 = { holder=102169117 } # Myrmello (nc)
6764.1.1 = { holder=102569117 } # Tycho (nc)
