3878.1.1={
	#liege="k_sarnor"
	effect = {
		holder_scope = { 
			k_sarnor = {
				holder_scope = {
					make_tributary = { who = PREVPREV tributary_type = sarnori }
				}
			}
		}	
	}
	law = succ_primogeniture
}
6473.1.1 = { holder=10056816 } # Uttamesh (nc)
6498.1.1 = { holder=10156816 } # Nishad (nc)
6530.1.1 = { holder=10456816 } # Vishruth (nc)
6562.1.1 = { holder=10756816 } # Chanak (nc)
6580.1.1 = { holder=10956816 } # Parvesh (nc)
6598.1.1 = { holder=11056816 } # Uttamesh (nc)
6617.1.1 = { holder=11256816 } # Harihar (nc)
6655.1.1 = { holder=11556816 } # Girivar (nc)
6694.1.1 = { holder=11856816 } # Harith (nc)
6714.1.1 = { holder=11956816 } # Jash (nc)
6717.1.1 = { holder=12156816 } # Manish (nc)
6747.1.1 = { holder=12256816 } # Lakshan (nc)
6774.1.1 = { holder=12656816 } # Uttamesh (nc)
