1.1.1={
	liege="k_qohor"
}

6473.1.1 = { holder=100069131 } # Daario (nc)
6509.1.1 = { holder=100169131 } # Areo (nc)
6529.1.1 = { holder=100469131 } # Ferrego (nc)
6560.1.1 = { holder=100969131 } # Ordello (nc)
6587.1.1 = { holder=101269131 } # Moredo (nc)
6618.1.1 = { holder=101469131 } # Oro (nc)
6619.1.1 = { holder=101669131 } # Syrio (nc)
6641.1.1 = { holder=102069131 } # Beqqo (nc)
6688.1.1 = { holder=102369131 } # Ollo (nc)
6689.1.1 = { holder=102869131 } # Tregar (nc)
6721.1.1 = { holder=103169131 } # Ordello (nc)
6760.1.1 = { holder=103369131 } # Lotho (nc)
6774.1.1 = { holder=103469131 } # Cossomo (nc)
