3878.1.1={
	liege="d_sarnath"
	law = succ_primogeniture
}
6473.1.1 = { holder=10056800 } # Onkar (nc)
6499.1.1 = { holder=10156800 } # Bhagesh (nc)
6531.1.1 = { holder=10656800 } # Harith (nc)
6554.1.1 = { holder=10756800 } # Jash (nc)
6584.1.1 = { holder=11056800 } # Darshan (nc)
6614.1.1 = { holder=11456800 } # Girivar (nc)
6630.1.1 = { holder=11756800 } # Nitish (nc)
6655.1.1 = { holder=11956800 } # Nayan (nc)
6665.1.1 = { holder=12456800 } # Ganesh (nc)
6708.1.1 = { holder=12856800 } # Manish (nc)
6734.1.1 = { holder=13256800 } # Vyomesh (nc)
6744.1.1 = { holder=13456800 } # Harihar (nc)
