3878.1.1={
	liege="d_sarys"
	law = succ_primogeniture
}
6473.1.1 = { holder=10056819 } # Etash (nc)
6498.1.1 = { holder=10156819 } # Balavant (nc)
6515.1.1 = { holder=10356819 } # Manish (nc)
6540.1.1 = { holder=10856819 } # Balavant (nc)
6573.1.1 = { holder=11256819 } # Nitish (nc)
6609.1.1 = { holder=11656819 } # Lakshan (nc)
6633.1.1 = { holder=12056819 } # Ranak (nc)
6659.1.1 = { holder=12256819 } # Kalpesh (nc)
6718.1.1 = { holder=12556819 } # Rathin (nc)
6751.1.1 = { holder=12756819 } # Kedaar (nc)
6764.1.1 = { holder=12956819 } # Darshan (nc)
6772.1.1 = { holder=13156819 } # Lokesh (nc)
