#NOTE: The holder of this title has the House Mallister dynasty tracker set in roberts_rebellion_events
1.1.1={
	liege="d_oldstones"
}
# House Mallister
6300.1.1 = { holder=550128 } # Petyr (C)
6321.1.1 = { holder=551128 } # Zachery (nc)
6362.1.1 = { holder=552128 } # Jonthor (nc)
6395.1.1 = { holder=553128 } # Bennifer (nc)
6424.1.1 = { holder=554128 } # Petyr (nc)
6446.1.1 = { holder=555128 } # Walder (nc)

6464.1.1 = {
	holder=17128 
}
6500.1.1={
	holder=15128
}
6526.1.1={
	holder=14128
}
6558.1.1={
	holder=13128
}
6576.1.1={
	holder=12128
}
6586.1.1={
	holder=11128
}
6618.1.1={
	holder=10128
}
6643.1.1={
	holder=9128
}
6658.1.1={
	holder=8128
}
6695.1.1={
	holder=18128
}



