1.1.1={
	liege="k_lys"
}

6448.1.1 = { holder=150300539 } # Nyessos (nc)
6507.1.1 = { holder=100300539 } # Doniphos (nc)
6553.1.1 = { holder=104300539 } # Orbelo (nc)
6555.1.1 = { holder=106300539 } # Oro (nc)
6593.1.1 = { holder=107300539 } # Gyleno (nc)
6603.1.1 = { holder=108300539 } # Lysandro (C)
6618.1.1 = { holder=110300539 } # Lysaro (C)
6623.1.1 = { holder=112300539 } # Moredo (C)
6643.1.1 = { holder=114300539 } # Orbelo (nc)
6687.1.1 = { holder=119300539 } # Moreo (nc)
6711.1.1 = { holder=120300539 } # Gyleno (nc)
6730.1.1 = { holder=123300539 } # Orbelo (nc)


