4478.1.1={
	liege="d_southstone"
}

6375.1.1={holder=60400149} # Gerold Bracken
6394.8.1={holder=60300149} # Lothar Bracken (C)
6411.6.1 = {holder=60200149} # Otho Bracken
6430.1.1={holder=60000149} # Jonos Bracken
6464.1.1={holder=22149} # Addam Bracken

6491.1.1={
	holder=21149
}
6527.1.1={
	holder=19149
}
6551.1.1={
	holder=18149
}
6580.1.1={
	holder=17149
}
6595.1.1={
	holder=16149
}
6641.1.1={
	holder=15149
}
6656.6.1={
	holder=11149
}
6677.1.1={
	holder=10149
}
6692.1.1={
	holder=9149
}
6721.1.1={
	holder=8149
}
6756.1.1={
	holder=149
}
