4678.1.1={
	liege="d_strongsong"
	law = succ_primogeniture
}
6458.1.1 = { holder=3000161 } # Alaric (nc)
6491.1.1 = { holder=3002161 } # Robin (nc)
6524.1.1 = { holder=3006161 } # Artys (nc)
6537.1.1 = { holder=3007161 } # Petyr (nc)
6562.1.1 = { holder=3011161 } # Benedar (nc)
6614.1.1 = { holder=3014161 } # Elys (nc)
6621.1.1 = { holder=3019161 } # Triston (nc)
6671.1.1 = { holder=3021161 } # Lyn (nc)
6676.1.1 = { holder=3024161 } # Lothor (nc)
6712.1.1={
	holder=94091
}
6757.1.1={
	holder=94028
}
