1.1.1={ law=succ_primogeniture law=cognatic_succession
	liege="d_oldtown"
}
6608.1.1 = { holder=3014289 } # Arthur (nc)
6612.1.1 = { holder=3019289 } # Arthur (nc)
6642.1.1 = { holder=3021289 } # Edwyn (nc)
6675.1.1 = { holder=3027289 } # Renly (nc)
6695.1.1 = { holder=3031289 } # Luthor (nc)




