1.1.1={
	liege="d_masseys_hook"
	holder = 0
}

6544.1.1 = { holder=30751 } # Jarmen (nc)
6564.1.1 = { holder=30851 } # Gyles (nc)
6592.1.1 = { holder=31151 } # Bennard (nc)
6615.1.1 = { holder=31451 } # Allar (nc)
6635.1.1 = { holder=31651 } # Sefton (nc)
6662.1.1 = { holder=31951 } # Aegon (nc)
6692.1.1 = { holder=32151 } # Serenei (nc)
6714.1.1 = { holder=32251 } # Monford (nc)