#House Ebaharo
6438.1.1 = { 
	holder=100304020 
	liege=d_golden_head
	law = succ_seniority
	law = cognatic_succession
} # Mermesbhar (nc)
6491.1.1 = { holder=101304020 } # Gwalahuru (nc)
6502.1.1 = { holder=103304020 } # Jaramogo (nc)
6532.1.1 = { holder=105304020 } # Bapato (nc)
6554.1.1 = { holder=112304020 } # Xaro (nc)
6586.1.1 = { holder=113304020 } # Quhuru (nc)
6615.1.1 = { holder=115304020 } # Gatubhar (nc)
6634.1.1 = { holder=116304020 } # Xhakan (nc)
6655.1.1 = { holder=118304020 } # Konde (nc)
6690.1.1 = { holder=121304020 } # Xhonodo (nc)
6718.1.1 = { holder=127304020 } # Eskender (nc)
6776.1.1 = { holder=128304020 } # Odingaxho (nc)

