1.1.1={ law=succ_primogeniture law=cognatic_succession
	liege="d_oldtown"
}

6608.5.8 = { holder=6014247 } # Gormon (nc)
6651.1.1 = { holder=6017247 } # Bayard (nc)
6661.1.1 = { holder=6019247 } # Petyr (nc)
6718.1.1 = { holder=6020247 } # Erren (nc)
6736.1.1 = { holder=6023247 } # Elyas (nc)






