1.1.1={
	liege="d_tiqui"
}
6474.1.1 = { holder=10055959 } # Sadiq (nc)
6507.1.1 = { holder=10355959 } # Hussayn (nc)
6518.1.1 = { holder=10655959 } # Muzaffaraddin (nc)
6557.1.1 = { holder=10755959 } # Nizam (nc)
6569.1.1 = { holder=10855959 } # Aarif (nc)
6585.1.1 = { holder=11355959 } # Jaleel (nc)
6644.1.1 = { holder=11655959 } # Husam (nc)
6685.1.1 = { holder=11855959 } # Bahir (nc)
6694.1.1 = { holder=11955959 } # Hafiz (nc)
6715.1.1 = { holder=12255959 } # Ghalib (nc)
6767.1.1 = { holder=12755959 } # Abdul (nc)


