490.1.1={
	liege="d_toqolarth"
}
6459.1.1 = { holder=10035000 } # Ordello (nc)
6503.1.1 = { holder=10135000 } # Pyat (nc)
6510.1.1 = { holder=10435000 } # Urrathon (nc)
6525.1.1 = { holder=10535000 } # Mathos (nc)
6548.1.1 = { holder=10935000 } # Surindos (nc)
6593.1.1 = { holder=11135000 } # Wendello (nc)
6611.1.1 = { holder=11435000 } # Ordello (nc)
6639.1.1 = { holder=12035000 } # Lotho (nc)
6672.1.1 = { holder=12135000 } # Pyat (nc)
6678.1.1 = { holder=12535000 } # Methyso (nc)
6695.1.1 = { holder=12835000 } # Ognos (nc)
6724.1.1 = { holder=13335000 } # Belicho (nc)
6758.1.1 = { holder=13635000 } # Xaro Xhoan (nc)


