1.1.1={
	liege="k_tyrosh"
}
6448.1.1 = { holder=150300542 } # Vogarro (nc)
6497.1.1 = { holder=100300542 } # Moreo (nc)
6530.1.1 = { holder=102300542 } # Tycho (nc)
6549.1.1 = { holder=105300542 } # Syrio (nc)
6586.1.1 = { holder=112300542 } # Tormo (nc)
6614.1.1 = { holder=113300542 } # Beqqo (nc)
6643.1.1 = { holder=118300542 } # Qarro (nc)
6656.1.1 = { holder=125300542 } # Gyleno (nc)
6702.1.1 = { holder=128300542 } # Ordello (nc)
6715.1.1 = { holder=129300542 } # Qarro (nc)
6737.1.1={
	holder=600000059 # Alequo Adarys
	liege="d_tyrosh"
}
6737.12.31 = { holder=128300024 liege="k_tyrosh" } # Tycho (nc)
6771.1.1 = { holder=132300542 } # Myrmello (nc)
6774.1.1 = { holder=136300542 } # Oro (nc)
