6463.1.1 = { holder=100600211 liege = d_krazaaj_zasque } # Zirqo (nc)
6500.1.1 = { holder=101600211 } # Fogo (nc)
6536.1.1 = { holder=102600211 } # Hezzo (nc)
6544.1.1 = { holder=104600211 } # Jarbo (nc)
6545.1.1 = { holder=106600211 } # Zirqo (nc)
6576.1.1 = { holder=111600211 } # Scoro (nc)
6591.1.1 = { holder=112600211 } # Zollo (nc)
6600.1.1 = { holder=115600211 } # Tihho (nc)
6647.1.1 = { holder=118600211 } # Lanno (nc)
6671.1.1 = { holder=121600211 } # Marro (nc)
6681.1.1 = { holder=123600211 } # Mosko (nc)
6725.1.1 = { holder=128600211 } # Jasso (nc)
6734.1.1 = { holder=130600211 } # Rhogoro (nc)
