6438.1.1 = { holder=103600207 } # Irri (C)
6476.1.1 = { holder=100010305 } # Sezza (nc)
6483.1.1 = { holder=101010305 } # Gezzella (nc)
6487.1.1 = { holder=102010305 } # Yezza (nc)
6528.1.1 = { holder=103010305 } # Mezzala (nc)
6542.1.1 = { holder=104010305 } # Jezhane (nc)
6576.1.1 = { holder=105010305 } # Mellezzara (nc)
6603.1.1 = { holder=106010305 } # Azzara (nc)
6620.1.1 = { holder=107010305 } # Mezzala (nc)
6645.1.1 = { holder=108010305 } # Ellezzara (nc)
6671.1.1 = { holder=109010305 } # Azzara (nc)
6703.1.1 = { holder=110010305 } # Yezza (nc)
6719.1.1 = { holder=111010305 } # Sezza (nc)
6746.1.1 = { holder=112010305 } # Sezza (nc)

