1.1.1={
	liege="k_skahazadhan"
	law=succ_primogeniture 
	law=cognatic_succession
}
6473.1.1 = { holder=1000213 } # Miklaz (nc)
6501.1.1 = { holder=1001213 } # Skahaz (nc)
6521.1.1 = { holder=1007213 } # Maezon (nc)
6535.1.1 = { holder=1010213 } # Hizdhar (nc)
6587.1.1 = { holder=1011213 } # Fendahl (nc)
6590.1.1 = { holder=1015213 } # Morghaz (nc)
6615.1.1 = { holder=1017213 } # Paezhar (nc)
6662.1.1 = { holder=1021213 } # Mazdhan (nc)
6676.1.1 = { holder=1022213 } # Faezdhar (nc)
6709.1.1 = { holder=1023213 } # Kraznys (nc)
6745.1.1 = { holder=1029213 } # Ghazdor (nc)
6750.1.1 = { holder=1031213 } # Paezhar (nc)
6767.1.1 = { holder=1033213 } # Skahaz (nc)
6802.1.1 = { holder=1036213 } # Reznak (nc)

