1.1.1={
	liege="d_yin"
}

2100.1.1 = { 
	holder=10055956
}
2135.1.1 = { holder=0 }

2256.1.1 = { 
	holder=10055957

}
2293.1.1 = { holder=0 }

2800.1.1 = { holder=10055961 } # Qaun (nc)
2819.1.1 = { holder=10155961 } # An (nc)
2839.1.1 = { holder=10355961 } # Gai (nc)
2858.1.1 = { holder=10455961 } # Mao (nc)
2866.1.1 = { holder=10555961 } # Tho (nc)
2881.1.1 = { holder=10655961 } # Kim (nc)
2905.1.1 = { holder=10755961 } # Dong (nc)
2931.1.1 = { holder=10855961 } # Quan (nc)
2940.1.1 = { holder=10955961 } # Huu (nc)
2945.1.1 = { holder=0 }


6473.1.1 = { holder=100065962 } # Truq (nc)
6504.1.1 = { holder=100565962 } # Bao (nc)
6556.1.1 = { holder=100665962 } # Thanh (nc)
6568.1.1 = { holder=101065962 } # Duq (nc)
6596.1.1 = { holder=101165962 } # Ba (nc)
6618.1.1 = { holder=101365962 } # Phong (nc)
6630.1.1 = { holder=101765962 } # Minh (nc)
6641.1.1 = { holder=102165962 } # Zuang (nc)
6657.1.1 = { holder=102665962 } # Dong (nc)
6710.1.1 = { holder=102965962 } # Zuang (nc)
6727.1.1 = { holder=103265962 } # Chinh (nc)
6746.1.1 = { holder=103465962 } # Chen (nc)
6762.1.1 = { holder=103665962 } # Bu (nc)
6788.1.1 = { holder=104165962 } # Gai (nc)
6824.1.1 = { holder=104465962 } # Chen (nc)


