6082.1.1={
	liege="k_blackwater_rushTK"
	law = succ_primogeniture
}
6475.1.1 = { holder=6000030 } # Arneld (nc)
6510.1.1 = { holder=6000130 } # Justin (nc)
6525.1.1 = { holder=6000430 } # Jacelyn (nc)
6541.1.1 = { holder=6000530 } # Alliser (nc)
6562.1.1 = { holder=6000930 } # Mortimer (nc)
6590.1.1 = { holder=6001230 } # Simon (nc)
6591.1.1 = { holder=6001330 } # Dontos (nc)
6639.1.1 = { holder=6001830 } # Hubard (nc)
6648.1.1 = { holder=6002130 } # Wallace (nc)
6682.1.1 = { holder=6002430 } # Devan (nc)
