#d_greenfield (Renamed Cornfield)
1.1.1={ liege = "e_westerlands" }
6458.1.1 = { holder=325232 } # Terrence (nc)
6478.6.6 = { holder=327232 } # Cadwyn (nc)
6518.1.1 = { holder=329232 } # Garth (nc)
6539.1.1 = { holder=331232 } # Kevan (nc)
6575.1.1 = { holder=333232 } # Ormond (nc)
6589.1.1 = { holder=335232 } # Myrielle (nc)
6605.1.1 = { holder=337232 } # Joanna (nc)
6653.1.1 = { holder=341232 } # Forley (nc)
6682.1.1 = { holder=342232 } # Willem (nc)
6709.1.1 = { holder=346232 } # Ossifer (nc)
6718.1.1 = { holder=348232 } # Godwyn (nc)
6737.2.8 = { holder=232 } # Garth (c)
