1.1.1 = {
	law = succ_primogeniture
}
6470.1.1 = {
	holder=114137
}
6518.1.1 = {
	holder=113137
}
6530.1.1 = {
	holder=112137
}
6550.1.1 = {
	holder=111137
}
6563.1.1 = {
	holder=110137
}
6578.1.1 = {
	holder=109137 # Lucias Darry
}
6597.1.1 = {
	holder=5500137 # Jonothor Darry
}
6607.7.1 = {
    holder=5510137 # Derrick Darry
}
6609.1.1={
	holder=107137 # Roland Darry
}
6646.1.1 = {
	holder=105137 # Jorin Darry
}
6681.1.1 = {
	holder=104137
}
6716.1.1 = {
	holder=103137
}
6741.1.1 = {
	holder=100137
}


