4478.1.1={
	law = succ_primogeniture
}
5827.1.1 = { liege="k_eastwealdTK" }

5846.1.1 = { holder=500177 } #gerold (NC)
5875.1.1 = { holder = 0 }

6466.1.1 = { holder=3000177 } # Vardis (nc)
6501.1.1 = { holder=3001177 } # Eon (nc)


6502.1.1 = { holder=500177 } # Waymar (nc)

6537.1.1={
	liege="e_vale"
}

6542.1.1 = { holder=3007177 } # Morton (nc)
6564.1.1 = { holder=3008177 } # Petyr (nc)
6628.1.1 = { holder=3009177 } # Damon (nc)
6636.1.1 = { holder=3010177 } # Triston (nc)
6672.1.1 = { holder=3012177 } # Raymar (nc)
6681.1.1 = { holder=3014177 } # Pate (nc)
6692.1.1 = { holder=3018177 } # Vardis (nc)

6738.1.1={
	holder=94052
}
6778.1.1={
	holder=94053
}
