#c_fair_isle
3868.1.1 = {
	holder=150194 #Gylbert farman (C)
}
3893.1.1 = {
	holder=0
}
5214.1.1 = {
	holder=152194
}
5248.1.1 = {
	liege=e_westerlands #conquered
}
5256.1.1 = {
	holder=0
}

6433.1.1={
	liege="d_kayce"
	holder=155194
}
6460.1.1 = {
	holder=156194
}
6473.1.1 = {	
	holder=310194
}
6517.1.1 = {	
	holder=309194
}
6543.1.1 = {	
	holder=308194
}
6566.1.1 = {	
	holder=307194
}
6582.1.1 = {	
	holder=306194
}
6608.1.1 = {
	holder=305194
}
6639.1.1 = {	
	holder=304194
}
6677.1.1 = {	
	holder=302194
}
6689.1.1 = {	
	holder=301194
}
6729.1.1 = {	
	holder=300194
}	
6740.1.1 = {	
	holder=194
}
6773.1.1 = {	
	holder=2194 #Sebaston
}
