4678.1.1={
	law = succ_primogeniture
	liege="k_gulltownTK"
}

6401.1.1 = { holder=100185 } # Osgood (nc)
6434.1.1 = { holder=101185 } # Osgood (nc)
6450.1.1 = { holder=102185 } # Osgood (nc)

6480.1.1 = { holder=550186 } # Gerold # andal warlord
6514.1.1 = { holder=553186 } # Gerold 
6536.1.1 = { holder=3005186 } # Franklyn (nc)
6539.1.1={
	liege="e_vale"
}
6590.1.1 = { holder=3008186 } # Dafyn (nc)
6600.1.1 = { holder=3011186 } # Illifer (nc)
6622.1.1 = { holder=3013186 } # Criston (nc)
6637.1.1 = { holder=3018186 } # Robert (nc)
6645.1.1 = { holder=3020186 } # Marq (nc)
6654.1.1 = { holder=3021186 } # Colmar (nc)
6694.1.1 = { holder=3025186 } # Dafyn (nc)

6726.1.1={
	holder=94064
}
6761.1.1={
	holder=94065
}
