3878.1.1={
	#liege="k_sarnor"
	effect = {
		holder_scope = { 
			k_sarnor = {
				holder_scope = {
					make_tributary = { who = PREVPREV tributary_type = sarnori }
				}
			}
		}	
	}
	law = succ_primogeniture
}
6441.1.1 = { holder=10056810 } # Nitish (nc)
6499.1.1 = { holder=10156810 } # Ekavir (nc)
