1.1.1={ law=succ_primogeniture law=cognatic_succession
	liege="e_reach"
}
6418.1.1={
	holder=88295
}
6463.1.1={
	holder=88287
}
6470.1.1={
	holder=88286
}

6513.1.1={
	holder=88285
}
6522.1.1={
	holder=0 #Osgreys lose titles
}
