1.1.1 = { 
	law = succ_primogeniture
	law = cognatic_succession
	liege = k_stonewayTK
}

6400.1.1 = { holder = 152012 } #Yorick I
6440.1.1 = { holder = 153012 } #Yorick II
6468.1.1 = { holder = 154012 } #Olyvar
6481.1.1 = { holder=30212 } # Cletus (nc)
6500.1.1 = { holder=30312 } # Ulrick (nc)
6526.1.1 = { holder=31012 } # Timoth (nc)
6553.1.1 = { holder=31112 } # Anders (nc)
6587.1.1 = { holder=31212 } # Castos (nc)
6588.1.1 = { holder=31312 } # Alaric (nc)
6631.1.1 = { holder=31812 } # Linnet (nc)

6645.1.1 = { holder=32212 } # Ormond (nc)

6679.1.1 = { holder=32312 } # Trystane (nc)
6708.1.1 = { holder=32612 } # Edgar (c)
6752.1.1 = { holder=6969112} # Ormond (c)
