
3030.1.1 = {
	holder = 150054 #Edwyn Evenstar
	liege = k_tarthTK
}
3055.1.1 = {
	liege="e_stormlands" #married into Durrandons
}
3072.1.1 = {holder=0}
6422.1.1 = { holder=153054 } #Selwyn (nc)
6454.1.1 = { holder=60000054 } # Daven Tarth (nc)
6466.1.1 = { holder=300054 } # Selwyn Tarth (nc)
6517.1.1 = { holder=301054 } # Willem Tarth (nc)

6560.1.1 = {
	liege = k_tarthTK
	 holder=310054 # Selwyn Tarth (nc)
} 
6592.1.1 = { holder=315054 } # Willem Tarth (nc)
6624.1.1 = { holder=316054 } # Renly Tarth (nc)
6652.1.1 = { holder=322054 } # Endrew Tarth (nc)
6688.1.1 = { holder=200054 } # Quentyn Tarth (C)
6715.1.1 = { holder=326054 } # Terrence Tarth (nc)
6733.1.1 = { holder=331054 } # Willem Tarth (nc)
6757.1.1 = { holder=201054 } # Selwyn Tarth (C)

