1.1.1={
	law = succ_primogeniture
}
6448.1.1 = { holder=3050363 } # Robert (nc)
6473.6.1 = { holder=3051363 } # Denys (nc)
6506.1.1 = { holder=3003363 } # Mandon (nc)
6507.1.1 = { holder=3004363 } # Jon (nc)
6537.1.1={
	liege="e_vale"
}
6558.1.1 = { holder=3006363 } # Wallace (nc)
6567.1.1 = { holder=3009363 } # Robert (nc)
6601.1.1 = { 
	holder=3012363 # Wyl (nc)
} 
6611.1.1 = { 
	liege=e_north # Rape of the Sisters
} 
6626.1.1 = { holder=3016363 } # Elbert (nc)
6653.1.1 = { holder=3017363 } # Horton (nc)
6671.1.1 = { holder=3019363 } # Rolland (nc)
6681.1.1 = { holder=3020363 } # Osmund (nc)
6710.1.1 = { holder=3023363 } # Eustace (nc)
6718.1.1 = { holder=3024363 } # Mandon (nc)
6755.1.1={
	holder=10363
}
