1.1.1={
	liege="k_volantis"
}
6453.1.1 = { holder=100305613 } # Colloquo (nc)
6485.1.1 = { holder=101305613 } # Moqorro (nc)
6521.1.1 = { holder=104305613 } # Qarro (nc)
6543.1.1 = { holder=106305613 } # Vogarro (nc)
6559.1.1 = { holder=111305613 } # Alios (nc)
6577.1.1 = { holder=112305613 } # Belicho (nc)
6588.1.1 = { holder=113305613 } # Meralyn (nc)
6623.1.1 = { holder=117305613 } # Belicho (nc)
6625.1.1 = { holder=119305613 } # Bolquello (nc)
6657.1.1 = { holder=121305613 } # Rolloquo (nc)
6693.1.1 = { holder=124305613 } # Meralyn (nc)
6717.1.1 = { holder=127305613 } # Methyso (nc)
6744.1.1 = { holder=132305613 } # Orbelo (nc)

