
6640.1.1 = { 
	holder=35138  # Franklyn (nc)
	liege="k_vaithTK"
}
6655.1.1 = { holder=35148 } # Cassella (C)
6697.1.1 = { holder=35158 } # Janyce (nc)
6716.1.1 = { holder=35168 } # Theodan (nc)
6737.2.8 = { holder=8 } # Taubert (nc)
6770.3.5 = { holder=2008} # Daeron (c)
