2478.1.1 = {
	active = yes
	liege = k_the_most_devout
	law = succ_open_elective
}
6506.1.1={
	holder=351321 #Damon Morrrigen
}
6520.6.1={
	holder=178285 #Morgan Hightower
}
6524.1.1= { holder=0 }

6536.1.1={ #Supressed, disbanded by Jaehaerys I
	liege = 0
	active = no
}
6778.3.1 = { #cersei
	active = yes
	liege = k_the_most_devout
	law = succ_open_elective
	holder = 60000081 #Theodan Wells
}
