1.1.1={
	liege="k_xin"
}
6473.1.1 = { holder=10069194 } # Is'mail (nc)
6519.1.1 = { holder=10269194 } # Fadil (nc)
6525.1.1 = { holder=10469194 } # Khalil (nc)
6550.1.1 = { holder=10569194 } # Qawurd (nc)
6576.1.1 = { holder=10869194 } # Youkhanna (nc)
6628.1.1 = { holder=11069194 } # Ramadan (nc)
6656.1.1 = { holder=11169194 } # Jaleel (nc)
6659.1.1 = { holder=11369194 } # Jalil (nc)
6683.1.1 = { holder=11769194 } # Jabir (nc)
6725.1.1 = { holder=11869194 } # Khaireddin (nc)
6758.1.1 = { holder=12469194 } # Isa (nc)



