1.1.1={
	liege = e_new_valyria
}

6473.1.1 = { holder=10000347 } # Rhaekar (nc)
6505.1.1 = { holder=10020347 } # Aegor (nc)
6526.1.1 = { holder=10030347 } # Qoherys (nc)
6571.1.1 = { holder=10060347 } # Daeron (nc)
6602.1.1 = { holder=10080347 } # Otherys (nc)
6616.1.1 = { holder=10100347 } # Daeron (nc)
6624.1.1 = { holder=10140347 } # Daeron (nc)
6668.1.1 = { holder=10190347 } # Baelon (nc)
6689.1.1 = { holder=10230347 } # Aenar (nc)
6744.1.1 = { holder=10260347 } # Aegon (nc)
6761.1.1 = { holder=10280347 } # Maegon (nc)
6775.1.1 = { holder=10290347 } # Rhaegar (nc)
6787.1.1 = { holder=10310347 } # Vaermon (nc)
