1.1.1={
	liege="k_yin"
	law = succ_ultimogeniture
}

2100.1.1 = { 
	holder=10055956
}
2135.1.1 = { holder=0 }

2256.1.1 = { 
	holder=10055957

}
2293.1.1 = { holder=0 }

2800.1.1 = { holder=10055961 } # Qaun (nc)
2819.1.1 = { holder=10155961 } # An (nc)
2839.1.1 = { holder=10355961 } # Gai (nc)
2858.1.1 = { holder=10455961 } # Mao (nc)
2866.1.1 = { holder=10555961 } # Tho (nc)
2881.1.1 = { holder=10655961 } # Kim (nc)
2905.1.1 = { holder=10755961 } # Dong (nc)
2931.1.1 = { holder=10855961 } # Quan (nc)
2940.1.1 = { holder=10955961 } # Huu (nc)
2945.1.1 = { holder=0 }

6468.1.1 = { holder=10005961 } # Chao (nc)

6506.1.1 = { holder=10365961 } # Lo Doq canon 34th scarlet emperor
6520.1.1 = { holder=110055961 } # Huu (nc)
6550.1.1 = { holder=100065961 } # Tu (nc)
6560.1.1 = { holder=10085961 } # Phong (nc)
6580.1.1 = { holder=10105961 } # Quen (nc)
6619.1.1 = { holder=10135961 } # Tu (nc)
6661.1.1 = { holder=110155961 } # Binh (nc)
6666.1.1 = { holder=10185961 } # Gai (nc)
6670.1.1 = { holder=10065963 } # Lo Han canon 42nd scarlet emperor
6698.1.1 = { holder=10165963 } # Lo Bu canon 43rd scarlet emperor


