1.1.1={
	liege="k_yunkai"
}
6473.1.1 = { holder=150360024 } # Yurkhaz (nc)
6495.1.1 = { holder=100360024 } # Yezzan (nc)
6506.1.1 = { holder=103360024 } # Gorzhak (nc)
6551.1.1 = { holder=104360024 } # Grazdan (nc)
6565.1.1 = { holder=106360024 } # Sharkaz (nc)
6613.1.1 = { holder=109360024 } # Grazdan (nc)
6644.1.1 = { holder=112360024 } # Ghazdor (nc)
6665.1.1 = { holder=113360024 } # Skahaz (nc)
6702.1.1 = { holder=118360024 } # Hizdharo (nc)
6723.1.1 = { holder=123360024 } # Haznak (nc)

6753.1.1={
	holder=6571003 # Yurkhaz
}
