1.1.1={
	law = succ_primogeniture
	law = true_cognatic_succession
}
6473.1.1 = { holder=100186004 } # Ryon (nc)
6500.1.1 = { holder=101186004 } # Aryen (nc)
6539.1.1 = { holder=10586004 } # Alleras (nc)
6545.1.1 = { holder=10786004 } # Aron (nc)
6553.1.1 = { holder=11386004 } # Daeron (nc)
6588.1.1 = { holder=11486004 } # Gasoyne (nc)
6634.1.1 = { holder=11686004 } # Rycas (nc)
6648.1.1 = { holder=12086004 } # Peyos (nc)
6667.1.1 = { holder=12286004 } # Allar (nc)
6723.1.1 = { holder=12686004 } # Allar (nc)
6725.1.1 = { holder=12786004 } # Trystane (nc)
6772.1.1 = { holder=13186004 } # Myria (nc)

