5756.1.1 = {
	law = succ_primogeniture
	law = cognatic_succession
}
6409.1.1 = { holder = 152018 }
6430.1.1 = { holder = 153018 }
6472.1.1 = { holder=60018 } # Timeon (nc)
6497.1.1 = { holder=60218 } # Frynne (nc)
6521.1.1 = { holder=60818 } # Castos (nc)
6576.1.1 = { holder=61018 } # Willam (nc)
6605.1.1 = { holder=61318 } # Tremond (nc)
6606.1.1 = { holder=61618 } # Archibald (nc)
6607.1.1 = { holder=61418 } # Perros (nc)


6654.1.1 = { holder=62218 } # Allar (nc)


6691.6.19 = { holder=62718 } # Garin (nc)
	
6715.1.1 = { holder=62818 } # Emberlei (nc)
6727.1.1 = { holder=63018 } # Daemon (nc)
6750.4.2 = { holder=18 } # Larra (C)
