5368.1.1 = { 
	law = slavery_2
	law = republic_law_oligarchy
	law = succ_feudal_elective
	law = agnatic_succession
	law = centralization_2
	effect = {
		add_law = republic_law_oligarchy
		holder_scope = { 
			e_new_valyria = {
				holder_scope = {
					make_tributary = { who = PREVPREV percentage = 0.1 }
				}
			}
		}	
	}
} 
6473.1.1 = { holder=10002900 } # Belicho (nc)
6514.1.1 = { holder=10012900 } # Methyso (nc)
6541.1.1 = { holder=10032900 } # Colloquo (nc)
6557.1.1 = { holder=10062900 } # Belicho (nc)
6594.1.1 = { holder=10122900 } # Vaekar (nc)
6607.1.1 = { holder=10132900 } # Vaekar (nc)
6638.1.1 = { holder=10162900 } # Daegar (nc)
6675.1.1 = { holder=10192900 } # Matarys (nc)
6683.1.1 = { holder=10232900 } # Orys (nc)
6711.1.1 = { holder=10262900 } # Vaermon (nc)
6735.1.1 = { holder=10292900 } # Methyso (nc)
6772.1.1 = { holder=10332900 } # Moqorro (nc)
6778.1.1 = { holder=10342900 } # Methyso (nc)

