1000.1.1 = {
	de_jure_liege = 0
	law = succ_feudal_elective
	law = true_cognatic_succession
}
5718.2.1={ 	
holder=6054001 # Chroyana
}
5760.10.1={holder=6000001} # Garin the Great
5777.4.4={ # About 700 years before the events of the books Nymeria was Queen.
	holder=2000001 # Nymeria
}
5778.1.1 = {
	holder=0
}
