1.1.1={
	law = succ_primogeniture
	law = cognatic_succession
}

6492.1.1 = { holder = 5551176 } #Gawayne Corbray
6523.1.1 = { holder = 551176 } #Qyle Corbray
6538.6.6 = { holder=552176 } # Jaimie
6539.1.1={
	holder=0
}

