1.1.1={ 
	liege="c_disputedforest"
}
2980.1.1 = { holder=150300540 } # Groleo (nc)
3025.1.1 = { holder=100300540 } # Allequo (nc)
3056.1.1 = { holder=101300540 } # Collio (nc)
3061.1.1 = { holder=107300540 } # Syrio (nc)
3098.1.1 = { holder=111300540 } # Khorane (nc)
3123.1.1 = { holder=113300540 } # Gylono (nC)
3165.1.1 = { holder=117300540 } # Joss (nc)
3208.1.1 = { holder=121300540 } # Tagganaro (nc)
3239.1.1 = { holder=124300540 } # Brusco (nc)
3254.1.1 = { holder=127300540 } # Ternesio (nc)
3259.1.1={ holder = 0 } #Ninepenny king
3259.12.31 = { holder = 127300540 } 
3270.1.1={
	holder=2003994 # Sallador
}


