1.1.1={ 
	liege="k_valyria"
	holding_dynasty = 496004 # Embaryen
}

2995.1.1 = { holder=10006004 } # Rhaegar (nc)
3042.1.1 = { holder=10046004 } # Maegon (nc)
3078.1.1 = { holder=10076004 } # Maerys (nc)
3091.1.1 = { holder=10096004 } # Aemon (nc)
3121.1.1 = { holder=10126004 } # Maegor (nc)
3137.1.1 = { holder=10136004 } # Haegon (nc)
3186.1.1 = { holder=10156004 } # Matarys (nc)
3192.1.1 = { holder=10196004 } # Qoherys (nc)
3200.1.1 = { holder=10226004 } # Haegon (nc)
3259.1.1 = { holder=10236004 } # Orys (nc)
3264.1.1 = { holder=10276004 } # Qoherys (nc)
3311.1.1 = { holder=10286004 } # Orys (nc)
