1.1.1={ 
	liege="c_littletyrosh"
}
2970.1.1 = { holder=155300544 } # Denzo (nc)
3024.1.1 = { holder=100300544 } # Doniphos (nc)
3046.1.1 = { holder=101300544 } # Jaqen (nc)
3079.1.1 = { holder=106300544 } # Ordello (nc)
3111.1.1 = { holder=110300544 } # Pynto (nc)
3134.1.1 = { holder=114300544 } # Tormo (nc)
3141.1.1 = { holder=117300544 } # Ferrego (nc)
3167.1.1 = { holder=118300544 } # Allaquo (nc)
3179.1.1 = { holder=121300544 } # Ordello (nc)
3234.1.1 = { holder=126300544 } # Ezzelyno (nc)
3250.1.1 = { holder=127300544 } # Pynto (nc)
3253.1.1 = { holder=129300544 } # Tagganaro (nc)

3259.1.1 = { holder=128300024 } # Tycho (nc) #Ninepenny kings temp Tyroshi capital
3259.12.31 = { holder=129300544 } # Tagganaro (nc)

3274.1.1 = { holder=131300544 } # Moreo (nc)


