1.1.1={ 
	liege="c_yunkai"
}
2995.1.1 = { holder=150360022 } # Rhaezdhar (nc)
3025.1.1 = { holder=100360022 } # Maezon (nc)
3050.1.1 = { holder=102360022 } # Grazdan (nc)
3100.1.1 = { holder=106360022 } # Morghaz (nc)
3105.1.1 = { holder=109360022 } # Mizlak (nc)
3142.1.1 = { holder=112360022 } # Skahaz (nc)
3159.1.1 = { holder=113360022 } # Zaraq (nc)
3198.1.1 = { holder=117360022 } # Lazhak (nc)
3218.1.1 = { holder=121360022 } # Grazdan (nc)
3243.1.1 = { holder=124360022 } # Azzak (nc)
3257.1.1 = { holder=131360022 } # Maezon (nc)
3282.1.1={
	holder=6571005 # Paezhar
}


