1.1.1={ 
	liege="c_silkhead"
}

2970.1.1 = { holder=150300539 } # Nyessos (nc)
3029.1.1 = { holder=100300539 } # Doniphos (nc)
3075.1.1 = { holder=104300539 } # Orbelo (nc)
3077.1.1 = { holder=106300539 } # Oro (nc)
3115.1.1 = { holder=107300539 } # Gyleno (nc)
3125.1.1 = { holder=108300539 } # Lysandro (C)
3140.1.1 = { holder=110300539 } # Lysaro (C)
3145.1.1 = { holder=112300539 } # Moredo (C)
3165.1.1 = { holder=114300539 } # Orbelo (nc)
3209.1.1 = { holder=119300539 } # Moreo (nc)
3233.1.1 = { holder=120300539 } # Gyleno (nc)
3252.1.1 = { holder=123300539 } # Orbelo (nc)
3259.1.1={ holder = 0 } #Ninepenny king
3259.12.31 = { holder = 123300539 } 
3260.1.1 = { holder=125300539 } # Byan (nc)

