1000.1.1={
law = succ_primogeniture
}
2965.1.1={
	holder=25098
}
3004.1.1={
	holder=24098
}
3019.1.1={
	holder=23098
}
3030.1.1={
	holder=22098
}
3040.1.1={
	holder=21098
}
3045.1.1={
	holder=19098
}
3076.1.1={
	holder=18098
}
3098.1.1={
	holder=17098
}
3139.1.1={
	holder=15098
}
3161.1.1={
	holder=14098
}
3210.1.1={
	holder=12098
}
3251.1.1={
	holder=10098
}
3277.1.1={
	holder=98
}
