1.1.1={
	liege="d_pentoshi_flatlands"
}

2990.1.1 = { holder=1004928 } # Gyles (nc)
3017.1.1 = { holder=1014928 } # Osney (nc)
3036.1.1 = { holder=1054928 } # Robin (nc)
3060.1.1 = { holder=1094928 } # Yohn (nc)
3075.1.1 = { holder=1104928 } # Colemon (nc)
3116.1.1 = { holder=1114928 } # Ronnel (nc)
3136.1.1 = { holder=1124928 } # Osney (nc)
3161.1.1 = { holder=1134928 } # Uthor (nc)
3180.1.1 = { holder=1144928 } # Osmund (nc)
3203.1.1 = { holder=1164928 } # Vardis (nc)
3207.1.1 = { holder=1204928 } # Lucas (nc)
3258.1.1 = { holder=1254928 } # Edmund (nc)
3293.1.1 = { holder=1294928 } # Alaric (nc)
3313.1.1 = { holder=1304928 } # Vardis (nc)
3339.1.1 = { holder=1324928 } # Pate (nc)
3340.1.1 = { holder=1344928 } # Edmund (nc)