1.1.1 = { 
	liege = d_the_axe
}

2985.1.1 = { holder=10004943 } # Osney (nc)
3029.1.1 = { holder=10014943 } # Waymar (nc)
3052.1.1 = { holder=10054943 } # Harlan (nc)
3092.1.1 = { holder=10104943 } # Robin (nc)
3095.1.1 = { holder=10134943 } # Eustace (nc)
3124.1.1 = { holder=10164943 } # Othor (nc)
3171.1.1 = { holder=10184943 } # Osfryd (nc)
3191.1.1 = { holder=10234943 } # Ballabar (nc)
3216.1.1 = { holder=10264943 } # Damon (nc)
3259.1.1 = { holder=10284943 } # Benedar (nc)
3281.1.1 = { holder=10304943 } # Robin (nc)
3321.1.1 = { holder=10324943 } # Harrold (nc)
3350.1.1 = { holder=10344943 } # Wallace (nc)