1.1.1={
	liege="d_nefer"
}
2995.1.1 = { holder=10069207 } # Akin (nc)
3037.1.1 = { holder=10269207 } # Khalil (nc)
3051.1.1 = { holder=10769207 } # Idris (nc)
3067.1.1 = { holder=10969207 } # Zeyd (nc)
3108.1.1 = { holder=11369207 } # Akin (nc)
3134.1.1 = { holder=11469207 } # Fadl (nc)
3155.1.1 = { holder=11669207 } # Youkhanna (nc)
3168.1.1 = { holder=11969207 } # Mirza (nc)
3189.1.1 = { holder=12069207 } # Zeyd (nc)
3220.1.1 = { holder=12169207 } # Ghalib (nc)
3244.1.1 = { holder=12569207 } # Shamir (nc)
3261.1.1 = { holder=12969207 } # Yahya (nc)



