
2980.1.1 = { holder=1002175 } # Morgan (nc)
3017.1.1 = { holder=1012175 } # Donnel (nc)
3056.1.1 = { holder=1032175 } # Hoarfrost (nc)
3073.1.1 = { holder=1072175 } # Alaric (nc)
3077.1.1 = { holder=1102175 } # Rickon (nc)
3109.1.1 = { holder=1112175 } # Karlon (nc)
3156.1.1 = { holder=1132175 } # Hother (nc)
3177.1.1 = { holder=1162175 } # Leobald (nc)
3229.1.1 = { holder=1192175 } # Alyn (nc)
3237.1.1 = { holder=1232175 } # Larence (nc)
3250.1.1 = { holder=1242175 } # Porther (nc)
3291.1.1 = { holder=1252175 } # Torrhen (nc)



