1.1.1={ law=succ_primogeniture law=cognatic_succession
	liege="d_oldtown"
}

60.1.1 = { holder=6000284 } # Bors the Breaker (C)

78.1.1 = { holder=0 }

2830.1.1 = { holder=6200284 } # Boryan (nc)
2868.1.1 = { holder=6300284 } # Turan (nc)
2892.1.1 = { holder=6400284 } # Andrik (nc)
2938.1.1 = { holder=6600284 } # Perceon (nc)
2972.1.1 = { holder=6800284 } # Barrett (nc)

2974.1.1 = { holder=3000284 } # Bors (nc)
2999.1.1 = { holder=3001284 } # John (nc)
3019.1.1 = { holder=3006284 } # Victor (nc)
3078.1.1 = { holder=3010284 } # Reynard (nc)
3106.1.1 = { holder=3011284 } # Horras (nc)
3124.1.1 = { holder=3016284 } # Lorent (nc)
3143.1.1 = { holder=3017284 } # Rickard (nc)
3144.1.1 = { holder=3019284 } # Lyonel (nc)
3201.1.1 = { holder=3020284 } # Petyr (nc)
3204.1.1 = { holder=3022284 } # Ben (nc)
3218.1.1 = { holder=3024284 } # Gerold (nc)
3240.1.1 = { holder=3029284 } # Buford (nc)
3276.1.1 = { holder=3033284 } # Moryn (nc)




