#c_castamere
1.1.1={
	liege="d_castamere"
}
200.1.1 = { holder=319197 } # Ryon (nc)
250.1.1 = { holder=0 } 
2810.1.1 = { holder=300197 } # Damion (nc)
2852.1.1 = { holder=301197 } # Roger (nc)
2903.1.1 = { holder=305197 } # Beron (nc)
2907.1.1 = { holder=307197 } # Lorent (nc)
2956.1.1 = { holder=311197 } # Bertram (nc)
2981.1.1 = { holder=314197 } # Raynhart (nc)

2984.1.1 = {
holder=150197
}
3021.1.1 = {
holder=140197
}
3058.1.1 = {
holder=130197
}
3078.1.1 = {
holder=120197
}
3105.1.1 = {
holder=110197
}
3126.1.1 = {
holder=10197
}
3154.1.1 = {
holder=9197
}
3176.1.1 = {
holder=8197
}
3188.1.1 = {
holder=6197
}
3201.1.1 = {
holder=5197
}
3247.1.1 = {
holder=197
}

