1.1.1={
	liege="d_qarkash"
}

2995.1.1 = { holder=100069159 } # Regon (nc)
3039.1.1 = { holder=100269159 } # Belicho (nc)
3045.1.1 = { holder=100569159 } # Methyso (nc)
3077.1.1 = { holder=100969159 } # Ordello (nc)
3081.1.1 = { holder=101169159 } # Navathos (nc)
3111.1.1 = { holder=101569159 } # Xaro (nc)
3135.1.1 = { holder=101669159 } # Gathril (nc)
3168.1.1 = { holder=101869159 } # Mathos (nc)
3196.1.1 = { holder=102269159 } # Lotho (nc)
3217.1.1 = { holder=102469159 } # Wendello (nc)
3238.1.1 = { holder=102869159 } # Lotho (nc)
3272.1.1 = { holder=102969159 } # Pyat (nc)
3292.1.1 = { holder=103269159 } # Mathos (nc)
