1000.1.1={
	liege="d_theneck"
	law = succ_primogeniture
}
2986.1.1={
	holder = 22078
}
3011.1.1={
	holder = 21078
}
3040.1.1={
	holder = 20078
}
3064.1.1={
	holder = 19078
}
3071.1.1={
	holder = 18078
}
3104.1.1={
	holder = 17078
}
3116.1.1={
	holder = 16078
}
3162.1.1={
	holder = 14078
}
3188.1.1={
	holder = 13078
}
3213.1.1={
	holder = 12078
}
3239.1.1={
	holder = 11078
}
3251.1.1={
	holder = 10078
}
3270.1.1={
	holder = 78
}
