2975.1.1 = { holder=10559133 } # Mikken (nc)
3007.1.1 = { holder=11559133 } # Orell (nc)
3020.1.1 = { holder=14559133 } # Hareth (nc)
3067.1.1 = { holder=17559133 } # Henk (nc)
3079.1.1 = { holder=20559133 } # Alfyn (nc)
3127.1.1 = { holder=21559133 } # Gariss (nc)
3146.1.1 = { holder=23559133 } # Hallis (nc)
3147.1.1 = { holder=24559133 } # Calon (nc)
3184.1.1 = { holder=26559133 } # Bernarr (nc)
3239.1.1 = { holder=29559133 } # Torwynd (nc)
3256.1.1 = { holder=31559133 } # Gerrick (nc)
3263.1.1 = { holder=32559133 } # Devyn (nc)


