1.1.1={
	liege="d_meereen"
}
2995.1.1 = { holder=150360007 } # Gorzhak (nc)
3017.1.1 = { holder=100360007 } # Marghaz (nc)
3046.1.1 = { holder=101360007 } # Maezon (nc)
3079.1.1 = { holder=104360007 } # Hizdhar (nc)
3112.1.1 = { holder=107360007 } # Grazdan (nc)
3142.1.1 = { holder=110360007 } # Grazdan (nc)
3186.1.1 = { holder=116360007 } # Haznak (nc)
3223.1.1 = { holder=119360007 } # Mazdhan (nc)
3238.1.1 = { holder=121360007 } # Ghazdor (nc)
3267.1.1 = { holder=122360007 } # Skahaz (nc)
3298.1.1 = { holder=125360007 } # Miklaz (nc)
3300.1.1={
	liege="d_meereen"
	holder=135360007
}
