1004.1.1={
	liege="d_harrenhal"
	law = succ_primogeniture
}
2989.1.1={
	holder=25143
}
3012.1.1={
	holder=24143
}
3044.1.1={
	holder=23143
}
3086.1.1={
	holder=22143
}
3102.1.1={
	holder=21143
}
3111.1.1={
	holder=20143
}
3136.1.1={
	holder=19143
}
3158.1.1={
	holder=17143
}
3177.1.1={
	holder=13143
}
3184.1.1={
	holder=3143
}
