1000.1.1={
	liege="d_dreadfort"
	law = succ_primogeniture
}

1890.1.1 = {
	holder = 1050087 #Royce I
}
1919.1.1 = {
	holder = 1051087 #Royce II
}
1947.1.1 = {
	holder = 0
}
2220.1.1 = {
	holder = 1053087 #Royce III
}
2248.1.1 = {
	holder = 1054087 #Royce IV
}
2279.1.1 = {
	holder = 1055087 #Rogar
}
2311.1.1 = {
	holder = 0
}

2646.1.1 = { holder = 1057087 } #Belthesar (C)
2680.1.1 = { holder = 0 }

2901.1.1 = { holder=60087 } # Ralton (nc)
2926.1.1 = { holder=60187 } # Rodrick (nc)
2938.1.1 = { holder=60287 } # Roose (nc)
2960.1.1 = { holder=60387 } # Beren (nc)
2962.1.1 = { holder=60487 } # Donnis (nc)
2969.1.1 = { holder=60587 } # Durin (nc)

2978.1.1={
	holder = 13087
}
3008.1.1={
	holder = 12087
}
3046.1.1={
	holder = 11087
}
3069.1.1={
	holder = 10087
}
3095.1.1={
	holder = 9087
}
3139.1.1={
	holder = 8087
}
3154.1.1={
	holder = 7087
}
3170.1.1={
	holder = 6087
}
3201.1.1={
	holder = 5087
}
3245.1.1={
	holder = 4087
}
3261.1.1={
	holder = 87
}

