1183.1.1={
	liege="d_runestone"
}
3061.1.1 = { holder=3100162 } # Robert (nc)
3123.1.1 = { holder=3201162 } # Bryen (nc)
3171.1.1 = { holder=3000162 } # Robar (nc)
3217.1.1 = { holder=3004162 } # Florian (nc)
3263.1.1 = { holder=3005162 } # Bryen (nc)
3288.1.1 = { holder=3008162 } # Artys (nc)
3289.1.1 = { holder=3010162 } # Alaric (nc)
3338.1.1 = { holder=3013162 } # Wallace (nc)
3359.1.1 = { holder=3018162 } # Uthor (nc)
3384.1.1 = { holder=3019162 } # Godric (nc)
3409.1.1 = { holder=3023162 } # Lyn (nc)
