1000.1.1={
	liege="d_theneck"
	law = succ_primogeniture
}
2985.1.1={
	holder=13126
}
3031.1.1={
	holder=12126
}
3054.1.1={
	holder=11126
}
3067.1.1={
	holder=14126
}
3107.1.1={
	holder=9126
}
3140.1.1={
	holder=7126
}
3172.1.1={
	holder=6126
}
3204.1.1={
	holder=5126
}
3252.1.1={
	holder=4126
}
3267.1.1={
	holder=3126
}
3282.1.1={
	holder=126
}
