2986.1.1 = { 
	holder=100607301
	liege = d_west_plains
} # Barialy (nc)
3028.1.1 = { holder=101607301 } # Kahkazan (nc)
3034.1.1 = { holder=103607301 } # Laimah (nc)
3088.1.1 = { holder=106607301 } # Sadaf (nc)
3100.1.1 = { holder=107607301 } # Zaid (nc)
3111.1.1 = { holder=111607301 } # Naim (nc)
3127.1.1 = { holder=115607301 } # Jakar (nc)
3163.1.1 = { holder=117607301 } # Abagull (nc)

3212.1.1 = { 
	holder = 101607399 #Zhea
}
