#House Anuxho
2986.1.1 = { 
	holder=100304018 
	liege=d_indigo_straits
	law = succ_seniority
	law = cognatic_succession
} # Olujondo (nc)
3005.1.1 = { holder=101304018 } # Manahuru (nc)
3010.1.1 = { holder=102304018 } # Dubaku (nc)
3031.1.1 = { holder=105304018 } # Dubaku (nc)
3033.1.1 = { holder=107304018 } # Manahuru (nc)
3096.1.1 = { holder=114304018 } # Doshuru (nc)
3133.1.1 = { holder=116304018 } # Tatenda (nc)
3179.1.1 = { holder=117304018 } # Isodo (nc)
3201.1.1 = { holder=120304018 } # Xhal (nc)
3222.1.1 = { holder=127304018 } # Isingodo (nc)
3262.1.1 = { holder=130304018 } # Siboxhoan (nc)
3284.1.1 = { holder=131304018 } # Xhakan (nc)
