1.1.1={
	liege="k_new_ghis"
}

2995.1.1 = { holder=100069150 } # Morghaz (nc)
3032.1.1 = { holder=100169150 } # Yarkhaz (nc)
3043.1.1 = { holder=100469150 } # Maezon (nc)
3051.1.1 = { holder=100769150 } # Reznak (nc)
3106.1.1 = { holder=101069150 } # Prendahl (nc)
3124.1.1 = { holder=101269150 } # Hizdhar (nc)
3136.1.1 = { holder=101369150 } # Zaraq (nc)
3175.1.1 = { holder=102069150 } # Prendahl (nc)
3219.1.1 = { holder=102169150 } # Faezdhar (nc)
3222.1.1 = { holder=102469150 } # Reznak (nc)
3274.1.1 = { holder=102769150 } # Paezhar (nc)
3284.1.1 = { holder=102969150 } # Fendahl (nc)
