1.1.1={
	liege="d_kayakayanaya"
	law = succ_seniority
	law = agnatic_succession
}
2986.1.1 = { holder=10055945 } # Mykoon (nc)
3023.1.1 = { holder=10355945 } # Esko (nc)
3036.1.1 = { holder=10755945 } # Voitto (nc)
3082.1.1 = { holder=11155945 } # Myikku (nc)
3103.1.1 = { holder=11355945 } # Voitto (nc)
3106.1.1 = { holder=11655945 } # Veikko (nc)
3141.1.1 = { holder=11955945 } # Ryku (nc)
3149.1.1 = { holder=12055945 } # Sakari (nc)
3189.1.1 = { holder=12455945 } # Valto (nc)
3237.1.1 = { holder=12755945 } # Nyilo (nc)
3255.1.1 = { holder=13255945 } # Hyrno (nc)
3267.1.1 = { holder=13555945 } # Uljas (nc)
3281.1.1 = { holder=13755945 } # Hannu (nc)


