478.1.1 = {
	liege = d_hazdahn
}
2995.1.1 = { holder=100069201 } # Fendahl (nc)
3052.1.1 = { holder=100269201 } # Zaraq (nc)
3056.1.1 = { holder=100869201 } # Barghaz (nc)
3097.1.1 = { holder=101069201 } # Paezhar (nc)
3112.1.1 = { holder=101269201 } # Mazdhan (nc)
3118.1.1 = { holder=101669201 } # Azzak (nc)
3143.1.1 = { holder=101769201 } # Reznak (nc)
3166.1.1 = { holder=101869201 } # Harghaz (nc)
3218.1.1 = { holder=102369201 } # Skahaz (nc)
3232.1.1 = { holder=102569201 } # Grazdan (nc)
3253.1.1 = { holder=102869201 } # Haznak (nc)
3270.1.1 = { holder=103069201 } # Grazdhan (nc)

