1.1.1={
	liege="k_leng"
	law = succ_primogeniture
}
2964.1.1 = { holder=10065971 } # Yu (nc)
3023.1.1 = { holder=10165971 } # Xuan (nc)
3030.1.1 = { holder=10565971 } # Bai (nc)
3051.1.1 = { holder=10765971 } # Yu (nc)
3092.1.1 = { holder=11165971 } # Gai (nc)
3100.1.1 = { holder=11565971 } # Thinh (nc)
3134.1.1 = { holder=11665971 } # Bu (nc)
3136.1.1 = { holder=11865971 } # An (nc)
3188.1.1 = { holder=11965971 } # Fai (nc)
3198.1.1 = { holder=12465971 } # Mo (nc)
3207.1.1 = { holder=12665971 } # Hao (nc)
3247.1.1 = { holder=12965971 } # Han (nc)
3268.1.1 = { holder=13465971 } # Loi (nc)



