1.1.1={
	liege="d_lhazosh"
	law = succ_ultimogeniture
}
2985.1.1 = { holder=10055916 } # Jommo (nc)
3018.1.1 = { holder=10355916 } # Fogo (nc)
3035.1.1 = { holder=10655916 } # Zollo (nc)
3087.1.1 = { holder=10855916 } # Aggo (nc)
3094.1.1 = { holder=11155916 } # Iggo (nc)
3138.1.1 = { holder=11755916 } # Ogo (nc)
3176.1.1 = { holder=12155916 } # Zollo (nc)
3185.1.1 = { holder=12655916 } # Bharbo (nc)
3198.1.1 = { holder=12955916 } # Haggo (nc)
3239.1.1 = { holder=13455916 } # Cohollo (nc)
3266.1.1 = { holder=13655916 } # Pono (nc)
3269.1.1 = { holder=14055916 } # Rakharo (nc)
