1200.1.1={
	liege="d_the_sisters"
	law = succ_primogeniture
}
2995.1.1 = { holder=3000164 } # Raymar (nc)
3038.1.1 = { holder=3005164 } # Denys (nc)
3041.1.1 = { holder=3007164 } # Artys (nc)
3071.1.1 = { holder=3010164 } # Waymar (nc)
3090.1.1 = { holder=3012164 } # Denys (nc)
3121.1.1 = { holder=3013164 } # Pate (nc)
3158.1.1 = { holder=3014164 } # Osgood (nc)
3214.1.1 = { holder=3015164 } # Humfrey (nc)
3222.1.1 = { holder=3017164 } # Rolland (nc)
3228.1.1 = { holder=3021164 } # Gilwood (nc)
3267.1.1 = { holder=3024164 } # Horton (nc)
3280.1.1={
	holder=94034
}
