1.1.1={
	liege="d_mantarys"
}
2954.1.1 = { holder=100570136 } # Vaekar (nc)
3012.1.1 = { holder=102570136 } # Malaquo (nc)
3038.1.1 = { holder=103570136 } # Belicho (nc)
3040.1.1 = { holder=108570136 } # Vaermon (nc)
3059.1.1 = { holder=110570136 } # Parquello (nc)
3090.1.1 = { holder=115570136 } # Alios (nc)
3096.1.1 = { holder=117570136 } # Orys (nc)
3120.1.1 = { holder=118570136 } # Colloquo (nc)
3158.1.1 = { holder=119570136 } # Moqorro (nc)
3162.1.1 = { holder=121570136 } # Aenar (nc)
3190.1.1 = { holder=122570136 } # Qavo (nc)
3214.1.1 = { holder=128570136 } # Alios (nc)
3256.1.1 = { holder=130570136 } # Qoherys (nc)
3278.1.1 = { holder=136570136 } # Methyso (nc)
3285.1.1 = { holder=140570136 } # Doniphos (nc)
