1.1.1={
	liege="d_yunkai"
}
2995.1.1 = { holder=150360020 } # Grazdhan (nc)
3008.1.1 = { holder=100360020 } # Marghaz (nc)
3031.1.1 = { holder=101360020 } # Haezdhar (nc)
3072.1.1 = { holder=105360020 } # Grazdan (nc)
3088.1.1 = { holder=111360020 } # Barkhaz (nc)
3122.1.1 = { holder=112360020 } # Azlaq (nc)
3137.1.1 = { holder=116360020 } # Grazdan (nc)
3170.1.1 = { holder=119360020 } # Hizdhar (nc)
3188.1.1 = { holder=120360020 } # Yurkhaz (nc)
3225.1.1 = { holder=122360020 } # Grazdhan (nc)
3239.1.1 = { holder=126360020 } # Paezdhar (nc)
3255.1.1 = { holder=130360020 } # Gazdhor (nc)
3280.1.1={
	holder=6571007 # Grazdan
}
