1.1.1 = {
	law = succ_turkish_succession
	law = agnatic_succession
}
2986.1.1 = { holder=10559143 } # Cayn (nc)
3022.1.1 = { holder=11559143 } # Torghen (nc)
3033.1.1 = { holder=14559143 } # Eyron (nc)
3052.1.1 = { holder=18559143 } # Devyn (nc)
3060.1.1 = { holder=19559143 } # Walton (nc)
3085.1.1 = { holder=22559143 } # Jojen (nc)
3096.1.1 = { holder=23559143 } # Gerrick (nc)
3127.1.1 = { holder=26559143 } # Dywen (nc)
3155.1.1 = { holder=27559143 } # Gariss (nc)
3175.1.1 = { holder=31559143 } # Briar (nc)
3213.1.1={
	liege="k_beyond_wall"
}
3215.1.1 = { holder=33559143 } # Dormund (nc)
3224.1.1 = { holder=35559143 } # Mance (nc)
3226.9.9={
	liege="0"
}
3260.1.1 = { holder=38559143 } # Arnolf (nc)
#3286.1.1 = { holder=42559143 } # Devyn (nc)

3282.1.1={
	holder=157008
}
3298.1.1={
	liege="k_beyond_wall"
}
3300.1.1={
	holder=999000666
}
