1.1.1={
	liege="d_toqolarth"
}
2996.1.1 = { holder=150350010 } # Egon (nc)
3002.1.1 = { holder=100350010 } # Mathos (nc)
3054.1.1 = { holder=103350010 } # Ognos (nc)
3093.1.1 = { holder=104350010 } # Wullon (nc)
3114.1.1 = { holder=105350010 } # Methyso (nc)
3144.1.1 = { holder=109350010 } # Surindos (nc)
3166.1.1 = { holder=110350010 } # Mathos (nc)
3195.1.1 = { holder=113350010 } # Surindos (nc)
3237.1.1 = { holder=117350010 } # Saathos (nc)
3254.1.1 = { holder=118350010 } # Surindos (nc)
3263.1.1 = { holder=120350010 } # Belicho (nc)
3269.1.1 = { holder=123350010 } # Sallor (nc)


