1.1.1={
	liege="d_port_moraq"
}

2995.1.1 = { holder=100055934 } # Nizam (nc)
3038.1.1 = { holder=100355934 } # Isa (nc)
3046.1.1 = { holder=100555934 } # Yusuf (nc)
3060.1.1 = { holder=100655934 } # Burhanaddin (nc)
3079.1.1 = { holder=101055934 } # Shamir (nc)
3111.1.1 = { holder=101255934 } # Nizam (nc)
3137.1.1 = { holder=101555934 } # Is'mail (nc)
3174.1.1 = { holder=101655934 } # Qadir (nc)
3186.1.1 = { holder=101955934 } # Hafiz (nc)
3190.1.1 = { holder=102355934 } # Ubayd (nc)
3234.1.1 = { holder=102455934 } # Aghlab (nc)
3260.1.1 = { holder=102655934 } # Husam (nc)

