1.1.1={
	liege="d_piqui"
}
2995.1.1 = { holder=10069109 } # Nizam (nc)
3026.1.1 = { holder=10169109 } # Idris (nc)
3059.1.1 = { holder=10569109 } # Bakr (nc)
3093.1.1 = { holder=10769109 } # Yahya (nc)
3103.1.1 = { holder=11369109 } # Shaiban (nc)
3139.1.1 = { holder=11669109 } # Fadil (nc)
3156.1.1 = { holder=12169109 } # Youkhanna (nc)
3209.1.1 = { holder=12569109 } # Abdullah (nc)
3239.1.1 = { holder=12869109 } # Wahab (nc)
3258.1.1 = { holder=13169109 } # Shaiban (nc)
3270.1.1 = { holder=13469109 } # Nasr (nc)



