1.1.1={ law=succ_primogeniture law=cognatic_succession
	liege="d_red_lake"
}

1.1.1 = { holder=6100234 } # Rose of Red Lake

1.1.1 = { holder=0 }

2850.1.1 = { holder=6300234 } # Starla (nc)
2870.1.1 = { holder=6400234 } # Heron (nc)
2896.1.1 = { holder=6700234 } # Lonan (nc)
2951.1.1 = { holder=6800234 } # Robert (nc)
2959.1.1 = { holder=6000234 } # Merlon (nc)
3014.1.1 = { holder=6003234 } # Quentyn (nc)
3038.1.1 = { holder=6005234 } # Hosman (nc)
3084.1.1 = { holder=6010234 } # Mern (nc)
3124.1.1 = { holder=6013234 } # Gormon (nc)
3138.1.1 = { holder=6017234 } # Ben (nc)
3180.1.1 = { holder=6021234 } # Kyle (nc)
3211.1.1 = { holder=6022234 } # Olyvar (nc)


