1.1.1={
	liege="d_samyriana"
	law = succ_seniority
	law = agnatic_succession
}
2945.1.1 = { holder=10055948 } # Gafur (nc)
3003.1.1 = { holder=10155948 } # Yusuf (nc)
3019.1.1 = { holder=10455948 } # Bakr (nc)
3032.1.1 = { holder=10755948 } # Abdul (nc)
3081.1.1 = { holder=10955948 } # Nizam (nc)
3082.1.1 = { holder=11355948 } # Ali_Ali (nc)
3129.1.1 = { holder=11655948 } # Ubayd (nc)
3145.1.1 = { holder=11955948 } # Sami (nc)
3147.1.1 = { holder=12355948 } # Burhanaddin (nc)
3163.1.1 = { holder=12755948 } # Halil (nc)
3187.1.1 = { holder=13055948 } # Jalil (nc)
3219.1.1 = { holder=13255948 } # Fadl (nc)
3275.1.1 = { holder=13555948 } # Abdullah (nc)
3285.1.1 = { holder=13655948 } # Mukhtar (nc)
