1.1.1={
	liege="d_saath"
	law = succ_primogeniture
}
2935.1.1 = { holder=10056802 } # Vishruth (nc)
2975.1.1 = { holder=10256802 } # Nayan (nc)
3008.1.1 = { holder=10456802 } # Uttamesh (nc)
3034.1.1 = { holder=10956802 } # Vishruth (nc)
3042.1.1 = { holder=11356802 } # Jaafar (nc)
3075.1.1 = { holder=11556802 } # Kedaar (nc)
3083.1.1 = { holder=11956802 } # Onkar (nc)
3121.1.1 = { holder=12156802 } # Manaar (nc)
3159.1.1 = { holder=12356802 } # Paarth (nc)
3169.1.1 = { holder=12756802 } # Harshil (nc)
3188.1.1 = { holder=12856802 } # Balavant (nc)
3205.1.1 = { holder=13456802 } # Nayan (nc)
3228.1.1 = { holder=14056802 } # Dahak (nc)
3266.1.1 = { holder=14356802 } # Dinesh (nc)
3281.1.1 = { holder=14456802 } # Rathin (nc)
