1.1.1={
	liege="d_theneck"
	law = succ_primogeniture
}
2994.1.1={
	holder = 11073
}
3039.1.1={
	holder = 10073
}
3046.1.1={
	holder = 9073
}
3084.1.1={
	holder = 8073
}
3133.1.1={
	holder = 6073
}
3164.1.1={
	holder = 5073
}
3195.1.1={
	holder = 4073
}
3244.1.1={
	holder = 2073
}
3262.1.1={
	holder = 73
}
