1.1.1={
	liege="d_princespass"
	law=succ_primogeniture
	law = cognatic_succession
	effect = {
		b_skyreach = { ROOT = { holder_scope = { capital = PREVPREV } } }
	}
	
}
2917.1.1 = { holder = 154014 }
2960.1.1 = { holder = 155014 }
2988.1.1 = { holder=60014 } # Aron (nc)
3012.1.1 = { holder=60114 } # Cassana (nc)
3032.1.1 = { holder=60414 } # Franklyn (nc)
3080.1.1 = { holder=60714 } # Marya (nc)
3102.1.1 = { holder=60914 } # Gerold (nc)
3105.1.1 = { holder=61114 } # Trystane (nc)
3122.1.1 = { holder=61314 } # Dorea (nc)
3162.1.1 = { holder=61714 } # Symon (nc)
3195.1.1 = { holder=61814 } # Franklyn (nc)
3224.1.1 = { holder=62114 } # Aron (nc)
3237.1.1 = { holder=62214 } # Garin (nc)
3254.1.1 = { holder=63014 } # Gerold (nc)
3261.1.1 = { holder=14 } # Franklyn (C)
