1000.1.1={
	liege="d_barrowlands"
	law = succ_primogeniture
}
2987.1.1={
	holder = 21069
}
3018.1.1={
	holder = 20069
}
3024.1.1={
	holder = 19069
}
3050.1.1={
	holder = 18069
}
3071.1.1={
	holder = 17069
}
3095.1.1={
	holder = 16069
}
3111.1.1={
	holder = 15069
}
3133.1.1={
	holder = 14069
}
3178.1.1 = { holder=12069 }
3190.1.1 = { holder=60069 } # Harwyn (nc)
3212.1.1 = { holder=60169 } # Bowen (nc)
3241.1.1 = { holder=60269 } # Jeor (nc)
3252.1.1 = { holder=60369 } # Edwyn (nc)

