2994.1.1 = { holder=10559357 } # Quent (nc)
3047.1.1 = { holder=11559357 } # Gerrick (nc)
3069.1.1 = { holder=16559357 } # Arson (nc)
3078.1.1 = { holder=17559357 } # Errok (nc)
3092.1.1 = { holder=19559357 } # Ondrew (nc)
3097.1.1 = { holder=20559357 } # Eyron (nc)
3128.1.1 = { holder=21559357 } # Arson (nc)
3159.1.1 = { holder=22559357 } # Henk (nc)
3178.1.1 = { holder=23559357 } # Gorne (nc)
3213.1.1={
	liege="k_beyond_wall"
}
3222.1.1 = { holder=25559357 } # Bael (nc)
3226.9.9={
	liege="0"
}
3265.1.1 = { holder=30559357 } # Toregg (nc)
#3300.1.1 = { holder=31559357 } # Arthor (nc)

3298.1.1={
	liege="k_beyond_wall"
}
3300.1.1={
	holder=999000666
}
