1.1.1={
	liege = d_tyria
}

2995.1.1 = { holder=10006024 } # Otherys (nc)
3021.1.1 = { holder=10016024 } # Orys (nc)
3037.1.1 = { holder=10056024 } # Maegon (nc)
3077.1.1 = { holder=10066024 } # Maerys (nc)
3094.1.1 = { holder=10096024 } # Otherys (nc)
3143.1.1 = { holder=10126024 } # Qoherys (nc)
3172.1.1 = { holder=10146024 } # Aemon (nc)
3189.1.1 = { holder=10166024 } # Orys (nc)
3193.1.1 = { holder=10176024 } # Daeron (nc)
3245.1.1 = { holder=10206024 } # Matarys (nc)
3288.1.1 = { holder=10266024 } # Haegon (nc)
3290.1.1 = { holder=10286024 } # Maegon (nc)
3303.1.1 = { holder=10326024 } # Rhaekar (nc)

