1.1.1={
	liege="d_isle_of_cedars"
}

2995.1.1 = { holder=100069146 } # Alios (nc)
3036.1.1 = { holder=100169146 } # Bolquello (nc)
3037.1.1 = { holder=100569146 } # Rolloquo (nc)
3047.1.1 = { holder=101069146 } # Beqqo (nc)
3061.1.1 = { holder=101169146 } # Lotho (nc)
3105.1.1 = { holder=101369146 } # Belicho (nc)
3125.1.1 = { holder=101469146 } # Yorko (nc)
3143.1.1 = { holder=101569146 } # Malaquo (nc)
3198.1.1 = { holder=101769146 } # Alios (nc)
3202.1.1 = { holder=102369146 } # Malaquo (nc)
3209.1.1 = { holder=102569146 } # Bolquello (nc)
3237.1.1 = { holder=102969146 } # Parquello (nc)
3271.1.1 = { holder=103169146 } # Navaphos (nc)
