1.1.1 = {
	liege="d_ibbish"
}
2990.1.1 = { holder=1055931 } # Cull (nc)
3029.1.1 = { holder=1255931 } # Gurn (nc)
3041.1.1 = { holder=1755931 } # Jogg (nc)
3049.1.1 = { holder=1955931 } # Brogg (nc)
3106.1.1 = { holder=2255931 } # Jogg (nc)
3132.1.1 = { holder=2655931 } # Durr (nc)
3158.1.1 = { holder=3355931 } # Bodger (nc)
3169.1.1 = { holder=3555931 } # Cull (nc)
3204.1.1 = { holder=3755931 } # Quort (nc)
3224.1.1 = { holder=3855931 } # Drogg (nc)
3232.1.1 = { holder=3955931 } # Joth (nc)
3264.1.1 = { holder=4155931 } # Howd (nc)
3289.1.1 = { holder=40555931 } # Eleogg (nc)
