2964.1.1 = { holder=10033914 } # Samuqan (nc)
3009.1.1 = { holder=10133914 } # La'um (nc)
3036.1.1 = { holder=10333914 } # Humbab (nc)
3054.1.1 = { holder=11333914 } # Naqir (nc)
3108.1.1 = { holder=11733914 } # Shulpae (nc)
3132.1.1 = { holder=12133914 } # Sidu (nc)
3139.1.1 = { holder=12333914 } # Warad (nc)
3171.1.1 = { holder=12533914 } # Palusum (nc)
3216.1.1 = { holder=12633914 } # Enlil (nc)
3227.1.1 = { holder=12933914 } # Damuzi (nc)
3261.1.1 = { holder=13133914 } # Dadanum (nc)
3262.1.1 = { holder=13233914 } # Limer (nc)


