#House Turalu
2977.1.1 = { 
	holder=100304040 
	liege=d_omburu
	law = succ_seniority
	law = cognatic_succession
} # Xhakan (nc)
3007.1.1 = { holder=103304040 } # Quhuru (nc)
3041.1.1 = { holder=109304040 } # Delmabhar (nc)
3088.1.1 = { holder=111304040 } # Nyadundo (nc)
3100.1.1 = { holder=116304040 } # Olujondo (nc)
3114.1.1 = { holder=119304040 } # Gatubhar (nc)
3143.1.1 = { holder=122304040 } # Chakoro (nc)
3161.1.1 = { holder=125304040 } # Tal (nc)
3185.1.1 = { holder=126304040 } # Xhoan (nc)
3195.1.1 = { holder=127304040 } # Abrafo (nc)
3221.1.1 = { holder=129304040 } # Odingaxho (nc)
3234.1.1 = { holder=133304040 } # Jarado (nc)
3235.1.1 = { holder=130304040 } # Xhonodo (nc)
3255.1.1 = { holder=135304040 } # Adeyemu (nc)
3264.1.1 = { holder=136304040 } # Makhan (nc)



