1.1.1={
	liege = d_yghos
}

2995.1.1 = { holder=10000347 } # Rhaekar (nc)
3027.1.1 = { holder=10020347 } # Aegor (nc)
3048.1.1 = { holder=10030347 } # Qoherys (nc)
3093.1.1 = { holder=10060347 } # Daeron (nc)
3124.1.1 = { holder=10080347 } # Otherys (nc)
3138.1.1 = { holder=10100347 } # Daeron (nc)
3146.1.1 = { holder=10140347 } # Daeron (nc)
3190.1.1 = { holder=10190347 } # Baelon (nc)
3211.1.1 = { holder=10230347 } # Aenar (nc)
3266.1.1 = { holder=10260347 } # Aegon (nc)
3283.1.1 = { holder=10280347 } # Maegon (nc)
3297.1.1 = { holder=10290347 } # Rhaegar (nc)
3309.1.1 = { holder=10310347 } # Vaermon (nc)

