1.1.1={
	liege="d_yunkai"
}
2995.1.1 = { holder=150360024 } # Yurkhaz (nc)
3017.1.1 = { holder=100360024 } # Yezzan (nc)
3028.1.1 = { holder=103360024 } # Gorzhak (nc)
3073.1.1 = { holder=104360024 } # Grazdan (nc)
3087.1.1 = { holder=106360024 } # Sharkaz (nc)
3135.1.1 = { holder=109360024 } # Grazdan (nc)
3166.1.1 = { holder=112360024 } # Ghazdor (nc)
3187.1.1 = { holder=113360024 } # Skahaz (nc)
3224.1.1 = { holder=118360024 } # Hizdharo (nc)
3245.1.1 = { holder=123360024 } # Haznak (nc)

3275.1.1={
	holder=6571003 # Yurkhaz
}
