1.1.1={
	#liege="k_asshai"
}
2990.1.1 = { holder=10032901 } # Sumalika (nc)
3017.1.1 = { holder=10532901 } # Awil (nc)
3043.1.1 = { holder=10732901 } # Dadanum (nc)
3054.1.1 = { holder=11132901 } # Mamagal (nc)
3114.1.1 = { holder=11532901 } # Damuzi (nc)
3133.1.1 = { holder=11932901 } # Qasmath (nc)
3147.1.1 = { holder=12132901 } # Samuqan (nc)
3176.1.1 = { holder=12532901 } # Utu (nc)
3215.1.1 = { holder=12932901 } # Ibnatum (nc)
3240.1.1 = { holder=13332901 } # Qasmath (nc)
3273.1.1 = { holder=13632901 } # Bunuth (nc)
3274.1.1 = { holder=13932901 } # Yatum (nc)


