1.1.1 = { 
	law = succ_primogeniture
	law = cognatic_succession
	liege = k_stonewayTK
}

2922.1.1 = { holder = 152012 } #Yorick I
2962.1.1 = { holder = 153012 } #Yorick II
2990.1.1 = { holder = 154012 } #Olyvar
3003.1.1 = { holder=30212 } # Cletus (nc)
3022.1.1 = { holder=30312 } # Ulrick (nc)
3048.1.1 = { holder=31012 } # Timoth (nc)
3075.1.1 = { holder=31112 } # Anders (nc)
3109.1.1 = { holder=31212 } # Castos (nc)
3110.1.1 = { holder=31312 } # Alaric (nc)
3153.1.1 = { holder=31812 } # Linnet (nc)

3162.1.1 = { 
	holder=61000810 # Beldecar (nc)
	liege="k_ghosthillsTK"
} 
3196.1.1 = { holder=61001010 } # Trebor (nc)
3211.1.1 = { holder=61001110 } # Harmen (nc)
3227.1.1 = { holder=61001510 } # Daeron (nc)
3262.1.1 = { holder=61001710 } # Cletus (nc)

