1.1.1={
	liege = e_ghiscar
	law = slavery_2
	law = centralization_2
}
2950.1.1 = { holder=10000223 } # Morghaz (nc)
2954.1.1 = { holder=10020223 } # Reznak (nc)
2974.1.1 = { holder=10040223 } # Bharkaz (nc)

3001.1.1={
	liege = e_new_valyria
	holder=10003350
}
3024.1.1 = { holder=10013350 } # Qoherys (nc)
3049.1.1 = { holder=10053350 } # Aenar (nc)
3088.1.1 = { holder=10073350 } # Alios (nc)
3122.1.1 = { holder=10093350 } # Horonno (nc)
3132.1.1 = { holder=10103350 } # Vaeron (nc)
3183.1.1 = { holder=10123350 } # Nyessos (nc)
3188.1.1 = { holder=10173350 } # Colloquo (nc)
3237.1.1 = { holder=10193350 } # Gorys (nc)
3249.1.1 = { holder=10203350 } # Vaekar (nc)
3296.1.1 = { holder=10213350 } # Parquello (nc)
3322.1.1 = { holder=10233350 } # Qoherys (nc)
3344.1.1 = { holder=10273350 } # Aenar (nc)




