
3052.1.1 = { holder=3006182 } # Hugh (nc)
3059.1.1 = { holder=3007182 } # Osgood (nc)
3061.1.1={
	liege="e_vale"
}
3086.1.1 = { holder=3008182 } # Ronnel (nc)
3107.1.1 = { holder=3012182 } # Jasper (nc)
3135.1.1 = { holder=3013182 } # Lyonel (nc)
3179.1.1 = { holder=3015182 } # Gwayne (nc)
3204.1.1 = { holder=3016182 }

