1000.1.1={
	liege="k_northwealdTK"
	law = succ_primogeniture
}
2993.1.1 = { holder=3000169 } # Florian (nc)
3023.1.1 = { holder=3002169 } # Albar (nc)
3032.1.1 = { holder=3006169 } # Elbert (nc)

3070.1.1 = { holder=3010169 } # Wyl (nc)
3076.1.1 = { holder=3016169 } # Bryen (nc)
3104.1.1 = { holder=3018169 } # Banor (SC)
3170.1.1 = { holder=3026169 } # Eustace (nc)
3201.1.1 = { holder=3030169 } # Rolley (nc)
3222.1.1 = { holder=3032169 } # Gilwood (nc)
3247.1.1 = { holder=3036169 } # Royce (nc)

3273.1.1={
	holder=94040
}
