#Daevan
2986.1.1 = { 
	holder=10051800 # Balavant (nc)
	law = succ_primogeniture
} 
3019.1.1 = { holder=10151800 } # Yogesh (nc)
3022.1.1 = { holder=10451800 } # Taresh (nc)
3063.1.1 = { holder=10851800 } # Etash (nc)
3110.1.1 = { holder=11351800 } # Harith (nc)
3126.1.1 = { holder=11551800 } # Ekavir (nc)
3164.1.1 = { holder=11651800 } # Harihar (nc)
3198.1.1 = { holder=12351800 } # Manish (nc)
3213.1.1 = { holder=12751800 } # Ishwar (nc)
3259.1.1 = { holder=12951800 } # Avilash (nc)
3275.1.1 = { holder=13151800 } # Ganesh (nc)
