1.1.1={
	liege="k_sarhoy"
	law = succ_primogeniture
	law = true_cognatic_succession
}

2995.1.1 = { holder=100086003 } # Gerrys (nc)
3018.1.1 = { holder=100386003 } # Allar (nc)
3041.1.1 = { holder=100686003 } # Garyn (nc)
3072.1.1 = { holder=100786003 } # Daemyn (nc)
3087.1.1 = { holder=101186003 } # Garyn (nc)
3126.1.1 = { holder=101586003 } # Yandry (nc)
3155.1.1 = { holder=101986003 } # Trystane (nc)
3201.1.1 = { holder=102186003 } # Rycas (nc)
3214.1.1 = { holder=102386003 } # Allar (nc)
3216.1.1 = { holder=102786003 } # Dygos (nc)
3242.1.1 = { holder=103186003 } # Dezyel (nc)
3295.1.1 = { holder=103386003 } # Peyos (nc)
3317.1.1 = { holder=103486003 } # Caleyen (nc)
3334.1.1 = { holder=103886003 } # Aron (nc)

