1.1.1={
	liege="k_piqui"
}
2995.1.1 = { holder=10069193 } # Najib (nc)
3028.1.1 = { holder=10269193 } # Aghlab (nc)
3029.1.1 = { holder=10369193 } # Mansur (nc)
3065.1.1 = { holder=10669193 } # Mubarak (nc)
3110.1.1 = { holder=11069193 } # Qawurd (nc)
3116.1.1 = { holder=11569193 } # Talib (nc)
3142.1.1 = { holder=11669193 } # Shaiban (nc)
3177.1.1 = { holder=11769193 } # Aghlab (nc)
3198.1.1 = { holder=11969193 } # Jalil (nc)
3225.1.1 = { holder=12169193 } # Halil (nc)
3244.1.1 = { holder=12469193 } # Abdullah (nc)
3264.1.1 = { holder=12869193 } # Aghlab (nc)



