1.1.1={
	liege="k_qarth"
	law = succ_primogeniture
	law = agnatic_succession
}
2955.1.1 = { holder=10035002 } # Pyat (nc)
3004.1.1 = { holder=10435002 } # Nyessos (nc)
3044.1.1 = { holder=10635002 } # Doniphos (nc)
3070.1.1 = { holder=10835002 } # Mathos (nc)
3082.1.1 = { holder=11235002 } # Semython (nc)
3121.1.1 = { holder=11535002 } # Navathos (nc)
3147.1.1 = { holder=11635002 } # Egon (nc)
3180.1.1 = { holder=11735002 } # Doniphos (nc)
3185.1.1 = { holder=11835002 } # Meralyn (nc)
3210.1.1 = { holder=12135002 } # Wendello (nc)
3219.1.1 = { holder=12435002 } # Sallor (nc)
3250.1.1 = { holder=13035002 } # Vogarro (nc)
3270.1.1 = { holder=13135002 } # Mathos (nc)
