1.1.1={
	liege="k_qarth"
}
 2991.1.1 = { holder=150350004 } # Xarvo (nc)
 3017.1.1 = { holder=100350004 } # Sallor (nc)
 3036.1.1 = { holder=102350004 } # Orbelo (nc)
 3082.1.1 = { holder=103350004 } # Bolquello (nc)
 3133.1.1 = { holder=107350004 } # Vogarro (nc)
 3161.1.1 = { holder=108350004 } # Orbelo (nc)
 3184.1.1 = { holder=114350004 } # Yorko (nc)
 3201.1.1 = { holder=117350004 } # Colloquo (nc)
 3221.1.1 = { holder=119350004 } # Qavo (nc)
 3268.1.1 = { holder=122350004 } # Lotho (nc)
 3280.1.1 = { holder=125350004 } # Qarro (nc)
