#House Onuxho
2980.1.1 = { 
	holder=100304028 
} # Koroxhar (nc)
3023.1.1 = { holder=102304028 } # Kwasdo (nc)
3028.1.1 = { holder=105304028 } # Isodo (nc)
3033.1.1 = { holder=103304028 } # Qaro (nc)
3035.1.1 = { holder=106304028 } # Koroxhar (nc)
3102.1.1 = { holder=107304028 } # Jalabhar (nc)
3132.1.1 = { holder=113304028 } # Koroxhar (nc)
3156.1.1 = { holder=114304028 } # Olujondo (nc)
3173.1.1 = { holder=117304028 } # Xhonodo (nc)
3231.1.1 = { holder=121304028 } # Koroxhar (nc)
3241.1.1 = { holder=122304028 } # Qubya (nc)
3285.1.1 = { holder=123304028 } # Gwalahuru (nc)
3289.1.1 = { holder=126304028 } # Xhondo (nc)
