
3162.1.1 = { 
	holder=35138  # Franklyn (nc)
	liege="k_vaithTK"
}
3177.1.1 = { holder=35148 } # Cassella (C)
3219.1.1 = { holder=35158 } # Janyce (nc)
3238.1.1 = { holder=35168 } # Theodan (nc)
3259.2.8 = { holder=8 } # Taubert (nc)
3292.3.5 = { holder=2008} # Daeron (c)
