1.1.1={
	law = succ_primogeniture
	law = agnatic_succession
}
2996.1.1 = { holder=1055939 } # Is'mail (nc)
3010.1.1 = { holder=1155939 } # Jibril (nc)
3040.1.1 = { holder=1355939 } # Isa (nc)
3048.1.1 = { holder=1855939 } # Aghlab (nc)
3079.1.1 = { holder=2355939 } # Burhanaddin (nc)
3128.1.1 = { holder=2655939 } # Ramadan (nc)
3132.1.1 = { holder=2955939 } # Abdullah (nc)
3187.1.1 = { holder=3155939 } # Aram (nc)
3209.1.1 = { holder=3355939 } # Mubarak (nc)
3223.1.1 = { holder=3555939 } # Jabir (nc)
3250.1.1 = { holder=3855939 } # Abdullah (nc)
3270.1.1 = { holder=51055939 } # Shaiban (nc)
3295.1.1 = { holder=52055939 } # Sadiq (nc)


