2604.1.1={
	law = succ_primogeniture
}
2997.1.1 = { holder=6000030 } # Arneld (nc)
3032.1.1 = { holder=6000130 } # Justin (nc)
3047.1.1 = { holder=6000430 } # Jacelyn (nc)
3063.1.1 = { holder=6000530 } # Alliser (nc)
3084.1.1 = { holder=6000930 } # Mortimer (nc)
3112.1.1 = { holder=6001230 } # Simon (nc)
3113.1.1 = { holder=6001330 } # Dontos (nc)
3161.1.1 = { holder=6001830 } # Hubard (nc)
3170.1.1 = { holder=6002130 } # Wallace (nc)
3204.1.1 = { holder=6002430 } # Devan (nc)
