1.1.1={
	law = succ_primogeniture
	law = cognatic_succession
}

2995.1.1={
	holder=20077
}
3030.1.1={
	holder=19077
}
3045.1.1={
	holder=18077
}
3075.1.1={
	holder=17077
}
3093.1.1={
	holder=16077
}
3126.1.1={
	holder=15077
}
3170.1.1={
	holder=13077
}
3203.1.1={
	holder=11077
}
3239.1.1={
	holder=10077
}
3262.1.1={
	holder=75
}
