###########################################
#                                         #
# Horse Lords Raiding Adventurers 		  #
#                                         #
# ID HL.100-HL.199      	              #
#                                         #
###########################################

# Written by Joel Hansson

namespace = HL

# # An ambitious character with no inheritance begins to plan an adventure for a foreign title #MERGED WITH AGOT ADVENTURE EVENT
# character_event = {
	# id = HL.100
	# desc = OK
	# picture = GFX_evt_crusaders
	# border = GFX_event_normal_frame_war
# }

character_event = { #inform liege
	id = HL.101
	desc = EVTDESC_HL_101
	picture = GFX_evt_crusaders
	border = GFX_event_normal_frame_war
	
	#show_from_from = yes
	
	is_triggered_only = yes
	ai = no
	
	trigger = {
		FROM = { is_ruler = yes }
	}
	
	option = {
		name = "EVTOPTA_TOG_1203"
	}
}

character_event = { #Create troops
	id = HL.102
	is_triggered_only = yes
	hide_window = yes
	
	immediate = {
		random_list = {
			30 = { #3
				character_event = { id = HL.104 }
				character_event = { id = HL.103 }
				character_event = { id = HL.103 }
			}
			30 = { #6
				character_event = { id = HL.104 }
				character_event = { id = HL.103 }
				character_event = { id = HL.103 }
				character_event = { id = HL.103 }
				character_event = { id = HL.103 }
				character_event = { id = HL.103 }
			}
			30 = { #9
				modifier = {
					factor = 0.7
					NOT = { martial = 12 }
				}
				modifier = {
					factor = 0.7
					NOT = { martial = 14 }
				}
				character_event = { id = HL.104 }
				character_event = { id = HL.103 }
				character_event = { id = HL.103 }
				character_event = { id = HL.103 }
				character_event = { id = HL.103 }
				character_event = { id = HL.103 }
				character_event = { id = HL.103 }
				character_event = { id = HL.103 }
				character_event = { id = HL.103 }
			}
			30 = { #12
				modifier = {
					factor = 0.7
					NOT = { martial = 15 }
				}
				modifier = {
					factor = 0.7
					NOT = { martial = 20 }
				}
				character_event = { id = HL.104 }
				character_event = { id = HL.103 }
				character_event = { id = HL.103 }
				character_event = { id = HL.103 }
				character_event = { id = HL.103 }
				character_event = { id = HL.103 }
				character_event = { id = HL.103 }
				character_event = { id = HL.103 }
				character_event = { id = HL.103 }
				character_event = { id = HL.103 }
				character_event = { id = HL.103 }
				character_event = { id = HL.103 }
			}
		}
	}
}

character_event = {
	id = HL.103
	is_triggered_only = yes
	hide_window = yes
	
	immediate = {
		random_list = {
			30 = { #250
				modifier = {
					factor = 1.3
					NOT = { martial = 2 }
				}
				modifier = {
					factor = 1.3
					NOT = { martial = 4 }
				}
				modifier = {
					factor = 1.3
					NOT = { martial = 6 }
				}
				modifier = {
					factor = 0.7
					martial = 15
				}
				modifier = {
					factor = 0.7
					martial = 18
				}
				modifier = {
					factor = 0.7
					martial = 21
				}
				modifier = {
					factor = 0.7
					martial = 24
				}
				spawn_unit = {
					province = event_target:target_province
					home = event_target:target_province
					owner = ROOT
					#leader = none
					attrition = 0
#					disband_on_peace = yes
					reinforces = yes
					is_looter = yes
					can_toggle_looting = no
					cannot_inherit = yes
					merge = yes
					troops = {
						archers = { 70 70 }
						light_infantry = { 170 170 }
						heavy_infantry = { 10 10 }
					}
				}
			}
			30 = { #380
				modifier = {
					factor = 1.3
					NOT = { martial = 4 }
				}
				modifier = {
					factor = 1.3
					NOT = { martial = 6 }
				}
				modifier = {
					factor = 1.3
					NOT = { martial = 8 }
				}
				modifier = {
					factor = 0.7
					martial = 17
				}
				modifier = {
					factor = 0.7
					martial = 20
				}
				modifier = {
					factor = 0.7
					martial = 23
				}
				modifier = {
					factor = 0.7
					martial = 26
				}
				spawn_unit = {
					province = event_target:target_province
					home = event_target:target_province
					owner = ROOT
					#leader = none
					attrition = 0
#					disband_on_peace = yes
					reinforces = yes
					is_looter = yes
					can_toggle_looting = no
					cannot_inherit = yes
					merge = yes
					troops = {
						archers = { 90 90 }
						light_infantry = { 215 215 }
						heavy_infantry = { 15 15 }
					}
				}
				
			}
			30 = { #420
				modifier = {
					factor = 1.3
					NOT = { martial = 9 }
				}
				modifier = {
					factor = 1.3
					NOT = { martial = 12 }
				}
				modifier = {
					factor = 1.3
					NOT = { martial = 15 }
				}
				modifier = {
					factor = 0.7
					martial = 20
				}
				modifier = {
					factor = 0.7
					martial = 24
				}
				spawn_unit = {
					province = event_target:target_province
					home = event_target:target_province
					owner = ROOT
					#leader = none
					attrition = 0
#					disband_on_peace = yes
					reinforces = yes
					is_looter = yes
					can_toggle_looting = no
					cannot_inherit = yes
					merge = yes
					troops = {
						archers = { 100 100 }
						light_infantry = { 225 225 }
						heavy_infantry = { 15 15 }
					}
				}
			}
			30 = { #490
				modifier = {
					factor = 1.3
					martial = 24
				}
				modifier = {
					factor = 1.3
					martial = 28
				}
				modifier = {
					factor = 0.5
					NOT = { martial = 10 }
				}
				modifier = {
					factor = 0.5
					NOT = { martial = 15 }
				}
				modifier = {
					factor = 0.7
					NOT = { martial = 20 }
				}
				spawn_unit = {
					province = event_target:target_province
					home = event_target:target_province
					owner = ROOT
					#leader = none
					attrition = 0
#					disband_on_peace = yes
					reinforces = yes
					is_looter = yes
					can_toggle_looting = no
					cannot_inherit = yes
					merge = yes
					troops = {
						archers = { 140 140 }
						light_infantry = { 330 330 }
						heavy_infantry = { 20 20 }
					}
				}
			}
			30 = { #570
				modifier = {
					factor = 0.7
					NOT = { martial = 14 }
				}
				modifier = {
					factor = 0.7
					NOT = { martial = 20 }
				}
				modifier = {
					factor = 0.7
					NOT = { martial = 26 }
				}
				spawn_unit = {
					province = event_target:target_province
					home = event_target:target_province
					owner = ROOT
					#leader = none
					attrition = 0
#					disband_on_peace = yes
					reinforces = yes
					is_looter = yes
					can_toggle_looting = no
					cannot_inherit = yes
					merge = yes
					troops = {
						archers = { 170 170 }
						light_infantry = { 360 360 }
						heavy_infantry = { 40 40 }
					}
				}
			}
		}
	}
}

character_event = {
	id = HL.104
	is_triggered_only = yes
	hide_window = yes
	
	immediate = {
		random_list = {
			30 = { #250
				modifier = {
					factor = 1.3
					NOT = { martial = 2 }
				}
				modifier = {
					factor = 1.3
					NOT = { martial = 4 }
				}
				modifier = {
					factor = 1.3
					NOT = { martial = 6 }
				}
				modifier = {
					factor = 0.7
					martial = 15
				}
				modifier = {
					factor = 0.7
					martial = 18
				}
				modifier = {
					factor = 0.7
					martial = 21
				}
				modifier = {
					factor = 0.7
					martial = 24
				}
				spawn_unit = {
					province = event_target:target_province
					home = event_target:target_province
					owner = ROOT
					#leader = ROOT
					attrition = 0
#					disband_on_peace = yes
					reinforces = yes
					is_looter = yes
					can_toggle_looting = no
					cannot_inherit = yes
					merge = yes
					troops = {
						archers = { 70 70 }
						light_infantry = { 170 170 }
						heavy_infantry = { 10 10 }
					}
				}
			}
			30 = { #380
				modifier = {
					factor = 1.3
					NOT = { martial = 4 }
				}
				modifier = {
					factor = 1.3
					NOT = { martial = 6 }
				}
				modifier = {
					factor = 1.3
					NOT = { martial = 8 }
				}
				modifier = {
					factor = 0.7
					martial = 17
				}
				modifier = {
					factor = 0.7
					martial = 20
				}
				modifier = {
					factor = 0.7
					martial = 23
				}
				modifier = {
					factor = 0.7
					martial = 26
				}
				spawn_unit = {
					province = event_target:target_province
					home = event_target:target_province
					owner = ROOT
					#leader = ROOT
					attrition = 0
#					disband_on_peace = yes
					reinforces = yes
					is_looter = yes
					can_toggle_looting = no
					cannot_inherit = yes
					merge = yes
					troops = {
						archers = { 90 90 }
						light_infantry = { 215 215 }
						heavy_infantry = { 15 15 }
					}
				}
				
			}
			30 = { #420
				modifier = {
					factor = 1.3
					NOT = { martial = 9 }
				}
				modifier = {
					factor = 1.3
					NOT = { martial = 12 }
				}
				modifier = {
					factor = 1.3
					NOT = { martial = 15 }
				}
				modifier = {
					factor = 0.7
					martial = 20
				}
				modifier = {
					factor = 0.7
					martial = 24
				}
				spawn_unit = {
					province = event_target:target_province
					home = event_target:target_province
					owner = ROOT
					#leader = ROOT
					attrition = 0
#					disband_on_peace = yes
					reinforces = yes
					is_looter = yes
					can_toggle_looting = no
					cannot_inherit = yes
					merge = yes
					troops = {
						archers = { 100 100 }
						light_infantry = { 225 225 }
						heavy_infantry = { 15 15 }
					}
				}
			}
			30 = { #490
				modifier = {
					factor = 1.3
					martial = 24
				}
				modifier = {
					factor = 1.3
					martial = 28
				}
				modifier = {
					factor = 0.5
					NOT = { martial = 10 }
				}
				modifier = {
					factor = 0.5
					NOT = { martial = 15 }
				}
				modifier = {
					factor = 0.7
					NOT = { martial = 20 }
				}
				spawn_unit = {
					province = event_target:target_province
					home = event_target:target_province
					owner = ROOT
					#leader = ROOT
					attrition = 0
#					disband_on_peace = yes
					reinforces = yes
					is_looter = yes
					can_toggle_looting = no
					cannot_inherit = yes
					merge = yes
					troops = {
						archers = { 140 140 }
						light_infantry = { 330 330 }
						heavy_infantry = { 20 20 }
					}
				}
			}
			30 = { #570
				modifier = {
					factor = 0.7
					NOT = { martial = 14 }
				}
				modifier = {
					factor = 0.7
					NOT = { martial = 20 }
				}
				modifier = {
					factor = 0.7
					NOT = { martial = 26 }
				}
				spawn_unit = {
					province = event_target:target_province
					home = event_target:target_province
					owner = ROOT
					#leader = ROOT
					attrition = 0
#					disband_on_peace = yes
					reinforces = yes
					is_looter = yes
					can_toggle_looting = no
					cannot_inherit = yes
					merge = yes
					troops = {
						archers = { 170 170 }
						light_infantry = { 360 360 }
						heavy_infantry = { 40 40 }
					}
				}
			}
		}
	}
}

character_event = { #Create troops (nomad)
	id = HL.105
	is_triggered_only = yes
	hide_window = yes
	
	immediate = {
		random_list = {
			30 = { #3
				character_event = { id = HL.107 }
				character_event = { id = HL.106 }
				character_event = { id = HL.106 }
			}
			30 = { #6
				character_event = { id = HL.107 }
				character_event = { id = HL.106 }
				character_event = { id = HL.106 }
				character_event = { id = HL.106 }
				character_event = { id = HL.106 }
				character_event = { id = HL.106 }
			}
			30 = { #9
				modifier = {
					factor = 0.7
					NOT = { martial = 12 }
				}
				modifier = {
					factor = 0.7
					NOT = { martial = 14 }
				}
				character_event = { id = HL.107 }
				character_event = { id = HL.106 }
				character_event = { id = HL.106 }
				character_event = { id = HL.106 }
				character_event = { id = HL.106 }
				character_event = { id = HL.106 }
				character_event = { id = HL.106 }
				character_event = { id = HL.106 }
				character_event = { id = HL.106 }
			}
			30 = { #12
				modifier = {
					factor = 0.7
					NOT = { martial = 15 }
				}
				modifier = {
					factor = 0.7
					NOT = { martial = 20 }
				}
				character_event = { id = HL.107 }
				character_event = { id = HL.106 }
				character_event = { id = HL.106 }
				character_event = { id = HL.106 }
				character_event = { id = HL.106 }
				character_event = { id = HL.106 }
				character_event = { id = HL.106 }
				character_event = { id = HL.106 }
				character_event = { id = HL.106 }
				character_event = { id = HL.106 }
				character_event = { id = HL.106 }
				character_event = { id = HL.106 }
			}
		}
	}
}

character_event = {
	id = HL.106
	is_triggered_only = yes
	hide_window = yes
	
	immediate = {
		random_list = {
			30 = { #180
				modifier = {
					factor = 1.3
					NOT = { martial = 2 }
				}
				modifier = {
					factor = 1.3
					NOT = { martial = 4 }
				}
				modifier = {
					factor = 1.3
					NOT = { martial = 6 }
				}
				modifier = {
					factor = 0.7
					martial = 15
				}
				modifier = {
					factor = 0.7
					martial = 18
				}
				modifier = {
					factor = 0.7
					martial = 21
				}
				modifier = {
					factor = 0.7
					martial = 24
				}
				spawn_unit = {
					province = event_target:target_province
					home = event_target:target_province
					owner = ROOT
					attrition = 0
#					disband_on_peace = yes
					reinforces = yes
					is_looter = yes
					can_toggle_looting = no
					cannot_inherit = yes
					merge = yes
					troops = {
						light_cavalry = { 100 100 }
						horse_archers = { 80 80 }
					}
				}
			}
			30 = { #280
				modifier = {
					factor = 1.3
					NOT = { martial = 4 }
				}
				modifier = {
					factor = 1.3
					NOT = { martial = 6 }
				}
				modifier = {
					factor = 1.3
					NOT = { martial = 8 }
				}
				modifier = {
					factor = 0.7
					martial = 17
				}
				modifier = {
					factor = 0.7
					martial = 20
				}
				modifier = {
					factor = 0.7
					martial = 23
				}
				modifier = {
					factor = 0.7
					martial = 26
				}
				spawn_unit = {
					province = event_target:target_province
					home = event_target:target_province
					owner = ROOT
					attrition = 0
#					disband_on_peace = yes
					reinforces = yes
					is_looter = yes
					can_toggle_looting = no
					cannot_inherit = yes
					merge = yes
					troops = {
						light_cavalry = { 150 150 }
						horse_archers = { 130 130 }
					}
				}
				
			}
			30 = { #315
				modifier = {
					factor = 1.3
					NOT = { martial = 9 }
				}
				modifier = {
					factor = 1.3
					NOT = { martial = 12 }
				}
				modifier = {
					factor = 1.3
					NOT = { martial = 15 }
				}
				modifier = {
					factor = 0.7
					martial = 20
				}
				modifier = {
					factor = 0.7
					martial = 24
				}
				spawn_unit = {
					province = event_target:target_province
					home = event_target:target_province
					owner = ROOT
					attrition = 0
#					disband_on_peace = yes
					reinforces = yes
					is_looter = yes
					can_toggle_looting = no
					cannot_inherit = yes
					merge = yes
					troops = {
						light_cavalry = { 165 165 }
						horse_archers = { 150 150 }
					}
				}
			}
			30 = { #365
				modifier = {
					factor = 1.3
					martial = 24
				}
				modifier = {
					factor = 1.3
					martial = 28
				}
				modifier = {
					factor = 0.5
					NOT = { martial = 10 }
				}
				modifier = {
					factor = 0.5
					NOT = { martial = 15 }
				}
				modifier = {
					factor = 0.7
					NOT = { martial = 20 }
				}
				spawn_unit = {
					province = event_target:target_province
					home = event_target:target_province
					owner = ROOT
					attrition = 0
#					disband_on_peace = yes
					reinforces = yes
					is_looter = yes
					can_toggle_looting = no
					cannot_inherit = yes
					merge = yes
					troops = {
						light_cavalry = { 190 190 }
						horse_archers = { 175 175 }
					}
				}
			}
			30 = { #420
				modifier = {
					factor = 0.7
					NOT = { martial = 14 }
				}
				modifier = {
					factor = 0.7
					NOT = { martial = 20 }
				}
				modifier = {
					factor = 0.7
					NOT = { martial = 26 }
				}
				spawn_unit = {
					province = event_target:target_province
					home = event_target:target_province
					owner = ROOT
					attrition = 0
#					disband_on_peace = yes
					reinforces = yes
					is_looter = yes
					can_toggle_looting = no
					cannot_inherit = yes
					merge = yes
					troops = {
						light_cavalry = { 220 220 }
						horse_archers = { 200 200 }
					}
				}
			}
		}
	}
}

character_event = {
	id = HL.107
	is_triggered_only = yes
	hide_window = yes
	
	immediate = {
		random_list = {
			30 = { #180
				modifier = {
					factor = 1.3
					NOT = { martial = 2 }
				}
				modifier = {
					factor = 1.3
					NOT = { martial = 4 }
				}
				modifier = {
					factor = 1.3
					NOT = { martial = 6 }
				}
				modifier = {
					factor = 0.7
					martial = 15
				}
				modifier = {
					factor = 0.7
					martial = 18
				}
				modifier = {
					factor = 0.7
					martial = 21
				}
				modifier = {
					factor = 0.7
					martial = 24
				}
				spawn_unit = {
					province = event_target:target_province
					home = event_target:target_province
					owner = ROOT
					#leader = ROOT
					attrition = 0
#					disband_on_peace = yes
					reinforces = yes
					is_looter = yes
					can_toggle_looting = no
					cannot_inherit = yes
					merge = yes
					troops = {
						light_cavalry = { 100 100 }
						horse_archers = { 80 80 }
					}
				}
			}
			30 = { #280
				modifier = {
					factor = 1.3
					NOT = { martial = 4 }
				}
				modifier = {
					factor = 1.3
					NOT = { martial = 6 }
				}
				modifier = {
					factor = 1.3
					NOT = { martial = 8 }
				}
				modifier = {
					factor = 0.7
					martial = 17
				}
				modifier = {
					factor = 0.7
					martial = 20
				}
				modifier = {
					factor = 0.7
					martial = 23
				}
				modifier = {
					factor = 0.7
					martial = 26
				}
				spawn_unit = {
					province = event_target:target_province
					home = event_target:target_province
					owner = ROOT
					#leader = ROOT
					attrition = 0
#					disband_on_peace = yes
					reinforces = yes
					is_looter = yes
					can_toggle_looting = no
					cannot_inherit = yes
					merge = yes
					troops = {
						light_cavalry = { 150 150 }
						horse_archers = { 130 130 }
					}
				}
				
			}
			30 = { #315
				modifier = {
					factor = 1.3
					NOT = { martial = 9 }
				}
				modifier = {
					factor = 1.3
					NOT = { martial = 12 }
				}
				modifier = {
					factor = 1.3
					NOT = { martial = 15 }
				}
				modifier = {
					factor = 0.7
					martial = 20
				}
				modifier = {
					factor = 0.7
					martial = 24
				}
				spawn_unit = {
					province = event_target:target_province
					home = event_target:target_province
					owner = ROOT
					#leader = ROOT
					attrition = 0
#					disband_on_peace = yes
					reinforces = yes
					is_looter = yes
					can_toggle_looting = no
					cannot_inherit = yes
					merge = yes
					troops = {
						light_cavalry = { 165 165 }
						horse_archers = { 150 150 }
					}
				}
			}
			30 = { #365
				modifier = {
					factor = 1.3
					martial = 24
				}
				modifier = {
					factor = 1.3
					martial = 28
				}
				modifier = {
					factor = 0.5
					NOT = { martial = 10 }
				}
				modifier = {
					factor = 0.5
					NOT = { martial = 15 }
				}
				modifier = {
					factor = 0.7
					NOT = { martial = 20 }
				}
				spawn_unit = {
					province = event_target:target_province
					home = event_target:target_province
					owner = ROOT
					#leader = ROOT
					attrition = 0
#					disband_on_peace = yes
					reinforces = yes
					is_looter = yes
					can_toggle_looting = no
					cannot_inherit = yes
					merge = yes
					troops = {
						light_cavalry = { 190 190 }
						horse_archers = { 175 175 }
					}
				}
			}
			30 = { #420
				modifier = {
					factor = 0.7
					NOT = { martial = 14 }
				}
				modifier = {
					factor = 0.7
					NOT = { martial = 20 }
				}
				modifier = {
					factor = 0.7
					NOT = { martial = 26 }
				}
				spawn_unit = {
					province = event_target:target_province
					home = event_target:target_province
					owner = ROOT
					#leader = ROOT
					attrition = 0
#					disband_on_peace = yes
					reinforces = yes
					is_looter = yes
					can_toggle_looting = no
					cannot_inherit = yes
					merge = yes
					troops = {
						light_cavalry = { 220 220 }
						horse_archers = { 200 200 }
					}
				}
			}
		}
	}
}

# Ping to see if he's ready to settle, repeating every 3 years.
character_event = {
	id = HL.110
	is_triggered_only = yes
	hide_window = yes
	
	
	has_character_flag = raiding_adventurer
	
	trigger = {
		primary_title = {
			temporary = yes
		}
	}
	
	immediate = {
		log = "Ping event for raiding adventurer: [Root.GetBestName]."
		if = {
			limit = { # If this is true, prepare to settle.
				OR = {
					wealth = 300
					had_character_flag = { flag = raiding_adventurer days = 1825 }
				}
				is_primary_war_attacker = no
			}
			random_list = {
				50 = {
					modifier = {
						factor = 0
						NOT = {
							any_independent_ruler = {
								has_opinion_modifier = { who = ROOT modifier = opinion_looted }
								NOT = { realm_levy_diff = { who = ROOT value = 3000 } }
								demesne_size = 1
								NOT = { primary_title = { controls_religion = yes } }
								OR = {
									ROOT = { is_nomadic = no is_tribal = no }
									any_realm_province = { traditional_nomad_territory_trigger = yes }
								}
								NOT = { has_character_flag = negotiating_with_adventurer }
								NOT = { any_realm_province = { has_province_modifier = settled_adventurer } }
							}
						}							
					}
					modifier = {
						factor = 2
						trait = ruthless					
					}
					modifier = {
						factor = 2
						trait = cruel						
					}
					modifier = {
						factor = 2
						trait = ambitious						
					}
					modifier = {
						factor = 2
						trait = wroth		
					}
					log = "[Root.GetBestName] prepares to settle."
					character_event = { id = HL.111 }
					break = yes
				}
				20 = {
					modifier = {
						factor = 0
						is_nomadic = no
						is_tribal = no
						event_target:target_province = {
							owner = {	
								NOR = {
									reverse_has_opinion_modifier = { who = ROOT modifier = opinion_denied_title }
									NOT = { reverse_opinion = { who = ROOT value = -49 } }
								}
							}
						}	
					}
					modifier = {
						factor = 0
						OR = {
							is_nomadic = yes
							is_tribal = yes
						}	
						event_target:target_province = {
							NOT = { traditional_nomad_territory_trigger = yes }
						}	
					}
					modifier = {
						factor = 2
						trait = ambitious						
					}
					modifier = {
						factor = 3
						trait = ambitious
						trait = arbitrary						
					}
					modifier = {
						factor = 2
						trait = envious						
					}
					modifier = {
						factor = 2
						trait = ruthless					
					}
					modifier = {
						factor = 2
						trait = wroth		
					}
					log = "[Root.GetBestName] returns home in a state of war."
					character_event = { id = HL.113 }
					break = yes
				}
				50 = {
					modifier = {
						factor = 2
						trait = content				
					}
					modifier = {
						factor = 2
						trait = honorable			
					}
					modifier = {
						factor = 2
						trait = patient		
					}
					modifier = {
						had_character_flag = { flag = raiding_adventurer days = 2555}
						factor = 0.5
					}
					modifier = {
						had_character_flag = { flag = raiding_adventurer days = 3285}
						factor = 0.5
					}
					modifier = {
						had_character_flag = { flag = raiding_adventurer days = 4015}
						factor = 0.5
					}
					modifier = {
						had_character_flag = { flag = raiding_adventurer days = 10950}
						factor = 0
					}
					repeat_event = { id = HL.110 days = 365 } # continue raiding
					break = yes
				}
			}
		}
		# Check for stagnant raider
		if = {
			limit = {
				had_character_flag = { flag = raiding_adventurer days = 10950 }	
				is_primary_war_attacker = no
			}
			character_event = { id = HL.198 }
			break = yes
		}
		# Else continue raiding.
		log = "[Root.GetBestName] continues raiding."
		repeat_event = { id = HL.110 days = 365 }
	}
}
#prepares to settle
character_event = {
	id = HL.111
	is_triggered_only = yes
	hide_window = yes
	
	immediate = {
		set_character_flag = duchy_adventurer
		random_independent_ruler = {
			limit = {
				has_opinion_modifier = { who = ROOT modifier = opinion_looted }
				NOT = { realm_levy_diff = { who = ROOT value = 3000 } }
				demesne_size = 1
				NOT = { primary_title = { controls_religion = yes } }
				NOT = { has_character_flag = negotiating_with_adventurer }
				NOT = { any_realm_province = { has_province_modifier = settled_adventurer } }
				OR = {
					ROOT = { is_nomadic = no is_tribal = no }
					any_realm_province = { traditional_nomad_territory_trigger = yes }
				}
			}

			if = {
				limit = {
					higher_real_tier_than = DUKE
					NOT = { trait = nightswatch }
					OR = {
						any_demesne_province = {
							is_capital = no 
							num_of_settlements = 1
							NOT = {
								has_province_modifier = nomad_agitation
							}
							OR = {
								AND = {
									ROOT = { is_seafarer = yes }
									port = yes
								}
								ROOT = { is_seafarer = no }
								PREV = { NOT = { any_demesne_province = { port = yes } } }
							}
						}
						any_vassal = {
							any_demesne_province = {
								is_capital = no 
								num_of_settlements = 1
								NOT = {
									has_province_modifier = nomad_agitation
								}
								OR = {
									AND = {
										ROOT = { is_seafarer = yes }
										port = yes
									}
									ROOT = { is_seafarer = no }
									PREV = { NOT = { any_demesne_province = { port = yes } } }
								}
							}
						}
					}
				}

				#Adventurer negotiation complex
				set_character_flag = negotiating_with_adventurer
				character_event = { id = ADV.1 }

				#Checks if they should go back to raiding
				ROOT = {
					character_event = { id = HL.200 days = 65 }
				}

				break = yes
			}
			ROOT = { clr_character_flag = raiding_adventurer }
			if = {
				limit = {
					ROOT = { is_seafarer = yes }
				}
				random_realm_province = {
					limit = {
						port = yes
					}
					ROOT = {
						unsafe_war = {
							target = PREVPREV
							casus_belli = duchy_adventure
							thirdparty_title = PREV
							tier = DUKE
						}
						any_army = {
							set_can_toggle_looting = yes
							set_looting = no
						}
						PREVPREV = {
							character_event = { id = HL.112 }
						}
					}
				}
				break = yes
			}
			if = {
				limit = {
					ROOT = { is_seafarer = no }
				}
				random_realm_province = {
					limit = {
						any_neighbor_province = {
							NOT = { owner = { same_realm = PREVPREVPREV } }
						}
						OR = {
							ROOT = { is_nomadic = no is_tribal = no }
							traditional_nomad_territory_trigger = yes
						}
					}
					ROOT = {
						unsafe_war = {
							target = PREVPREV
							casus_belli = duchy_adventure
							thirdparty_title = PREV
							tier = DUKE
						}
						any_army = {
							set_can_toggle_looting = yes
							set_looting = no
						}
						PREVPREV = {
							character_event = { id = HL.112 }
						}
					}
					break = yes
				}
			}
			
			random_realm_province = {
				ROOT = {
					unsafe_war = {
						target = PREVPREV
						casus_belli = duchy_adventure
						thirdparty_title = PREV
						tier = DUKE
					}
					any_army = {
						set_can_toggle_looting = yes
						set_looting = no
					}
					PREVPREV = {
						character_event = { id = HL.112 }
					}
				}
			}
			if = {
				limit = { war = yes }
				break = yes
			}
		}
		#If neither break succeeded, kill it with fire
		clr_character_flag = raiding_adventurer
		log = "[SERIOUS] [Root.GetTitledFirstName] failed to find a target after trying to end his raiding adventure."
		character_event = { id = HL.199 }
	}
}
#Adventurer declares war
character_event = {
	id = HL.112
	is_triggered_only = yes
	picture = GFX_evt_crusaders
	border = GFX_event_normal_frame_war
	desc = EVTDESC_HL_112
	
	option = {
		name = EVTOPTA_HL_112
	}
}
#returns home in a state of war
character_event = {
	id = HL.113
	is_triggered_only = yes
	hide_window = yes
	
	immediate = {
		set_character_flag = duchy_adventurer
		event_target:target_province = {
			owner = {
				character_event = { id = HL.112 }
				top_liege = {
					ROOT = {
						unsafe_war = {
							target = PREV
							casus_belli = duchy_adventure
							thirdparty_title = PREVPREVPREV
							tier = DUKE
						}
					}
				}
			}
		}
		any_army = {
			set_can_toggle_looting = yes
			set_looting = no
		}
		clr_character_flag = raiding_adventurer
	}
}
#Buy title
character_event = {
	id = HL.120
	is_triggered_only = yes
	hide_window = yes
	
	immediate = {
		event_target:target_ruler = {
			letter_event = { id = HL.121 }
		}
	}
}

letter_event = {
	id = HL.121
	is_triggered_only = yes
	desc = EVTDESC_HL_121
	
	option = {
		name = EVTOPTA_HL_121
		ai_chance = { factor = 1 }
		event_target:target_title = {
			grant_title = FROM
		}
		hidden_tooltip = {
			FROM = {
				wealth = -150
				if = {
					limit = {
						ROOT = {
							primary_title = {
								higher_tier_than = COUNT
							}
						}
					}
					set_defacto_liege = ROOT
				}
			}
		}
		wealth = 150
	}
	
	option = {
		name = ANSWER_NO
		ai_chance = { factor = 0 }
		add_character_modifier = { name = raider_buy_land_timer duration = 3650 hidden = yes }
	}
}

character_event = {
	id = HL.130
	hide_window = yes
	is_triggered_only = yes
	
	trigger = {
		has_game_started = yes
		is_alive = yes
		is_dying = no
		is_nomadic = yes
		prisoner = no
		NOT = { trait = incapable }
		#NOT = { has_character_flag = raiding_adventurer_nomad }
	}
	
	immediate = {
		log = "HL.130 fired for [Root.GetBestName]"
		
		clan_title = {
			capital_scope = {
				save_event_target_as = last_province
				
				holder_scope = {
					top_liege = {
						reverse_opinion = {
							modifier = opinion_driven_from_my_lands
							who = ROOT
							months = 1200
						}
						reverse_opinion = {
							modifier = forbidden_raid_target
							who = ROOT
							months = 1200
						}
					}
				}
			}
		}
		
		liege = {
			ROOT = {
				any_vassal = {
					set_defacto_liege = PREVPREV
				}
			}
		}
		
		if = {
			limit = {
				independent = yes
			}
			if = {
				limit = {
					NOT = {
						any_vassal = {
							clan = yes
						}
					}
				}
				any_vassal = {
					set_defacto_liege = THIS
				}
			}
			random_vassal = {
				limit = {
					clan = yes
				}
				primary_title = {
					gain_title = PREVPREV
				}
			}
		}
		set_defacto_liege = THIS
			
		clan_title = {
			set_title_adventurer = { title = THIS status = yes }
			set_title_landless = { title = THIS status = yes }
			set_defacto_liege = THIS
		}
		
		set_character_flag = raiding_adventurer
		
		any_army = {
			set_can_toggle_looting = yes
			set_looting = yes
			set_can_toggle_looting = no
		}
		
		if = {
			limit = {
				NOT = { unused_manpower = 250 }
			}
			manpower = 250
		}
		character_event = { id = HL.132 }
		character_event = { id = HL.110 days = 1095 } # Ping to see if he's ready to settle, repeating every 3 years.
	}
}

character_event = {
	id = HL.132
	hide_window = yes
	is_triggered_only = yes
	
	immediate = {
		# log = "HL.132 fired for [Root.GetBestName]"
		# if = {
			# limit = {
				# NOT = {
					# unused_manpower = 250
				# }
			# }
			# log = "HL.132 failed initial trigger for [Root.GetBestName]"
			# break = yes
		# }
		while = {
			limit = { unused_manpower = 250 }
			spawn_unit = {
				owner = ROOT
				province = event_target:last_province
				home = event_target:last_province
				troops = {
					light_cavalry = { 200 200 }
					horse_archers = { 50 50 }
				}
				attrition = 1.0
				is_looter = yes
				can_toggle_looting = no
				reinforces = yes
				merge = yes
			}
			# log = "HL.132 spawned troops for [Root.GetBestName]"
			manpower = -250
		}	
		# set_government_type = wildling_feudal_government
	}
}

# On-action landless nomad gains title
character_event = {
	id = HL.140
	is_triggered_only = yes
	hide_window = yes
	
	trigger = {
		has_character_flag = raiding_adventurer
	}
	
	immediate = {
		clr_character_flag = raiding_adventurer
		any_army = {
			set_can_toggle_looting = yes
			set_looting = no
		}
	}
}

# On-action battle lost Check raiding adventurer defeat
character_event = {
	id = HL.180
	is_triggered_only = yes
	hide_window = yes
	
	only_rulers = yes
	has_character_flag = raiding_adventurer
	war = no
	
	trigger = {	
		has_regiments = no	
	}
	
	immediate = {
		character_event = { id = HL.199 }
	}
}

# On-action imprisoned pre-war
character_event = {
	id = HL.190
	is_triggered_only = yes
	hide_window = yes
	has_character_flag = raiding_adventurer
	war = no
	
	trigger = {
	}
	
	immediate = {
		log = "[Root.GetTitledFirstName] got imprisoned while being a raiding adventurer."
		character_event = { id = HL.199 }
	}
}

# On-action ai end raid
character_event = {
	id = HL.191
	is_triggered_only = yes
	hide_window = yes
	has_character_flag = raiding_adventurer
	war = no
	
	trigger = {
	}
	
	immediate = {
		log = "[Root.GetTitledFirstName] stopped raiding while being a raiding adventurer."
		character_event = { id = HL.199 }
	}
}

#Last try war declaration
character_event = {
	id = HL.198
	is_triggered_only = yes
	hide_window = yes
	
	immediate = {
		set_character_flag = duchy_adventurer
		random_independent_ruler = {
			limit = {
				has_opinion_modifier = { who = ROOT modifier = opinion_looted }
				NOT = { realm_levy_diff = { who = ROOT value = 3000 } }
				demesne_size = 1
				NOT = { has_character_flag = negotiating_with_adventurer }
				NOT = { any_realm_province = { has_province_modifier = settled_adventurer } }
			}

			if = {
				limit = {
					higher_real_tier_than = DUKE
					NOT = { trait = nightswatch }
					OR = {
						any_demesne_province = {
							is_capital = no 
							num_of_settlements = 1
							NOT = {
								has_province_modifier = nomad_agitation
							}
							OR = {
								AND = {
									ROOT = { is_seafarer = yes }
									port = yes
								}
								ROOT = { is_seafarer = no }
								PREV = { NOT = { any_demesne_province = { port = yes } } }
							}
						}
						any_vassal = {
							any_demesne_province = {
								is_capital = no 
								num_of_settlements = 1
								NOT = {
									has_province_modifier = nomad_agitation
								}
								OR = {
									AND = {
										ROOT = { is_seafarer = yes }
										port = yes
									}
									ROOT = { is_seafarer = no }
									PREV = { NOT = { any_demesne_province = { port = yes } } }
								}
							}
						}
					}
				}

				#Adventurer negotiation complex
				set_character_flag = negotiating_with_adventurer
				character_event = { id = ADV.1 }

				break = yes
			}
			ROOT = { clr_character_flag = raiding_adventurer }
			if = {
				limit = {
					ROOT = { is_seafarer = yes }
				}
				random_realm_province = {
					limit = {
						port = yes
					}
					ROOT = {
						unsafe_war = {
							target = PREVPREV
							casus_belli = duchy_adventure
							thirdparty_title = PREV
							tier = DUKE
						}
						any_army = {
							set_can_toggle_looting = yes
							set_looting = no
						}
						PREVPREV = {
							character_event = { id = HL.112 }
						}
					}
				}
				break = yes
			}
			if = {
				limit = {
					ROOT = { is_seafarer = no }
				}
				random_realm_province = {
					limit = {
						any_neighbor_province = {
							NOT = { owner = { same_realm = PREVPREVPREV } }
						}
					}
					ROOT = {
						unsafe_war = {
							target = PREVPREV
							casus_belli = duchy_adventure
							thirdparty_title = PREV
							tier = DUKE
						}
						any_army = {
							set_can_toggle_looting = yes
							set_looting = no
						}
						PREVPREV = {
							character_event = { id = HL.112 }
						}
					}
					break = yes
				}
			}
			
			random_realm_province = {
				ROOT = {
					unsafe_war = {
						target = PREVPREV
						casus_belli = duchy_adventure
						thirdparty_title = PREV
						tier = DUKE
					}
					any_army = {
						set_can_toggle_looting = yes
						set_looting = no
					}
					PREVPREV = {
						character_event = { id = HL.112 }
					}
				}
			}
			if = {
				limit = { war = yes }
				break = yes
			}
		}
		#If neither break succeeded, kill it with fire
		clr_character_flag = raiding_adventurer
		log = "[SERIOUS] [Root.GetTitledFirstName] failed to find a target after trying to end his raiding adventure."
		character_event = { id = HL.199 }
	}
}

# Clean-up
character_event = {
	id = HL.199
	
	is_triggered_only = yes
	
	hide_window = yes
	
	immediate = {
		log = "Cleaning up adventurer: [Root.GetTitledFirstName]."
		clr_character_flag = duchy_adventurer
		clr_character_flag = raiding_adventurer
		disband_event_forces = yes
		clan_title = {
			activate_title = { title = THIS status = no }
			destroy_landed_title = THIS
		}
		primary_title = {
			if = {
				limit = {
					OR = {
						AND = {
							tier = DUKE
							adventurer = yes
						}
						tier = EMPEROR
					}
				}
				activate_title = { title = THIS status = no }
				destroy_landed_title = THIS
			}
		}
		if = { # Add other clean-up effects before this if-block since this block includes breaks
			limit = {
				prisoner = no
			}
			if = {
				limit = {
					father = {
						is_alive = yes
					}
				}
				father = {
					if = {
						limit = {
							is_ruler = yes
						}
						ROOT = {
							set_defacto_liege = PREV
							break = yes
						}
					}
					if = {
						limit = {
							is_ruler = no
						}
						liege = {
							ROOT = {
								set_defacto_liege = PREV
								break = yes
							}
						}
					}
				}
			}
		}
	}
}
#Should adventurer continue to raid?
character_event = {
	id = HL.200
	
	is_triggered_only = yes
	
	hide_window = yes

	#If not at war and still holding an adventurer title... 
	trigger = {
	 	war = no
	 	primary_title = { 
	 		temporary = yes 
	 		adventurer = yes
	 	}
	}

	#...go forth and adventure!
	immediate = {
		character_event = { id = HL.110 }
	}
}