###########################################
#                                         #
# War Chest Extortion events			  #
# by Alexander Oltner                     #
# ID      	              				  #
#                                         #
###########################################

namespace = ZE

# Extort Subjects Hub
character_event = {
	id = ZE.21000
	desc = EVTDESC_ZE_21000
	picture = GFX_evt_noble_in_castle

	is_triggered_only = yes
	
	immediate = {
		ROOT = { set_variable = { which = extort_province_value value = 0 } }
		random_demesne_province = {
			limit = {
				NOR = {
					has_province_modifier = extra_tax 
					has_province_modifier = extra_tax_kind
					has_province_modifier = colony
					has_province_modifier = partial_colony
				}
				any_province_holding = {
					OR = {
						holding_type = city
						holding_type = temple
						holding_type = castle
						holding_type = tribal
					}
				}
			}			
			save_event_target_as = extra_tax_target
			any_province_holding = {
				limit = {
					OR = {
						holding_type = city
						holding_type = temple
						holding_type = castle
						holding_type = tribal
					}
				}	
				ROOT = { change_variable = { which = extort_province_value value = 10 } }
				if = {
					limit = { 
						OR = {
							yearly_income = 16
							base_value_2_trigger = yes
						}
					}
					ROOT = { change_variable = { which = extort_province_value value = 10 } }
				}
				if = {
					limit = { 
						OR = {
							yearly_income = 20
							base_value_3_trigger = yes
						}
					}
					ROOT = { change_variable = { which = extort_province_value value = 10 } }
				}
				if = {
					limit = { 
						OR = {
							yearly_income = 24
							base_value_4_trigger = yes
						}
					}
					ROOT = { change_variable = { which = extort_province_value value = 10 } }
				}
				if = {
					limit = { 
						OR = {
							yearly_income = 30
							base_value_5_trigger = yes
						}
					}
					ROOT = { change_variable = { which = extort_province_value value = 10 } }
				}
				if = {
					limit = { 
						OR = {
							yearly_income = 36
							base_value_6_trigger = yes
						}
					}
					ROOT = { change_variable = { which = extort_province_value value = 10 } }
				}
			}
			if = {
				limit = { has_province_modifier = prosperity_modifier_1 }
				ROOT = { multiply_variable = { which = extort_province_value value = 1.2 } }
			}
			if = {
				limit = { has_province_modifier = prosperity_modifier_2 }
				ROOT = { multiply_variable = { which = extort_province_value value = 1.4 } }
			}
			if = {
				limit = { has_province_modifier = prosperity_modifier_3 }
				ROOT = { multiply_variable = { which = extort_province_value value = 1.6 } }
			}
			if = {
				limit = { has_province_modifier = depopulated_1 }
				ROOT = { multiply_variable = { which = extort_province_value value = 0.83 } }
			}
			if = {
				limit = { has_province_modifier = depopulated_2 }
				ROOT = { multiply_variable = { which = extort_province_value value = 0.71 } }
			}
			if = {
				limit = { has_province_modifier = depopulated_3 }
				ROOT = { multiply_variable = { which = extort_province_value value = 0.625 } }
			}
		}
		
		random_demesne_province = {
			limit = {
				any_province_holding = {
					holding_type = temple
					num_of_buildings = 4
					holder_scope = {
						NOT = { character = ROOT } 
						tier = baron
						liege = { character = ROOT }
					}
				}
			}
			random_province_holding = {
				limit = {
					holding_type = temple
					num_of_buildings = 4
					holder_scope = {
						NOT = { character = ROOT } 
						tier = baron
						liege = { character = ROOT }
					}
				}
				save_event_target_as = seize_church_target
			}
		}
		
		random_courtier = {
			limit = {
				liege = { character = ROOT }
				NOT = { is_close_relative = ROOT }
				is_adult = yes
				prisoner = no
				is_landed = no
				wealth = 100
				NOR = {
					has_character_modifier = extort_timer
					is_married = ROOT 
					dynasty = ROOT
					is_friend = ROOT
					holds_favor_on = ROOT
				}
			}
			save_event_target_as = extortion_target
		}
	}
	
	# Extra Tax on peasants of a random Demesne Province
	option = {
		name = EVTOPTA_ZE_21000
		
		ai_chance = {
			factor = 33
		}
		
		trigger = {
			event_target:extra_tax_target = { always = yes }
		}
		
		change_variable = { which = "tyrant" value = 5 } 
		hidden_tooltip = { character_event = { id = maintenance.1 } } #tyrant trait
		
		character_event = {	id = ZE.21100 tooltip = EVTTOOLTIP_ZE_21100 }
		
		wealth = extort_province_value	
	}
	
	# Extort Rich Character
	option = {
		name = EVTOPTB_ZE_21000
		
		ai_chance = {
			factor = 33
			
			modifier = {
				factor = 2
				NOT = { opinion = { who = event_target:extortion_target value = -25 } }
			}
			modifier = {
				factor = 0.5
				opinion = { who = event_target:extortion_target value = 50 }
			}
		}
		
		trigger = {
			event_target:extortion_target = { always = yes }
		}
		change_variable = { which = "tyrant" value = 5 } 
		hidden_tooltip = { character_event = { id = maintenance.1 } } #tyrant trait
		
		character_event = {	id = ZE.21200 tooltip = EVTTOOLTIP_ZE_21200 }
		
		hidden_tooltip = {
			event_target:extortion_target = {
				add_character_modifier = {
				   modifier = extort_timer
				   years = 15
				   hidden = yes
				}
			}
		}
		
		if = {
			limit = {
				event_target:extortion_target = {
					wealth = 700
				}
			}
			event_target:extortion_target = {
				wealth = -350
			}
			wealth = 350
			break = yes
		}
		
		if = {
			limit = {
				event_target:extortion_target = {
					wealth = 500
					NOT = { wealth = 700 }
				}
			}
			event_target:extortion_target = {
				wealth = -250
			}
			wealth = 250
			break = yes
		}
		
		if = {
			limit = {
				event_target:extortion_target = {
					wealth = 300
					NOT = { wealth = 500 }
				}
			}
			event_target:extortion_target = {
				wealth = -150
			}
			wealth = 150
			break = yes
		}
		
		if = {
			limit = {
				event_target:extortion_target = {
					wealth = 100
					NOT = { wealth = 300 }
				}
			}
			event_target:extortion_target = {
				wealth = -50
			}
			wealth = 50
			break = yes
		}	
	}
	
	# Seize Church Assets
	option = {
		name = EVTOPTC_ZE_21000
		
		ai_chance = {
			factor = 33
			
			modifier = {
				factor = 1.5
				trait = cynical
			}
			
			modifier = {
				factor = 0.5
				trait = humble
			}
			
			modifier = {
				factor = 0.5
				trait = zealous
			}
		}
		
		trigger = {
			NOT = { has_character_modifier = seize_church_assets_timer }
			event_target:seize_church_target = { always = yes }
		}
		
		change_variable = { which = "tyrant" value = 5 } 
		hidden_tooltip = { character_event = { id = maintenance.1 } } #tyrant trait
		
		character_event = {	id = ZE.21300 tooltip = EVTTOOLTIP_ZE_21300 }
		
		event_target:seize_church_target = {
			destroy_random_building = THIS
			destroy_random_building = THIS
		}
		
		if = {
			limit = {
				government = tribal_government
			}
			wealth = 100
		}
		
		if = {
			limit = {
				NOT = { government = tribal_government }
			}
			wealth = 200
		}
		
		piety = -100
		
		hidden_tooltip = {
			add_character_modifier = {
			   modifier = seize_church_assets_timer
			   years = 1
			   hidden = yes
			}
		}
	}
	
	# Back Out
	option = {
		name = EVTOPTD_ZE_21000
		
		ai_chance = {
			factor = 1
		}
		if = {
			limit = { ai = no }
			hidden_tooltip = { remove_character_modifier = extort_timer }
		}
	}
	
	after = {
		hidden_tooltip = { set_variable = { which = extort_province_value value = 0 } }
	}
}

# Extra Tax on Demesne Province
character_event = {
	id = ZE.21100
	desc = EVTDESC_ZE_21100
	picture = GFX_evt_noble_haughty_talking_to_peasants

	is_triggered_only = yes
	
	# High stewardship can trade revolt risk for less tax
	option = {
		name = EVTOPTA_ZE_21100
		tooltip_info = stewardship
		
		trigger = {
			stewardship = 15
		}
		
		event_target:extra_tax_target = {
			add_province_modifier = {
				modifier = extra_tax_kind
				duration = 1825
			}
		}
		
		if = {
			limit = {
				OR = {
					trait = kind
					trait = charitable
					trait = just
				}
				NOT = { trait = depressed } 
			}
			random_list = {
				5 = {
					if = {
						limit = {
							trait = stressed 
						}
					add_trait = depressed
					hidden_tooltip = { character_event = { id = 38288 } }
					}
					if = {
						limit = {
							NOT = { trait = stressed } 
						}
					add_trait = stressed
					hidden_tooltip = { character_event = { id = 38282 } }
					}
				}
				95 = {

				}
			}
		}
	}
	
	# Peasants upset
	option = {
		name = EVTOPTB_ZE_21100
		if = {
			limit = {
				trait = just
			}
			remove_trait = just
		}
		
		event_target:extra_tax_target = {
			add_province_modifier = {
				modifier = extra_tax
				duration = 1825
			}
		}
		
		if = {
			limit = {
				OR = {
					trait = kind
					trait = charitable
					trait = just
				}
				NOT = { trait = depressed } 
			}
			random_list = {
				10 = {
					if = {
						limit = {
							trait = stressed 
						}
					add_trait = depressed
					hidden_tooltip = { character_event = { id = 38288 } }
					}
					if = {
						limit = {
							NOT = { trait = stressed } 
						}
					add_trait = stressed
					hidden_tooltip = { character_event = { id = 38282 } }
					}
				}
				90 = {

				}
			}
		}
	}
}

# Extort landless subject
character_event = {
	id = ZE.21200
	desc = EVTDESC_ZE_21200
	picture = GFX_evt_poke_king_in_chest

	is_triggered_only = yes
	
	# Less upset at the cost of prestige
	option = {
		name = EVTOPTA_ZE_21200
		tooltip_info = diplomacy
		
		trigger = {
			diplomacy = 15
		}
		
		prestige = -250
		
		event_target:extortion_target = {
			opinion = {
					modifier = opinion_money_stolen
					who = ROOT
					years = 15
				}
			custom_tooltip = {
				text = extort_dynasty_upset_custom_tooltip
				hidden_tooltip = {
					any_dynasty_member = {
						limit = {
							NOT = { dynasty = none }
							NOT = { character = event_target:extortion_target }
						}
						opinion = {
							modifier = disrespects_dynasty
							who = ROOT
							years = 15
						}
					}
				}
			}
		}
		
		if = {
			limit = {
				OR = {
					trait = kind
					trait = charitable
					trait = just
				}
				NOT = { trait = depressed } 
			}
			random_list = {
				5 = {
					if = {
						limit = {
							trait = stressed 
						}
					add_trait = depressed
					hidden_tooltip = { character_event = { id = 38288 } }
					}
					if = {
						limit = {
							NOT = { trait = stressed } 
						}
					add_trait = stressed
					hidden_tooltip = { character_event = { id = 38282 } }
					}
				}
				95 = {

				}
			}
		}
	}
	
	# Target + Dynasty Upset
	option = {
		name = EVTOPTB_ZE_21200
		event_target:extortion_target = {
			if = {
				limit = {
					is_rival = ROOT
				}
				opinion = {
					who = ROOT
					modifier = opinion_evil_tyrant
					years = 15
				}
			}
			if = {
				limit = {
					NOT = { is_rival = ROOT }
				}
				add_rival = ROOT
			}
			custom_tooltip = {
				text = extort_dynasty_upset_custom_tooltip
				hidden_tooltip = {
					any_dynasty_member = {
						limit = {
							NOT = { dynasty = none }
							NOT = { character = event_target:extortion_target }
						}
						opinion = {
							modifier = opinion_hatred
							who = ROOT
							years = 15
						}
					}
				}
			}
		}
		
		if = {
			limit = {
				OR = {
					trait = kind
					trait = charitable
					trait = just
				}
				NOT = { trait = depressed } 
			}
			random_list = {
				10 = {
					if = {
						limit = {
							trait = stressed 
						}
					add_trait = depressed
					hidden_tooltip = { character_event = { id = 38288 } }
					}
					if = {
						limit = {
							NOT = { trait = stressed } 
						}
					add_trait = stressed
					hidden_tooltip = { character_event = { id = 38282 } }
					}
				}
				90 = {

				}
			}
		}
	}
}

# Seize church assets
character_event = {
	id = ZE.21300
	desc = EVTDESC_ZE_21300
	picture = GFX_evt_bribe_accepted

	is_triggered_only = yes
	
	# Fool clergy into thinking this is the will of god
	option = {
		name = EVTOPTA_ZE_21300
		tooltip_info = intrigue
		
		trigger = {
			intrigue = 15
			NOT = { trait = honest }
		}
		add_character_modifier = {
			name = annoyed_religious
			duration = 730
		}
		
		event_target:seize_church_target = {
			add_holding_modifier = {
				modifier = seize_church_assets
				duration = 1825
			}
			holder_scope = {
				opinion = {
					who = ROOT
					modifier = opinion_angry
					years = 15
				}
			}
		}
		
		religion_head = {
			opinion = {
				who = ROOT
				modifier = opinion_shocked
				years = 15
			}
		}
		
		if = {
			limit = {
				OR = {
					trait = humble
					trait = charitable
					trait = zealous
				}
				NOT = { trait = depressed } 
			}
			random_list = {
				5 = {
					if = {
						limit = {
							trait = stressed 
						}
					add_trait = depressed
					hidden_tooltip = { character_event = { id = 38288 } }
					}
					if = {
						limit = {
							NOT = { trait = stressed } 
						}
					add_trait = stressed
					hidden_tooltip = { character_event = { id = 38282 } }
					}
				}
				95 = {

				}
			}
		}
	}
	
	# Blaspheme thoroughly!
	option = {
		name = EVTOPTB_ZE_21300
		add_character_modifier = {
			name = annoyed_religious
			duration = 1460
		}
		
		event_target:seize_church_target = {
			add_holding_modifier = {
				modifier = seize_church_assets
				duration = 1825
			}
			
			holder_scope = {
				if = {
					limit = {
						is_rival = ROOT
					}
					opinion = {
						who = ROOT
						modifier = opinion_evil_tyrant
						years = 15
					}
				}
				if = {
					limit = {
						NOT = { is_rival = ROOT }
					}
					add_rival = ROOT
				}
			}
		}
		
		religion_head = {
			opinion = {
				who = ROOT
				modifier = opinion_shocked
				years = 15
			}
		}
		
		if = {
			limit = {
				OR = {
					trait = humble
					trait = charitable
					trait = zealous
				}
				NOT = { trait = depressed } 
			}
			random_list = {
				10 = {
					if = {
						limit = {
							trait = stressed 
						}
					add_trait = depressed
					hidden_tooltip = { character_event = { id = 38288 } }
					}
					if = {
						limit = {
							NOT = { trait = stressed } 
						}
					add_trait = stressed
					hidden_tooltip = { character_event = { id = 38282 } }
					}
				}
				90 = {

				}
			}
		}
	}
}

###########################################
#                                         #
# War Chest Passive events			      #
# by Alexander Oltner                     #
# ID      	              				  #
#                                         #
###########################################

#namespace = ZE

# Vassal offer donation in return for favor
character_event = {
	id = ZE.22000
	desc = EVTDESC_ZE_22000
	picture = GFX_evt_bribe_accepted
	
	is_triggered_only = yes
	
	
	# Thank you!
	option = {
		name = EVTOPTA_ZE_22000
		
		ai_chance = {
			factor = 50
			
			modifier = {
				factor = 5
				NOT = { wealth = 0 }
			}		
			modifier = {
				factor = 3
				trait = honorable
			}
			modifier = {
				factor = 2
				opinion = { who = FROM value = 25 }
			}
			modifier = {
				factor = 2
				opinion = { who = FROM value = 75 }
			}
			modifier = {
				factor = 2
				trait = greedy
			}		
			modifier = {
				factor = 2
				trait = trusting
			}			
			modifier = {
				factor = 2
				trait = slothful
			}			
			modifier = {
				factor = 2
				NOT = { wealth = 100 }
				independent = yes
			}
		}	
		trigger = {
			NOT = { is_friend = FROM }
		}	
		hidden_tooltip = { 
			FROM = { character_event = { id = ZE.22100 days = 3 } } 
		}
		wealth = 200
		tooltip = {
			FROM = {
				add_favor = ROOT 
			}
		}	
	}
	
	# No thanks
	option = {
		name = EVTOPTB_ZE_22000		
		ai_chance = {
			factor = 50
			
			modifier = {
				factor = 5
				trait = proud
			}
			modifier = {
				factor = 3
				trait = ruthless
			}
			modifier = {
				factor = 2
				NOT = { opinion = { who = FROM value = -25 } }
			}
			modifier = {
				factor = 2
				NOT = { opinion = { who = FROM value = -75 } }
			}
			modifier = {
				factor = 2
				FROM = {
					OR = {
						is_voter = yes
						is_councillor = yes
					}
				}
			}		
			modifier = {
				factor = 2
				trait = paranoid
			}		
			modifier = {
				factor = 2
				trait = content
			}			
			modifier = {
				factor = 2
				wealth = 300
				independent = yes
			}
		}	
		trigger = {
			NOT = { is_friend = FROM }
		}
		hidden_tooltip = {
			FROM = { character_event = { id = ZE.22200 days = 3 } }
		}	
		FROM = {
			opinion = {
				who = ROOT
				modifier = opinion_insulted
				years = 3
			}
		}
	}
	
	option = { # Thank you, friend!
		name = EVTOPTC_ZE_22000	
		trigger = {
			is_friend = FROM
		}
		hidden_tooltip = { 
			FROM = { character_event = { id = ZE.22101 days = 3 } } 
		}
		wealth = 200	
	}
}

# Offer accepted
character_event = {
	id = ZE.22100
	desc = EVTDESC_ZE_22100
	picture = GFX_evt_bribe_accepted
	
	is_triggered_only = yes
	
	# Offer was accepted
	option = {
		name = EXCELLENT
		
		ROOT = { 
			add_favor = FROM 
		}
	}
}
# Offer accepted- friend
character_event = {
	id = ZE.22101
	desc = EVTDESC_ZE_22101
	picture = GFX_evt_bribe_accepted
	
	is_triggered_only = yes
	
	# Offer was accepted
	option = {
		name = EXCELLENT
	}
}
# Offer declined
character_event = {
	id = ZE.22200
	desc = EVTDESC_ZE_22200
	picture = GFX_evt_bribe_declined
	
	is_triggered_only = yes
	
	# Too bad
	option = {
		name = EVTOPTA_ZE_22200	
		wealth = 200
	}
}