900.1.1={ 
	liege="k_tyrosh"
	holding_dynasty = 300543 # Adarys
}
7849.1.1 = { holder=345300543 } # Qarro (nc)
7869.1.1 = { holder=344300543 } # Ezzelyno (nc)
7888.1.1 = { holder=343300543 } # Groleo (nc)
7911.1.1 = { holder=342300543 } # Orryn (nc)
7933.1.1 = { holder=341300543 } # Ollo (nc)
7962.1.1 = { holder=340300543 } # Beqqo (nc)

7974.1.1 = { holder=150300543 } # Belicho (nc)
8028.1.1 = { holder=100300543 } # Mallaquo (nc)
8058.1.1 = { holder=103300543 } # Roggo (nc)
8098.1.1 = { holder=108300543 } # Mero (nc)
8116.1.1 = { holder=109300543 } # Lotho (nc)
8154.1.1 = { holder=113300543 } # Meralyn (nc)
8164.1.1 = { holder=117300543 } # Areo (nc)
8203.1.1 = { holder=120300543 } # Byan (nc)
8245.1.1 = { holder=122300543 } # Tregar (nc)
8258.1.1 = { holder=123300543 } # Yorko (nc)
# 8259.1.1={ liege="d_tyrosh" } #Ninepenny king
# 8259.12.31 = { liege="k_tyrosh" } 
8276.1.1 = { holder=125300543 } # Luco (nc)





