#House Haen
900.1.1={ 
	liege="c_dyrenohill"
}
7866.1.1 = { holder=344300263 } # Tybero (nc)
7878.1.1 = { holder=343300263 } # Myrmellios (nc)
7906.1.1 = { holder=342300263 } # Dynerro (nc)
7944.1.1 = { holder=341300263 } # Dregar (nc)
7961.1.1 = { holder=340300263 } # Salladhan (nc)

7970.1.1 = { holder=1300263 } # Tybio (nc)
8016.1.1 = { holder=3300263 } # Tregar (nc)
8045.1.1 = { holder=6300263 } # Drako (nc)
8067.1.1 = { holder=11300263 } # Lysono (nc)
8103.1.1 = { holder=13300263 } # Tigaro (nc)
8115.1.1 = { holder=16300263 } # Moredo (nc)
8122.1.1 = { holder=18300263 } # Torreo (nc)
8135.12.3 = { holder=28300263 } # Gylo (nc)
8183.1.1 = { holder=30300263 } # Denzo (nc)
8215.1.1 = { holder=34300263 } # Harayn (nc)
8241.1.1 = { holder=36300263 } # Ormallos (nc)
8259.1.1={ holder = 0 } #Ninepenny king
8259.12.31 = { holder=38300263 } # Tallandor (nc)
8296.1.1 = { holder=40300263 } # Manolo (nc)

