900.1.1={ 
	liege="k_yunkai"
	holding_dynasty = 360020 # Eraz
}
7859.1.1 = { holder=344360020 } # Kraznys (nc)
7881.1.1 = { holder=343360020 } # Yuznak (nc)
7910.1.1 = { holder=342360020 } # Uhzak (nc)
7939.1.1 = { holder=341360020 } # Barkhaz (nc)
7966.1.1 = { holder=340360020 } # Dhazzar (nc)

7979.1.1 = { holder=150360020 } # Grazdhan (nc)
8008.1.1 = { holder=100360020 } # Marghaz (nc)
8031.1.1 = { holder=101360020 } # Haezdhar (nc)
8072.1.1 = { holder=105360020 } # Grazdan (nc)
8088.1.1 = { holder=111360020 } # Barkhaz (nc)
8122.1.1 = { holder=112360020 } # Azlaq (nc)
8137.1.1 = { holder=116360020 } # Grazdan (nc)
8170.1.1 = { holder=119360020 } # Hizdhar (nc)
8188.1.1 = { holder=120360020 } # Yurkhaz (nc)
8225.1.1 = { holder=122360020 } # Grazdhan (nc)
8239.1.1 = { holder=126360020 } # Paezdhar (nc)
8255.1.1 = { holder=130360020 } # Gazdhor (nc)
8280.1.1={
	holder=6571007 # Grazdan (C)
}