#House Yherizan
900.1.1={ 
	liege="c_meereen"
}
7860.1.1 = { holder=356360006 } # Yazzak (nc)
7878.1.1 = { holder=355360006 } # Omkhaz (nc)
7900.1.1 = { holder=354360006 } # Zadrak (nc)
7912.1.1 = { holder=353360006 } # Maezon (nc)
7936.1.1 = { holder=352360006 } # Grazdan (nc)
8000.1.1 = { holder=350360006 } # Reznak (nc)
8003.1.1 = { holder=349360006 } # Merreq (nc)
8035.1.1 = { holder=348360006 } # Barkhaz (nc)
8069.1.1 = { holder=347360006 } # Grazdan (nc)
8094.1.1 = { holder=346360006 } # Dhazzar (nc)
8106.1.1 = { holder=345360006 } # Oznak (nc)
8140.1.1 = { holder=344360006 } # Daznak (nc)
8177.1.1 = { holder=343360006 } # Raqnak (nc)
8185.1.1 = { holder=342360006 } # Prendahl (nc)
8202.1.1 = { holder=341360006 } # Maezon (nc)
8222.1.1 = { holder=340360006 } # Kharkaz (nc)
8232.1.1 = { holder=101360006 } # Mazdhan (nc)
8300.1.1 = { holder=103360006 } # Grazdhar (nc)