#barony under Casterly Rock
3.1.1={
	liege="c_casterly_rock"
}
#House Heatherspoon
7825.1.1 = { holder=314414 }
7878.1.1 = { holder=304414 }
7900.1.1 = { holder=294414 }
7920.1.1 = { holder=284414 }
7950.1.1 = { holder=274414 }
7970.1.1 = { holder=264414 }
8000.1.1 = { holder=254414 }
8030.1.1 = { holder=244414 }
8060.1.1 = { holder=234414 }
8089.1.1 = { holder=224414 }
8100.1.1 = { holder=214414 }
8120.1.1 = { holder=204414 }
8147.1.1 = { holder=144414 }
8163.1.1 = { holder=104414 } # Leo (nc)
8204.1.1 = { holder=114414 } # Garisson (nc)
8225.1.1 = { holder=124414 } # Burton (nc)
8243.1.1 = { holder=134414 } # Criston (nc)
8261.1.1 = { holder=14414 } # Tybolt (C)