900.1.1={ 
	liege="d_warlocks"
}
7871.1.1 = { holder=88000613 } # Maathon (nc)
7894.1.1 = { holder=88000612 } # Nallor (nc)
7920.1.1 = { holder=88000611 } # Egon (nc)

7965.1.1 = { holder=88000600 } # Sybassion (nc)
8022.1.1 = { holder=88000601 } # Wullon (nc)
8045.1.1 = { holder=88000602 } # Ognos (nc)
8062.1.1 = { holder=88000603 } # Methyso (nc)
8103.1.1 = { holder=88000604 } # Wullon (nc)
8125.1.1 = { holder=88000605 } # Mundello (nc)
8157.1.1 = { holder=88000606 } # Zathor (nc)
8199.1.1 = { holder=88000607 } # Ognos (nc)
8235.1.1 = { holder=88000608 } # Urrathon (nc)
8252.1.1 = { holder=88000609 } # Wendello (nc)
8264.1.1 = { holder=88000610 } # Regon (nc)
8282.1.1={
	holder=600000063 # Pyatt Pree
}
