#House Verelin
900.1.1={ 
	liege="c_qarth"
}
7856.1.1 = { holder=34569162 } # Zagon (nc)
7869.1.1 = { holder=34469162 } # Agon Kree (nc)
7891.1.1 = { holder=34369162 } # Kyat (nc)
7909.1.1 = { holder=34269162 } # Hallor (nc)
7939.1.1 = { holder=34169162 } # Proto (nc)
7971.1.1 = { holder=34069162 } # Wallor (nc)

7995.1.1 = { holder=100069162 } # Doniphos (nc)
8036.1.1 = { holder=100169162 } # Meralyn (nc)
8050.1.1 = { holder=100569162 } # Sybassion (nc)
8076.1.1 = { holder=100669162 } # Pyat (nc)
8092.1.1 = { holder=101369162 } # Doniphos (nc)
8153.1.1 = { holder=101569162 } # Vogarro (nc)
8160.1.1 = { holder=101769162 } # Pyat (nc)
8163.1.1 = { holder=101869162 } # Nyessos (nc)
8191.1.1 = { holder=102569162 } # Regon (nc)
8239.1.1 = { holder=102969162 } # Methyso (nc)
8266.1.1 = { holder=103169162 } # Surindos (nc)
