900.1.1={ 
	liege="k_lys"
	holding_dynasty = 300523 # Lohar
}
7855.1.1 = { holder=345300523 } # Lysandro (nc)
7886.1.1 = { holder=344300523 } # Melio (nc)
7901.1.1 = { holder=343300523 } # Sallello (nc)
7912.1.1 = { holder=342300523 } # Tychyros (nc)
7935.1.1 = { holder=341300523 } # Cossoquo (nc)
7966.1.1 = { holder=340300523 } # Ezzo (nc)

7970.1.1 = { holder=150300523 } # Maelys (nc)
8018.1.1 = { holder=100300523 } # Beqqo (nc)
8080.1.1 = { holder=102300523 } # Allaquo (nc)
8086.1.1 = { holder=103300523 } # Pynto (nc)
8113.1.1 = { holder=106300523 } # Sharako (canon)
8131.9.1 = { holder=111300523 } # Tregar (nc)
8160.1.1 = { holder=110300523 } # Mellario (nc)
8167.1.1 = { holder=112300523 } # Illyrio (nc)
8208.1.1 = { holder=114300523 } # Tycho (nc)
8232.1.1 = { holder=118300523 } # Tregar (nc)
8244.1.1 = { holder=121300523 } # Gyleno (nc)
8259.1.1={ liege="d_lys" } #Ninepenny king
8259.12.31 = { liege="k_lys" } 
8277.1.1 = { holder=122300523 } # Illyrio (nc)





