#House Rhazdar
900.1.1={ 
	liege="c_meereen"
}
7855.1.1 = { holder=357360014 } # Grazdan (nc)
7880.1.1 = { holder=356360014 } # Kharaq (nc)
7899.1.1 = { holder=355360014 } # Grazdan (nc)
7918.1.1 = { holder=354360014 } # Rhazdar (nc)
7946.1.1 = { holder=353360014 } # Morghaz (nc)
7962.1.1 = { holder=352360014 } # Miklaz (nc)
7995.1.1 = { holder=351360014 } # Grazdan (nc)
8009.1.1 = { holder=350360014 } # Reznak (nc)
8033.1.1 = { holder=349360014 } # Korghaz (nc)
8081.1.1 = { holder=348360014 } # Barkhaz (nc)
8098.1.1 = { holder=347360014 } # Ozdhan (nc)
8119.1.1 = { holder=346360014 } # Maezhar (nc)
8146.1.1 = { holder=345360014 } # Draqaz (nc)
8171.1.1 = { holder=344360014 } # Fendahl (nc)
8190.1.1 = { holder=343360014 } # Miznahl (nc)
8220.1.1 = { holder=342360014 } # Grazdan (nc)
8232.1.1 = { holder=341360014 } # Yezzan (nc)
8252.1.1 = { holder=340360014 } # Rhazdar (nc)
8266.1.1 = { holder=101360014 } # Haznak (nc)
8300.1.1 = { holder=102360014 } # Kraznys (nc)