7000.1.1={
	liege = d_gogossos
	holding_dynasty = 723352
}
7880.1.1 = { holder=1000352 } # Parquello (nc)
7915.1.1 = { holder=1001352 } # Aelix (nc)
7917.1.1 = { holder=1004352 } # Aelix (nc)

7950.1.1 = { holder=0 } # Red Death


