900.1.1={ 
	liege="c_qohor"
}
7898.1.1 = {
	holder = 50012300 #Emperor Aurion
}
7899.1.1 = { 
	law = succ_appointment	
	effect = {
		set_title_flag = military_command
		holder_scope = {
			if = {
				limit = { primary_title = { title = PREVPREV } }
				set_government_type = military_command_government 
				PREV = { succession = appointment }
				recalc_succession = yes
			}
		}
	}
}

