900.1.1={ 
	liege="k_yunkai"
	holding_dynasty = 360017 # Rhaezn
}
7877.1.1 = { holder=344360017 } # Hizdhar (nc)
7885.1.1 = { holder=343360017 } # Reznak (nc)
7929.1.1 = { holder=342360017 } # Faezhar (nc)
7941.1.1 = { holder=341360017 } # Azzak (nc)
7963.1.1 = { holder=340360017 } # Uhzaq (nc)

7989.1.1 = { holder=150360017 } # Zarraq (nc)
8024.1.1 = { holder=100360017 } # Yurkhaz (nc)
8046.1.1 = { holder=101360017 } # Paezdhar (nc)
8087.1.1 = { holder=105360017 } # Maezon (nc)
8118.1.1 = { holder=109360017 } # Gazdhor (nc)
8144.1.1 = { holder=111360017 } # Grazdan (nc)
8150.1.1 = { holder=114360017 } # Sharkhaz (nc)
8186.1.1 = { holder=118360017 } # Grazdan (nc)
8200.1.1 = { holder=122360017 } # Paezdhar (nc)
8230.1.1 = { holder=128360017 } # Grazdhan (nc)
8250.1.1 = { holder=132360017 } # Skahaz (nc)
8258.1.1 = { holder=136360017 } # Hizdhar (nc)
8291.1.1={
	holder=6571011 # Maezon
}