#b_silverhillcastletwo
900.1.1={
	liege="c_silverhill"
}
7846.1.1={holder=1184362}
7900.1.1={holder=1174362} # Tion Doggett
7912.8.7={holder=1164362} # Tommen Doggett
7919.8.2={holder=1154362} # Gerion Doggett
7926.10.2={holder=1144362} # Damon Doggett
7955.8.7={holder=60004362} # Colin Doggett
7987.8.1={holder=1004362} # Dunsen Doggett
8004.6.6={holder=1024362} # Leo Doggett

8042.10.1={
	holder=1034362
}
8047.1.1={
	holder=1044362
}
8057.1.1={
	holder=1054362
}
8090.1.1={
	holder=1064362
}
8103.1.1={
	holder=1074362
}
8127.1.1={
	holder=1084362
}
8160.1.1={
	holder=1094362
}
8196.5.5={
	holder=1104362
}
8219.1.1={
	holder=1114362
}
8237.1.1={
	holder=1124362
}
8273.1.1={
	holder=1134362
}