#House Reyaan
7600.1.1={ 
	liege="k_braavos"
	holding_dynasty = 300512
}
7849.1.1 = { holder=345300512 } # Elanzo (nc)
7871.1.1 = { holder=344300512 } # Roggo (nc)
7889.1.1 = { holder=343300512 } # Qarro (nc)
7925.1.1 = { holder=342300512 } # Moroggo (nc)
7944.1.1 = { holder=341300512 } # Despero (nc)
7966.1.1 = { holder=340300512 } # Delleno (nc)

7994.1.1 = { holder=1100512 } # Syrio (nc)
8003.1.1 = { holder=1000512 } # Cossomo (nc)
8042.1.1 = { holder=900512 } # Oro (nc)
8057.1.1 = { holder=800512 } # Obelo (nc)
8082.1.1 = { holder=700512 } # Terro (nc)
8099.1.1 = { holder=600512 } # Bellaquo (nc)
8132.1.1 = { holder=500512 } # Tagganaro (nc)
8157.1.1 = { holder=400512 } # Qohollo (nc)
8168.1.1 = { holder=300512 } # Yorko (nc)
8205.1.1 = { holder=200512 } # Denyo (nc)
8239.1.1 = { holder=100512 } # Ternesio (nc)
8279.1.1 = {
	holder=600000049 # Tycho (C)
}



