7780.1.1={
	liege="c_dragonstone"
}
#House Scales
7846.1.1={holder=206479}
7900.1.1={holder=205479}
7925.1.1={holder=204479}
7950.1.1={holder=203479}
7975.1.1={holder=202479}
7998.1.1 = { holder=201479 } #Monford (nc)
8021.1.1 = { holder=211479 } #Elyas (C)
8052.1.1 = { holder=221479 } #Valarr (nc)
8073.1.1 = { holder=231479 } #Monford (nc)
8105.1.1 = { holder=241479 } #Merrel (nc)
8129.1.1 = { holder=251479 } #Osmund (nc)
8154.1.1 = { holder=261479 } #Hubard (nc)
8183.1.1 = { holder=271479 } #Elyas (nc)
8202.1.1 = { holder=281479 } #Jacelyn (nc)
8231.1.1 = { holder=111479 } #Manfred (nc)
8243.1.1 = { holder=101479 } #Russel (nc)
8283.1.1 = { 
	holder=1479	#Benethon Scales (C)
}
