6000.1.1={
	liege="d_wayfarersrest"
	law = succ_primogeniture
}
7840.1.1={
	holder=29156
}
7900.1.1={
	holder=28156
}
7920.1.1={
	holder=27156
}
7940.1.1={
	holder=26156
}
7960.1.1={
	holder=11156
}
8006.1.1={
	holder=23156
}
8013.1.1={
	holder=10156
}
8024.1.1={
	holder=9156
}
8061.1.1={
	holder=8156
}
8073.1.1={
	holder=7156
}
8123.1.1={
	holder=6156
}
8127.1.1={
	holder=5156
}
8161.1.1={
	holder=4156
}
8196.6.1={
	holder=15298
}
8205.1.1={
	holder=3156
}
8247.1.1={
	holder=1336
}
8278.1.1={
	holder=156
}