#House Branch
6000.1.1={
	liege="d_wolfswood"
}
7870.1.1 = { holder=3431445 } # Ecton (nc)
7878.1.1 = { holder=3421445 } # Benjen (nc)
7912.1.1 = { holder=3411445 } # Kyle (nc)
7931.1.1 = { holder=3401445 } # Benjicot (nc)

7956.1.1 = { holder=11445 } # Bannen (nc)
7993.1.1 = { holder=21445 } # Arthor (nc)
8005.1.1 = { holder=51445 } # Pate (nc)
8051.1.1 = { holder=71445 } # Jonnela (nc)
8076.1.1 = { holder=81445 } # Benjicot (nc)
8112.1.1 = { holder=101445 } # Rodrik (nc)
8138.1.1 = { holder=131445 } # Daryn (nc)
8156.1.1 = { holder=121445 } # Chayle (nc)
8161.1.1 = { holder=161445 } # Jon (nc)
8177.1.1 = { holder=191445 } # Beron (nc)
8187.1.1 = { holder=221445 } # Rodrik (nc)
8219.1.1 = { holder=231445 } # Quent (nc)
8261.1.1 = { holder=251445 } # Byam (nc)
8277.1.1={
	holder=10001445 #Benjicot (C)
}