#House Grazdhan
600.1.1={
	liege="k_astapor"
}
7860.1.1 = { holder=345360002 } # Grazdan (nc)
7869.1.1 = { holder=344360002 } # Uhzaq (nc)
7893.1.1 = { holder=343360002 } # Mazdhan (nc)
7909.1.1 = { holder=342360002 } # Grazdan (nc)
7935.1.1 = { holder=341360002 } # Haznak (nc)
7959.1.1 = { holder=340360002 } # Gazdhor (nc)

7983.1.1 = { holder=150360002 } # Grazdan (nc)
8023.1.1 = { holder=100360002 } # Grazdhan (nc)
8046.1.1 = { holder=101360002 } # Grazdhor (nc)
8099.1.1 = { holder=105360002 } # Skahaz (nc)
8113.1.1 = { holder=107360002 } # Gorkhaz (nc)
8118.1.1 = { holder=109360002 } # Barkhaz (nc)
8154.1.1 = { holder=112360002 } # Grazdan (nc)
8205.1.1 = { holder=114360002 } # Kraznys (nc)
8235.1.1 = { holder=116360002 } # Grazdan (nc)
8260.1.1 = { holder=119360002 } # Marghaz (nc)
8272.1.1={
	holder=6571002 # Grazdan
}
8299.12.12={
	holder=0 # Dany happened !!
}