#House Cockshaw
900.1.1={ law=succ_primogeniture law=cognatic_succession
	liege="d_highgarden"
}
7861.1.1 = { holder=3034271 } # Alyn (nc)
7877.1.1 = { holder=3033271 } # Talbert (nc)
7899.1.1 = { holder=3032271 } # Petyr (nc)
7944.1.1 = { holder=3031271 } # Osbert (nc)
7963.1.1 = { holder=3030271 } # Luthor (nc)

7975.1.1 = { holder=3003271 } # Leo (nc)
8008.1.1 = { holder=3000271 } # Imry (nc)
8020.1.1 = { holder=3001271 } # Quentin (nc)
8039.1.1 = { holder=3002271 } # Gauter (nc)
8103.1.1 = { holder=3005271 } # Imry (nc)
8135.1.1 = { holder=3009271 } # Reynard (nc)
8144.1.1 = { holder=3013271 } # Steffon (nc)
8176.1.1 = { holder=3020271 } # Owain (nc)
8182.1.1 = { holder=3021271 } # Robert (nc)
8195.3.7={
	liege = 0
}
8196.6.1={
	liege="d_highgarden"
}
8200.10.14={
	holder=1271 # Alyn (C)
}
8212.1.1 = {
	holder=3027271 # Rolland (nc)
}
8230.1.1={
	holder=88045 # Jon (nc)
}
8283.1.1={
	holder=271 # Robert (nc)
}


