6000.1.1={
	liege="d_blackwood"
	law = succ_primogeniture
}
7830.1.1={
	holder=27151
}
7880.1.1={
	holder=26151
}
7900.1.1={
	holder=25151
}
7930.1.1={
	holder=24151
}
7955.1.1={
	holder=23151
}
7990.1.1={
	holder=22151
}
8008.1.1={
	holder=18151
}
8019.1.1={
	holder=17151
}
8047.1.1={
	holder=16151
}
8059.1.1={
	holder=15151
}
8086.1.1={
	holder=14151
}
8124.1.1={
	holder=13151
}
8158.1.1={
	holder=11151
}
8181.1.1={
	holder=10151
}
8195.3.7={
	liege = 0
}
8196.6.1={
	liege="d_blackwood"
}
8212.1.1={
	holder=9151
}
8217.1.1={
	holder=8151
}
8258.1.1={
	holder=6151
}
8277.1.1={
	holder=151
}

