#House Chelsted
7600.1.1={
	liege="e_stormlands"
	law = succ_primogeniture
}
7842.1.1 = { holder=344025 } # Bryen (nc)
7862.1.1 = { holder=343025 } # Clifford (nc)
7888.1.1 = { holder=342025 } # Gormon (nc)
7908.1.1 = { holder=341025 } # Harmon (nc)
7957.1.1 = { holder=340025 } # Jaremy (nc)
7958.1.1 = {
	liege="e_reach"
}
7963.1.1 = { holder=3003025 }
7998.2.27 = {
	liege="d_kings_landing"
}
8015.1.1 = { holder=3005025 }
8036.1.1 = { holder=3000025 } # Alliser (nc)
8044.1.1 = { holder=3006025 } # Alla (nc)
8078.1.1 = { holder=3008025 } # Gendry (nc)
8107.1.1 = { holder=3009025 } # Guncer (nc)
8117.1.1 = { holder=3014025 } # Bronn (nc)
8130.5.1 = { holder=3018025 } # Anguy (nc)
8136.1.1 = { holder=3019025 } # Jaremy (nc)

#House Blackfyre
8185.1.1={
	holder = 77024 		#Daemon Blackfyre, given tract of land by King Daeron
}
8195.3.7 = {
	#given to iron throne upon start of the blackfyre rebellion (see 77024)
}

#House Chelsted
8196.6.1 = { 
	holder=3022025  # Humfrey (nc)
	liege="d_kings_landing" 
}
8243.1.1 = { holder=3024025 } # Elwood (nc)
8270.1.1 = { holder=3027025 } # Pate (nc)
8274.1.1 = { holder=2029025 } # Qarlton Chelsted (C)
8284.1.1 = { holder=3034025 } # Malliard (nc)