6000.1.1={
	liege="d_runestone"
	law = succ_primogeniture
}
7846.1.1 = {
	holder=3031169
}
7900.1.1 = {
	holder=3029169
}
7921.1.1 = {
	holder=3028169
}
7946.1.1 = {
	holder=3027169
}
7986.1.1 = { holder=3001169 }
8014.1.1 = { holder=3000169 } # Florian (nc)
8023.1.1 = { holder=3002169 } # Albar (nc)
8032.1.1 = { holder=3006169 } # Elbert (nc)
8070.1.1 = { holder=3010169 } # Wyl (nc)
8076.1.1 = { holder=3016169 } # Bryen (nc)
8104.1.1 = { holder=3017169 } # Jon (nc)
8109.1.1 = { holder=3018169 } # Banor (SC)
8170.1.1 = { holder=3026169 } # Eustace (nc)
8201.1.1 = { holder=3030169 } # Rolley (nc)
8222.1.1 = { holder=3032169 } # Gilwood (nc)
8247.1.1 = { holder=3036169 } # Royce (nc)

8273.1.1={
	holder=94040
}