#House Crowl
6000.1.1={
	liege="e_north"
	law = succ_primogeniture
}
7250.1.1 = { holder=1050105 } # Hareth (nc)
7289.1.1 = { holder=1051105 } # Osric (nc)
7306.1.1 = {
	holder = 0
}
7866.1.1 = { holder=341105 } # Halleck (nc)
7877.1.1 = { holder=340105 } # Hallis (nc)

7898.1.1 = { holder=3100105 } # Cellador (nc)
7940.1.1 = { holder=3201105 } # Torghen (nc)
7976.1.1 = { holder=14105 } # Orell (nc)
7999.1.1 = {
	liege="k_north"
}
8009.1.1 = { holder=13105 } # Gendel (nc)
8037.1.1 = { holder=12105 } # Jeor (nc)
8058.1.1 = { holder=11105 } # Dryn (nc) 
8066.1.1 = { holder=10105 } # Howd (nc) 
8090.1.1 = { holder=9105 } # Bodger (nc)
8119.1.1 = { holder=8105 } # Varamyr (nc)
8135.1.1 = { holder=7105 } # Wallen (nc)
8180.1.1 = { holder=6105 } # Ryk (nc)
8195.1.1 = {
	liege = d_skagos
}
8196.1.1 = {
	liege = 0
}
8197.1.1 = {
	liege="k_north"
}
8214.1.1 = { holder=5105 } # Hallis (nc)
8225.1.1 = { holder=4105 } # Jojen (nc)
8247.1.1 = { holder=3105 } # Gavin (nc)
8262.1.5 = { holder=105 }
