#House Darklyn
800.1.1={
	liege="d_duskendale"
}
7862.1.1 = { holder=343364 } # Damon (nc)
7881.1.1 = { holder=342364 } # Raston (nc)
7899.1.1 = { holder=341364 } # Florian (nc)
7922.1.1 = { holder=340364 } # Denys (nc)

7956.1.1 = { holder=6000364 } # Robert (nc)
7998.2.1 = { holder=6002364 } # Rolland (nc)
8009.1.1 = {  #kings landing expansion
	effect = {
		b_duskendale = {
			remove_building = ct_asoiaf_crown_basevalue_6
		}
	}
}
8018.1.1 = {  #kings landing expansion
	effect = {
		b_highley = {
			remove_building = ct_asoiaf_crown_basevalue_3
		}
	}
} 
8018.1.1 = { holder=6007364 } # Steffon
8027.1.1 = { #kings landing expansion
	effect = {
		b_highley = {
			remove_building = ct_asoiaf_crown_basevalue_2
			remove_building = ct_asoiaf_crown_basevalue_1
		}
	}
}
8036.1.1 = { #kings landing expansion
	effect = {
		b_duskendale = {
			remove_building = ct_asoiaf_crown_basevalue_5
		}
	}
}
8044.1.1 = { holder=6009364 } # Robin (nc)
8050.1.1 = { holder=6012364 }
8057.1.1 = { holder=6019364 } # Ulmer (nc)
8100.1.1 = {holder=88000454 }
8120.1.1 = { holder=6022364 } # Gunthor (C)
8129.9.1 = { holder=6025364 } # Kendel (nc)
8174.1.1 = { holder=6029364 } # Tarell (nc)
8189.1.1 = { holder=6035364 } # Addison (nc)
8229.1.1 = { holder=6003364 } # Addam (nc)
8243.1.1 = { holder=6038364 } # Jon (nc)
8257.1.1 = { holder=6045364 } # Donnel (nc)
8272.1.1 = { holder=6049364 } # Denys, Lord at the Defiance

#House Rykker
8277.10.1={
	holder = 36 	#Dylan Rykker
}
8280.1.1={
	holder = 2036 	#Renfred Rykker
}
