7858.1.1 = { holder=354500017 } # Sigorn (nc)
7876.1.1 = { holder=344500017 } # Karlon (nc)
7900.1.1 = { holder=334500017 } # Mance (nc)
7924.1.1 = { holder=324500017 } # Eyron (nc)
7948.1.1 = { holder=314500017 } # Raymun (nc)
7986.1.1 = { holder=304500017 } # Beron (nc)
7991.1.1 = { holder=104500017 } # Torghen (nc)
8046.1.1 = { holder=134500017 } # Galbart (nc)
8082.1.1 = { holder=144500017 } # Torghen (nc)
8089.1.1 = { holder=154500017 } # Varamyr (nc)
8106.1.1 = { holder=164500017 } # Wayn (nc)
8131.1.1 = { holder=174500017 } # Kyleg (nc)
8149.1.1 = { holder=184500017 } # Harlon (nc)
8188.1.1 = { holder=214500017 } # Gorne (nc)
8196.1.1 = { holder=224500017 } # Joramun (nc)
8213.1.1={
	liege="k_beyond_wall"
}
8226.9.9 = {
	liege="0"
}
8250.1.1 = { holder=234500017 } # Mikken (nc)
8251.1.1 = { holder=244500017 } # Bodger (nc)
8298.1.1 = {
	liege="k_beyond_wall"
	holder=174347
}
8300.2.10 = {
	holder=999000666
}