6000.1.1={
	liege="d_southstone"
	law = succ_primogeniture
}
7830.1.1={
	holder=33148
}
7897.1.1={
	holder=32148
}
7907.1.1={
	holder=31148
}
7923.1.1={
	holder=30148
}
7950.1.1={
	holder=28148
}
7975.1.1={
	holder=26148
}
8018.1.1={
	holder=22148
}
8034.1.1={
	holder=21148
}
8044.1.1={
	holder=20148
}
8059.1.1={
	holder=19148
}
8107.1.1={
	holder=17148
}
8128.1.1={
	holder=16148
}
8131.1.1={
	holder=15148
}
8172.1.1={
	holder=14148
}
8206.1.1={
	holder=13148
}
8254.1.1={
	holder=148
}
8275.1.1 = {
	holder=4148
}
8283.1.1={
	holder=124148
}