#House Biabaku
7800.1.1 = { 
	liege=d_golden_head
	law = succ_seniority
	law = cognatic_succession
} 
7871.1.1 = { holder=340304015 } # Sango (nc)
7884.1.1 = { holder=341304015 } # Chibundo (nc)
7916.1.1 = { holder=342304015 } # Jalahuru (nc)
7953.1.1 = { holder=343304015 } # Xajja (nc)
7973.1.1 = { holder=344304015 } # Delmabhar (nc)
7981.1.1 = { holder=100304015 } # Doshuru (nc)
8008.1.1 = { holder=103304015 } # Oluhuru (nc)
8035.1.1 = { holder=106304015 } # Udo (nc)
8072.1.1 = { holder=114304015 } # Xhal (nc)
8117.1.1 = { holder=115304015 } # Oluhuru (nc)
8155.1.1 = { holder=117304015 } # Isingodo (nc)
8168.1.1 = { holder=118304015 } # Odingaxho (nc)
8196.1.1 = { holder=120304015 } # Tal (nc)
8203.1.1 = { holder=121304015 } # Orengo (nc)
8213.1.1 = { holder=127304015 } # Xhondo (nc)
8247.1.1 = { holder=129304015 } # Bapato (nc)
8274.1.1 = { holder=132304015 } # Tal (nc)
8284.1.1 = { holder=134304015 } # Chibundo (nc)

