#House Ekwensu
7800.1.1 = {
	liege=d_west_jhala
	law = succ_seniority
	law = cognatic_succession
}
7859.1.1 = { holder=340304019 } # Orengo (nc)
7878.1.1 = { holder=341304019 } # Jiradhar (nc)
7921.1.1 = { holder=342304019 } # Tal (nc)
7956.1.1 = { holder=343304019 } # Manahura (nc)
7989.1.1 = { holder=344304019 } # Sango (nc)
8001.1.1 = { holder=100304019 } # Anyim (nc)
8024.1.1 = { holder=101304019 } # Jalabhar (nc)
8045.1.1 = { holder=106304019 } # Chakoro (nc)
8047.1.1 = { holder=102304019 } # Jalahuru (nc)
8054.1.1 = { holder=108304019 } # Anyim (nc)
8092.1.1 = { holder=114304019 } # Tal (nc)
8103.1.1 = { holder=115304019 } # Adeyemu (nc)
8121.1.1 = { holder=116304019 } # Rudo (nc)
8122.1.1 = { holder=118304019 } # Olujondo (nc)
8129.1.1 = { holder=121304019 } # Simbhar (nc)
8159.1.1 = { holder=124304019 } # Siboxhoan (nc)
8186.1.1 = { holder=129304019 } # Xhondo (nc)
8205.1.1 = { holder=130304019 } # Xhal (nc)
8252.1.1 = { holder=132304019 } # Kwasya (nc)
8256.1.1 = { holder=134304019 } # Odingaxho (nc)
8271.1.1 = { holder=135304019 } # Xataya (nc)
8282.1.1 = { holder=136304019 } # Rudo (nc)

