7869.1.1 = { holder=340559354 } # Doss (nc)
7883.1.1 = { holder=341559354 } # Myrtle (nc)
7897.1.1 = { holder=342559354 } # Cayn (nc)
7925.1.1 = { holder=345559354 } # Haggon (nc)
7971.1.1 = { holder=346559354 } # Sansa (nc)
7987.1.1 = { holder=10559354 } # Gerrick (nc)
8019.1.1 = { holder=11559354 } # Bump (nc)
8035.1.1 = { holder=13559354 } # Beron (nc)
8066.1.1 = { holder=17559354 } # Gerrick (nc)
8101.1.1 = { holder=18559354 } # Dan (nc)
8120.1.1 = { holder=19559354 } # Stiv (nc)
8141.1.1 = { holder=20559354 } # Torghen (nc)
8174.1.1 = { holder=21559354 } # Harlon (nc)
8177.1.1 = { holder=25559354 } # Qhorin (nc)
8207.1.1 = { holder=27559354 } # Alfyn (nc)
8213.1.1 = {
	liege="k_beyond_wall"
}
8226.9.9 = {
	liege="0"
}
8231.1.1 = { holder=29559354 } # Halys (nc)
8267.1.1 = { holder=30559354 } # Dorren (nc)
8278.1.1 = { holder=32559354 } # Raymun (nc)
8298.1.1 = {
	liege="k_beyond_wall"
}
8300.2.10 = {
	holder=999000666
}