#House Shells
7000.1.1={
	liege="e_dorne"
	law = true_cognatic_succession
}
7274.1.1 = {
	holder = 175013 #Lucifer Dryland
}
7859.1.1 = { holder=102206043 } # Garrison (nc)
7880.1.1 = { holder=102106043 } # Olivya (nc)
7913.1.1 = { holder=102006043 } # Obella (nc)
7950.1.1 = { holder=101906043 } # Garibald (nc)
7963.1.1 = { holder=101806043 } # Obara (nc)
8000.1.1 = { holder=100806043 } # Arthur (nc)
8023.1.1 = { holder=102806043 } # Yandry (nc)
8034.1.1 = { holder=103806043 } # Franklyn (nc)
8078.1.1 = { holder=105806043 } # Daeron (nc)
8107.1.1 = { holder=106806043 } # Myles (nc)
8129.1.1 = { holder=108806043 } # Deziel (nc)
8136.1.1 = { holder=110806043 } # Gascoyne (nc)
8164.1.1 = { holder=114806043 } # Harmen (nc)
8187.6.1 = {liege=k_dorne}
8204.1.1 = { holder=116806043 } # Maron (nc)
8212.1.1 = { holder=117806043 } # Dorea (nc)
8268.1.1 = { holder=118806043 } # Andrey (nc)
8288.1.1 = { holder=123806043 } # Daeron (nc)
