#House Selmy
202.1.1 = { liege="e_stormlands" }
7879.1.1 = { holder=353302 } # Barristan (nc)
7883.1.1 = { holder=352302 } # Narbert (nc)
7933.1.1 = { holder=351302 } # Bonifer (nc)
7957.1.1 = { holder=350302 } # Terrence (nc)

7994.1.1 = { holder=300302 } # Barristan (nc)
7998.2.27={
	liege = k_stormlands
}
8014.1.1 = { holder=302302 } # Othell (nc)
8040.1.1 = { holder=303302 } # Cyrenna (nc)
8065.1.1 = { holder=311302 } # Humfrey (nc)
8079.1.1 = { holder=313302 } # Lyonel (nc)
8108.1.1 = { holder=318302 } # Myles (nc)
8136.1.1 = { holder=322302 } # Sebara (Sc)
8167.1.1 = { holder=327302 } # Beren (Sc)
8176.1.1 = { holder=330302 } # Beram (Sc)
8207.1.1 = { holder=332302 } # Arstan (nc)
8250.1.1 = { holder=200302 } # Lyonel Selmy (C)
8270.1.1 = { holder=334302 } # Paxter (nc)
8295.1.1 = { holder=202302 } # Arstan Selmy (C)