#House Hasty
202.1.1 = {liege="d_summerhall"}
7855.1.1 = { holder=344312 } # Leobald (nc)
7884.1.1 = { holder=343312 } # Sebastion (nc)
7902.1.1 = { holder=342312 } # Boren (nc)
7944.1.1 = { holder=341312 } # Florian (nc)
7963.1.1 = { holder=340312 } # Ben (nc)

7975.1.1 = { holder=301312 } # Harys (nc)
8001.1.1 = { holder=300312 } # Barristan (nc)
8007.1.1 = { holder=303312 } # Balon (nc)
8016.1.1 = { holder=304312 } # Bonifer (nc)
8043.1.1 = { holder=305312 } # Brynden (nc)
8073.1.1 = { holder=306312 } # Barristan (nc)
8082.1.1 = { holder=307312 } # Benfrey (nc)
8130.1.1 = { holder=308312 } # Bowen (nc)
8160.1.1 = { holder=309312 } # Brynden (nc)
8178.6.1 = {liege="k_stormlands"}
8186.1.1 = { holder=310312 } # Balon (nc)
8188.1.1 = { holder=311312 } # Brynden (nc)
8210.1.1 = { holder=312312 } # Belwyn (nc)
8250.1.1 = { holder=200312 } # Bonifer (c)