#House Graceford
900.1.1={ law=succ_primogeniture law=cognatic_succession
	liege="d_cockleswhent"
}
7855.1.1 = { holder=6034242 } # Hobert (nc)
7872.1.1 = { holder=6033242 } # Horas (nc)
7900.1.1 = { holder=6032242 } # Clement (nc)
7922.1.1 = { holder=6031242 } # Lyessa (nc)
7960.1.1 = { holder=6030242 } # Victor (nc)

7987.1.1 = { holder=6000242 } # Abelar (nc)
8015.1.1 = { holder=6001242 } # Alester (nc)
8036.1.1 = { holder=6003242 } # Byren (nc)
8067.1.1 = { holder=6007242 } # Amelryc (nc)
8077.1.1 = { holder=6010242 } # Anslem (nc)
8122.1.1 = { holder=6015242 } # George (C)
8136.1.1 = { holder=6020242 } # Wyman (nc)
8173.1.1 = { holder=6021242 } # Aemon (nc)
8201.1.1 = { holder=6022242 } # Buford (nc)
8233.1.1 = { holder=6024242 } # Desmond (nc)
8242.1.1 = { holder=6026242 } # Theodore (nc)

8264.1.1={
	holder=88048
}
8290.1.1={
	holder=242
}




