#c_hornvale
900.1.1={
	liege="d_hornvale"
}
7874.1.1 = {holder=60400216} # Lorien I Brax
7900.8.1 = {holder=60700216} # Tyros Brax
7902.1.1 = {holder=60600216} # Tybolt Brax
7924.1.1 = {holder=60500216} # Ryland Brax
7976.1.1 = {holder=60100216} # Flement Brax
7982.1.1 = {holder=60000216} # Andron Brax
7992.1.1 = {holder=61100216} # Lorien II Brax
7999.3.8 = {holder=311216} # Jon Brax
8022.1.1 = {	
	holder=310216
}
8048.1.1 = {	
	holder=309216
}
8084.1.1 = {	
	holder=308216
}
8105.1.1 = {	
	holder=307216
}
8126.1.1 = {	
	holder=306216
}8129.7.18 = {	
	holder=305216
}

8156.1.1 = {	
	holder=303216
}

8196.5.5 = {	
	holder=302216
}

8226.1.1 = {	
	holder=301216
}


8254.1.1 = {	
	holder=300216
}
8259.3.6 = {	
	holder=10216
}
8268.1.1 = {	
	holder=216
}
8298.10.25 = {
	holder=1216
}