#House Anuxho
7800.1.1 = { 
	liege=d_indigo_straits
	law = succ_seniority
	law = cognatic_succession
}
7850.1.1 = { holder=340304018 } # Koroxhar (nc)
7868.1.1 = { holder=341304018 } # Thabo (nc)
7896.1.1 = { holder=342304018 } # Adeyemu (nc)
7921.1.1 = { holder=343304018 } # Sango (nc)
7961.1.1 = { holder=344304018 } # Jaramogo (nc)
7988.1.1 = { holder=345304018 } # Xara (nc)

8005.1.1 = { holder=101304018 } # Manahuru (nc)
8010.1.1 = { holder=102304018 } # Dubaku (nc)
8031.1.1 = { holder=105304018 } # Dubaku (nc)
8033.1.1 = { holder=107304018 } # Manahuru (nc)
8096.1.1 = { holder=114304018 } # Doshuru (nc)
8133.1.1 = { holder=116304018 } # Tatenda (nc)
8179.1.1 = { holder=117304018 } # Isodo (nc)
8201.1.1 = { holder=120304018 } # Xhal (nc)
8222.1.1 = { holder=127304018 } # Isingodo (nc)
8262.1.1 = { holder=130304018 } # Siboxhoan (nc)
8284.1.1 = { holder=131304018 } # Xhakan (nc)
