#House Lannister of Lannisport
900.1.1={
	liege="d_casterly_rock"
	effect = { 
		holder_scope = { character_event = { id = roberts_rebellion.23 } } #cadets
	}
}
7838.1.1 = { holder=442190 } # Tybolt (nc)
7859.1.1 = { holder=441190 } # Lorent (nc)
7882.1.1 = { holder=440190 } # Lancel (nc)

7900.1.1 = { holder=3550190 } # Raynard (nc)
7924.1.1 = { holder=3551190 } # Jaime (nc)
7952.1.1 = { holder=3552190 } # Lancel (nc)
8016.1.1 = { holder=3558190 } # Raynald (nc)
8037.1.1 = { holder=3559190 } # Dennis (nc)
8089.1.1 = { holder=3565190 } # Loren (nc)
8095.1.1 = { holder=3500190 } # Selmond (nc) 
8133.1.1 = { holder=3501190 } # Maynard (nc)
8164.1.1 = { holder=3507190 } # Gregor (nc)
8183.1.1 = { holder=3510190 } # Tyrion (nc)
8203.1.1 = { holder=3512190 } # Willem (nc)
8243.1.1 = { holder=3514190 } # Lambert (nc)
8264.1.1 = { holder=3515190 } # Rollam (nc)
8284.1.1 = { holder=3517190 } # Tyran (nc)
