600.1.1={
	law = succ_open_elective
}
8096.6.1={
	liege="d_southern_stepstones"
}
8109.1.1={
	liege="k_stepstones"
}
8116.1.1={
	liege="0"
}
8131.9.1 = {
	liege="k_stepstones"
}
8134.1.1 = {
	liege="0"
}
8157.1.1={
	liege="k_stepstones"
}
8159.1.1={
	liege="0"
}
8258.1.1={
	liege="d_southern_stepstones"
}
8260.12.31={
	liege="0"
}
8300.2.1={
	liege="k_stepstones"
}