#House Lysandys
600.1.1={
	liege="k_pentos"
}
7855.1.1 = { holder=34569125 } # Esodo (nc)
7867.1.1 = { holder=34469125 } # Jorys (nc)
7890.1.1 = { holder=34369125 } # Syricho (nc)
7916.1.1 = { holder=34269125 } # Adaros (nc)
7936.1.1 = { holder=34169125 } # Qysar (nc)
7959.1.1 = { holder=34069125 } # Hyrio (nc)

7980.1.1 = { holder=100069125 } # Tregar (nc)
8027.1.1 = { holder=100269125 } # Narbo (nc)
8029.1.1 = { holder=100569125 } # Gyleno (nc)
8045.1.1 = { holder=100769125 } # Denyo (nc)
8082.1.1 = { holder=100969125 } # Yorko (nc)
8097.1.1 = { holder=101369125 } # Groleo (nc)
8157.1.1 = { holder=101869125 } # Yorko (nc)
8179.1.1 = { holder=101969125 } # Tregar (nc)
8192.1.1 = { holder=102269125 } # Areo (nc)
8214.1.1 = { holder=102469125 } # Roro (nc)
8237.1.1 = { holder=102869125 } # Pynto (nc)
8282.1.1 = { holder=103169125 } # Myrmello (nc)
