#House Rhaegan
600.1.1={
	liege="k_myr"
}
7852.1.1 = { holder=344174355 } # Paranys (nc)
7879.1.1 = { holder=343174355 } # Horio (nc)
7902.1.1 = { holder=342174355 } # Tormo (nc)
7925.1.1 = { holder=341174355 } # Myrmello (nc)
7949.1.1 = { holder=340174355 } # Salassor (nc)

7970.1.1 = { holder=150174355 } # Tagganaro (nc)
8021.1.1 = { holder=100174355 } # Thoros (nc)
8056.1.1 = { holder=101174355 } # Tagganaro (nc)
8082.1.1 = { holder=102174355 } # Gyleno (nc)
8104.1.1 = { holder=106174355 } # Terro (nc)
8135.1.1 = { holder=109174355 } # Denyo (nc)
8177.1.1 = { holder=115174355 } # Mero (nc)
8228.1.1 = { holder=119174355 } # Thoros (nc)
8233.1.1 = { holder=121174355 } # Beqqo (nc)
8258.1.1 = { holder=130174355 } # Daario (nc)
8288.1.1 = { holder=134174355 } # Groleo (nc)