#House Horpe
202.1.1 = { liege="d_red_watch" }
7870.1.1 = { holder=344311 } # Robar (nc)
7877.1.1 = { holder=343311 } # Damon (nc)
7931.1.1 = { holder=341311 } # Petyr (nc)
7960.1.1 = { holder=340311 } # Manfred (nc)

7968.1.1 = { holder=3001311 } # Harlan (nc)
8002.1.1 = { holder=3000311 } # Harwood (nc)
8007.1.1 = { holder=3002311 } # Beric (nc)
8043.1.1 = { holder=3006311 } # Eldon (nc)
8061.1.1 = { holder=3007311 } # Elyn (nc)
8097.1.1 = { holder=3008311 } # Eldon (nc)
8120.1.1 = { holder=3011311 } # Gowen (nc)
8150.1.1 = { holder=3013311 } # Alyn (nc)
8173.1.1 = { holder=3018311 } # Stannis (nc)
8183.1.1 = { holder=3021311 } # Alesander (nc)
8211.1.1 = { holder=3022311 } # Galladon (nc)
8256.1.1 = { holder=3023311 } # Guyard (nc)
8274.1.1 = { holder=3024311 } # Clifford (nc)