900.1.1={ 	liege="k_braavos"}7846.1.1 = { holder=345300005 } 7864.1.1 = { holder=344300005 } 7889.1.1 = { holder=343300005 } 7907.1.1 = { holder=342300005 } 7925.1.1 = { holder=341300005 } 7955.1.1 = { holder=340300005 } 
7995.1.1 = { holder=100300005 } 
8028.1.1 = { holder=101300005 } 
8056.1.1 = { holder=106300005 } 
8084.1.1 = { holder=113300005 } 
8107.1.1 = { holder=117300005 } 
8131.1.1 = { holder=119300005 } 
8147.1.1 = { holder=126300005 } 
8158.1.1 = { holder=127300005 } 
8224.1.1 = { holder=130300005 } 
8250.1.1 = { holder=134300005 } 
8266.1.1 = { holder=135300005 } 
8297.1.1 = { holder=138300005 } 
