#House Moreland
900.1.1={
	liege="d_hornvale"
}
7849.1.1 = { holder=342209 } # Martyn (nc)
7876.1.1 = { holder=341209 } # Damon (nc)
7883.1.1 = { holder=340209 } # Gawen (nc)

7899.1.1={ holder=60400209} # Bryce (nc)
7912.1.1={ holder=60600209} # Criston (nc)
7923.1.1={ holder=60500209} # Kennoth (nc)
7928.1.1={ holder=60300209} # Prestor (nc)
7975.1.1={ holder=60200209} # Robin (nc)
7991.1.1={ holder=60000209} # Lyman (nc)
8002.1.1={ holder=11209 } # Preston (nc)
8045.1.1={ holder=13209 } # Leo (nc)
8052.1.1={ holder=14209 } # Sandor (nc)
8064.1.1={ holder=15209 } # Garrison (nc)
8070.1.1={ holder=16209 } # Lewys (nc)
8112.1.1={ holder=17209 } # Chiswyck (nc)
8147.1.1={ holder=18209 } # Hathur (nc)
8162.1.1={ holder=19209 } # Ossifer (nc)
8178.1.1={ holder=20209 } # Russell (nc)
8196.1.1={ holder=21209 } # Willit (nc)
8218.1.1={ holder=22209 } # Damon (nc)
8243.1.1={ holder=23209 } # Tion (nc)
8273.1.1={
	holder=100209 # Robin Moreland
}