#House Cressey
7600.1.1={
	liege="e_riverlands"
	law = succ_primogeniture
}
7873.1.1 = { holder=344027 } # Coland (nc)
7884.1.1 = { holder=343027 } # Qarl (nc)
7920.1.1 = { holder=342027 } # Barth (nc)
7933.1.1 = { 
	liege="e_stormlands"
}
7952.1.1 = { holder=341027 } # Malwyn (nc)
7958.1.1 = {
	liege="e_riverlands"
}
7975.1.1 = { holder=340027 } # Osney (nc)

7991.1.1 = { holder=6000027 } # Gendry (nc)
7998.2.1={
	liege="e_iron_throne"
}
8005.1.1 = { holder=6100127 } # Alaric (nc)
#8021.1.1 = { holder=6000227 } # Alys (nc)
8021.1.1 = { holder=6000727 } # Hubard (nc)
8060.1.1 = { holder=6000827 } # Malliard (nc)
8082.1.1 = { holder=6001327 } # Humfrey (nc)
8108.1.1 = { holder=6001927 } # Malliard (nc)
8146.1.1 = { holder=6102127 } # Balman (nc)
8176.1.1 = { holder=6002527 } # Florian (nc)
8193.1.1 = { holder=6002827 } # Donnel (nc)
8212.1.1 = { holder=6003227 } # Duncan (nc)
8266.1.1 = { holder=6003627 } # Belis (nc)
8281.1.1 = { holder=6003927 } # Alan (nc)

8294.1.1={
	holder = 27 	#Raynor Cressey
}