#Order of the Golden Axe
7000.1.1 = {
	liege = k_norvos
}
7884.1.1 = { holder=35369117 } # Paryos (nc)
7921.1.1 = { holder=35269117 } # Syan (nc)
7943.1.1 = { holder=35169117 } # Jorys (nc)
7971.1.1 = { holder=35069117 } # Soro (nc)

7995.1.1 = { holder=100069117 } # Jaqen (nc)
8023.1.1 = { holder=100269117 } # Ordello (nc)
8054.1.1 = { holder=100469117 } # Oro (nc)
8066.1.1 = { holder=100669117 } # Ezzelyno (nc)
8097.1.1 = { holder=100769117 } # Ferrego (nc)
8122.1.1 = { holder=101069117 } # Ezzelyno (nc)
8145.1.1 = { holder=101269117 } # Gyloro (nc)
8198.1.1 = { holder=101469117 } # Meralyn (nc)
8229.1.1 = { holder=101869117 } # Byan (nc)
8252.1.1 = { holder=102069117 } # Groleo (nc)
8284.1.1 = { holder=102169117 } # Myrmello (nc)
8286.1.1 = { holder=102569117 } # Tycho (nc)
