#House Dajani
600.1.1={
	liege="d_vahar"
}
7855.1.1 = { holder=34555941 } # Dhazim (nc)
7877.1.1 = { holder=34455941 } # Faraq (nc)
7893.1.1 = { holder=34355941 } # Osmaq (nc)
7921.1.1 = { holder=34255941 } # Sahar (nc)
7941.1.1 = { holder=34155941 } # Talam (nc)
7965.1.1 = { holder=34055941 } # Orhad (nc)

7995.1.1 = { holder=100055941 } # Jaleel (nc)
8032.1.1 = { holder=100155941 } # Youkhanna (nc)
8040.1.1 = { holder=100355941 } # Qadir (nc)
8054.1.1 = { holder=100555941 } # Sami (nc)
8130.1.1 = { holder=100655941 } # Hussayn (nc)
8144.1.1 = { holder=100955941 } # Ghalib (nc)
8173.1.1 = { holder=101355941 } # Aarif (nc)
8192.1.1 = { holder=101455941 } # Idris (nc)
8218.1.1 = { holder=101755941 } # Bakr (nc)
8257.1.1 = { holder=102155941 } # Mukhtar (nc)
8295.1.1 = { holder=102555941 } # Bahir (nc)

