#House H'Ghai
800.1.1={
	liege="d_morosh"
	law = succ_primogeniture
}
7860.1.1 = { holder=34469135 } # Caezar (nc)
7879.1.1 = { holder=34369135 } # Moro (nc)
7922.1.1 = { holder=34269135 } # Vogys (nc)
7940.1.1 = { holder=34169135 } # Joraquo (nc)
7960.1.1 = { holder=34069135 } # Gyloro (nc)

7995.1.1 = { holder=100069135 } # Pynto (nc)
8035.1.1 = { holder=100369135 } # Yorko (nc)
8053.1.1 = { holder=100769135 } # Narbo (nc)
8062.1.1 = { holder=101069135 } # Illyrio (nc)
8101.1.1 = { holder=101169135 } # Luco (nc)
8123.1.1 = { holder=101469135 } # Qarro (nc)
8135.1.1 = { holder=102169135 } # Pynto (nc)
8156.1.1 = { holder=102369135 } # Roro (nc)
8169.1.1 = { holder=102469135 } # Daario (nc)
8223.1.1 = { holder=102769135 } # Ordello (nc)
8244.1.1 = { holder=102969135 } # Terro (nc)
8278.1.1 = { holder=103169135 } # Illyrio (nc)
8319.1.1 = { holder=103569135 } # Izembaro (nc)
