202.1.1 = {
	liege="d_griffins_roost"
	law = succ_primogeniture
	law = cognatic_succession
}
#House Connington
7876.1.1 = { holder = 334316 } # Ralph (nc)
7882.1.1 = { holder = 333316 } # Jon (nc)
7911.1.1 = { holder = 332316 } # Orryn (nc)
7948.1.1 = { holder = 331316 } # Monfryd (nc)
7977.1.1 = { holder = 330316 } # Lorent (nc)

7994.1.1 = { holder = 300316 } # Lester (nc)
8012.1.1 = { holder = 301316 } # Narbert (nc)
8019.1.1 = { holder = 302316 } # Myles (nc)
8065.1.1 = { holder = 305316 } # Orys (nc)
8074.1.1 = { holder=88000393 } # Roy (C)
8093.6.1 = { holder = 306316 } # Aegon (nc)
8124.1.1 = { holder = 307316 } # Alyn (nc)
8137.1.1 = { holder = 308316 } # Jon (nc)
8172.1.1 = { holder = 309316 } # Aegon (nc)
8196.1.1 = { holder = 310316 } # Alaric (nc)
8230.1.1 = { holder = 311316 } # Renly (nc)
8237.1.1 = { holder = 100316 } # Alyn (nc)

8267.1.1 = { holder = 1316 } # Armond Connington (C)
8279.1.1 = { holder = 316 } # Jon Connington (C)

#House Baratheon
8283.1.1 = {  # Exiled by Aerys, Robert never restored this title
	holder = 317 
	liege = k_stormlands
}

#House Seaworth
8284.1.1={
	holder = 1019110 #Davos Seaworth
	liege="d_dragonstone"
}

