#House Serry
900.1.1={ law=succ_primogeniture law=cognatic_succession
	liege="e_reach"
}
7860.1.1 = { holder=3034276 } # Steffon (nc)
7872.1.1 = { holder=3033276 } # Olymer (nc)
7899.1.1 = { holder=3032276 } # Titus (nc)
7929.1.1 = { holder=3031276 } # Steffon (nc)
7956.1.1 = { holder=3030276 } # Samwell (nc)

7975.1.1 = { holder=3004276 } # Simon (nc)
7998.6.6={
	liege="k_reach"
}
8015.1.1 = { holder=3000276 } # Renly (nc)
8030.1.1 = { holder=3001276 } # Clifford (nc)
8067.1.1 = { holder=3006276 } # Leyton (nc)
8080.1.1 = { holder=3008276 } # Tommen (nc)
8097.1.1 = { holder=3009276 } # Imry (nc)
8127.1.1 = { holder=3011276 } # Franklyn (nc)
8130.1.1 = { holder=3015276 } # Jeffroy (sc)
8146.1.1 = { holder=3019276 } # Justyn (sc)
8193.1.1 = { holder=3022276 } # Audrik(sc)
8207.1.1 = { holder=3023276 } # Anslem (nc)
8256.1.1 = { holder=3025276 } # Dontos (nc)
8261.1.1={
	holder=88047 #Samwell (nc)
}
8274.1.1={
	holder=276 #Osbert # (C)
}




