6000.1.1={
	liege="e_riverlands"
	law = succ_primogeniture
}
6630.1.1={
	holder=24131
}
6666.1.1={
	holder=0
}
7912.1.1={
	holder=21131
}
7982.1.1={
	holder=20131
}
7998.2.1={
	liege="k_riverlands"
}
8003.1.1={
	holder=14131
}
8005.1.1={
	holder=13131
}
8012.1.1={
	holder=12131
}
8055.1.1={
	holder=11131
}
8064.1.1={
	holder=15131
}
8114.1.1={
	holder=9131
}
8140.1.1={
	holder=7131
}
8166.1.1={
	holder=6131
}
8181.1.1={
	holder=5131
}
8222.1.1={
	holder=4131
}
8271.1.1={
	holder=131
}