6200.1.1={
	liege="d_strongsong"
	law = succ_primogeniture
}
7830.1.1 = { holder=3032161 }
7896.1.1 = { holder=3031161 }
7906.1.1 = { holder=3030161 }
7932.1.1 = { holder=3029161 }
7968.1.1 = { holder=3028161 }
7990.1.1 = { holder=3001161 }
8016.1.1 = { holder=3000161 } # Alaric (nc)
8033.1.1 = { holder=3002161 } # Robin (nc)
8046.1.1 = { holder=3006161 } # Artys (nc)
8059.1.1 = { holder=3007161 } # Petyr (nc)
8084.1.1 = { holder=3011161 } # Benedar (nc)
8136.1.1 = { holder=3014161 } # Elys (nc)
8143.1.1 = { holder=3019161 } # Triston (nc)
8193.1.1 = { holder=3021161 } # Lyn (nc)
8198.1.1 = { holder=3024161 } # Lothor (nc)
8234.1.1={
	holder=94091
}
8279.1.1={
	holder=94028
}