600.1.1={
	law = slavery_2
	law = succ_turkish_succession
	law = agnatic_succession
}
7600.1.1 = { 
	liege = d_gogossos
}
7880.1.1 = { holder=1000353 } # Jaekar (nc)
7914.1.1 = { holder=1003353 } # Colloquo (nc)
7937.1.1 = { holder=1007353 } # Moqorro (nc)
7950.1.1 = {
	holder = 0 # Red Death
	liege = 0
}
8125.1.1 = {
	liege = k_basilisk_isles
}
8155.1.1 = {
	liege = 0
}
8300.1.1={
	liege = k_basilisk_isles
}