#House Raxos
900.1.1 = { 
	liege=d_toqolarth 
	law = succ_primogeniture
	law = cognatic_succession
	law = slavery_0
}
7866.1.1 = { holder=343350044 } # Nallor (nc)
7885.1.1 = { holder=342350044 } # Eron (nc)
7913.1.1 = { holder=341350044 } # Xaro (nc)
7930.1.1 = {
	holder = 123456 #ruin
	liege = 0 
	effect = {
		location = { set_province_flag = ca_colony_4 }
	}
}
8298.10.10 = {
	holder=77041 # Daenerys Targaryen (C)
}
8299.12.31 = {
	holder = 123456 #ruin
}

