#House Tallhart
7001.1.1={
	liege="d_winterfell"
	law = succ_primogeniture
}
7856.1.1 = { holder=344101 } # Torrhen (nc)
7870.1.1 = { holder=343101 } # Helman (nc)
7898.1.1 = { holder=342101 } # Hendry (nc)
7920.1.1 = { holder=341101 } # Brennet (nc)
7943.1.1 = { holder=340101 } # Raynard (nc)

7969.1.1 = { holder=21101 } # Torrhen (nc)
8021.1.1 = { holder=18101 } # Theon (nc) 
8032.1.1 = { holder=17101 } # Timotty (nc)
8050.1.1 = { holder=15101 } # Roger (nc)
8092.1.1 = { holder=14101 } # Mark (nc)
8121.1.1 = { holder=13101 } # Gariss (nc)
8142.1.1 = { holder=12101 } # Robett (nc)
8187.1.1 = { holder=10101 } # Tyrek (nc)
8208.1.1 = { holder=9101 } # Benfred (nc)
8230.1.1 = { holder=19101 } # Brandon (nc)
8251.1.1 = { holder=6101 }
8281.1.1 = {
	holder=101 # Helman Tallhart (C)
}
8299.9.1 = {
	holder=2101 # Eddara Tallhart (C)
}