#House Footly
900.1.1={ law=succ_primogeniture law=cognatic_succession
	liege="d_tumbleton"
}
7873.1.1 = { holder=3044248 } # Fredrec (nc)
7884.1.1 = { holder=3043248 } # Franklyn (nc)
7925.1.1 = { holder=3042248 } # Quentyn (nc)
7938.1.1 = { holder=3040248 } # Raymun (nc)

7976.1.1 = { holder=3002248 } # Franklyn (nc)
8008.1.1 = { holder=3000248 } # Hosman (nc)
8022.1.1 = { holder=3001248 } # Branston (nc)
8057.1.1 = { holder=3004248 } # Canther (nc)
8074.1.1 = { holder=3007248 } # Erryk (nc)
8103.1.1 = { holder=3010248 } # Mark (nc)
8120.1.1 = { holder=3015248 } # Dermett (nc)
8130.5.1 = { holder=3016248 } # Edger (nc)
8190.1.1 = { holder=3020248 } # Gormon (nc)
8210.1.1 = { holder=3021248 } # Runceford (nc)
8244.1.1 = { holder=3026248 } # Hosman (nc)
8270.1.1={
	holder=248 #Dontos (nc)
}




