#House Larghaz
7000.1.1 = {
	liege = k_hazdahn
}
7855.1.1 = { holder=34569120 } # Yardhar (nc)
7878.1.1 = { holder=34469120 } # Korghaz (nc)
7900.1.1 = { holder=34369120 } # Liznuq (nc)
7922.1.1 = { holder=34269120 } # Korghan (nc)
7970.1.1 = { holder=34169120 } # Yurkhaz (nc)
7980.1.1 = { holder=34069120 } # Omdhaz (nc)

7995.1.1 = { holder=10069120 } # Miklaz (nc)

#Dothraki
8015.1.1 = {
	liege = d_sarnath
	holder=101600216 # Fono (nc)
}
8026.1.1 = { holder=103600216 } # Fogo (nc)
8051.1.1 = { holder=105600216 } # Zekko (nc)
8072.1.1 = { holder=106600216 } # Tihho (nc)
8112.1.1 = { holder=110600216 } # Qano (nc)
8121.1.1 = { holder=114600216 } # Quaro (nc)
8177.1.1 = { holder=115600216 } # Mago (nc)
8186.1.1 = { holder=118600216 } # Tokko (nc)
8203.1.1 = { holder=120600216 } # Tokko (nc)
8252.1.1 = { holder=123600216 } # Tihho (nc)
8260.1.1 = { holder=124600216 } # Temmo (nc)
8289.1.1 = { holder=125600216 } # Ogo (c)
8298.9.10 = { holder=128600216 } # Aggo (nc)