#d_fair_isle
5390.1.1 = {
	holder=150194 #Gylbert farman (C)
}
5415.1.1 = {
	holder=0
}
6736.1.1 = { holder=152194 } # Gylbert (nc)
6770.1.1 = {
	liege=e_westerlands #conquered
}
6778.1.1 = {
	holder=0
}
7851.1.1 = { holder=344194 } # Lyndon (nc)
7863.1.1 = { holder=343194 } # Rafford (nc)
7885.1.1 = { holder=342194 } # Damon (nc)
7910.1.1 = { holder=341194 } # Marq (nc)
7931.1.1 = { holder=340194 } # Leo (nc)

7955.1.1 = { holder=155194 } # Gylbert (nc)
7982.1.1 = { holder=156194 } # Gyles (nc)
7995.1.1 = { holder=310194 } # Robert (nc)
7998.7.6 = {
	liege="k_westerlands"
}
8043.1.2={
	holder=309194 # Marq Farman (C)
}
8050.1.15= {	
	holder=308194 # Franklyn Farman (C)
}
8088.1.1 = { holder=307194 } # Humfrey (nc)
8104.1.1 = { holder=306194 } # Androw (nc)

8131.1.1 = { holder=305194 } # Lyndon (sc)
8177.1.1 = { holder=303194 } # Orbert (sc)

8196.6.1 = { holder=302194 } # Tommen (nc)
8231.1.1 = { holder=301194 } # Damon (nc)
8251.1.1 = { holder=300194 } # Willem (nc)
8262.1.1 = {	
	holder=194
}
8295.1.1 = {	
	holder=2194 #Sebaston Farman (C)
}