#House Pathak
5214.1.1={
	liege="k_sarnor"
	law = succ_primogeniture
}
7809.1.1 = { holder=10056811 } # Ishwar (nc)
7831.1.1 = { holder=10156811 } # Nayan (nc)
7836.1.1 = { holder=10356811 } # Avilash (nc)
7874.1.1 = { holder=10556811 } # Ganesh (nc)
7911.1.1 = { holder=11056811 } # Rathin (nc)
7933.1.1 = { holder = 10156822 } #Vishruth, Last King of Gornath

7948.1.1 = {
	holder = 0
	liege = 0 
	effect = {
		c_10156822 = {
			set_government_type = feudal_government #so its shown in history correctly
			remove_trait = dead_target
		}
	}
} 
