#d_gold_road
900.1.1={ liege = "e_westerlands" }
7804.1.1 = {holder=157217}
7861.1.1 = {holder=156217}
7888.1.1 = {holder=155217}
7910.1.1 = {holder=154217}
7942.1.1 = {holder=153217}
7965.1.1 = {holder=151217}
7979.1.1 = {holder=152217}
7995.1.1 = {holder=20217}
7998.7.6 = {
	liege="k_westerlands"
}
8032.1.1 = {holder=19217}
8068.1.1 = {holder=18217}
8085.1.1 = {holder=17217}
8109.1.1 = {holder=16217}
8120.1.1 = {holder=15217}
8147.1.1 = {holder=14217}
8179.1.1 = {holder=13217}
8184.1.1 = {holder=12217}
8196.5.5 = {holder=11217}
8245.1.1 = {holder=10217}
8267.1.1 = {holder=1217}
8281.1.1 = {holder=217}