6200.1.1={
	law = succ_primogeniture
	liege="k_gulltownTK"
}
#House Shett
6401.1.1 = { holder=100185 } # Osgood (nc)
6434.1.1 = { holder=101185 } # Osgood (nc)
6450.1.1 = { holder=102185 } # Osgood (nc)

#House Grafton
6480.1.1 = { holder=550186 } # Gerold # andal warlord
6514.1.1 = { holder=553186 } # Gerold 
6536.1.1 = { holder = 0 }
6539.1.1 = { liege="e_vale" }
7820.1.1 = { holder=3600186 }
7881.1.1 = { holder=3500186 }
7890.1.1 = { holder=3400186 }
7920.1.1 = { holder=3300186 }
7945.1.1 = { holder=3100186 }
7970.1.1 = { holder=3201186 }
7996.1.1 = { holder=3000186 }
7999.1.1={ 
	liege="k_vale"
} 
8022.1.1 = { holder=3002186 } # Jaime (nc)
8036.1.1 = { holder=3003186 } # Steffon (nc)
8087.1.1 = { holder=3005186 } # Franklyn (nc)
8112.1.1 = { holder=3008186 } # Dafyn (nc)
8122.1.1 = { holder=3011186 } # Illifer (nc)
8144.1.1 = { holder=3013186 } # Criston (nc)
8172.1.1 = { holder=3020186 } # Marq (nc)
8176.1.1 = { holder=3021186 } # Colmar (nc)
8216.1.1 = { holder=3025186 } # Dafyn (nc)

8248.1.1={
	holder=94064
}
8282.9.15 = { liege=0 } # RR
8282.12.12={
	holder=94065
}
8284.1.1={
	liege="k_vale"
}