1000.1.1 = { 
	law=succ_primogeniture 
	law=cognatic_succession
}
7835.1.1 = { holder=340306009 } # Quhuru (nc)
7870.1.1 = { holder=341306009 } # Bapato (nc)
7886.1.1 = { holder=342306009 } # Doshura (nc)
7906.1.1 = { holder=343306009 } # Bapato (nc)
7965.1.1 = { holder=344306009 } # Uda (nc)
7974.1.1 = { holder=100306009 } # Isingodo (nc)
8009.1.1 = { holder=108306009 } # Jalabhar (nc)
8044.1.1 = { holder=111306009 } # Olujondo (nc)
8067.1.1 = { holder=118306009 } # Qubhar (nc)
8089.1.1 = { holder=119306009 } # Jalahuru (nc)
8131.1.1 = { holder=121306009 } # Gatubhar (nc)
8137.1.1 = { holder=127306009 } # Delmabhar (nc)
8179.1.1 = { holder=130306009 } # Kwasdo (nc)
8199.1.1 = { holder=132306009 } # Xhakan (nc)
8241.1.1 = { holder=136306009 } # Xhoan (nc)
8260.1.1 = { holder=140306009 } # Makhan (nc)
8273.1.1 = { holder=142306009 } # Konde (nc)
