#House Ryswell
6000.1.1={
	liege="e_north"
	law = succ_primogeniture
}
7840.1.1 = { holder=343068 } # Rickard (nc)
7907.1.1 = { holder=341068 } # Willam (nc)
7955.1.1 = { holder=340068 } # Roger (nc)

7973.1.1 = { holder=20068 } # Ramsay (nc)
7999.1.1={
	liege="k_north"
}
8013.1.1 = { holder=19068 } # Roose (nc)
8023.1.1 = { holder=18068 } # Domeric (nc)
8032.1.1 = { holder=17068 } # Theon (nc)
8071.1.1 = { holder=16068 } # Jeor (nc)
8091.1.1 = { holder=15068 } # Brandon (nc)
8128.1.1 = { holder=14068 } # Cley (nc)
8144.1.1 = { holder=13068 } # Cavan (sc)
8172.1.1 = { holder=12068 } # Devyn (sc)
8201.1.1 = { holder=11068 } # Osric (nc)
8221.1.1={
	holder = 10068
}
8250.1.1={
	holder = 10168
}
8255.1.1={
	holder = 68
}
