#House Juthani
5214.1.1={
	liege="k_sarnor"
	law = succ_primogeniture
}
7809.1.1 = { holder=10056819 } # Etash (nc)
7834.1.1 = { holder=10156819 } # Balavant (nc)
7851.1.1 = { holder=10356819 } # Manish (nc)
7876.1.1 = { holder=10856819 } # Balavant (nc)
7909.1.1 = { holder=11256819 } # Nitish (nc)
7945.1.1 = { holder=11656819 } # Lakshan (nc)
7969.1.1 = { holder=12056819 } # Ranak (nc)
7975.1.1 = {
	liege = 0
}
7976.1.1 = { holder=0 }
