#House Jaluru
7800.1.1 = {
	law = succ_seniority
	law = cognatic_succession
}
7868.1.1 = { holder=340304023 } # Tumco (nc)
7885.1.1 = { holder=341304023 } # Xara (nc)
7914.1.1 = { holder=342304023 } # Mermesbhar (nc)
7954.1.1 = { holder=343304023 } # Koroxhar (nc)
7973.1.1 = { holder=100304023 } # Xhoan (nc)
7990.1.1 = { holder=101304023 } # Udo (nc)
8021.1.1 = { holder=106304023 } # Gatubhar (nc)
8030.1.1 = { holder=109304023 } # Chibundo (nc)
8044.1.1 = { holder=111304023 } # Bapato (nc)
8080.1.1 = { holder=116304023 } # Manahuru (nc)
8091.1.1 = { holder=118304023 } # Odingaxho (nc)
8101.1.1 = { holder=119304023 } # Koroxhar (nc)
8115.1.1 = { holder=125304023 } # Konde (nc)
8137.1.1 = { holder=127304023 } # Jalabhar (nc)
8200.1.1 = { holder=133304023 } # Doshuru (nc)
8204.1.1 = { holder=138304023 } # Mermesbhar (nc)
8230.1.1 = { holder=140304023 } # Thabo (nc)
8269.1.1 = { holder=142304023 } # Kwasdo (nc)
8290.1.1 = { holder=146304023 } # Xhelimo (nc)
