6000.1.1={
	liege="e_riverlands"
}
7830.1.1={
	holder=44152
}
7880.1.1={
	holder=43152
}
7905.1.1={
	holder=42152
}
7930.1.1={
	holder=41152
}
7960.1.1={
	holder=40152
}
7980.1.1={
	holder=25152
}
7998.2.1={
	liege="k_riverlands"
}
8003.1.1={
	holder=24152
}
8029.1.1={
	holder=23152
}
8060.1.1={
	holder=21152
}
8094.1.1={
	holder=20152 # Androw Ryger
}
8121.1.1={
	holder=5500152 # Roger Ryger
}
8131.2.7={
	holder=17152 # Terin Ryger
}
8186.1.1={
	holder=16152
}
8216.1.1={
	holder=14152
}
8241.1.1={
	holder=13152
}
8274.1.1={
	holder=152
}
8282.9.15={ 
	liege=0
}
8283.6.1={
	holder=0 #Rygers stripped of power
}
