623.1.1={
	law = succ_primogeniture
	law = agnatic_succession
	law = centralization_1
	law = slavery_3
	law = first_night_1
}
2917.1.1 = { holder = 5001508 } #Urras  Greyiron
2942.1.1 = { holder = 5011508 } #Erich I Greyiron
2943.1.1 = { holder = 5011121 } #Regnar  Drumm
2956.1.1 = { holder = 5021508 } #Theon I Greyiron (nc)
2993.1.1 = { holder = 354066 } #Sylas  
3009.1.1 = { holder = 5031508 } #Balon I Greyiron (nc)
3034.1.1 = { holder = 0 }

3487.1.1 = { holder = 355066 } #Harrag  Hoare
3519.1.1 = { holder = 357066 } #Erich II Hoare
3545.1.1 = { holder = 5041508 } #Urrathon I Greyiron (nc)
3556.1.1 = { holder = 5051508 } #Urrathon II Greyiron (nc)
3578.1.1 = { holder = 500107 } #Loron  Greyjoy
3632.1.1 = { holder = 501107 } #Theon II Greyjoy (nc)
3638.1.1 = { holder = 5061508 } #Urragon I Greyiron (nc)
3658.1.1 = { holder = 502107 } #Balon II Greyjoy (nc)
3670.1.1 = { holder = 358066 } #Qhored  Hoare
3745.1.1 = { holder = 0 }

4159.1.1 = { holder = 5071508 } #Balon III Greyiron (nc)
4177.1.1 = { holder = 5081508 } #Erich III Greyiron (nc)
4216.1.1 = { holder = 5091508 } #Rognar I Greyiron (nc)
4230.1.1 = { holder = 503107 } #Theon III Greyjoy
4238.1.1 = { holder = 5101508 } #Erich IV Greyiron (nc)
4278.1.1 = { holder = 5111508 } #Urrathon III Greyiron (nc)
4287.1.1 = { holder = 504107 } #Balon IV Greyjoy (nc)
4303.1.1 = { holder = 505107 } #Balon V Greyjoy
4337.1.1 = { holder = 500122 } #Erich V Harlaw
4376.1.1 = { holder = 501122 } #Harron  Harlaw
4393.1.1 = {
	holder = 500118 # Joron Blacktyde
}
4449.1.1 = {
	holder = 0
}
4978.1.1 = { holder = 506107 } #Balon VI Greyjoy (nc)
5014.1.1 = { holder = 5241508 } #Urragon II Greyiron (nc)
5043.1.1 = { holder = 5121508 } #Urragon III Greyiron
5087.1.1 = { holder = 550112 } #Urrathon IV Goodbrother
5089.1.1 = { holder = 5131508 } #Torgon  Greyiron
5129.1.1 = { holder = 5171508 } #Urragon IV Greyiron

5181.1.1 = { 
	holder = 5201508  #Urron  Greyiron
	law = succ_primogeniture
} 
5203.1.1 = { holder = 0 }
