###  House Erosenes

150300540 = {
	name="Groleo"	# a lord
	dynasty=55925

	religion="weeping_lady"
	culture="lysene"

	7564.1.1 = {birth="7564.1.1"}
	7582.1.1 = {add_spouse=250300540}
	7625.1.1 = {death="7625.1.1"}
}
250300540 = {
	name="Bellonara"
	female=yes

	religion="weeping_lady"
	culture="lysene"

	7566.1.1 = {birth="7566.1.1"}
	7623.1.1 = {death="7623.1.1"}
}
100300540 = {
	name="Allequo"	# a lord
	dynasty=55925

	religion="weeping_lady"
	culture="lysene"

	father=150300540
	mother=250300540

	7583.1.1 = {birth="7583.1.1"}
	7618.1.1 = {add_trait=poor_warrior}
	7620.1.1 = {add_spouse=200300540}
	7656.1.1 = {death="7656.1.1"}
}
200300540 = {
	name="Bellonara"
	female=yes

	religion="weeping_lady"
	culture="lysene"

	7583.1.1 = {birth="7583.1.1"}
	7656.1.1 = {death="7656.1.1"}
}
101300540 = {
	name="Collio"	# a lord
	dynasty=55925

	religion="weeping_lady"
	culture="lysene"

	father=100300540
	mother=200300540

	7621.1.1 = {birth="7621.1.1"}
	7637.1.1 = {add_trait=poor_warrior}
	7639.1.1 = {add_spouse=201300540}
	7661.1.1 = {death="7661.1.1"}
}
201300540 = {
	name="Ferrega"
	female=yes

	religion="weeping_lady"
	culture="lysene"

	7621.1.1 = {birth="7621.1.1"}
	7661.1.1 = {death="7661.1.1"}
}
102300540 = {
	name="Ferrega"	# not a lord
	female=yes
	dynasty=55925

	religion="weeping_lady"
	culture="lysene"

	father=100300540
	mother=200300540

	7622.1.1 = {birth="7622.1.1"}
	7665.1.1 = {death="7665.1.1"}
}
103300540 = {
	name="Denia"	# not a lord
	female=yes
	dynasty=55925

	religion="weeping_lady"
	culture="lysene"

	father=100300540
	mother=200300540

	7623.1.1 = {birth="7623.1.1"}
	7664.1.1 = {death="7664.1.1"}
}
104300540 = {
	name="Yorka"	# not a lord
	female=yes
	dynasty=55925

	religion="weeping_lady"
	culture="lysene"

	father=101300540
	mother=201300540

	7644.1.1 = {birth="7644.1.1"}
	7692.1.1 = {death = {death_reason = death_accident}}
}
105300540 = {
	name="Lothea"	# not a lord
	female=yes
	dynasty=55925

	religion="weeping_lady"
	culture="lysene"

	father=101300540
	mother=201300540

	7645.1.1 = {birth="7645.1.1"}
	7702.1.1 = {death="7702.1.1"}
}
106300540 = {
	name="Alia"	# not a lord
	female=yes
	dynasty=55925

	religion="weeping_lady"
	culture="lysene"

	father=101300540
	mother=201300540

	7647.1.1 = {birth="7647.1.1"}
	7710.1.1 = {death="7710.1.1"}
}
107300540 = {
	name="Syrio"	# a lord
	dynasty=55925

	religion="weeping_lady"
	culture="lysene"

	father=101300540
	mother=201300540

	7648.1.1 = {birth="7648.1.1"}
	7664.1.1 = {add_trait=trained_warrior}
	7666.1.1 = {add_spouse=207300540}
	7698.1.1 = {death="7698.1.1"}
}
207300540 = {
	name="Rogga"
	female=yes

	religion="weeping_lady"
	culture="lysene"

	7648.1.1 = {birth="7648.1.1"}
	7698.1.1 = {death="7698.1.1"}
}
108300540 = {
	name="Serenei"	# not a lord
	female=yes
	dynasty=55925

	religion="weeping_lady"
	culture="lysene"

	father=101300540
	mother=201300540

	7650.1.1 = {birth="7650.1.1"}
	7703.1.1 = {death="7703.1.1"}
}
110300540 = {
	name="Pynto"	# a lord
	dynasty=55925

	religion="weeping_lady"
	culture="lysene"

	father=107300540
	mother=207300540

	7668.1.1 = {birth="7668.1.1"}
	7684.1.1 = {add_trait=trained_warrior}
	7686.1.1 = {add_spouse=210300540}
	7719.1.1 = {death="7719.1.1"}
}
210300540 = {
	name="Taena"
	female=yes

	religion="weeping_lady"
	culture="lysene"

	7668.1.1 = {birth="7668.1.1"}
	7719.1.1 = {death="7719.1.1"}
}
111300540 = {
	name="Khorane"	# a lord
	dynasty=55925

	religion="weeping_lady"
	culture="lysene"

	father=107300540
	mother=207300540

	7682.1.1 = {birth="7682.1.1"}
	7698.1.1 = {add_trait=trained_warrior}
	7710.1.1 = {add_spouse=211300540}
	7723.1.1 = {death="7723.1.1"}
}
211300540 = {
	name="Lucerre"
	female=yes

	religion="weeping_lady"
	culture="lysene"

	7682.1.1 = {birth="7682.1.1"}
	7723.1.1 = {death="7723.1.1"}
}
112300540 = {
	name="Gyleno"	# not a lord
	dynasty=55925

	religion="weeping_lady"
	culture="lysene"

	father=107300540
	mother=207300540

	7684.1.1 = {birth="7684.1.1"}
	7710.1.1 = {add_trait=poor_warrior}
	7712.1.1 = {add_spouse=212300540}
	7753.1.1 = {death="7753.1.1"}
}
212300540 = {
	name="Lothea"
	female=yes

	religion="weeping_lady"
	culture="lysene"

	7684.1.1 = {birth="7684.1.1"}
	7753.1.1 = {death="7753.1.1"}
}
113300540 = {
	name="Gylono"	# a lord
	dynasty=55925

	religion="weeping_lady"
	culture="lysene"

	father=111300540
	mother=211300540

	7714.1.1 = {birth="7714.1.1"}
	7730.1.1 = {add_trait=trained_warrior}
	7732.1.1 = {add_spouse=213300540}
	7765.1.1 = {death="7765.1.1"}
}
213300540 = {
	name="Nohia"
	female=yes

	religion="weeping_lady"
	culture="lysene"

	7714.1.1 = {birth="7714.1.1"}
	7765.1.1 = {death="7765.1.1"}
}
115300540 = {
	name="Betharios"	# not a lord
	female=yes
	dynasty=55925

	religion="weeping_lady"
	culture="lysene"

	father=111300540
	mother=211300540

	7716.1.1 = {birth="7716.1.1"}
	7775.1.1 = {death="7775.1.1"}
}
116300540 = {
	name="Moredea"	# not a lord
	female=yes
	dynasty=55925

	religion="weeping_lady"
	culture="lysene"

	father=113300540
	mother=213300540

	7734.1.1 = {birth="7734.1.1"}
	7785.1.1 = {death="7785.1.1"}
}
117300540 = {
	name="Joss"	# a lord
	dynasty=55925

	religion="weeping_lady"
	culture="lysene"

	father=113300540
	mother=213300540

	7735.1.1 = {birth="7735.1.1"}
	7751.1.1 = {add_trait=master_warrior}
	7753.1.1 = {add_spouse=217300540}
	7808.1.1 = {death="7808.1.1"}
}
217300540 = {
	name="Yna"
	female=yes

	religion="weeping_lady"
	culture="lysene"

	7735.1.1 = {birth="7735.1.1"}
	7808.1.1 = {death="7808.1.1"}
}
118300540 = {
	name="Torma"	# not a lord
	female=yes
	dynasty=55925

	religion="weeping_lady"
	culture="lysene"

	father=117300540
	mother=217300540

	7755.1.1 = {birth="7755.1.1"}
	7807.1.1 = {death="7807.1.1"}
}
119300540 = {
	name="Orbela"	# not a lord
	female=yes
	dynasty=55925

	religion="weeping_lady"
	culture="lysene"

	father=117300540
	mother=217300540

	7757.1.1 = {birth="7757.1.1"}
	7824.1.1 = {death="7824.1.1"}
}
120300540 = {
	name="Serala"	# not a lord
	female=yes
	dynasty=55925

	religion="weeping_lady"
	culture="lysene"

	father=117300540
	mother=217300540

	7759.1.1 = {birth="7759.1.1"}
	7816.1.1 = {death="7816.1.1"}
}
121300540 = {
	name="Tagganaro"	# a lord
	dynasty=55925

	religion="weeping_lady"
	culture="lysene"

	father=117300540
	mother=217300540

	7762.1.1 = {birth="7762.1.1"}
	7778.1.1 = {add_trait=poor_warrior}
	7780.1.1 = {add_spouse=221300540}
	7839.1.1 = {death="7839.1.1"}
}
221300540 = {
	name="Ferrega"
	female=yes

	religion="weeping_lady"
	culture="lysene"

	7762.1.1 = {birth="7762.1.1"}
	7839.1.1 = {death="7839.1.1"}
}
122300540 = {
	name="Jaqea"	# not a lord
	female=yes
	dynasty=55925

	religion="weeping_lady"
	culture="lysene"

	father=117300540
	mother=217300540

	7764.1.1 = {birth="7764.1.1"}
	7805.1.1 = {death="7805.1.1"}
}
124300540 = {
	name="Brusco"	# a lord
	dynasty=55925

	religion="weeping_lady"
	culture="lysene"

	father=121300540
	mother=221300540

	7790.1.1 = {birth="7790.1.1"}
	7806.1.1 = {add_trait=poor_warrior}
	7808.1.1 = {add_spouse=224300540}
	7854.1.1 = {death="7854.1.1"}
}
224300540 = {
	name="Taena"
	female=yes

	religion="weeping_lady"
	culture="lysene"

	7790.1.1 = {birth="7790.1.1"}
	7854.1.1 = {death="7854.1.1"}
}
125300540 = {
	name="Ternesia"	# not a lord
	female=yes
	dynasty=55925

	religion="weeping_lady"
	culture="lysene"

	father=121300540
	mother=221300540

	7792.1.1 = {birth="7792.1.1"}
	7869.1.1 = {death="7869.1.1"}
}
126300540 = {
	name="Betharios"	# not a lord
	female=yes
	dynasty=55925

	religion="weeping_lady"
	culture="lysene"

	father=121300540
	mother=221300540

	7795.1.1 = {birth="7795.1.1"}
	7852.1.1 = {death="7852.1.1"}
}
127300540 = {
	name="Ternesio"	# a lord
	dynasty=55925

	religion="weeping_lady"
	culture="lysene"

	father=124300540
	mother=224300540

	7818.1.1 = {birth="7818.1.1"}
	7834.1.1 = {add_trait=trained_warrior}
	7836.1.1 = {add_spouse=227300540}
	7870.1.1 = {death = {death_reason = death_accident}}
}
227300540 = {
	name="Syrea"
	female=yes

	religion="weeping_lady"
	culture="lysene"

	7818.1.1 = {birth="7818.1.1"}
	7862.1.1 = {death="7862.1.1"}
}
128300540 = {
	name="Allaquo"	# not a lord
	dynasty=55925
	
	martial = 10

	religion="weeping_lady"
	culture="lysene"

	father=124300540
	mother=224300540
	
	add_trait = ambitious

	7821.1.1 = {birth="7821.1.1"}
	7837.1.1 = {add_trait=trained_warrior}
	7873.1.1 = {death="7873.1.1"}
}
129300540 = {
	name="Ternesia"	# not a lord
	female=yes
	dynasty=55925

	religion="weeping_lady"
	culture="lysene"

	father=127300540
	mother=227300540

	7836.1.1 = {birth="7836.1.1"}
	7879.1.1 = {death = {death_reason = death_accident}}
}
2003994 = {
	name="Orbello"
	dynasty=55925 

	culture="lysene"
	religion="weeping_lady"

	father=127300540
	mother=227300540

	7859.1.1 = {birth="7859.1.1"}
	7881.1.1 = {add_spouse=21003994}
}
21003994 = {
	name="Taeneyrs"
	female=yes

	culture="lysene"
	religion="weeping_lady"

	7859.1.1 = {birth="7859.1.1"}
}
2013994 = {
	name="Tregar"
	dynasty=55925 

	culture="lysene"
	religion="weeping_lady"

	father=2003994
	mother=21003994

	7884.1.1 = {birth="7884.1.1"}
}
2023994 = {
	name="Sharako"
	dynasty=55925 

	culture="lysene"
	religion="weeping_lady"

	father=2003994
	mother=21003994

	7888.1.1 = {birth="7888.1.1"}
}
###  House Ormollen

11001386 = {
	name="Doniphos"	# a lord
	dynasty=1386

	religion="weeping_lady"
	culture="lysene"

	7559.1.1 = {birth="7559.1.1"}
	7575.1.1 = {add_spouse=21001386}
	7627.1.1 = {death="7627.1.1"}
}
21001386 = {
	name="Serenie"
	female=yes

	religion="weeping_lady"
	culture="lysene"

	7564.1.1 = {birth="7564.1.1"}
	7629.1.1 = {death="7629.1.1"}
}
10001386 = {
	name="Sullhiem"	# a lord
	dynasty=1386

	religion="weeping_lady"
	culture="lysene"

	father=11001386
	mother=21001386

	7584.1.1 = {birth="7584.1.1"}
	7616.1.1 = {add_trait=poor_warrior}
	7618.1.1 = {add_spouse=20001386}
	7663.1.1 = {death="7663.1.1"}
}
20001386 = {
	name="Terrios"
	female=yes

	religion="weeping_lady"
	culture="lysene"

	7584.1.1 = {birth="7584.1.1"}
	7663.1.1 = {death="7663.1.1"}
}
10011386 = {
	name="Lothea"	# not a lord
	female=yes
	dynasty=1386

	religion="weeping_lady"
	culture="lysene"

	father=10001386
	mother=20001386

	7622.1.1 = {birth="7622.1.1"}
	7672.1.1 = {death="7672.1.1"}
}
10021386 = {
	name="Tagganaro"	# a lord
	dynasty=1386

	religion="weeping_lady"
	culture="lysene"

	father=10001386
	mother=20001386

	7624.1.1 = {birth="7624.1.1"}
	7640.1.1 = {add_trait=poor_warrior}
	7666.1.1 = {death="7666.1.1"}
}
10031386 = {
	name="Luco"	# not a lord
	dynasty=1386

	religion="weeping_lady"
	culture="lysene"

	father=10001386
	mother=20001386

	7626.1.1 = {birth="7626.1.1"}
	7642.1.1 = {add_trait=poor_warrior}
	7644.1.1 = {add_spouse=20031386}
	7667.1.1 = {death="7667.1.1"}
}
20031386 = {
	name="Betharios"
	female=yes

	religion="weeping_lady"
	culture="lysene"

	7626.1.1 = {birth="7626.1.1"}
	7667.1.1 = {death="7667.1.1"}
}
10041386 = {
	name="Cossoma"	# not a lord
	female=yes
	dynasty=1386

	religion="weeping_lady"
	culture="lysene"

	father=10001386
	mother=20001386

	7629.1.1 = {birth="7629.1.1"}
	7680.1.1 = {death="7680.1.1"}
}
10051386 = {
	name="Lucerre"	# not a lord
	female=yes
	dynasty=1386

	religion="weeping_lady"
	culture="lysene"

	father=10031386
	mother=20031386

	7651.1.1 = {birth="7651.1.1"}
	7731.1.1 = {death="7731.1.1"}
}
10061386 = {
	name="Qarro"	# a lord
	dynasty=1386

	religion="weeping_lady"
	culture="lysene"

	father=10031386
	mother=20031386

	7652.1.1 = {birth="7652.1.1"}
	7668.1.1 = {add_trait=poor_warrior}
	7670.1.1 = {add_spouse=20061386}
	7712.1.1 = {death="7712.1.1"}
}
20061386 = {
	name="Izembara"
	female=yes

	religion="weeping_lady"
	culture="lysene"

	7652.1.1 = {birth="7652.1.1"}
	7712.1.1 = {death="7712.1.1"}
}
10071386 = {
	name="Terrios"	# not a lord
	female=yes
	dynasty=1386

	religion="weeping_lady"
	culture="lysene"

	father=10031386
	mother=20031386

	7654.1.1 = {birth="7654.1.1"}
	7696.1.1 = {death="7696.1.1"}
}
10081386 = {
	name="Joss"	# not a lord
	dynasty=1386

	religion="weeping_lady"
	culture="lysene"

	father=10031386
	mother=20031386

	7655.1.1 = {birth="7655.1.1"}
	7671.1.1 = {add_trait=poor_warrior}
	7704.1.1 = {death="7704.1.1"}
}
10091386 = {
	name="Gylenios"	# not a lord
	female=yes
	dynasty=1386

	religion="weeping_lady"
	culture="lysene"

	father=10061386
	mother=20061386

	7670.1.1 = {birth="7670.1.1"}
	7717.1.1 = {death="7717.1.1"}
}
10101386 = {
	name="Lysono"	# a lord
	dynasty=1386

	religion="weeping_lady"
	culture="lysene"

	father=10061386
	mother=20061386

	7671.1.1 = {birth="7671.1.1"}
	7687.1.1 = {add_trait=trained_warrior}
	7689.1.1 = {add_spouse=20101386}
	7728.1.1 = {death="7728.1.1"}
}
20101386 = {
	name="Myrmellios"
	female=yes

	religion="weeping_lady"
	culture="lysene"

	7671.1.1 = {birth="7671.1.1"}
	7728.1.1 = {death="7728.1.1"}
}
10111386 = {
	name="Myrmellios"	# not a lord
	female=yes
	dynasty=1386

	religion="weeping_lady"
	culture="lysene"

	father=10061386
	mother=20061386

	7674.1.1 = {birth="7674.1.1"}
	7730.1.1 = {death="7730.1.1"}
}
10121386 = {
	name="Terro"	# not a lord
	dynasty=1386

	religion="weeping_lady"
	culture="lysene"

	father=10101386
	mother=20101386

	7692.1.1 = {birth="7692.1.1"}
	7706.1.1 = {death="7706.1.1"}
}
10131386 = {
	name="Roggo"	# a lord
	dynasty=1386

	religion="weeping_lady"
	culture="lysene"

	father=10101386
	mother=20101386

	7704.1.1 = {birth="7704.1.1"}
	7720.1.1 = {add_trait=trained_warrior}
	7722.1.1 = {add_spouse=20131386}
	7762.1.1 = {death="7762.1.1"}
}
20131386 = {
	name="Serra"
	female=yes

	religion="weeping_lady"
	culture="lysene"

	7704.1.1 = {birth="7704.1.1"}
	7762.1.1 = {death="7762.1.1"}
}
10141386 = {
	name="Ollo"	# not a lord
	dynasty=1386

	religion="weeping_lady"
	culture="lysene"

	father=10101386
	mother=20101386

	7706.1.1 = {birth="7706.1.1"}
	7722.1.1 = {add_trait=trained_warrior}
	7784.1.1 = {death="7784.1.1"}
}
10151386 = {
	name="Terro"	# not a lord
	dynasty=1386

	religion="weeping_lady"
	culture="lysene"

	father=10101386
	mother=20101386

	7707.1.1 = {birth="7707.1.1"}
	7723.1.1 = {add_trait=trained_warrior}
	7745.1.1 = {death = {death_reason = death_battle}}
}
10161386 = {
	name="Brea"	# not a lord
	female=yes
	dynasty=1386

	religion="weeping_lady"
	culture="lysene"

	father=10131386
	mother=20131386

	7735.1.1 = {birth="7735.1.1"}
	7772.1.1 = {death="7772.1.1"}
}
10171386 = {
	name="Gyleno"	# a lord
	dynasty=1386

	religion="weeping_lady"
	culture="lysene"

	father=10131386
	mother=20131386

	7737.1.1 = {birth="7737.1.1"}
	7753.1.1 = {add_trait=trained_warrior}
	7755.1.1 = {add_spouse=20171386}
	7797.1.1 = {death="7797.1.1"}
}
20171386 = {
	name="Jaqea"
	female=yes

	religion="weeping_lady"
	culture="lysene"

	7737.1.1 = {birth="7737.1.1"}
	7797.1.1 = {death="7797.1.1"}
}
10181386 = {
	name="Narbo"	# not a lord
	dynasty=1386

	religion="weeping_lady"
	culture="lysene"

	father=10131386
	mother=20131386

	7738.1.1 = {birth="7738.1.1"}
	7754.1.1 = {add_trait=poor_warrior}
	7756.1.1 = {add_spouse=20181386}
	7793.1.1 = {death="7793.1.1"}
}
20181386 = {
	name="Qarria"
	female=yes

	religion="weeping_lady"
	culture="lysene"

	7738.1.1 = {birth="7738.1.1"}
	7793.1.1 = {death="7793.1.1"}
}
10191386 = {
	name="Jaqen"	# not a lord
	dynasty=1386

	religion="weeping_lady"
	culture="lysene"

	father=10131386
	mother=20131386

	7739.1.1 = {birth="7739.1.1"}
	7755.1.1 = {add_trait=master_warrior}
	7757.1.1 = {add_spouse=20191386}
	7812.1.1 = {death="7812.1.1"}
}
20191386 = {
	name="Orios"
	female=yes

	religion="weeping_lady"
	culture="lysene"

	7739.1.1 = {birth="7739.1.1"}
	7812.1.1 = {death="7812.1.1"}
}
10201386 = {
	name="Ternesio"	# not a lord
	dynasty=1386

	religion="weeping_lady"
	culture="lysene"

	father=10171386
	mother=20171386

	7755.1.1 = {birth="7755.1.1"}
	7771.1.1 = {add_trait=poor_warrior}
	7796.1.1 = {death="7796.1.1"}
}
10211386 = {
	name="Jaqen"	# not a lord
	dynasty=1386

	religion="weeping_lady"
	culture="lysene"

	father=10171386
	mother=20171386

	7757.1.1 = {birth="7757.1.1"}
	7773.1.1 = {add_trait=poor_warrior}
	7795.1.1 = {death = {death_reason = death_murder}}
}
10221386 = {
	name="Gylora"	# not a lord
	female=yes
	dynasty=1386

	religion="weeping_lady"
	culture="lysene"

	father=10171386
	mother=20171386

	7768.1.1 = {birth="7768.1.1"}
	7792.1.1 = {death="7792.1.1"}
}
10231386 = {
	name="Collio"	# a lord
	dynasty=1386

	religion="weeping_lady"
	culture="lysene"

	father=10171386
	mother=20171386

	7770.1.1 = {birth="7770.1.1"}
	7786.1.1 = {add_trait=skilled_warrior}
	7788.1.1 = {add_spouse=20231386}
	7821.1.1 = {death="7821.1.1"}
}
20231386 = {
	name="Mellario"
	female=yes

	religion="weeping_lady"
	culture="lysene"

	7770.1.1 = {birth="7770.1.1"}
	7821.1.1 = {death="7821.1.1"}
}
10241386 = {
	name="Bellegere"	# not a lord
	female=yes
	dynasty=1386

	religion="weeping_lady"
	culture="lysene"

	father=10171386
	mother=20171386

	7773.1.1 = {birth="7773.1.1"}
	7828.1.1 = {death="7828.1.1"}
}
10251386 = {
	name="Ezzere"	# not a lord
	female=yes
	dynasty=1386

	religion="weeping_lady"
	culture="lysene"

	father=10171386
	mother=20171386

	7774.1.1 = {birth="7774.1.1"}
	7831.1.1 = {death="7831.1.1"}
}
10261386 = {
	name="Alia"	# not a lord
	female=yes
	dynasty=1386

	religion="weeping_lady"
	culture="lysene"

	father=10171386
	mother=20171386

	7777.1.1 = {birth="7777.1.1"}
	7803.1.1 = {death="7803.1.1"}
}
10271386 = {
	name="Roro"	# a lord
	dynasty=1386

	religion="weeping_lady"
	culture="lysene"

	father=10231386
	mother=20231386

	7797.1.1 = {birth="7797.1.1"}
	7813.1.1 = {add_trait=poor_warrior}
	7815.1.1 = {add_spouse=20271386}
	7834.1.1 = {death = {death_reason = death_battle}}
}
20271386 = {
	name="Ferrega"
	female=yes

	religion="weeping_lady"
	culture="lysene"

	7797.1.1 = {birth="7797.1.1"}
	7834.1.1 = {death="7834.1.1"}
}
10281386 = {
	name="Lysono"	# not a lord
	dynasty=1386

	religion="weeping_lady"
	culture="lysene"

	father=10231386
	mother=20231386

	7798.1.1 = {birth="7798.1.1"}
	7814.1.1 = {add_spouse=20281386}
	7816.1.1 = {death="7816.1.1"}
}
20281386 = {
	name="Umma"
	female=yes

	religion="weeping_lady"
	culture="lysene"

	7798.1.1 = {birth="7798.1.1"}
	7816.1.1 = {death="7816.1.1"}
}
10291386 = {
	name="Yna"	# not a lord
	female=yes
	dynasty=1386

	religion="weeping_lady"
	culture="lysene"

	father=10231386
	mother=20231386

	7799.1.1 = {birth="7799.1.1"}
	7838.1.1 = {death="7838.1.1"}
}
10301386 = {
	name="Tagganaria"	# not a lord
	female=yes
	dynasty=1386

	religion="weeping_lady"
	culture="lysene"

	father=10231386
	mother=20231386

	7801.1.1 = {birth="7801.1.1"}
	7839.1.1 = {death="7839.1.1"}
}
### House Sathmantes

150300546 = {
	name="Vaelar"	# a lord
	dynasty=300546

	religion="rhllor"
	culture="lysene"

	7561.1.1 = {birth="7561.1.1"}
	7583.1.1 = {add_spouse=250300546}
	7636.1.1 = {death="7636.1.1"}
}
250300546 = {
	name="Daenys"
	female=yes

	religion="rhllor"
	culture="lysene"

	7562.1.1 = {birth="7562.1.1"}
	7636.1.1 = {death="7636.1.1"}
}
100300546 = {
	name="Roro"	# a lord
	dynasty=300546

	religion="rhllor"
	culture="lysene"

	father=150300546
	mother=250300546

	7585.1.1 = {birth="7585.1.1"}
	7626.1.1 = {add_trait=poor_warrior}
	7628.1.1 = {add_spouse=200300546}
	7679.1.1 = {death="7679.1.1"}
}
200300546 = {
	name="Mellario"
	female=yes

	religion="rhllor"
	culture="lysene"

	7585.1.1 = {birth="7585.1.1"}
	7679.1.1 = {death="7679.1.1"}
}
101300546 = {
	name="Alia"	# not a lord
	female=yes
	dynasty=300546

	religion="rhllor"
	culture="lysene"

	father=100300546
	mother=200300546

	7632.1.1 = {birth="7632.1.1"}
	7704.1.1 = {death="7704.1.1"}
}
102300546 = {
	name="Bellegere"	# not a lord
	female=yes
	dynasty=300546

	religion="rhllor"
	culture="lysene"

	father=100300546
	mother=200300546

	7634.1.1 = {birth="7634.1.1"}
	7680.1.1 = {death="7680.1.1"}
}
104300546 = {
	name="Umma"	# not a lord
	female=yes
	dynasty=300546

	religion="rhllor"
	culture="lysene"

	father=100300546
	mother=200300546

	7639.1.1 = {birth="7639.1.1"}
	7662.1.1 = {death="7662.1.1"}
}
105300546 = {
	name="Sallodhor"	# a lord
	dynasty=300546

	religion="rhllor"
	culture="lysene"

	father=100300546
	mother=200300546

	7640.1.1 = {birth="7640.1.1"}
	7656.1.1 = {add_trait=trained_warrior}
	7658.1.1 = {add_spouse=205300546}
	7706.1.1 = {death="7706.1.1"}
}
205300546 = {
	name="Gylora"
	female=yes

	religion="rhllor"
	culture="lysene"

	7640.1.1 = {birth="7640.1.1"}
	7706.1.1 = {death="7706.1.1"}
}
106300546 = {
	name="Tagganaro"	# a lord
	dynasty=300546

	religion="rhllor"
	culture="lysene"

	father=105300546
	mother=205300546

	7664.1.1 = {birth="7664.1.1"}
	7682.1.1 = {add_spouse=206300546}
	7729.1.1 = {death="7729.1.1"}
}
206300546 = {
	name="Cossoma"
	female=yes

	religion="rhllor"
	culture="lysene"

	7664.1.1 = {birth="7664.1.1"}
	7680.1.1 = {add_trait=poor_warrior}
	7729.1.1 = {death="7729.1.1"}
}
107300546 = {
	name="Taena"	# not a lord
	female=yes
	dynasty=300546

	religion="rhllor"
	culture="lysene"

	father=106300546
	mother=206300546

	7689.1.1 = {birth="7689.1.1"}
	7746.1.1 = {death="7746.1.1"}
}
109300546 = {
	name="Syrio"	# a lord
	dynasty=300546

	religion="rhllor"
	culture="lysene"

	father=106300546
	mother=206300546

	7693.1.1 = {birth="7693.1.1"}
	7709.1.1 = {add_trait=poor_warrior}
	7711.1.1 = {add_spouse=209300546}
	7768.1.1 = {death="7768.1.1"}
}
209300546 = {
	name="Meralyia"
	female=yes

	religion="rhllor"
	culture="lysene"

	7693.1.1 = {birth="7693.1.1"}
	7768.1.1 = {death="7768.1.1"}
}
111300546 = {
	name="Tormo"	# not a lord
	dynasty=300546

	religion="rhllor"
	culture="lysene"

	father=109300546
	mother=209300546

	7715.1.1 = {birth="7715.1.1"}
	7731.1.1 = {add_trait=poor_warrior}
	7758.1.1 = {death="7758.1.1"}
}
112300546 = {
	name="Ordello"	# a lord
	dynasty=300546

	religion="rhllor"
	culture="lysene"

	father=109300546
	mother=209300546

	7716.1.1 = {birth="7716.1.1"}
	7732.1.1 = {add_trait=poor_warrior}
	7734.1.1 = {add_spouse=212300546}
	7796.1.1 = {death="7796.1.1"}
}
212300546 = {
	name="Pynta"
	female=yes

	religion="rhllor"
	culture="lysene"

	7716.1.1 = {birth="7716.1.1"}
	7796.1.1 = {death="7796.1.1"}
}
113300546 = {
	name="Moreo"	# not a lord
	dynasty=300546

	religion="rhllor"
	culture="lysene"

	father=109300546
	mother=209300546

	7718.1.1 = {birth="7718.1.1"}
	7734.1.1 = {add_trait=trained_warrior}
	7736.1.1 = {add_spouse=213300546}
	7759.1.1 = {death="7759.1.1"}
}
213300546 = {
	name="Myrmellios"
	female=yes

	religion="rhllor"
	culture="lysene"

	7718.1.1 = {birth="7718.1.1"}
	7759.1.1 = {death="7759.1.1"}
}
114300546 = {
	name="Beqqo"	# not a lord
	dynasty=300546

	religion="rhllor"
	culture="lysene"

	father=112300546
	mother=212300546

	7740.1.1 = {birth="7740.1.1"}
	7756.1.1 = {add_trait=trained_warrior}
	7786.1.1 = {death="7786.1.1"}
}
115300546 = {
	name="Illyrio"	# a lord
	dynasty=300546

	religion="rhllor"
	culture="lysene"

	father=112300546
	mother=212300546

	7743.1.1 = {birth="7743.1.1"}
	7759.1.1 = {add_trait=trained_warrior}
	7761.1.1 = {add_spouse=215300546}
	7805.1.1 = {death="7805.1.1"}
}
215300546 = {
	name="Serra"
	female=yes

	religion="rhllor"
	culture="lysene"

	7743.1.1 = {birth="7743.1.1"}
	7805.1.1 = {death="7805.1.1"}
}
116300546 = {
	name="Lotho"	# not a lord
	dynasty=300546

	religion="rhllor"
	culture="lysene"

	father=112300546
	mother=212300546

	7746.1.1 = {birth="7746.1.1"}
	7762.1.1 = {add_trait=trained_warrior}
	7764.1.1 = {add_spouse=216300546}
	7775.1.1 = {death="7775.1.1"}
}
216300546 = {
	name="Gylora"
	female=yes

	religion="rhllor"
	culture="lysene"

	7746.1.1 = {birth="7746.1.1"}
	7775.1.1 = {death="7775.1.1"}
}
117300546 = {
	name="Ordello"	# a lord
	dynasty=300546

	religion="rhllor"
	culture="lysene"

	father=115300546
	mother=215300546

	7767.1.1 = {birth="7767.1.1"}
	7783.1.1 = {add_trait=trained_warrior}
	7785.1.1 = {add_spouse=217300546}
	7827.1.1 = {death="7827.1.1"}
}
217300546 = {
	name="Talea"
	female=yes

	religion="rhllor"
	culture="lysene"

	7767.1.1 = {birth="7767.1.1"}
	7827.1.1 = {death="7827.1.1"}
}
118300546 = {
	name="Izembaro"	# a lord
	dynasty=300546

	religion="rhllor"
	culture="lysene"

	father=117300546
	mother=217300546

	7792.1.1 = {birth="7792.1.1"}
	7808.1.1 = {add_trait=poor_warrior}
	7810.1.1 = {add_spouse=218300546}
	7849.1.1 = {death="7849.1.1"}
}
218300546 = {
	name="Cossoma"
	female=yes

	religion="rhllor"
	culture="lysene"

	7792.1.1 = {birth="7792.1.1"}
	7849.1.1 = {death="7849.1.1"}
}
119300546 = {
	name="Tycho"	# not a lord
	dynasty=300546

	religion="rhllor"
	culture="lysene"

	father=117300546
	mother=217300546

	7795.1.1 = {birth="7795.1.1"}
	7811.1.1 = {add_trait=trained_warrior}
	7875.1.1 = {death="7875.1.1"}
}
120300546 = {
	name="Ferrego"	# not a lord
	dynasty=300546

	religion="rhllor"
	culture="lysene"

	father=117300546
	mother=217300546

	7797.1.1 = {birth="7797.1.1"}
	7813.1.1 = {add_trait=poor_warrior}
	7861.1.1 = {death="7861.1.1"}
}
121300546 = {
	name="Yna"	# not a lord
	female=yes
	dynasty=300546

	religion="rhllor"
	culture="lysene"

	father=118300546
	mother=218300546

	7818.1.1 = {birth="7818.1.1"}
	7874.1.1 = {death="7874.1.1"}
}
122300546 = {
	name="Tycho"	# a lord
	dynasty=300546

	religion="rhllor"
	culture="lysene"

	father=118300546
	mother=218300546

	7820.1.1 = {birth="7820.1.1"}
	7836.1.1 = {add_trait=poor_warrior}
	7874.1.1 = {death="7874.1.1"}
}
123300546 = {
	name="Ezzere"	# not a lord
	female=yes
	dynasty=300546

	religion="rhllor"
	culture="lysene"

	father=118300546
	mother=218300546

	7822.1.1 = {birth="7822.1.1"}
	7858.1.1 = {death="7858.1.1"}
}
124300546 = {
	name="Lanna"	# not a lord
	female=yes
	dynasty=300546

	religion="rhllor"
	culture="lysene"

	father=118300546
	mother=218300546

	7825.1.1 = {birth="7825.1.1"}
	7894.1.1 = {death="7894.1.1"}
}
125300546 = {
	name="Gyleno"	# a lord
	dynasty=300546

	religion="rhllor"
	culture="lysene"

	father=122300546

	7851.1.1 = {birth="7851.1.1"}
	7867.1.1 = {add_trait=poor_warrior}
	7870.1.1 = {add_spouse=225300546}
}
225300546 = {
	name="Nyssa"
	female=yes

	religion="rhllor"
	culture="lysene"


	7851.1.1 = {birth="7851.1.1"}
}
126300546 = {
	name="Yorko"	# not a lord
	dynasty=300546

	religion="rhllor"
	culture="lysene"

	father=122300546

	7853.1.1 = {birth="7853.1.1"}
	7869.1.1 = {add_trait=poor_warrior}
}
151300546 = {
	name="Kohrane"	# canon
	dynasty=300546

	religion="rhllor"
	culture="lysene"

	father=125300546
	mother=225300546

	7876.1.1 = {birth="7876.1.1"}
}
132300546 = {
	name="Tycho"	# not a lord
	dynasty=300546

	religion="rhllor"
	culture="lysene"

	father=125300546
	mother=225300546

	7880.1.1 = {birth="7880.1.1"}
}

###  House Rogare

150300539 = {
	name="Nyessos"	# a lord
	dynasty=55999

	religion="rhllor"
	culture="lysene"

	7560.1.1 = {birth="7560.1.1"}
	7576.1.1 = { add_trait="truth" }
	7582.1.1 = {add_spouse=250300539}
	7629.1.1 = {death="7629.1.1"}
}
250300539 = {
	name="Bellegre"
	female=yes

	religion="rhllor"
	culture="lysene"

	7566.1.1 = {birth="7566.1.1"}
	7630.1.1 = {death="7630.1.1"}
}
100300539 = {
	name="Doniphos"	# a lord
	dynasty=55999

	religion="rhllor"
	culture="lysene"

	father=150300539
	mother=250300539

	7590.1.1 = {birth="7590.1.1"}
	7622.1.1 = {add_trait=poor_warrior}
	7624.1.1 = {add_spouse=200300539}
	7629.1.1 = { add_trait="truth" }
	7675.1.1 = {death="7675.1.1"}
}
200300539 = {
	name="Betharios"
	female=yes

	religion="rhllor"
	culture="lysene"

	7590.1.1 = {birth="7590.1.1"}
	7675.1.1 = {death="7675.1.1"}
}
101300539 = {
	name="Beqqo"	# not a lord
	dynasty=55999

	religion="rhllor"
	culture="lysene"

	father=100300539
	mother=200300539

	7630.1.1 = {birth="7630.1.1"}
	7646.1.1 = {add_trait=master_warrior}
	7655.1.1 = {death="7655.1.1"}
}
102300539 = {
	name="Serala"	# not a lord
	female=yes
	dynasty=55999

	religion="rhllor"
	culture="lysene"

	father=100300539
	mother=200300539

	7629.1.1 = {birth="7629.1.1"}
	7681.1.1 = {death="7681.1.1"}
}
103300539 = {
	name="Syrea"	# not a lord
	female=yes
	dynasty=55999

	religion="rhllor"
	culture="lysene"

	father=100300539
	mother=200300539

	7632.1.1 = {birth="7632.1.1"}
	7683.1.1 = {death="7683.1.1"}
}
104300539 = {
	name="Orbelo"	# a lord
	dynasty=55999

	religion="rhllor"
	culture="lysene"

	father=100300539
	mother=200300539

	7634.1.1 = {birth="7634.1.1"}
	7650.1.1 = {add_trait=skilled_warrior}
	7652.1.1 = {add_spouse=204300539}
	7675.1.1 = { add_trait="truth" }
	7677.1.1 = {death="7677.1.1"}
}
204300539 = {
	name="Gylenios"
	female=yes

	religion="rhllor"
	culture="lysene"

	7634.1.1 = {birth="7634.1.1"}
	7677.1.1 = {death="7677.1.1"}
}
105300539 = {
	name="Orbela"	# not a lord
	female=yes
	dynasty=55999

	religion="rhllor"
	culture="lysene"

	father=100300539
	mother=200300539

	7635.1.1 = {birth="7635.1.1"}
	7692.1.1 = {death="7692.1.1"}
}
106300539 = {
	name="Oro"	# a lord
	dynasty=55999

	religion="rhllor"
	culture="lysene"

	father=104300539
	mother=204300539

	7655.1.1 = {birth="7655.1.1"}
	7671.1.1 = {add_trait=skilled_warrior}
	7673.1.1 = {add_spouse=206300539}
	7677.1.1 = { add_trait="truth" }
	7715.1.1 = {death="7715.1.1"}
}
206300539 = {
	name="Meralyia"
	female=yes

	religion="rhllor"
	culture="lysene"

	7655.1.1 = {birth="7655.1.1"}
	7715.1.1 = {death="7715.1.1"}
}
107300539 = {
	name="Gyleno"	# a lord
	dynasty=55999

	religion="rhllor"
	culture="lysene"

	father=106300539
	mother=206300539

	7676.1.1 = {birth="7676.1.1"}
	7692.1.1 = {add_trait=poor_warrior}
	7695.1.1 = {add_spouse=207300539}
	7715.1.1 = { add_trait="truth" }
	7725.1.1 = {death="7725.1.1"}
}
207300539 = {
	name="Myrmellios"
	female=yes

	religion="rhllor"
	culture="lysene"

	7676.1.1 = {birth="7676.1.1"}
	7725.1.1 = {death="7725.1.1"}
}
108300539 = {
	name="Lysandro"	# a lord
	dynasty=55999
	
	stewardship=8
	martial=2
	diplomacy=7
	intrigue=3
	learning=3

	religion="rhllor"
	culture="high_valyrian"

	father=107300539
	mother=207300539
	
	add_trait=ambitious
	add_trait=ruthless
	add_trait=gregarious
	add_trait=midas_touched
	add_trait=quick

	7695.1.1 = {
		birth="7695.1.1"
		effect = { culture = lysene }
	}
	7711.1.1 = {add_trait=trained_warrior}
	7714.1.1 = {add_spouse=208300539}
	7725.1.1 = { add_trait="truth" }
	7730.1.1 = { 
		give_nickname=nick_the_magnificent
	}
	7740.1.1 = {
		culture = lysene
		death={
			death_reason = death_murder_unknown
		}
	}
}
208300539 = {
	name="Lothea"
	female=yes

	religion="rhllor"
	culture="lysene"

	7695.1.1 = {birth="7695.1.1"}
	7740.1.1 = {death="7740.1.1"}
}
109300539 = {
	name="Drazenko"	# Prince Consort of Dorne
	dynasty=55999
	
	diplomacy=8

	religion="rhllor"
	culture="high_valyrian"

	father=107300539
	mother=207300539
	
	add_trait=ambitious
	add_trait=grey_eminence

	7700.1.1 = {
		birth="7700.1.1"
		effect = { culture = lysene }
	}
	7716.1.1 = {add_trait=skilled_warrior}
	7740.1.1 = {
		culture = lysene
		death={
			death_reason = death_murder_unknown
		}
	}
}
110300539 = {
	name="Lysaro"	# A Lord
	dynasty=55999
	
	stewardship=4
	diplomacy=1
	intrigue=3
	martial=3
	learning=4

	religion="rhllor"
	culture="high_valyrian"

	father=108300539
	mother=208300539
	
	add_trait=indulgent_wastrel
	add_trait=greedy
	add_trait=proud
	add_trait=ambitious
	add_trait=wroth
	add_trait=rude

	7714.1.1 = {
		birth="7714.1.1"
		effect = { culture = lysene }
	}
	7745.1.1 = {
		culture = lysene
		death = {
			death_reason = death_execution #scourged to death
		}
	}
}
159300539 = {
	name="Larra"	# Married Viserys II Targaryen
	female=yes
	dynasty=55999
	dna="akaiangicdp"
	properties="0e00"

	religion="rhllor"
	culture="high_valyrian"
	
	add_trait=fair
	add_trait=shy
	add_trait=proud

	father=108300539
	mother=208300539

	7715.1.1 = {
		birth="7715.1.1"
		effect = { culture = lysene }
	}
	7739.6.1 = {
		effect = {
			b_rogare = { holder_scope = { ROOT = { move_character = PREV } } }
		}
	}
	7745.1.1 = {
		culture = lysene
		death="7745.1.1"
	}
}
112300539 = {
	name="Moredo"	# not a lord
	dynasty=55999
	
	martial=7

	religion="rhllor"
	culture="high_valyrian"

	father=108300539
	mother=208300539
	
	add_trait=skilled_tactician
	add_trait=diligent
	add_trait=just

	7721.1.1 = {
		birth="7721.1.1"
		effect = { culture = lysene }
	}
	7739.1.1 = {add_spouse=212300539}
	7740.1.1 = { add_trait="truth" }
	7765.1.1 = {
		culture = lysene
		death="7765.1.1"
	}
}
212300539 = {
	name="Meralyia"
	female=yes

	religion="rhllor"
	culture="lysene"

	7721.1.1 = {birth="7721.1.1"}
	7765.1.1 = {death="7765.1.1"}
}
113300539 = {
	name="Qarria"	# not a lord
	female=yes
	dynasty=55999

	religion="rhllor"
	culture="lysene"

	father=112300539
	mother=212300539

	7747.1.1 = {birth="7747.1.1"}
	7799.1.1 = {death = {death_reason = death_accident}}
}
114300539 = {
	name="Orbelo"	# a lord
	dynasty=55999

	religion="rhllor"
	culture="lysene"

	father=112300539
	mother=212300539

	7748.1.1 = {birth="7748.1.1"}
	7760.1.1 = { add_trait="truth" }
	7764.1.1 = {add_trait=skilled_warrior}
	7766.1.1 = {add_spouse=214300539}
	7809.1.1 = {death="7809.1.1"}
}
214300539 = {
	name="Nohia"
	female=yes

	religion="rhllor"
	culture="lysene"

	7748.1.1 = {birth="7748.1.1"}
	7809.1.1 = {death="7809.1.1"}
}
115300539 = {
	name="Tagganaria"	# not a lord
	female=yes
	dynasty=55999

	religion="rhllor"
	culture="lysene"

	father=112300539
	mother=212300539

	7751.1.1 = {birth="7751.1.1"}
	7830.1.1 = {death="7830.1.1"}
}
116300539 = {
	name="Ternesia"	# not a lord
	female=yes
	dynasty=55999

	religion="rhllor"
	culture="lysene"

	father=112300539
	mother=212300539

	7752.1.1 = {birth="7752.1.1"}
	7785.1.1 = {death="7785.1.1"}
}
117300539 = {
	name="Ollo"	# not a lord
	dynasty=55999

	religion="rhllor"
	culture="lysene"

	father=114300539
	mother=214300539

	7767.1.1 = {birth="7767.1.1"}
	7780.1.1 = {death = {death_reason = death_murder}}
}
118300539 = {
	name="Denyo"	# not a lord
	dynasty=55999

	religion="rhllor"
	culture="lysene"

	father=114300539
	mother=214300539

	7769.1.1 = {birth="7769.1.1"}
	7785.1.1 = {add_trait=skilled_warrior}
	7804.1.1 = {death="7804.1.1"}
}
119300539 = {
	name="Moreo"	# a lord
	dynasty=55999

	religion="rhllor"
	culture="lysene"

	father=114300539
	mother=214300539

	7771.1.1 = {birth="7771.1.1"}
	7787.1.1 = {add_trait=trained_warrior}
	7789.1.1 = {add_spouse=219300539}
	7809.1.1 = { add_trait="truth" }
	7833.1.1 = {death="7833.1.1"}
}
219300539 = {
	name="Lucerre"
	female=yes

	religion="rhllor"
	culture="lysene"

	7771.1.1 = {birth="7771.1.1"}
	7833.1.1 = {death="7833.1.1"}
}
120300539 = {
	name="Gyleno"	# a lord
	dynasty=55999

	religion="rhllor"
	culture="lysene"

	father=119300539
	mother=219300539

	7791.1.1 = {birth="7791.1.1"}
	7807.1.1 = {add_trait=poor_warrior}
	7809.1.1 = {add_spouse=220300539}
	7833.1.1 = { add_trait="truth" }
	7852.1.1 = {death="7852.1.1"}
}
220300539 = {
	name="Syrea"
	female=yes

	religion="rhllor"
	culture="lysene"

	7791.1.1 = {birth="7791.1.1"}
	7852.1.1 = {death="7852.1.1"}
}
121300539 = {
	name="Qarria"	# not a lord
	female=yes
	dynasty=55999

	religion="rhllor"
	culture="lysene"

	father=119300539
	mother=219300539

	7793.1.1 = {birth="7793.1.1"}
	7839.1.1 = {death="7839.1.1"}
}
122300539 = {
	name="Yorka"	# not a lord
	female=yes
	dynasty=55999

	religion="rhllor"
	culture="lysene"

	father=119300539
	mother=219300539

	7795.1.1 = {birth="7795.1.1"}
	7813.1.1 = {death="7813.1.1"}
}
123300539 = {
	name="Orbelo"	# a lord
	dynasty=55999

	religion="rhllor"
	culture="lysene"

	father=120300539
	mother=220300539

	7818.1.1 = {birth="7818.1.1"}
	7834.1.1 = {add_trait=trained_warrior}
	7836.1.1 = {add_spouse=223300539}
	7852.1.1 = { add_trait="truth" }
	7860.1.1 = {death="7860.1.1"}
}
223300539 = {
	name="Qarria"
	female=yes

	religion="rhllor"
	culture="lysene"

	7818.1.1 = {birth="7818.1.1"}
	7860.1.1 = {death="7860.1.1"}
}
124300539 = {
	name="Gylora"	# not a lord
	female=yes
	dynasty=55999

	religion="rhllor"
	culture="lysene"

	father=120300539
	mother=220300539

	7819.1.1 = {birth="7819.1.1"}
	7870.1.1 = {death="7870.1.1"}
}
125300539 = {
	name="Byan"	# a lord
	dynasty=55999

	religion="rhllor"
	culture="lysene"

	father=123300539
	mother=223300539

	7853.1.1 = {birth="7853.1.1"}
	7860.1.1 = { add_trait="truth" }
	7869.1.1 = {add_trait=trained_warrior}
	7875.1.1 = {add_spouse=225300539}
}
225300539 = {
	name="Serra"
	female=yes

	religion="rhllor"
	culture="lysene"

	7853.1.1 = {birth="7853.1.1"}
}
126300539 = {
	name="Syrio"	# not a lord
	dynasty=55999

	religion="rhllor"
	culture="lysene"

	father=123300539
	mother=223300539

	7856.1.1 = {birth="7856.1.1"}
	7872.1.1 = {add_trait=skilled_warrior}
}
151300539 = {
	name="Gyleno"
	dynasty=55999

	religion="rhllor"
	culture="lysene"

	father=125300539
	mother=225300539

	7878.1.1 = {birth="7878.1.1"}
}
152300539 = {
	name="Mellario"	
	female=yes
	dynasty=55999

	religion="rhllor"
	culture="lysene"

	father=125300539
	mother=225300539

	7881.1.1 = {birth="7881.1.1"}
}
153300539 = {
	name="Tybaro"
	dynasty=55999

	religion="rhllor"
	culture="lysene"

	father=125300539
	mother=225300539

	7884.1.1 = {birth="7884.1.1"}
}

### House Lohar

150300523 = {
	name="Maelys"	# a lord
	dynasty=300523

	religion="weeping_lady"
	culture="lysene"

	7560.1.1 = {birth="7560.1.1"}
	7582.1.1 = {add_spouse=250300523}
	7618.1.1 = {death="7618.1.1"}
}
250300523 = {
	name="Shiera"
	female=yes

	religion="weeping_lady"
	culture="lysene"

	7563.1.1 = {birth="7563.1.1"}
	7624.1.1 = {death="7624.1.1"}
}
100300523 = {
	name="Beqqo"	# a lord
	dynasty=300523

	religion="weeping_lady"
	culture="lysene"

	father=150300523
	mother=250300523

	7593.1.1 = {birth="7593.1.1"}
	7628.1.1 = {add_trait=poor_warrior}
	7630.1.1 = {add_spouse=200300523}
	7680.1.1 = {death="7680.1.1"}
}
200300523 = {
	name="Moredea"
	female=yes

	religion="weeping_lady"
	culture="lysene"

	7593.1.1 = {birth="7593.1.1"}
	7680.1.1 = {death="7680.1.1"}
}
101300523 = {
	name="Talea"	# not a lord
	female=yes
	dynasty=300523

	religion="weeping_lady"
	culture="lysene"

	father=100300523
	mother=200300523

	7631.1.1 = {birth="7631.1.1"}
	7660.1.1 = {death="7660.1.1"}
}
102300523 = {
	name="Allaquo"	# a lord
	dynasty=300523

	religion="weeping_lady"
	culture="lysene"

	father=100300523
	mother=200300523

	7633.1.1 = {birth="7633.1.1"}
	7649.1.1 = {add_trait=trained_warrior}
	7651.1.1 = {add_spouse=202300523}
	7686.1.1 = {death="7686.1.1"}
}
202300523 = {
	name="Bellonara"
	female=yes

	religion="weeping_lady"
	culture="lysene"

	7633.1.1 = {birth="7633.1.1"}
	7686.1.1 = {death="7686.1.1"}
}
103300523 = {
	name="Pynto"	# a lord
	dynasty=300523

	religion="weeping_lady"
	culture="lysene"

	father=102300523
	mother=202300523

	7653.1.1 = {birth="7653.1.1"}
	7669.1.1 = {add_trait=trained_warrior}
	7671.1.1 = {add_spouse=203300523}
	7715.1.1 = {death = {death_reason = death_murder}}
}
203300523 = {
	name="Alia"
	female=yes

	religion="weeping_lady"
	culture="lysene"

	7653.1.1 = {birth="7653.1.1"}
	7715.1.1 = {death = {death_reason = death_murder}}
}
104300523 = {
	name="Umma"	# not a lord
	female=yes
	dynasty=300523

	religion="weeping_lady"
	culture="lysene"

	father=102300523
	mother=202300523

	7655.1.1 = {birth="7655.1.1"}
	7680.1.1 = {death="7680.1.1"}
}
105300523 = {
	name="Myrmellios"	# not a lord
	female=yes
	dynasty=300523

	religion="weeping_lady"
	culture="lysene"

	father=103300523
	mother=203300523

	7688.1.1 = {birth="7688.1.1"}
	7721.1.1 = {death="7721.1.1"}
}
106300523 = {
	name="Sharako"	# a lord, canon
	dynasty=300523
	
	martial = 9

	religion="weeping_lady"
	culture="lysene"

	father=103300523
	mother=203300523
	
	add_trait = skilled_tactician

	7679.1.1 = {birth="7679.1.1"}
	7705.1.1 = {add_trait=skilled_warrior}
	7707.1.1 = {add_spouse=206300523}
	7730.1.1 = {death="7730.1.1"}
}
206300523 = {
	name="Syrea"
	female=yes

	religion="weeping_lady"
	culture="lysene"

	7679.1.1 = {birth="7679.1.1"}
	7733.1.1 = {death="7733.1.1"}
}
107300523 = {
	name="Tregar"	# not a lord
	dynasty=300523

	religion="weeping_lady"
	culture="lysene"

	father=103300523
	mother=203300523

	7681.1.1 = {birth="7681.1.1"}
	7697.1.1 = {add_trait=poor_warrior}
	7699.1.1 = {add_spouse=207300523}
	7713.1.1 = {death="7713.1.1"}
}
207300523 = {
	name="Nohia"
	female=yes

	religion="weeping_lady"
	culture="lysene"

	7681.1.1 = {birth="7681.1.1"}
	7713.1.1 = {death="7713.1.1"}
}
108300523 = {
	name="Meralyn"	# not a lord
	dynasty=300523

	religion="weeping_lady"
	culture="lysene"

	father=106300523
	mother=206300523

	7722.1.1 = {birth="7722.1.1"}
	7738.1.1 = {add_trait=skilled_warrior}
	7790.1.1 = {death="7790.1.1"}
}
109300523 = {
	name="Talea"	# not a lord
	female=yes
	dynasty=300523

	religion="weeping_lady"
	culture="lysene"

	father=106300523
	mother=206300523

	7725.1.1 = {birth="7725.1.1"}
	7773.1.1 = {death="7773.1.1"}
}
110300523 = {
	name="Mellario"	# a lord
	female=yes
	dynasty=300523

	religion="weeping_lady"
	culture="lysene"

	father=107300523
	mother=207300523

	7705.1.1 = {birth="7705.1.1"}
	7766.1.1 = { death = { death_reason = death_murder } }
}
111300523 = {
	name="Tregar"	# a lord
	dynasty=300523

	religion="weeping_lady"
	culture="lysene"

	father=107300523
	mother=207300523

	7709.1.1 = {birth="7709.1.1"}
	7725.1.1 = {add_trait=trained_warrior}
	7727.1.1 = {add_spouse=211300523}
	7760.1.1 = {death="7760.1.1"}
}
211300523 = {
	name="Cossoma"
	female=yes

	religion="weeping_lady"
	culture="lysene"

	7709.1.1 = {birth="7709.1.1"}
	7767.1.1 = {death="7767.1.1"}
}
112300523 = {
	name="Illyrio"	# a lord
	dynasty=300523

	religion="weeping_lady"
	culture="lysene"

	father=111300523
	mother=211300523

	7748.1.1 = {birth="7748.1.1"}
	7768.1.1 = {add_trait=poor_warrior}
	7770.1.1 = {add_spouse=212300523}
	7808.1.1 = {death="7808.1.1"}
}
212300523 = {
	name="Gylenios"
	female=yes

	religion="weeping_lady"
	culture="lysene"

	7748.1.1 = {birth="7748.1.1"}
	7808.1.1 = {death="7808.1.1"}
}
113300523 = {
	name="Oro"	# not a lord
	dynasty=300523

	religion="weeping_lady"
	culture="lysene"

	father=111300523
	mother=211300523

	7758.1.1 = {birth="7758.1.1"}
	7774.1.1 = {add_trait=poor_warrior}
	7776.1.1 = {add_spouse=213300523}
	7815.1.1 = {death="7815.1.1"}
}
213300523 = {
	name="Mera"
	female=yes

	religion="weeping_lady"
	culture="lysene"

	7758.1.1 = {birth="7758.1.1"}
	7815.1.1 = {death="7815.1.1"}
}
114300523 = {
	name="Tycho"	# a lord
	dynasty=300523

	religion="weeping_lady"
	culture="lysene"

	father=112300523
	mother=212300523

	7770.1.1 = {birth="7770.1.1"}
	7786.1.1 = {add_trait=skilled_warrior}
	7788.1.1 = {add_spouse=214300523}
	7832.1.1 = {death="7832.1.1"}
}
214300523 = {
	name="Betharios"
	female=yes

	religion="weeping_lady"
	culture="lysene"

	7770.1.1 = {birth="7770.1.1"}
	7832.1.1 = {death="7832.1.1"}
}
115300523 = {
	name="Tycha"	# not a lord
	female=yes
	dynasty=300523

	religion="weeping_lady"
	culture="lysene"

	father=112300523
	mother=212300523

	7773.1.1 = {birth="7773.1.1"}
	7832.1.1 = {death="7832.1.1"}
}
116300523 = {
	name="Beqqo"	# not a lord
	dynasty=300523

	religion="weeping_lady"
	culture="lysene"

	father=114300523
	mother=214300523

	7801.1.1 = {birth="7801.1.1"}
	7816.1.1 = {add_spouse=216300523}
	7819.1.1 = {death = {death_reason = death_accident}}
}
216300523 = {
	name="Rogga"
	female=yes

	religion="weeping_lady"
	culture="lysene"

	7801.1.1 = {birth="7801.1.1"}
	7819.1.1 = {death="7819.1.1"}
}
117300523 = {
	name="Yna"	# not a lord
	female=yes
	dynasty=300523

	religion="weeping_lady"
	culture="lysene"

	father=114300523
	mother=214300523

	7803.1.1 = {birth="7803.1.1"}
	7832.1.1 = {death = {death_reason = death_murder}}
}
118300523 = {
	name="Tregar"	# a lord
	dynasty=300523

	religion="weeping_lady"
	culture="lysene"

	father=114300523
	mother=214300523

	7804.1.1 = {birth="7804.1.1"}
	7820.1.1 = {add_trait=poor_warrior}
	7822.1.1 = {add_spouse=218300523}
	7844.1.1 = {death="7844.1.1"}
}
218300523 = {
	name="Lothea"
	female=yes

	religion="weeping_lady"
	culture="lysene"

	7804.1.1 = {birth="7804.1.1"}
	7844.1.1 = {death="7844.1.1"}
}
119300523 = {
	name="Ezzere"	# not a lord
	female=yes
	dynasty=300523

	religion="weeping_lady"
	culture="lysene"

	father=114300523
	mother=214300523

	7805.1.1 = {birth="7805.1.1"}
	7825.1.1 = {death="7825.1.1"}
}
120300523 = {
	name="Lothea"	# not a lord
	female=yes
	dynasty=300523

	religion="weeping_lady"
	culture="lysene"

	father=118300523
	mother=218300523

	7825.1.1 = {birth="7825.1.1"}
}
121300523 = {
	name="Gyleno"	# a lord
	dynasty=300523

	religion="weeping_lady"
	culture="lysene"

	father=118300523
	mother=218300523

	7826.1.1 = {birth="7826.1.1"}
	7842.1.1 = {add_trait=poor_warrior}
	7844.1.1 = {add_spouse=221300523}
	7877.1.1 = {death="7877.1.1"}
}
221300523 = {
	name="Taena"
	female=yes

	religion="weeping_lady"
	culture="lysene"

	7826.1.1 = {birth="7826.1.1"}
	7877.1.1 = {death="7877.1.1"}
}
122300523 = {
	name="Illyrio"	# a lord
	dynasty=300523

	religion="weeping_lady"
	culture="lysene"

	father=121300523
	mother=221300523

	7860.1.1 = {birth="7860.1.1"}
	7876.1.1 = {add_trait=skilled_warrior}
	7881.1.1 = {add_spouse=222300523}
}
222300523 = {
	name="Bellagere"
	female=yes

	religion="weeping_lady"
	culture="lysene"

	7860.1.1 = {birth="7860.1.1"}
}
123300523 = {
	name="Bellonara"	# not a lord
	female=yes
	dynasty=300523

	religion="weeping_lady"
	culture="lysene"

	father=121300523
	mother=221300523

	7861.1.1 = {birth="7861.1.1"}
}
124300523 = {
	name="Orbela"	# not a lord
	female=yes
	dynasty=300523

	religion="weeping_lady"
	culture="lysene"

	father=121300523
	mother=221300523

	7862.1.1 = {birth="7862.1.1"}
	7911.1.1 = {death="7911.1.1"}
}
125300523 = {
	name="Khorane"	# not a lord
	dynasty=300523

	religion="weeping_lady"
	culture="lysene"

	father=121300523
	mother=221300523

	7865.1.1 = {birth="7865.1.1"}
	7881.1.1 = {add_trait=poor_warrior}
}
126300523 = {
	name="Terrios"	# not a lord
	female=yes
	dynasty=300523

	religion="weeping_lady"
	culture="lysene"

	father=121300523
	mother=221300523

	7867.1.1 = {birth="7867.1.1"}
	7877.1.1 = {death="7877.1.1"}
}
127300523 = {
	name="Ternessio"
	dynasty=300523

	religion="weeping_lady"
	culture="lysene"

	father=122300523
	mother=222300523

	7883.1.1 = {birth="7883.1.1"}
}



###Pirates of the Stepstones###
#Sunstone
1002367 = {
	name="Mero"	# not a lord
	dynasty=982367

	religion="pirate"
	culture="lysene"

	7575.1.1 = {birth="7575.1.1"}
	7591.1.1 = {add_trait=trained_warrior}
	7624.1.1 = {death="7624.1.1"}
}
1012367 = {
	name="Denyo"	# a lord
	dynasty=982367

	religion="pirate"
	culture="lysene"

	father=1002367

	7607.1.1 = {birth="7607.1.1"}
	7623.1.1 = {add_trait=trained_warrior}
	7646.1.1 = {death="7646.1.1"}
}
1042367 = {
	name="Yorko"	# a lord
	dynasty=982367

	religion="pirate"
	culture="lysene"

	father=1012367

	7630.1.1 = {birth="7630.1.1"}
	7646.1.1 = {add_trait=skilled_warrior}
	7689.1.1 = {death="7689.1.1"}
}
1052367 = {
	name="Ternesio"	# a lord
	dynasty=982367

	religion="pirate"
	culture="lysene"

	father=1042367

	7657.1.1 = {birth="7657.1.1"}
	7673.1.1 = {add_trait=poor_warrior}
	7737.1.1 = {death="7737.1.1"}
}
1092367 = {
	name="Allaquo"	# a lord
	dynasty=982367

	religion="pirate"
	culture="lysene"

	father=1052367

	7677.1.1 = {birth="7677.1.1"}
	7693.1.1 = {add_trait=trained_warrior}
	7744.1.1 = {death="7744.1.1"}
}
1122367 = {
	name="Tycho"	# a lord
	dynasty=982367

	religion="pirate"
	culture="lysene"

	father=1092367

	7715.1.1 = {birth="7715.1.1"}
	7731.1.1 = {add_trait=skilled_warrior}
	7760.1.1 = {death="7760.1.1"}
}
1132367 = {
	name="Ordello"	# a lord
	dynasty=982367

	religion="pirate"
	culture="lysene"

	father=1122367

	7737.1.1 = {birth="7737.1.1"}
	7753.1.1 = {add_trait=poor_warrior}
	7775.1.1 = {death = {death_reason = death_murder}}
}
1142367 = {
	name="Sallodhor"	# a lord
	dynasty=982367

	religion="pirate"
	culture="lysene"

	father=1132367

	7756.1.1 = {birth="7756.1.1"}
	7772.1.1 = {add_trait=skilled_warrior}
	7802.1.1 = {death = {death_reason = death_murder}}
}
1152367 = {
	name="Meralyn"	# a lord
	dynasty=982367

	religion="pirate"
	culture="lysene"

	father=1142367

	7780.1.1 = {birth="7780.1.1"}
	7796.1.1 = {add_trait=poor_warrior}
	7834.1.1 = {death="7834.1.1"}
}
1162367 = {
	name="Daario"	# a lord
	dynasty=982367

	religion="pirate"
	culture="lysene"

	father=1152367

	7808.1.1 = {birth="7808.1.1"}
	7824.1.1 = {add_trait=master_warrior}
	7854.1.1 = {death="7854.1.1"}
}
1172367 = {
	name="Tormo"	# a lord
	dynasty=982367

	religion="pirate"
	culture="lysene"

	father=1162367

	7834.1.1 = {birth="7834.1.1"}
	7850.1.1 = {add_trait=poor_warrior}
}
1182367 = {
	name="Ferrego"	# not a lord
	dynasty=982367

	religion="pirate"
	culture="lysene"

	father=1172367

	7864.1.1 = {birth="7864.1.1"}
	7880.1.1 = {add_trait=trained_warrior}
}
###House Saan###
1002370 = {
	name="Lysono"	# a lord
	dynasty=982370

	religion="pirate"
	culture="lysene"
	
	add_trait = ruthless
	add_trait = tough_soldier

	7575.1.1 = {birth="7575.1.1"}
	7591.1.1 = {add_trait=trained_warrior}
	7593.1.1 = {add_spouse=4002370}
	7624.1.1 = {death="7624.1.1"}
}
4002370 = {
	name="Orbela"
	female=yes

	religion="pirate"
	culture="lysene"

	7575.1.1 = {birth="7575.1.1"}
	7624.1.1 = {death="7624.1.1"}
}
1012370 = {
	name="Salassor"	# a lord
	dynasty=982370

	religion="pirate"
	culture="lysene"

	father=1002370
	mother=4002370
	
	add_trait = ruthless
	add_trait = tough_soldier

	7607.1.1 = {birth="7607.1.1"}
	7623.1.1 = {add_trait=trained_warrior}
	7625.1.1 = {add_spouse=4012370}
	7657.1.1 = {death="7657.1.1"}
}
4012370 = {
	name="Qarria"
	female=yes

	religion="pirate"
	culture="lysene"

	7607.1.1 = {birth="7607.1.1"}
	7657.1.1 = {death="7657.1.1"}
}
1022370 = {
	name="Groleo"	# not a lord
	dynasty=982370

	religion="pirate"
	culture="lysene"

	father=1002370
	mother=4002370

	7609.1.1 = {birth="7609.1.1"}
	7625.1.1 = {add_trait=trained_warrior}
	7680.1.1 = {death = {death_reason = death_accident}}
}
1032370 = {
	name="Jaqea"	# not a lord
	female=yes
	dynasty=982370

	religion="pirate"
	culture="lysene"

	father=1012370
	mother=4012370

	7642.1.1 = {birth="7642.1.1"}
	7666.1.1 = {death="7666.1.1"}
}
1052370 = {
	name="Collio"	# a lord
	dynasty=982370

	religion="pirate"
	culture="lysene"

	father=1012370
	mother=4012370

	7647.1.1 = {birth="7647.1.1"}
	7663.1.1 = {add_trait=poor_warrior}
	7665.1.1 = {add_spouse=4052370}
	7715.1.1 = {death="7715.1.1"}
}
4052370 = {
	name="Betharios"
	female=yes

	religion="pirate"
	culture="lysene"

	7647.1.1 = {birth="7647.1.1"}
	7715.1.1 = {death="7715.1.1"}
}
1062370 = {
	name="Tregar"	# a lord
	dynasty=982370

	religion="pirate"
	culture="lysene"

	father=1052370
	mother=4052370

	7675.1.1 = {birth="7675.1.1"}
	7691.1.1 = {add_trait=skilled_warrior}
	7693.1.1 = {add_spouse=4062370}
	7738.1.1 = {death="7738.1.1"}
}
4062370 = {
	name="Ternesia"
	female=yes

	religion="pirate"
	culture="lysene"

	7675.1.1 = {birth="7675.1.1"}
	7738.1.1 = {death="7738.1.1"}
}
1072370 = {
	name="Ferrega"	# not a lord
	female=yes
	dynasty=982370

	religion="pirate"
	culture="lysene"

	father=1052370
	mother=4052370

	7676.1.1 = {birth="7676.1.1"}
	7722.1.1 = {death="7722.1.1"}
}
1082370 = {
	name="Taena"	# not a lord
	female=yes
	dynasty=982370

	religion="pirate"
	culture="lysene"

	father=1062370
	mother=4062370

	7696.1.1 = {birth="7696.1.1"}
	7749.1.1 = {death="7749.1.1"}
}
1102370 = {
	name="Sulleham"	# a lord, semi canon from the MUSH
	dynasty=982370

	religion="pirate"
	culture="lysene"

	father=1062370
	mother=4062370

	7701.1.1 = {birth="7701.1.1"}
	7717.1.1 = {add_trait=skilled_warrior}
	7719.1.1 = {add_spouse=4102370}
	7767.1.1 = {death="7767.1.1"}
}
4102370 = {
	name="Mellario"
	female=yes

	religion="pirate"
	culture="lysene"

	7701.1.1 = {birth="7701.1.1"}
	7767.1.1 = {death="7767.1.1"}
}
1502370 = {
	name="Saathos"	# Canon, Corsair King
	dynasty=982370
	
	martial=5
	stewardship=3
	diplomacy=5
	intrigue=4
	learning=2

	religion="pirate"
	culture="lysene"

	father=1062370
	mother=4062370
	
	add_trait=ambitious
	add_trait=deceitful
	add_trait=brave
	add_trait=skilled_tactician
	
	7702.1.1 = {birth="7702.1.1"}
	7718.1.1 = {add_trait=trained_warrior}
	7755.1.1 = {
		death="7755.1.1"
		religion="corsair"
	}
}
1112370 = {
	name="Gyleno"	# a lord
	dynasty=982370

	religion="pirate"
	culture="lysene"

	father=1102370
	mother=4102370

	7728.1.1 = {birth="7728.1.1"}
	7744.1.1 = {add_trait=trained_warrior}
	7746.1.1 = {add_spouse=4112370}
	7780.1.1 = {death = {death_reason = death_battle}}
}
4112370 = {
	name="Rogga"
	female=yes

	religion="pirate"
	culture="lysene"

	7728.1.1 = {birth="7728.1.1"}
	7780.1.1 = {death="7780.1.1"}
}
1122370 = {
	name="Lysono"	# a lord
	dynasty=982370

	religion="pirate"
	culture="lysene"

	father=1112370
	mother=4112370

	7757.1.1 = {birth="7757.1.1"}
	7773.1.1 = {add_trait=poor_warrior}
	7775.1.1 = {add_spouse=4122370}
	7819.1.1 = {death="7819.1.1"}
}
4122370 = {
	name="Alia"
	female=yes

	religion="pirate"
	culture="lysene"

	7757.1.1 = {birth="7757.1.1"}
	7819.1.1 = {death="7819.1.1"}
}
1132370 = {
	name="Qarria"	# not a lord
	female=yes
	dynasty=982370

	religion="pirate"
	culture="lysene"

	father=1112370
	mother=4112370

	7759.1.1 = {birth="7759.1.1"}
	7808.1.1 = {death="7808.1.1"}
}
1142370 = {
	name="Noho"	# a lord
	dynasty=982370

	religion="pirate"
	culture="lysene"

	father=1122370
	mother=4122370

	7790.1.1 = {birth="7790.1.1"}
	7806.1.1 = {add_trait=skilled_warrior}
	7850.1.1 = {death="7850.1.1"}
}
1152370 = {
	name="Ordello"	# a lord
	dynasty=982370

	religion="pirate"
	culture="lysene"

	father=1122370
	mother=4122370

	7791.1.1 = {birth="7791.1.1"}
	7807.1.1 = {add_trait=trained_warrior}
	7809.1.1 = {add_spouse=4152370}
	7853.1.1 = {death="7853.1.1"}
}
4152370 = {
	name="Rogga"
	female=yes

	religion="pirate"
	culture="lysene"

	7791.1.1 = {birth="7791.1.1"}
	7866.1.1 = {death="7866.1.1"}
}
1172370 = {
	name="Terro"	# not a lord
	dynasty=982370

	religion="pirate"
	culture="lysene"

	father=1152370
	mother=4152370

	7825.1.1 = {birth="7825.1.1"}
	7841.1.1 = {add_trait=poor_warrior}
	7845.1.1 = {death="7845.1.1"}
}
1182370 = {
	name="Samarro"	# a lord
	dynasty=982370

	religion="pirate"
	culture="lysene"
	
	martial=12
	diplomacy=10
	intrigue=8
	stewardship=5
	add_trait="pirate"
	add_trait=greedy
	add_trait=ruthless
	add_trait=proud

	father=1152370
	mother=4152370

	7827.1.1 = {birth="7827.1.1"}
	7843.1.1 = {add_trait=skilled_warrior}
	7845.1.1 = {add_spouse=4182370}
	7880.1.1 = {death="7880.1.1"}
}
4182370 = {
	name="Terrios"
	female=yes

	religion="pirate"
	culture="lysene"

	7827.1.1 = {birth="7827.1.1"}
	7880.1.1 = {death="7880.1.1"}
}
### Sallador ! A mighty pirate ! ###
1192370 = { 
	name="Salladhor"
	dynasty=982370
	dna="akhmisffaaq"
	properties="ae00ba"
	
	martial = 7
	diplomacy = 7
	stewardship = 6
	intrigue = 5
	learning = 3

	religion="pirate"
	culture="lysene"

	father=1182370
	mother=4182370

	add_trait="proud"
	add_trait="fashionable"
	add_trait="charismatic_negotiator"
	add_trait="gregarious"
	add_trait="lustful"
	
	7859.1.1 = {birth="7859.1.1"}
	7875.1.1 = {add_trait=trained_warrior}
}
#concubines
4192370 = {
	name="Serala"
	female=yes

	religion="pirate"
	culture="lysene"

	7872.1.1 = {birth="7872.1.1"}
}
4292370 = {
	name="Narba"
	female=yes

	religion="pirate"
	culture="lysene"

	7877.1.1 = {birth="7877.1.1"}
}
4392370 = {
	name="Yorka"
	female=yes

	religion="pirate"
	culture="lysene"

	7878.1.1 = {birth="7878.1.1"}
}
1202370 = {
	name="Lysono"	# not a lord
	dynasty=982370

	religion="pirate"
	culture="lysene"

	father=1192370
	mother=4192370
	
	add_trait = child_of_consort

	7887.1.1 = {birth="7887.1.1"}
	7903.1.1 = {add_trait=poor_warrior}
}
1212370 = {
	name="Mellario"	# not a lord
	female=yes
	dynasty=982370

	religion="pirate"
	culture="lysene"

	father=1192370
	mother=4192370
	
	add_trait = child_of_consort

	7890.1.1 = {birth="7890.1.1"}
}
1222370 = {
	name="Byan"	# not a lord
	dynasty=982370

	religion="pirate"
	culture="lysene"

	father=1192370
	mother=4292370
	
	add_trait = child_of_consort

	7893.1.1 = {birth="7893.1.1"}
	7909.1.1 = {add_trait=skilled_warrior}
}
1232370 = {
	name="Ferrego"	# not a lord
	dynasty=982370

	religion="pirate"
	culture="lysene"

	father=1192370
	mother=4392370
	
	add_trait = child_of_consort

	7895.1.1 = {birth="7895.1.1"}
	7911.1.1 = {add_trait=trained_warrior}
}

### Bloodstone rulers to stop fix targaryen title history
1001639 = {
	name="Syrio"	# not a lord
	dynasty=982375

	religion="pirate"
	culture="lysene"
	
	add_trait = poison

	7565.1.1 = {birth="7565.1.1"}
	7581.1.1 = {add_trait=skilled_warrior}
	7583.1.1 = {add_spouse=4001639}
	7623.1.1 = {death="7623.1.1"}
}
4001639 = {
	name="Syrea"
	female=yes

	religion="pirate"
	culture="lysene"

	7565.1.1 = {birth="7565.1.1"}
	7623.1.1 = {death="7623.1.1"}
}
1011639 = {
	name="Mero"	# a lord
	dynasty=982375

	religion="pirate"
	culture="lysene"

	father=1001639
	mother=4001639

	7594.1.1 = {birth="7594.1.1"}
	7610.1.1 = {add_trait=skilled_warrior}
	7612.1.1 = {add_spouse=4011639}
	7623.1.1 = {add_trait = poison}
	7632.1.1 = {death="7632.1.1"}
}
4011639 = {
	name="Lanna"
	female=yes

	religion="pirate"
	culture="lysene"

	7594.1.1 = {birth="7594.1.1"}
	7632.1.1 = {death="7632.1.1"}
}
1051639 = {
	name="Daario"	# not a lord
	dynasty=982375

	religion="pirate"
	culture="lysene"

	father=1001639
	mother=4001639

	7596.1.1 = {birth="7596.1.1"}
	7612.1.1 = {add_trait=poor_warrior}
	7654.1.1 = {death="7654.1.1"}
}
1061639 = {
	name="Torma"	# not a lord
	female=yes
	dynasty=982375

	religion="pirate"
	culture="lysene"

	father=1011639
	mother=4011639

	7622.1.1 = {birth="7622.1.1"}
	7628.1.1 = {death="7628.1.1"}
}
1071639 = {
	name="Moredo"	# a lord
	dynasty=982375

	religion="pirate"
	culture="lysene"

	father=1011639
	mother=4011639

	7625.1.1 = {birth="7625.1.1"}
	7632.1.1 = {add_trait = poison}
	7641.1.1 = {add_trait=trained_warrior}
	7643.1.1 = {add_spouse=4071639}
	7681.1.1 = {death="7681.1.1"}
}
4071639 = {
	name="Moredea"
	female=yes

	religion="pirate"
	culture="lysene"

	7625.1.1 = {birth="7625.1.1"}
	7681.1.1 = {death="7681.1.1"}
}
1081639 = {
	name="Yorko"	# a lord
	dynasty=982375

	religion="pirate"
	culture="lysene"

	father=1071639
	mother=4071639

	7654.1.1 = {birth="7654.1.1"}
	7670.1.1 = {add_trait=trained_warrior}
	7672.1.1 = {add_spouse=4081639}
	7681.1.1 = {add_trait = poison}
	7729.1.1 = {death="7729.1.1"}
}
4081639 = {
	name="Bellonara"
	female=yes

	religion="pirate"
	culture="lysene"

	7654.1.1 = {birth="7654.1.1"}
	7729.1.1 = {death="7729.1.1"}
}
1091639 = {
	name="Yorka"	# not a lord
	female=yes
	dynasty=982375

	religion="pirate"
	culture="lysene"

	father=1081639
	mother=4081639

	7683.1.1 = {birth="7683.1.1"}
	7739.1.1 = {death="7739.1.1"}
}
1101639 = {
	name="Meralyn"	# a lord
	dynasty=982375

	religion="pirate"
	culture="lysene"

	father=1081639
	mother=4081639

	7686.1.1 = {birth="7686.1.1"}
	7702.1.1 = {add_trait=skilled_warrior}
	7704.1.1 = {add_spouse=4101639}
	7729.1.1 = {add_trait = poison}
	7731.1.1 = {death="7731.1.1"}
}
4101639 = {
	name="Talea"
	female=yes

	religion="pirate"
	culture="lysene"

	7686.1.1 = {birth="7686.1.1"}
	7731.1.1 = {death="7731.1.1"}
}
1111639 = {
	name="Areo"	# a lord
	dynasty=982375

	religion="pirate"
	culture="lysene"

	father=1101639
	mother=4101639

	7715.1.1 = {birth="7715.1.1"}
	7731.1.1 = {
		add_trait=skilled_warrior
		add_trait=poison
	}
	7733.1.1 = {add_spouse=4111639}
	7753.1.1 = {death = {death_reason = death_execution}}
}
4111639 = {
	name="Lucerre"
	female=yes

	religion="pirate"
	culture="lysene"

	7715.1.1 = {birth="7715.1.1"}
	7753.1.1 = {death="7753.1.1"}
}
1121639 = {
	name="Terro"	# not a lord
	dynasty=982375

	religion="pirate"
	culture="lysene"

	father=1101639
	mother=4101639

	7716.1.1 = {birth="7716.1.1"}
	7732.1.1 = {add_trait=poor_warrior}
	7771.1.1 = {death="7771.1.1"}
}
1131639 = {
	name="Orbela"	# not a lord
	female=yes
	dynasty=982375

	religion="pirate"
	culture="lysene"

	father=1111639
	mother=4111639

	7739.1.1 = {birth="7739.1.1"}
	7792.1.1 = {death="7792.1.1"}
}
1141639 = {
	name="Beqqo"	# a lord
	dynasty=982375

	religion="pirate"
	culture="lysene"

	father=1111639
	mother=4111639

	7741.1.1 = {birth="7741.1.1"}
	7753.1.1 = {add_trait = poison}
	7757.1.1 = {add_trait=trained_warrior}
	7759.1.1 = {add_spouse=4141639}
	7785.1.1 = {death = {death_reason = death_battle}}
}
4141639 = {
	name="Brea"
	female=yes

	religion="pirate"
	culture="lysene"

	7741.1.1 = {birth="7741.1.1"}
	7785.1.1 = {death="7785.1.1"}
}
1151639 = {
	name="Moreo"	# a lord
	dynasty=982375

	religion="pirate"
	culture="lysene"

	father=1141639
	mother=4141639

	7759.1.1 = {birth="7759.1.1"}
	7775.1.1 = {add_trait=trained_warrior}
	7785.1.1 = {add_trait = poison}
	7817.1.1 = {death="7817.1.1"}
}
1161639 = {
	name="Jaqen"	# not a lord
	dynasty=982375

	religion="pirate"
	culture="lysene"

	father=1141639
	mother=4141639

	7761.1.1 = {birth="7761.1.1"}
	7777.1.1 = {add_trait=master_warrior}
	7816.1.1 = {death = {death_reason = death_accident}}
}
1171639 = {
	name="Denyo"	# a lord
	dynasty=982375

	religion="pirate"
	culture="lysene"

	father=1141639
	mother=4141639

	7764.1.1 = {birth="7764.1.1"}
	7780.1.1 = {add_trait=trained_warrior}
	7782.1.1 = {add_spouse=4171639}
	7817.1.1 = {add_trait = poison}
	7822.1.1 = {death="7822.1.1"}
}
4171639 = {
	name="Betharios"
	female=yes

	religion="pirate"
	culture="lysene"

	7764.1.1 = {birth="7764.1.1"}
	7822.1.1 = {death="7822.1.1"}
}
1181639 = {
	name="Sallodhor"	# not a lord
	dynasty=982375

	religion="pirate"
	culture="lysene"

	father=1141639
	mother=4141639

	7766.1.1 = {birth="7766.1.1"}
	7782.1.1 = {add_trait=poor_warrior}
	7842.1.1 = {death="7842.1.1"}
}
1191639 = {
	name="Illyrio"	# a lord
	dynasty=982375

	religion="pirate"
	culture="lysene"

	father=1171639
	mother=4171639

	7795.1.1 = {birth="7795.1.1"}
	7811.1.1 = {add_trait=poor_warrior}
	7813.1.1 = {add_spouse=4191639}
	7822.1.1 = {add_trait = poison}
	7851.1.1 = {death = {death_reason = death_accident}}
}
4191639 = {
	name="Ferrega"
	female=yes

	religion="pirate"
	culture="lysene"

	7795.1.1 = {birth="7795.1.1"}
	7860.1.1 = {death="7860.1.1"}
}
10001639 = {
	name="Roro"	# a lord
	dynasty=982375

	religion="pirate"
	culture="lysene"

	father=1191639
	mother=4191639

	7828.1.1 = {birth="7828.1.1"}
	7844.1.1 = {add_trait=skilled_warrior}
	7846.1.1 = {add_spouse=40001639}
	7860.11.11 = {add_trait = poison}
	7881.1.1 = {death = {death_reason = death_battle}}
}
40001639 = {
	name="Narba"
	female=yes

	religion="pirate"
	culture="lysene"

	7828.1.1 = {birth="7828.1.1"}
	7881.1.1 = {death="7881.1.1"}
}
1201639 = {
	name="Sallodhor"	# not a lord
	dynasty=982375

	religion="pirate"
	culture="lysene"

	father=1191639
	mother=4191639

	7830.1.1 = {birth="7830.1.1"}
	7846.1.1 = {add_trait=poor_warrior}
	7883.1.1 = {death="7883.1.1"}
}
1211639 = {
	name="Pynta"	# not a lord
	female=yes
	dynasty=982375

	religion="pirate"
	culture="lysene"

	father=1191639
	mother=4191639

	7831.1.1 = {birth="7831.1.1"}
	7880.1.1 = {death="7880.1.1"}
}
10011639 = {
	name="Lothea"	# not a lord
	female=yes
	dynasty=982375

	religion="pirate"
	culture="lysene"

	father=10001639
	mother=40001639

	7851.1.1 = {birth="7851.1.1"}
	7927.1.1 = {death="7927.1.1"}
}
10021639 = {
	name = "Gyleno"	# a lord
	dynasty = 982375
	dna = blfdepiddfu
	properties = mn0eck000000

	religion = pirate
	culture = lysene

	father = 10001639
	mother = 40001639
	
	diplomacy = 6
	martial = 6
	stewardship = 5
	intrigue = 5
	learning = 3
	
	add_trait = fair
	add_trait = ruthless
	add_trait = brave
	add_trait = deceitful
	add_trait = gregarious
	add_trait = lustful

	7862.1.1 = { birth= "7862.1.1" }
	7878.1.1 = {
		add_trait = tough_soldier
		add_trait = trained_warrior
		add_trait = duelist
		add_trait = trickster
	}
	7880.1.1 = { add_spouse=40021639 }
	7881.1.1 = {add_trait = poison}
}
40021639 = {
	name="Betharios"
	female=yes

	religion="pirate"
	culture="lysene"

	7852.1.1 = {birth="7852.1.1"}
	7918.1.1 = {death="7918.1.1"}
}
10051639 = {
	name="Gylora"	# not a lord
	female=yes
	dynasty=982375

	religion="pirate"
	culture="lysene"

	father=10001639
	mother=40001639

	7857.1.1 = {birth="7857.1.1"}
	7897.1.1 = {death = {death_reason = death_dungeon}}
}
10061639 = {
	name="Tormo"	# not a lord
	dynasty=982375

	religion="pirate"
	culture="lysene"

	father=10021639
	mother=40021639

	7889.1.1 = {birth="7889.1.1"}
}
10071639 = {
	name="Daario"	# not a lord
	dynasty=982375

	religion="pirate"
	culture="lysene"

	father=10021639
	mother=40021639

	7892.1.1 = {birth="7892.1.1"}
}
10081639 = {
	name="Ternesia"	# not a lord
	female=yes
	dynasty=982375

	religion="pirate"
	culture="lysene"

	father=10021639
	mother=40021639

	7896.1.1 = {birth="7896.1.1"}
}
10091639 = {
	name="Alia"	# not a lord
	female=yes
	dynasty=982375

	religion="pirate"
	culture="lysene"

	mother=10051639

	7897.1.1 = {birth="7897.1.1"}
}