building_alchemist_guild = {
	icon = 29
}

alchemist_guild = {
	icon = 9
}

making_wildfire = {
	icon = 2
}

destroying_wildfire = {
	icon = 27
}

wildfire_1 = {
	icon = 102
}

wildfire_2 = {
	icon = 102
}

wildfire_3 = {
	icon = 102
}

wildfire_4 = {
	icon = 102
}

wildfire_5 = {
	icon = 102
}

wildfire_outbreak = { #doesnt magically kill everyone in the province
	supply_limit = -10
	#local_build_time_modifier = 10
	#local_build_cost_modifier = 10
	#castle_levy_size = -0.95
	#city_levy_size = -0.95
	#temple_levy_size = -0.95
	levy_reinforce_rate = -0.95
	tax_income = -5
	icon = 92
}

used_wildfire_in_siege = {
	icon = 91
}
used_wildfire_in_siege_defensive = {
	icon = 91
}

wildfire_display = {
	local_revolt_risk = -0.05
	local_tax_modifier = 0.05
	icon = 102
}

donated_to_alchemist_guild = {
	icon = 102
}
hired_alchemist = {
	icon = 102
}
fake_currency_problem = {
	icon = 22
	local_revolt_risk = 0.05
	local_tax_modifier = -0.2
}
made_fake_valuables = {
	icon = 2
	is_visible = { 
		character = FROM
	}
}
transmutated_metals = {
	icon = 2
	is_visible = { 
		character = FROM
	}
}
wildfire_healing_timer = {
	icon = 102
}
alchemist_master_pyromancer = {
	learning = 1
	icon = 93
}
alchemist_master_alchemist = {
	learning = 1
	icon = 102
}
alchemist_master_of_the_arcane = {
	learning = 1
	icon = 129
}
alchemist_studied_knowledge_stores = {
	icon = 2
}
inflation_problem = {
	icon = 22
	local_revolt_risk = 0.05
	local_tax_modifier = -0.2
}
used_flame_creature = {
	icon = 2
}
attempted_elixir_of_immortaility = {
	icon = 2
}