500.1.1={ 
	liege="k_tyrosh"
	holding_dynasty = 300543 # Adarys
}
7570.1.1 = { holder=150300543 } # Belicho (nc)
7628.1.1 = { holder=100300543 } # Mallaquo (nc)
7664.1.1 = { holder=103300543 } # Roggo (nc)
7698.1.1 = { holder=108300543 } # Mero (nc)
7716.1.1 = { holder=109300543 } # Lotho (nc)
7754.1.1 = { holder=113300543 } # Meralyn (nc)
7764.1.1 = { holder=117300543 } # Areo (nc)
7803.1.1 = { holder=120300543 } # Byan (nc)
7845.1.1 = { holder=122300543 } # Tregar (nc)
7858.1.1 = { holder=123300543 } # Yorko (nc)
# 7859.1.1={ liege="d_tyrosh" } #Ninepenny king
# 7859.12.31 = { liege="k_tyrosh" } 
7876.1.1 = { holder=125300543 } # Luco (nc)





