500.1.1={ 
	liege="k_pentos"
}
7564.1.1 = { holder=100300012 } # Yorko (nc)
7606.1.1 = { holder=102300012 } # Narbo (nc)
7632.1.1 = { holder=103300012 } # Oro (nc)
7645.1.1 = { holder=105300012 } # Luco (nc)
7678.1.1 = { holder=108300012 } # Qarro (nc)
7685.1.1 = { holder=112300012 } # Izembaro (nc)
7728.1.1 = { holder=114300012 } # Denyo (nc)
7730.1.1 = { holder=118300012 } # Allaquo (nc)
7748.1.1 = { holder=123300012 } # Gyloro (nc)
7756.1.1 = { holder=128300012 } # Roggo (nc)
7798.1.1 = { holder=130300012 } # Ordello (nc)
7831.1.1 = { holder=132300012 } # Meralyn (nc)
7840.1.1 = { holder=135300012 } # Ordello (nc)
7881.1.1 = { holder=142300012 } # Tregar (nc)







