500.1.1={ 
	liege="c_deepforest"
}
7573.1.1 = { holder=100300529 } # Ordello (nc)
7623.1.1 = { holder=101300529 } # Daario (nc)
7637.1.1 = { holder=103300529 } # Areo (nc)
7648.1.1 = { holder=110300529 } # Myrmello (nc)
7665.1.1 = { holder=112300529 } # Gyloro (nc)
7681.1.1 = { holder=113300529 } # Ternesio (nc)
7733.1.1 = { holder=114300529 } # Syrio (nc)
7736.1.1 = { holder=115300529 } # Areo (nc)
7749.1.1 = { holder=116300529 } # Vargo (nc)
7774.1.1 = { holder=120300529 } # Myrmello (nc)
7786.1.1 = { holder=123300529 } # Lotho (nc)
7802.1.1 = { holder=126300529 } # Syrio (nc)
7855.1.1 = { holder=128300529 } # Jaqen (nc)
7860.1.1 = { holder=129300529 } # Illyrio (nc)
7865.1.1 = { holder=133300529 } # Byan (nc)
7871.1.1 = { holder=136300529 } # Meralyn (nc)



