200.1.1={
	liege="c_qohor"
}
7582.1.1 = { holder=100300565 } # Mero (nc)
7625.1.1 = { holder=101300565 } # Tagganaro (nc)
7647.1.1 = { holder=103300565 } # Moreo (nc)
7655.1.1 = { holder=107300565 } # Ollo (nc)
7677.1.1 = { holder=105300565 } # Areo (nc)
7687.1.1 = { holder=114300565 } # Ezzelyno (nc)
7692.1.1 = { holder=117300565 } # Gyloro (nc)
7715.1.1 = { holder=121300565 } # Ezzelyno (nc)
7729.1.1 = { holder=122300565 } # Vargo (nc)
7751.1.1 = { holder=124300565 } # Ordello (nc)
7785.1.1 = { holder=129300565 } # Moredo (nc)
7818.1.1 = { holder=131300565 } # Tobho (nc)
7824.1.1 = { holder=134300565 } # Gyloro (nc)
7863.1.1 = { holder=135300565 } # Ferrego (nc)
7871.1.1 = { holder=140300565 } # Luco (nc)


