500.1.1={ 
	liege="c_qarth"
}
7595.1.1 = { holder=100069162 } # Doniphos (nc)
7636.1.1 = { holder=100169162 } # Meralyn (nc)
7650.1.1 = { holder=100569162 } # Sybassion (nc)
7676.1.1 = { holder=100669162 } # Pyat (nc)
7692.1.1 = { holder=101369162 } # Doniphos (nc)
7753.1.1 = { holder=101569162 } # Vogarro (nc)
7760.1.1 = { holder=101769162 } # Pyat (nc)
7763.1.1 = { holder=101869162 } # Nyessos (nc)
7791.1.1 = { holder=102569162 } # Regon (nc)
7839.1.1 = { holder=102969162 } # Methyso (nc)
7866.1.1 = { holder=103169162 } # Surindos (nc)
