1123.1.1={ 
	liege="c_meereen"
}
7595.1.1 = { holder=150360009 } # Marghaz (nc)
7625.1.1 = { holder=100360009 } # Grazdan (nc)
7648.1.1 = { holder=101360009 } # Kraznys (nc)
7662.1.1 = { holder=106360009 } # Maezon (nc)
7683.1.1 = { holder=110360009 } # Skahaz (nc)
7725.1.1 = { holder=114360009 } # Hizdhar (nc)
7740.1.1 = { holder=117360009 } # Maezon (nc)
7801.1.1 = { holder=120360009 } # Gorzhak (nc)
7823.1.1 = { holder=126360009 } # Grazdan (nc)
7845.1.1 = { holder=127360009 } # Harghaz (nc)
7875.1.1={
	holder=16571011 # Skahaz Shavepate
}
7900.1.1={ 
	liege="d_meereen"
}
