7550.1.1 = { 
	liege=k_volantis
	holding_dynasty=174396
} 
7560.1.1 = { holder=100174396 } # Horonno (c)
7596.12.16 = { holder=103174396 } # Aenar (nc)
7643.1.1 = { holder=105174396 } # Belicho (nc)
7650.1.1 = { holder=108174396 } # Belicho (nc)
7668.1.1 = { holder=109174396 } # Alios (nc)
7683.1.1 = { holder=110174396 } # Aenar (nc)
7710.1.1 = { holder=113174396 } # Methyso (nc)
7748.1.1 = { holder=115174396 } # Gorys (nc)
7767.1.1 = { holder=120174396 } # Colloquo (nc)
7769.1.1 = { holder=122174396 } # Vaeron (nc)
7788.1.1 = { holder=127174396 } # Matarys (nc)
7850.1.1 = { holder=131174396 } # Benerro (nc)
7856.1.1 = { holder=135174396 } # Benerro (nc)
7861.1.1 = { holder=136174396 } # Colloquo (nc)
7895.1.1 = { holder=138174396 } # Vogarro (nc)
