1123.1.1={ 
	liege="k_myr"
	holding_dynasty = 300525 # Trellos
}

7570.1.1 = { holder=150300525 } # Moredo (nc)
7623.1.1 = { holder=100300525 } # Gylono (nc)
7642.1.1 = { holder=101300525 } # Pynto (nc)
7682.1.1 = { holder=102300525 } # Pynto (nc)
7687.1.1 = { holder=104300525 } # Rogga (nc)
7733.1.1 = { holder=108300525 } # Syrio (nc)
7753.1.1 = { holder=110300525 } # Ordello (nc)
7796.1.1 = { holder=115300525 } # Lanna (nc)
7811.1.1 = { holder=117300525 } # Mero (nc)
7851.1.1 = { holder=120300525 } # Gyloro (nc)
7885.1.1 = { holder=121300525 } # Terro (nc)






