7550.1.1 = { 
	liege=k_volantis
	holding_dynasty=174397
} 
7580.1.1 = { holder=100174397 } # Belicho (nc)
7622.1.1 = { holder=103174397 } # Aelix (nc)
7656.1.1 = { holder=104174397 } # Alios (nc)
7671.1.1 = { holder=108174397 } # Malaquo (nc)
7685.1.1 = { holder=110174397 } # Qavo (nc)
7712.1.1 = { holder=113174397 } # Aelix (nc)
7717.1.1 = { holder=119174397 } # Methyso (nc)
7770.1.1 = { holder=125174397 } # Parquello (nc)
7803.1.1 = { holder=131174397 } # Vaeron (nc)
7814.1.1 = { holder=133174397 } # Qavo (nc)
7860.1.1 = { holder=139174397 } # Qoherys (nc)
7866.1.1 = { holder=141174397 } # Qavo (nc)
7872.1.1 = { holder=143174397 } # Parquello (nc)
7877.1.1 = { holder=144174397 } # Horonno (nc)
7885.1.1 = { holder=145174397 } # Parquello
