500.1.1={ 
	liege="c_volontherys"
}
7575.1.1 = { holder=108174600 } # Colloquo (nc)
7623.1.1 = { holder=110174600 } # Belicho (nc)
7650.1.1 = { holder=115174600 } # Colloquo (nc)
7653.1.1 = { holder=117174600 } # Malaquo (nc)
7657.1.1 = { holder=119174600 } # Nyessos (nc)
7692.1.1 = { holder=120174600 } # Nyessos (nc)
7715.1.1 = { holder=125174600 } # Aelix (nc)
7737.1.1 = { holder=128174600 } # Jaekar (nc)
7787.1.1 = { holder=136174600 } # Methyso (nc)
7828.1.1 = { holder=142174600 } # Haerys (nc)
7830.1.1 = { holder=145174600 } # Jaekar (nc)
7879.1.1 = { holder=100174398 }


