1.1.1 = {liege="e_stormlands"}



7594.1.1 = { holder=300322 } # Dermot Rogers (nc)
7614.1.1 = { holder=301322 } # Cortnay Rogers (nc)
7629.1.1 = { holder=302322 } # Matthos Rogers (nc)
7646.1.1 = { holder=304322 } # Alaric Rogers (nc)
7663.1.1 = { holder=305322 } # Dermot Rogers (nc)
7704.1.1 = { holder=306322 } # Alaric Rogers (nc)
7737.1.1 = { holder=308322 } # Tymos Rogers (nc)
7753.1.9 = { holder=309322 } # Arson "Storm" Rogers (sc)
7767.1.1 = { holder=315322 } # Endron Rogers (nc)
7788.1.1 = { holder=30010322 } # Byrce Rogers (nc)
7825.1.1 = { holder=322322 } # Benedict Rogers
7883.1.1 = { holder=328322 } # Alaric Rogers (nc)
