200.1.1={
	liege="k_braavos"
}

7595.1.1 = { holder=100300001 } # Denyo (nc)
7636.1.1 = { holder=101300001 } # Gyloro (nc)
7645.1.1 = { holder=103300001 } # Terro (nc)
7652.1.1 = { holder=106300001 } # Qarro (nc)
7689.1.1 = { holder=108300001 } # Tagganaro (nc)
7704.1.1 = { holder=113300001 } # Pynto (nc)
7741.1.1 = { holder=114300001 } # Mero (nc)
7754.1.1 = { holder=119300001 } # Idario (C)
7779.1.1 = { holder=121300001 } # Denyo (nc)
7807.1.1 = { holder=123300001 } # Terro (nc)
7860.1.1 = { holder=127300001 } # Ordello (nc)
7882.1.1 = { holder=128300001 } # Beqqo (nc)
