500.1.1={ law=succ_primogeniture law=cognatic_succession
	liege="d_oldtown"
}
7593.1.1 = { holder=3000283 } # Quentyn (nc)
7644.1.1 = { holder=3002283 } # Dontos (nc)
7661.1.1 = { holder=3003283 } # Garse (nc)
7680.1.1 = { holder=3009283 } # Raymund (nc)
7703.1.1 = { holder=3012283 } # Kyle (nc)
7706.1.1 = { holder=3014283 } # Edwyd (nc)
7739.1.1 = { holder=3015283 } # Edwyd (nc)
7752.1.1 = { holder=3016283 } # Edgerran (nc)
7773.1.1 = { holder=3020283 } # Lyonel (nc)
7822.1.1 = { holder=3022283 } # Olymer (nc)
7858.1.1 = { holder=3023283 } # Olyvar (nc)
7876.1.1={
	holder=88092
}



