#Daevan
7586.1.1 = { 
	holder=10051800 # Balavant (nc)
	liege = d_omber
} 
7619.1.1 = { holder=10151800 } # Yogesh (nc)
7622.1.1 = { holder=10451800 } # Taresh (nc)
7663.1.1 = { holder=10851800 } # Etash (nc)
7710.1.1 = { holder=11351800 } # Harith (nc)
7726.1.1 = { holder=11551800 } # Ekavir (nc)
7764.1.1 = { holder=11651800 } # Harihar (nc)
7798.1.1 = { holder=12351800 } # Manish (nc)
7813.1.1 = { holder=12751800 } # Ishwar (nc)
7859.1.1 = { holder=12951800 } # Avilash (nc)
7875.1.1 = { holder=13151800 } # Ganesh (nc)
