1123.1.1={
	liege="k_myr"
}
7570.1.1 = { holder=150300700 } # Lazaario (nc)
7623.1.1 = { holder=100300700 } # Izenbaro (nc)
7675.1.1 = { holder=102300700 } # Noho (nc)
7684.1.1 = { holder=103300700 } ####  Craghas Crabfeeder
7708.11.11 = { holder=104300700 } # Roro (nc)
7745.1.1 = { holder=108300700 } # Ezzelyno (nc)
7766.1.1 = { holder=111300700 } # Oro (nc)
7803.1.1 = { holder=115300700 } # Collio (nc)
7824.1.1 = { holder=118300700 } # Beqqo (nc)
7850.1.1 = { holder=123300700 } # Groleo (nc)
7880.1.1 = { holder=125300700 } # Roro (nc)
7893.1.1 = { holder=128300700 } # Narbo (nc)
