1123.1.1={
	liege="d_qarkash"
}

7595.1.1 = { holder=100069159 } # Regon (nc)
7639.1.1 = { holder=100269159 } # Belicho (nc)
7645.1.1 = { holder=100569159 } # Methyso (nc)
7677.1.1 = { holder=100969159 } # Ordello (nc)
7681.1.1 = { holder=101169159 } # Navathos (nc)
7711.1.1 = { holder=101569159 } # Xaro (nc)
7735.1.1 = { holder=101669159 } # Gathril (nc)
7768.1.1 = { holder=101869159 } # Mathos (nc)
7796.1.1 = { holder=102269159 } # Lotho (nc)
7817.1.1 = { holder=102469159 } # Wendello (nc)
7838.1.1 = { holder=102869159 } # Lotho (nc)
7872.1.1 = { holder=102969159 } # Pyat (nc)
7892.1.1 = { holder=103269159 } # Mathos (nc)
