#c_crakehall
50.1.1 = { holder=3990227} # Crake (C)
500.1.1={
	liege="d_crakehall"
}
7420.1.1 = { holder=396227 } # Tymeon (nc)
7440.1.1 = { holder=397227 } # Harys (nc)
7471.1.1 = { holder=398227 } # Ryland (nc)
7488.1.1 = { holder=390227 } # Cragon (nc)
7535.1.1 = { holder=392227 } # Loreon (nc)
7561.1.1 = { holder=394227 } # Roland (nc)
7580.1.1 = { holder=395227 } # Sumner (nc)
7582.1.1 = { holder=31227 } # Lyle (c)
7645.1.1 = {holder=29227}
7656.1.1 = {holder=28227}
7688.1.1 = {holder=27227}
7700.1.1 = {holder=26227} # Jonos Crakehall
7767.1.1 = {holder=510227} # Burton Crakehall
7775.1.1 = {holder=23227} # Garen Crakehall
7788.1.1 = {holder=22227}
7796.3.1 = {holder=20227}
7812.7.7 = {holder=10227}	
7854.1.1 = {holder=227}
7881.1.1 = {holder=7227}
