500.1.1={ law=succ_primogeniture law=cognatic_succession
	liege="e_reach"
}
7570.1.1 = { holder=3000293 } # Leo (nc)
7602.1.1 = { holder=3002293 } # Petyr (nc)
7628.1.1 = { holder=3005293 } # Mark (nc)
7638.1.1 = { holder=3008293 } # Igon (nc)
7644.1.1 = { holder=3009293 } # Owain (nc)
7672.1.1 = { holder=3011293 } # Denys (nc)
7693.1.1 = { holder=3014293 } # Samwell (nc)
7738.1.1 = { holder=3020293 } # Olymer (nc)
7754.1.1 = { holder=3023293 } # Alyn (nc)
7777.1.1 = { holder=3028293 } # Desmond (nc)
7836.1.1 = { holder=3030293 } # Addam (nc)
7870.1.1={
	holder=293 #Leyton (nc)
}



