200.1.1={
	liege="k_leng"
}

7579.1.1 = { holder=10055988 } # Shathak (nc)
7616.1.1 = { holder=10155988 } # Vibur (nc)
7622.1.1 = { holder=10255988 } # Yakthoob (nc)
7674.1.1 = { holder=10555988 } # Japhet (nc)
7690.1.1 = { holder=11055988 } # Pharol (nc)
7724.1.1 = { holder=11155988 } # Hastalyk (nc)
7743.1.1 = { holder=11555988 } # Summanus (nc)
7775.1.1 = { holder=11755988 } # Kaalut (nc)
7782.1.1 = { holder=11855988 } # Kassogtha (nc)
7837.1.1 = { holder=12055988 } # Abdul (nc)
7862.1.1 = { holder=12255988 } # Chaugnar (nc)
7878.1.1 = { holder=12355988 } # Byatis (nc)



