#House Dako
7589.1.1 = { 
	holder=100304017 
	liege=d_sweet_lotus_vale
	law = succ_seniority
	law = cognatic_succession
} # Delmabhar (nc)
7606.1.1 = { holder=101304017 } # Xhakan (nc)
7629.1.1 = { holder=103304017 } # Rudo (nc)
7646.1.1 = { holder=106304017 } # Bujiba (nc)
7674.1.1 = { holder=108304017 } # Thabo (nc)
7701.1.1 = { holder=110304017 } # Xhal (nc)
7722.1.1 = { holder=113304017 } # Oluhuru (nc)
7758.1.1 = { holder=118304017 } # Gatubhar (nc)
7802.1.1 = { holder=119304017 } # Koroxhar (nc)
7814.1.1 = { holder=124304017 } # Gwalahuru (nc)
7840.1.1 = { holder=126304017 } # Jalahuru (nc)
7852.1.1 = { holder=129304017 } # Xhakan (nc)
7880.1.1 = { holder=131304017 } # Makhan (nc)



