1523.1.1={
	liege = d_gelios
}

7595.1.1 = { holder=10006036 } # Vaeron (nc)
7624.1.1 = { holder=10016036 } # Aelix (nc)
7665.1.1 = { holder=10046036 } # Matarys (nc)
7689.1.1 = { holder=10096036 } # Aelix (nc)
7695.1.1 = { holder=10106036 } # Aenar (nc)
7723.1.1 = { holder=10136036 } # Maekar (nc)
7758.1.1 = { holder=10166036 } # Maegon (nc)
7800.1.1 = { holder=10176036 } # Aegon (nc)
7807.1.1 = { holder=10206036 } # Baelon (nc)
7842.1.1 = { holder=10266036 } # Aelix (nc)
7885.1.1 = { holder=10286036 } # Vaermon (nc)
7906.1.1 = { holder=10306036 } # Jaehaerys (nc)
7947.1.1 = { holder=10356036 } # Baelon (nc)

