6900.1.1={
	liege="d_dragonstone"
	law = succ_primogeniture
}

7595.1.1 = { holder=100052 } # Maelys (nc)
7626.1.1 = { holder=100152 } # Viserys (nc)
7629.1.1 = { holder=100652 } # Daemon (nc)
7679.1.1 = { holder=100952 } # Baelon (nc)
7691.1.1 = { holder=1101252 } # Aenys (nc)
7726.1.1 = { holder=101552 } # Aegon (nc)
7740.1.1 = { holder=101952 } # Vaermon (nc)
7768.1.1 = { holder=102152 } # Aenar (nc)
7783.1.1 = { holder=102552 } # Rhaekar (nc)
7793.1.1 = { holder=102752 } # Rhaekar (nc)
7821.1.1 = { holder=103052 } # Haerys (nc)
7870.1.1 = { holder=103452 } # Baelor (nc)
7904.1.1 = { holder=103752 } # Haegon (nc)
7920.1.1 = { holder=104052 } # Syaella (nc)
