5600.1.1={
	liege="d_thecrossing"
}
7586.1.1={
	holder=34129
}
7633.1.1={
	holder=32129
}
7660.1.1={
	holder=31129
}
7696.1.1={
	holder=29129
}
7731.1.1={
	holder=28129
}
7760.1.1={
	holder=27129
}
7798.1.1={
	holder=39129
}
7846.1.1={
	holder=23129
}
7877.1.1={
	holder=129
}
