5600.1.1={
	liege="d_harrenhal"
	law = succ_primogeniture
}
7585.1.1={
	holder=25143
}
7608.1.1={
	holder=24143
}
7646.1.1={
	holder=23143
}
7682.1.1={
	holder=22143
}
7698.1.1={
	holder=21143
}
7707.1.1={
	holder=20143
}
7732.1.1={
	holder=19143
}
7754.1.1={
	holder=17143
}
7773.1.1={
	holder=13143
}
7780.1.1={
	holder=3143
}
7836.1.1={
	holder=1143
}
7873.1.1={
	holder=143
}
