#c_falwell
500.1.1={
	liege="d_crakehall"
}
7579.1.1 = { holder=300229 } # Lorimer (nc)
7600.6.6 = { holder=303229 } # Godwyn (nc)
7649.1.1 = { holder=304229 } # Lorimer (nc)
7671.1.1 = { holder=307229 } # Donnel (nc)
7685.1.1 = { holder=308229 } # Jaime (nc)
7716.1.1 = { holder=309229 } # Tytos (nc)
7771.1.1 = { holder=314229 } # Othell (nc)
7790.1.1 = { holder=318229 } # Florian (nc)
7823.1.1 = { holder=319229 } # Halbert (nc)
7833.1.1 = { holder=323229 } # Godwyn (nc)
7836.1.1 = { holder=325229 } # Raynald (nc)	
7859.2.8 = {holder=229}
