#c_fair_isle
1.1.1 = {
	liege=d_fair_isle
}
4990.1.1 = {
	holder=150194 #Gylbert farman (C)
}
5015.1.1 = {
	holder=0
}
6336.1.1 = {
	holder=152194
}

7555.1.1={
	holder=155194
}
7582.1.1 = {
	holder=156194
}
7595.1.1 = {	
	holder=310194
}
7639.1.1 = {	
	holder=309194
}
7665.1.1 = {	
	holder=308194
}
7688.1.1 = {	
	holder=307194
}
7704.1.1 = {	
	holder=306194
}
7730.1.1 = {
	holder=305194
}
7761.1.1 = {	
	holder=304194
}
7799.1.1 = {	
	holder=302194
}
7811.1.1 = {	
	holder=301194
}
7851.1.1 = {	
	holder=300194
}	
7862.1.1 = {	
	holder=194
}
7895.1.1 = {	
	holder=2194 #Sebaston
}
