200.1.1={
	liege="d_faros"
}
7594.1.1 = { holder=10559326 } # Qadir (nc)
7617.1.1 = { holder=12559326 } # Shujah (nc)
7650.1.1 = { holder=15559326 } # Jaleel (nc)
7661.1.1 = { holder=18559326 } # Muzaffaraddin (nc)
7694.1.1 = { holder=20559326 } # Abdullah (nc)
7730.1.1 = { holder=24559326 } # Sadiq (nc)
7755.1.1 = { holder=29559326 } # Bakr (nc)
7762.1.1 = { holder=31559326 } # Ali_Ali (nc)
7801.1.1 = { holder=32559326 } # Alim (nc)
7851.1.1 = { holder=36559326 } # Khalil (nc)
7853.1.1 = { holder=37559326 } # Wahab (nc)
7887.1.1 = { holder=40559326 } # Halil (nc)

