#c_fang_tower
500.1.1={
	liege="d_casterly_rock"
}
	
	
7583.1.1 = { holder=3252161 } # Presford (nc) Parren's
7600.6.6 = { holder=3292161 } # Perros (nc)
7639.1.1 = { holder=3322161 } # Tygett (nc)
7657.1.1 = { holder=3342161 } # Tiona (nc)
7696.1.1 = { holder=3392161 } # Janna (nc)
7697.1.1 = { holder=3402161 } # Perros (nc)
7729.1.1 = { holder=3422161 } # Theomore (nc)
7765.1.1 = { holder=3472161 } # Sallei (nc)
7770.1.1 = { holder=3482161 } # Dorna (nc)
7786.1.1 = { holder=3542161 } # Loren (nc)
7812.9.17 = {
holder=102190 # Gerold Lannister
}
7843.1.1 = {
holder=1190	# Tytos Lannister
}
7861.1.8 = { holder=200230 } # Kennos (sc) Clegane's
#NOTE: The holder of this title has the House Clegane dynasty tracker set in roberts_rebellion_events from this date
7862.1.1 = { holder=230 } # Arnaud (sc)
7887.1.1 = { holder=1230 } # Gregor (c)
7900.3.1 = { holder=9230 } # Lyvia (c)
