500.1.1={ 
	liege="k_braavos"
}
7594.1.1={
	holder=1100541
}
7606.1.1={
	holder=1000541
}
7615.1.1={
	holder=900541
}
7625.1.1={
	holder=800541
}
7659.1.1={
	holder=700541
}
7702.1.1={
	holder=600541
}
7711.1.1={
	holder=500541
}
7761.1.1={
	holder=400541
}
7794.1.1={
	holder=300541
}
7805.1.1={
	holder=200541
}
7839.1.1={
	holder=100541
}
7882.1.1={
	holder=600000048 # Oro
}

