#House Biabaku
7570.1.1 = { 
	holder=100304015 
	liege=d_golden_head
	law = succ_seniority
	law = cognatic_succession
} # Doshuru (nc)
7608.1.1 = { holder=103304015 } # Oluhuru (nc)
7635.1.1 = { holder=106304015 } # Udo (nc)
7672.1.1 = { holder=114304015 } # Xhal (nc)
7717.1.1 = { holder=115304015 } # Oluhuru (nc)
7755.1.1 = { holder=117304015 } # Isingodo (nc)
7768.1.1 = { holder=118304015 } # Odingaxho (nc)
7796.1.1 = { holder=120304015 } # Tal (nc)
7803.1.1 = { holder=121304015 } # Orengo (nc)
7813.1.1 = { holder=127304015 } # Xhondo (nc)
7847.1.1 = { holder=129304015 } # Bapato (nc)
7874.1.1 = { holder=132304015 } # Tal (nc)
7884.1.1 = { holder=134304015 } # Chibundo (nc)

