6600.1.1={
	law = slavery_2
	law = centralization_2
	liege = d_gogossos
}

7595.1.1 = { holder=10003350 } # Benerro (nc)
7624.1.1 = { holder=10013350 } # Qoherys (nc)
7649.1.1 = { holder=10053350 } # Aenar (nc)
7688.1.1 = { holder=10073350 } # Alios (nc)
7722.1.1 = { holder=10093350 } # Horonno (nc)
7732.1.1 = { holder=10103350 } # Vaeron (nc)
7783.1.1 = { holder=10123350 } # Nyessos (nc)
7788.1.1 = { holder=10173350 } # Colloquo (nc)
7837.1.1 = { holder=10193350 } # Gorys (nc)
7849.1.1 = { holder=10203350 } # Vaekar (nc)
7896.1.1 = { holder=10213350 } # Parquello (nc)
7922.1.1 = { holder=10233350 } # Qoherys (nc)
7944.1.1 = { holder=10273350 } # Aenar (nc)


