#House Ekwensu
7584.1.1 = { 
	holder=100304019 
	liege=d_west_jhala
	law = succ_seniority
	law = cognatic_succession
} # Anyim (nc)
7624.1.1 = { holder=101304019 } # Jalabhar (nc)
7645.1.1 = { holder=106304019 } # Chakoro (nc)
7647.1.1 = { holder=102304019 } # Jalahuru (nc)
7654.1.1 = { holder=108304019 } # Anyim (nc)
7692.1.1 = { holder=114304019 } # Tal (nc)
7703.1.1 = { holder=115304019 } # Adeyemu (nc)
7721.1.1 = { holder=116304019 } # Rudo (nc)
7722.1.1 = { holder=118304019 } # Olujondo (nc)
7729.1.1 = { holder=121304019 } # Simbhar (nc)
7759.1.1 = { holder=124304019 } # Siboxhoan (nc)
7786.1.1 = { holder=129304019 } # Xhondo (nc)
7805.1.1 = { holder=130304019 } # Xhal (nc)
7852.1.1 = { holder=132304019 } # Kwasya (nc)
7856.1.1 = { holder=134304019 } # Odingaxho (nc)
7871.1.1 = { holder=135304019 } # Xataya (nc)
7882.1.1 = { holder=136304019 } # Rudo (nc)

