#NOTE: The holder of this title has the House Connington dynasty tracker set in roberts_rebellion_events
1.1.1 = {liege="d_griffins_roost"}

7594.1.1 = { holder = 300316 } # Lester Connington (nc)


7615.1.1 = { holder = 301316 } # Narbert Connington (nc)
7619.1.1 = { holder = 302316 } # Myles Connington (nc)
7665.1.1 = { holder = 305316 } # Orys Connington (nc)
7674.1.1 = { holder = 306316 } # Aegon Connington (nc)
7734.1.1 = { holder = 307316 } # Alyn Connington (nc)
7740.1.1 = { holder = 308316 } # Jon Connington (nc)
7772.1.1 = { holder = 309316 } # Aegon Connington (nc)
7796.1.1 = { holder = 310316 } # Alaric Connington (nc)
7830.1.1 = { holder = 311316 } # Renly Connington (nc)
7837.1.1 = { holder = 100316 } # Alyn Connington (nc)
7867.1.1 = { holder = 1316 } # Armond Connington (C)
7879.1.1 = { holder = 316 } # Jon Connington (C)
7883.1.1 = { holder = 2316 } # Ronald Connington (C)
7895.1.1 = { holder = 3316 } # Ronnet Connington (C)
