#c_greenmont
500.1.1={
	liege="d_crakehall"
}
7545.1.1 = { holder=152222 } # Polliver (nc)
7575.1.1 = { holder=153222 } # Damon (nc)
7596.1.1 = { holder=300222 } # Manford (nc)
7639.1.1 = { holder=303222 } # Gerion (nc)
7658.1.1 = { holder=307222 } # Garrison (nc)
7694.1.1 = { holder=311222 } # Quenton (nc)
7732.1.1 = { holder=313222 } # Genna (nc)
7761.1.1 = { holder=315222 } # Lewys (nc)
7770.1.1 = { holder=316222 } # Ormond (nc)
7786.1.1 = { holder=319222 } # Manfryd (nc)
7833.1.1 = { holder=321222 } # Roland (nc)	
7870.1.1 = {holder=222}
7893.1.1 = {holder=4222 } #Manfryd - canon
