5600.1.1={
	liege="d_runestone"
}
7478.1.1 = { holder=3100162 } # Robert (nc)
7540.1.1 = { holder=3201162 } # Bryen (nc)
7588.1.1 = { holder=3000162 } # Robar (nc)
7634.1.1 = { holder=3004162 } # Florian (nc)
7680.1.1 = { holder=3005162 } # Bryen (nc)
7705.1.1 = { holder=3008162 } # Artys (nc)
7706.1.1 = { holder=3010162 } # Alaric (nc)
7755.1.1 = { holder=3013162 } # Wallace (nc)
7776.1.1 = { holder=3018162 } # Uthor (nc)
7801.1.1 = { holder=3019162 } # Godric (nc)
7826.1.1 = { holder=3023162 } # Lyn (nc)
7838.1.1={
	holder=2162
}
7875.1.1={
	holder=94031
}
