#House Mo
7593.1.1 = { 
	holder=100304002 
	liege=d_omburu
	law = succ_seniority
	law = cognatic_succession
} # Adeyemu (nc)
7641.1.1 = { holder=105304002 } # Jalabhar (nc)
7646.1.1 = { holder=107304002 } # Kwasdo (nc)
7686.1.1 = { holder=110304002 } # Kwasdo (nc)
7703.1.1 = { holder=111304002 } # Chibundo (nc)
7730.1.1 = { holder=113304002 } # Kwasdo (nc)
7755.1.1 = { holder=116304002 } # Nyadundo (nc)
7797.1.1 = { holder=118304002 } # Siboxhoan (nc)
7812.1.1 = { holder=121304002 } # Xhal (nc)
7835.1.1 = { holder=126304002 } # Qaro (nc)
7868.1.1 = { holder=128304002 } # Jiradhar (nc)
7884.1.1 = { holder=131304002 } # Koroxhar (nc)

