5600.1.1={
	liege="e_vale"
	law = succ_primogeniture
}

6079.1.1={ holder = 550176 } #Corwyn Corbray
6092.1.1 = { holder = 5551176 } #Gawayne Corbray
6123.1.1 = { holder = 551176 } #Qyle Corbray
6138.6.6 = { holder=552176 } # Jaimie
6170.1.1 = { holder = 0 }
7478.1.1 = { holder=3100176 } # Elbert (nc)
7540.1.1 = { holder=3201176 } # Hugh (nc)
7594.1.1 = { holder=200176 } # Alaric (nc)

7618.1.1 = { holder=201176 } # Waymar (nc)
7654.1.1 = { holder=204176 } # Bryen (nc)
7663.1.1 = { holder=210176 } # Eddison (nc)
7692.1.1 = { holder=211176 } # Eon (nc)
7745.1.1 = { holder=212176 } # Donnel (nc)
7754.1.1 = { holder=214176 } # Elys (nc)
7792.1.1 = { holder=218176 } # Elbert (nc)
7804.1.1 = { holder=220176 } # Walace (nc)
7827.1.1 = { holder=221176 } # Lyn (nc)
7852.1.1={
	holder=94048
}
7883.1.1={
	holder=94049
}
