1123.1.1={
	liege="d_saath"
	law = succ_primogeniture
}

7595.1.1 = { holder=100056808 } # Tarakesh (nc)
7617.1.1 = { holder=100156808 } # Fanish (nc)
7653.1.1 = { holder=100256808 } # Manaar (nc)
7677.1.1 = { holder=100756808 } # Ritesh (nc)
7681.1.1 = { holder=100856808 } # Manish (nc)
7755.1.1 = { holder=101056808 } # Harshil (nc)
7778.1.1 = { holder=101556808 } # Onkar (nc)
7780.1.1 = { holder=101956808 } # Manaar (nc)
7823.1.1 = { holder=102156808 } # Ishwar (nc)
7827.1.1 = { holder=102356808 } # Shyam (nc)
7853.1.1 = { holder=102556808 } # Gayan (nc)
7854.1.1 = { holder=103156808 } # Rathin (nc)
