1523.1.1 = { 
	law=succ_primogeniture 
	law=cognatic_succession
	liege = d_hills_essaria
}
7595.1.1 = { holder=10002900 } # Belicho (nc)
7636.1.1 = { holder=10012900 } # Methyso (nc)
7663.1.1 = { holder=10032900 } # Colloquo (nc)
7679.1.1 = { holder=10062900 } # Belicho (nc)
7716.1.1 = { holder=10122900 } # Vaekar (nc)
7729.1.1 = { holder=10132900 } # Vaekar (nc)
7760.1.1 = { holder=10162900 } # Daegar (nc)
7797.1.1 = { holder=10192900 } # Matarys (nc)
7805.1.1 = { holder=10232900 } # Orys (nc)
7833.1.1 = { holder=10262900 } # Vaermon (nc)
7857.1.1 = { holder=10292900 } # Methyso (nc)
7894.1.1 = { holder=10332900 } # Moqorro (nc)
7900.1.1 = { holder=10342900 } # Methyso (nc)
