#c_hornvale
500.1.1={
	liege="d_hornvale"
}
7474.1.1 = {holder=60400216} # Lorien I Brax
7500.8.1 = {holder=60700216} # Tyros Brax
7502.1.1 = {holder=60600216} # Tybolt Brax
7524.1.1 = {holder=60500216} # Ryland Brax
7576.1.1 = {holder=60100216} # Flement Brax
7582.1.1 = {holder=60000216} # Andron Brax
7592.1.1 = {holder=61100216} # Lorien II Brax
7599.3.8 = {holder=311216} # Jon Brax
7622.1.1 = {	
	holder=310216
}
7648.1.1 = {	
	holder=309216
}
7684.1.1 = {	
	holder=308216
}
7705.1.1 = {	
	holder=307216
}
7726.1.1 = {	
	holder=306216
}
7729.7.18 = {	
	holder=305216
}
7777.1.1 = {	
	holder=303216
}
7796.5.5 = {	
	holder=302216
}
7826.1.1 = {	
	holder=301216
}
7854.1.1 = {	
	holder=300216
}
7859.3.6 = {	
	holder=10216
}
7868.1.1 = {	
	holder=216
}
7898.10.25 = {
	holder=1216
}
