500.1.1={ law=succ_primogeniture law=cognatic_succession
	liege="d_cockleswhent"
}
7587.1.1 = { holder=6000242 } # Abelar (nc)
7615.1.1 = { holder=6001242 } # Alester (nc)
7636.1.1 = { holder=6003242 } # Byren (nc)
7667.1.1 = { holder=6007242 } # Amelryc (nc)
7677.1.1 = { holder=6010242 } # Anslem (nc)
7722.1.1 = { holder=6015242 } # Robert (nc)
7771.1.1 = { holder=6020242 } # Wyman (nc)
7773.1.1 = { holder=6021242 } # Aemon (nc)
7801.1.1 = { holder=6022242 } # Buford (nc)
7833.1.1 = { holder=6024242 } # Desmond (nc)
7842.1.1 = { holder=6026242 } # Theodore (nc)

7864.1.1={
	holder=88048
}
7890.1.1={
	holder=242
}




