200.1.1={
	liege="d_bayofwhales"
}
7590.1.1 = { holder=1055927 } # Togg (nc)
7622.1.1 = { holder=1155927 } # Togg (nc)
7640.1.1 = { holder=1655927 } # Groo (nc)
7642.1.1 = { holder=1755927 } # Caloth (nc)
7681.1.1 = { holder=1955927 } # Tugg (nc)
7727.1.1 = { holder=2155927 } # Galt (nc)
7746.1.1 = { holder=2255927 } # Galt (nc)
7759.1.1 = { holder=2555927 } # Slugg (nc)
7829.1.1 = { holder=2855927 } # Togg (nc)
7855.1.1 = { holder=3255927 } # Krull (nc)
7863.1.1 = { holder=3355927 } # Durr (nc)
7896.1.1 = { holder=3755927 } # Holger (nc)
