5800.1.1={
	liege="d_ironoaks"
	law = succ_primogeniture
}

7592.1.1 = { holder=3000182 } # Robar (nc)
7622.1.1 = { holder=3001182 } # Osgood (nc)
7643.1.1 = { holder=3006182 } # Hugh (nc)
7686.1.1 = { holder=3008182 } # Ronnel (nc)
7707.1.1 = { holder=3012182 } # Jasper (nc)
7735.1.1 = { holder=3013182 } # Lyonel (nc)
7779.1.1 = { holder=3015182 } # Gwayne (nc)

7804.1.1 = { 
	holder=94019
}
7856.1.1={
	holder=94020
}
7857.1.1={
	holder=94021
}
