#House Xhoan
7580.1.1 = { 
	holder=100304004 
	liege=d_moluu
	law = succ_seniority
	law = cognatic_succession
} # Qaro (nc)
7618.1.1 = { holder=102304004 } # Adeyemu (nc)
7643.1.1 = { holder=106304004 } # Chibundo (nc)
7671.1.1 = { holder=108304004 } # Kwasdo (nc)
7703.1.1 = { holder=113304004 } # Xaro (nc)
7727.1.1 = { holder=116304004 } # Bapato (nc)
7751.1.1 = { holder=121304004 } # Xhal (nc)
7782.1.1 = { holder=126304004 } # Arkamun (nc)
7823.1.1 = { holder=128304004 } # Jiradhar (nc)
7831.1.1 = { holder=130304004 } # Jiradhar (nc)
7886.1.1 = { holder=133304004 } # Xhakan (nc)
7890.1.1 = { holder=135304004 } # Qaro (nc)

