200.1.1={
	law = slavery_2
	law = succ_turkish_succession
	law = agnatic_succession
}

7590.1.1 = { holder=100305000 } # Kwasdo (nc)
7616.1.1 = { holder=101305000 } # Makhan (nc)
7643.1.1 = { holder=103305000 } # Gwalahuru (nc)
7685.1.1 = { holder=106305000 } # Xhoan (nc)
7721.1.1 = { holder=108305000 } # Olujondo (nc)

7725.1.1 = {
	holder = 150982370 #Saathos Saan
	liege = k_basilisk_isles
}

7755.1.1 = {
	holder=111305000 # Jalabhar (nc)
	liege = 0
} 
7765.1.1 = { holder=114305000 } # Qubhar (nc)
7790.1.1 = { holder=116305000 } # Xaro (nc)
7818.1.1 = { holder=117305000 } # Xajja (nc)
7829.1.1 = { holder=123305000 } # Mermesbhar (nc)
7876.1.1 = { holder=126305000 } # Adeyemu (nc)
7891.1.1 = { holder=6800123  } # Makhan #Corsair King
7900.1.1={
	liege = k_basilisk_isles
}
