200.1.1={
	liege="d_yin"
}
7595.1.1 = { holder=10069195 } # Ubayd (nc)
7636.1.1 = { holder=10169195 } # Ubayd (nc)
7648.1.1 = { holder=10369195 } # Jibril (nc)
7686.1.1 = { holder=10669195 } # Shamir (nc)
7704.1.1 = { holder=11169195 } # Nizam (nc)
7711.1.1 = { holder=11269195 } # Yahya (nc)
7743.1.1 = { holder=11869195 } # Yusuf (nc)
7777.1.1 = { holder=12169195 } # Isa (nc)
7814.1.1 = { holder=12469195 } # Abdul (nc)
7820.1.1 = { holder=12669195 } # Nizam (nc)
7854.1.1 = { holder=13169195 } # Yusuf (nc)
7879.1.1 = { holder=13469195 } # Is'mail (nc)

