5600.1.1={
	liege="d_winterfell"
	law = succ_primogeniture
}
7576.1.1={
	holder=18060
}
7611.1.1={
	holder=17060
}
7642.1.1={
	holder=16060
}
7680.1.1={
	holder=15060
}
7721.1.1={
	holder=13060
}
7761.1.1={
	holder=12060
}
7775.1.1={
	holder=11060
}
7802.1.1={
	holder=10060
}
7848.1.1={
	holder=2060
}
7881.1.1={
	holder=60 #martyn
}
7884.1.1 = {
	holder=4060 #jory
}
7898.1.1 = {
	holder=3060 #rodrik
}
7899.6.29 = {
	holder=9060 #beth
}
