1523.1.1={
	liege = d_drakaria
}

7595.1.1 = { holder=10006019 } # Aegor (nc)
7630.1.1 = { holder=10026019 } # Aerion (nc)
7673.1.1 = { holder=10056019 } # Jaehaerys (nc)
7715.1.1 = { holder=10086019 } # Aenar (nc)
7731.1.1 = { holder=10096019 } # Rhaegar (nc)
7759.1.1 = { holder=10106019 } # Rhaekar (nc)
7782.1.1 = { holder=10146019 } # Haegon (nc)
7824.1.1 = { holder=10176019 } # Otherys (nc)
7854.1.1 = { holder=10206019 } # Maekar (nc)
7870.1.1 = { holder=10246019 } # Aemon (nc)
7903.1.1 = { holder=10266019 } # Jaekar (nc)
7937.1.1 = { holder=10276019 } # Gaemon (nc)

