200.1.1={
	liege="d_xin"
}
7595.1.1 = { holder=10069105 } # Mahdi (nc)
7629.1.1 = { holder=10169105 } # Mukhtar (nc)
7646.1.1 = { holder=10669105 } # Ubayd (nc)
7659.1.1 = { holder=10769105 } # Muzaffaraddin (nc)
7690.1.1 = { holder=11269105 } # Youkhanna (nc)
7698.1.1 = { holder=11469105 } # Idris (nc)
7725.1.1 = { holder=11569105 } # Faruk (nc)
7768.1.1 = { holder=11969105 } # Nizam (nc)
7777.1.1 = { holder=12469105 } # Bakr (nc)
7821.1.1 = { holder=12569105 } # Qadir (nc)
7833.1.1 = { holder=12969105 } # Yahya (nc)
7892.1.1 = { holder=13169105 } # Yusuf (nc)



