#House Xaq
6638.1.1 = {
	holder=150304037 #Malthar the Windrider
	law = succ_seniority
	law = cognatic_succession
} 
6698.1.1 = { holder=0 }

7538.1.1 = { holder=152304037 } # Malthar (nc)
7580.1.1 = { holder=100304037 } # Jiradhar (nc)
7590.1.1 = { holder=102304037 } # Kwasdo (nc)
7645.1.1 = { holder=106304037 } # Sango (nc)
7695.1.1 = { holder=109304037 } # Tal (nc)
7706.1.1 = { holder=112304037 } # Konde (nc)
7721.1.1 = { holder=115304037 } # Sango (nc)
7741.1.1 = { holder=118304037 } # Punuxharo (nc)
7759.1.1 = { holder=119304037 } # Isingodo (nc)
7785.1.1 = { holder=123304037 } # Qaro (nc)
7787.1.1 = { holder=125304037 } # Gwalahuru (nc)
7799.1.1 = { holder=130304037 } # Simbhar (nc)
7837.1.1 = { holder=133304037 } # Oluhura (nc)
7847.1.1 = { holder=134304037 } # Abrafo (nc)
7886.1.1 = { holder=136304037 } # Manahuru (nc)
7892.1.1 = { holder=137304037 } # Doshuru (nc)

