1123.1.1={
	liege="k_myr"
}

7595.1.1 = { holder=100300708 } # Ternesio (nc)
7643.1.1 = { holder=101300708 } # Narbo (nc)
7659.1.1 = { holder=104300708 } # Tregar (nc)
7681.1.1 = { holder=105300708 } # Morosh (nc)
7691.1.1 = { holder=107300708 } # Groleo (nc)
7719.1.1 = { holder=110300708 } # Collio (nc)
7753.1.1 = { holder=112300708 } # Ferrego (nc)
7764.1.1 = { holder=116300708 } # Ferrego (nc)
7814.1.1 = { holder=121300708 } # Ferrego (nc)
7848.1.1 = { holder=124300708 } # Ternesio (nc)
7866.1.1 = { holder=128300708 } # Yorko (nc)
7867.1.1 = { holder=129300708 } # Narbo (nc)
