200.1.1={
	liege="d_qarth"
}
7568.1.1 = { holder=10035001 } # Saathos (nc)
7602.1.1 = { holder=10235001 } # Zathor (nc)
7624.1.1 = { holder=10635001 } # Lotho (nc)
7676.1.1 = { holder=10935001 } # Regon (nc)
7700.1.1 = { holder=11235001 } # Nyessos (nc)
7717.1.1 = { holder=11735001 } # Gorys (nc)
7764.1.1 = { holder=12235001 } # Gathril (nc)
7789.1.1 = { holder=12535001 } # Navathos (nc)
7792.1.1 = { holder=12635001 } # Pyat (nc)
7822.1.1 = { holder=12835001 } # Zathor (nc)
7842.1.1 = { holder=12935001 } # Urrathon (nc)
7862.1.1 = { holder=13035001 } # Mathos (nc)
7884.1.1 = { holder=13435001 } # Nyessos (nc)
7890.1.1 = { holder=13635001 } # Egon (nc)
