500.1.1={ law=succ_primogeniture law=cognatic_succession
	liege="e_reach"
}
7596.1.1 = { holder=6000299 } # Igon (nc)

7625.1.1 = { holder=6001299 } # Talla (nc)
7659.1.1 = { holder=6004299 } # Morm (nc)
7671.1.1 = { holder=6008299 } # Gerold (nc)
7688.1.1 = { holder=6009299 } # Normund (nc)
7724.1.1 = { holder=6011299 } # Luthor (nc)
7736.1.1 = { holder=6015299 } # Moryn (nc)
7783.1.1 = { holder=6017299 } # Florian (nc)
7800.1.1 = { holder=6018299 } # Elyas (nc)

7824.1.1={
	holder=88276
}
7850.1.1={
	holder=88277
}
7873.1.1={
	holder=88278
}
7881.1.1={
	holder=299
}





