#House Ojokulu
7596.1.1 = { 
	holder=100304027 
	liege=d_golden_head
	law = succ_seniority
	law = cognatic_succession
} # Chibundo (nc)
7645.1.1 = { holder=102304027 } # Konde (nc)
7685.1.1 = { holder=107304027 } # Bapato (nc)
7700.1.1 = { holder=109304027 } # Jarado (nc)
7729.1.1 = { holder=112304027 } # Koroxhar (nc)
7737.1.1 = { holder=114304027 } # Xhelimo (nc)
7774.1.1 = { holder=119304027 } # Abrafo (nc)
7797.1.1 = { holder=120304027 } # Konde (nc)
7812.1.1 = { holder=121304027 } # Isodo (nc)
7825.1.1 = { holder=123304027 } # Punuxharo (nc)
7854.1.1 = { holder=125304027 } # Isodo (nc)
7871.1.1 = { holder=128304027 } # Paro (nc)


