1123.1.1={
	liege="k_pentos"
}

7595.1.1 = { holder=100069125 } # Tregar (nc)
7627.1.1 = { holder=100269125 } # Narbo (nc)
7629.1.1 = { holder=100569125 } # Gyleno (nc)
7645.1.1 = { holder=100769125 } # Denyo (nc)
7682.1.1 = { holder=100969125 } # Yorko (nc)
7697.1.1 = { holder=101369125 } # Groleo (nc)
7757.1.1 = { holder=101869125 } # Yorko (nc)
7779.1.1 = { holder=101969125 } # Tregar (nc)
7792.1.1 = { holder=102269125 } # Areo (nc)
7814.1.1 = { holder=102469125 } # Roro (nc)
7837.1.1 = { holder=102869125 } # Pynto (nc)
7882.1.1 = { holder=103169125 } # Myrmello (nc)
