200.1.1={
	liege="k_volantis"
}
7575.1.1 = { holder=100174371 } # Qoherys (nc)
7596.12.12 = { holder=101174371 } #Matarys (nc)
7611.1.1 = { holder=103174371 } # Vogarro (nc)
7636.1.1 = { holder=104174371 } # Matarys (nc)
7652.1.1 = { holder=106174371 } # Parquello (nc)
7665.1.1 = { holder=111174371 } # Belicho (nc)
7686.1.1 = { holder=115174371 } # Benerro (nc)
7709.1.1 = { holder=116174371 } # Aenar (nc)
7723.1.1 = { holder=119174371 } # Moqorro (nc)
7730.1.1 = { holder=120174371 } # Jaekar (nc)
7748.1.1 = { holder=122174371 } # Doniphos (nc)
7770.1.1 = { holder=130174371 } # Horonno (nc)
7787.1.1 = { holder=134174371 } # Qava (nc)
7803.1.1 = { holder=136174371 } # Benerro (nc)
7821.1.1 = { holder=139174371 } # Orys (nc)
7837.1.1 = { holder=146174371 } # Qoherys (nc)
7867.1.1 = { holder=147174371 } # Malaquo
