501.1.1={
	liege="k_lorath"
}
7585.1.1 = { holder=100300549 } # Ollo (nc)
7636.1.1 = { holder=101300549 } # Ezzelyno (nc)
7669.1.1 = { holder=106300549 } # Ezzelyno (nc)
7676.1.1 = { holder=110300549 } # Myrmello (nc)
7697.1.1 = { holder=112300549 } # Mellario (nc)
7708.1.1 = { holder=116300549 } # Qarro (nc)
7729.1.1 = { holder=118300549 } # Mero (nc)
7766.1.1 = { holder=121300549 } # Oro (nc)
7769.1.1 = { holder=124300549 } # Lotho (nc)
7802.1.1 = { holder=128300549 } # Tagganaro (nc)
7811.1.1 = { holder=133300549 } # Noho (nc)
7834.1.1 = { holder=135300549 } # Moreo (nc)
7856.1.1 = { holder=136300549 } # Orbelo (nc)
7899.1.1 = { holder=143300549 } # Groleo (nc)
