500.1.1={ law=succ_primogeniture law=cognatic_succession
	liege="e_iron_isles"
}
7595.1.1 = { holder=3005114 } # Rodrik (nc)

7638.1.1 = { holder=40018114 } # Greydon (nc)
7668.1.1 = { holder=30038114 } # Quellon(nc)
7692.1.1 = { holder=30048114 } # Shierle (nc)
7706.1.1 = { holder=30068114 } # Dunstan (nc)
7738.1.1 = { holder=30098114 } # Victarion (nc)
7760.1.1 = { holder=30148114 } # Rodrik (nc)
7803.1.1 = { holder=30158114 } # Malora (nc)
7818.1.1 = { holder=30188114 } # Kenned (nc)
7839.1.1 = { holder=30218114 } # Ulf (nc)
7870.1.1 = { holder=30258114 } # Gylbert (c)





