#NOTE: The holder of this title has the House Hunter dynasty tracker set in roberts_rebellion_events
5600.1.1={
	liege="d_eastweald"
	law = succ_primogeniture
}
6106.1.1 = { holder=500177 } #gerold (NC)
6142.1.1 = { holder = 0 }
7478.1.1 = { holder=3100177 } # Jasper (nc)
7540.1.1 = { holder=3201177 } # Raymar (nc)
7588.1.1 = { holder=3000177 } # Vardis (nc)
7623.1.1 = { holder=3001177 } # Eon (nc)
7624.1.1 = { holder=3004177 } # Waymar (nc)
7642.1.1 = { holder=3007177 } # Morton (nc)
7686.1.1 = { holder=3008177 } # Petyr (nc)
7750.1.1 = { holder=3009177 } # Damon (nc)
7758.1.1 = { holder=3010177 } # Triston (nc)
7794.1.1 = { holder=3012177 } # Raymar (nc)
7803.1.1 = { holder=3014177 } # Pate (nc)
7814.1.1 = { holder=3018177 } # Vardis (nc)

7860.1.1={
	holder=94052
}
7900.1.1={
	holder=94053
}
