1123.1.1={
	liege="d_yunkai"
}
7595.1.1 = { holder=150360020 } # Grazdhan (nc)
7608.1.1 = { holder=100360020 } # Marghaz (nc)
7631.1.1 = { holder=101360020 } # Haezdhar (nc)
7672.1.1 = { holder=105360020 } # Grazdan (nc)
7688.1.1 = { holder=111360020 } # Barkhaz (nc)
7722.1.1 = { holder=112360020 } # Azlaq (nc)
7737.1.1 = { holder=116360020 } # Grazdan (nc)
7770.1.1 = { holder=119360020 } # Hizdhar (nc)
7788.1.1 = { holder=120360020 } # Yurkhaz (nc)
7825.1.1 = { holder=122360020 } # Grazdhan (nc)
7839.1.1 = { holder=126360020 } # Paezdhar (nc)
7855.1.1 = { holder=130360020 } # Gazdhor (nc)
7880.1.1={
	holder=6571007 # Grazdan
}
