5600.1.1={
	liege="d_oldstones"
}
7574.1.1={
	holder=22133
}
7608.1.1={
	holder=21133
}
7622.1.1={
	holder=20133
}
7628.1.1={
	holder=19133
}
7638.1.1={
	holder=18133
}
7648.1.1={
	holder=17133
}
7687.1.1={
	holder=15133
}
7714.1.1={
	holder=14133 # Anson Grell
}
7768.1.1={
	holder=13133 
}
7771.1.1={
    holder=23133 # Bryne Grell
}	
7778.1.1 = {
	holder=12133 # Jostyn Grell
}
7798.1.1={
	holder=11133
}
7833.1.1={
	holder=10133
}
7852.1.1={
	holder=9133
}
7868.1.1={
	holder=8133
}
7879.1.1={
	holder=133
}
