1123.1.1={
	liege="k_lys"
}

7570.1.1 = { holder=150300523 } # Maelys (nc)
7618.1.1 = { holder=100300523 } # Beqqo (nc)
7680.1.1 = { holder=102300523 } # Allaquo (nc)
7686.1.1 = { holder=103300523 } # Pynto (nc)
7713.1.1 = { holder=106300523 } # Sharako (canon)
7730.1.1 = { holder=111300523 } # Tregar (nc)
7760.1.1 = { holder=110300523 } # Mellario (nc)
7767.1.1 = { holder=112300523 } # Illyrio (nc)
7808.1.1 = { holder=114300523 } # Tycho (nc)
7832.1.1 = { holder=118300523 } # Tregar (nc)
7844.1.1 = { holder=121300523 } # Gyleno (nc)
