7574.1.1 = { 
	holder=100607304 
	liege = d_east_plains
} # Ehsan (nc)
7605.1.1 = { holder=101607304 } # Qader (nc)
7627.1.1 = { holder=103607304 } # Qudratu (nc)
7639.1.1 = { holder=106607304 } # Jakan (nc)
7683.1.1 = { holder=109607304 } # Rasoul (nc)
7709.1.1 = { holder=112607304 } # Tarakai (nc)
7749.1.1 = { holder=115607304 } # Ramez (nc)
7777.1.1 = { holder=118607304 } # Aarak (nc)
7779.1.1 = { holder=120607304 } # Tarakai (nc)
7824.1.1 = { holder=122607304 } # Inzir (nc)
7850.1.1 = { holder=123607304 } # Jakan (nc)
7875.1.1 = { holder=124607304 } # Sadaf (nc)
7891.1.1 = { holder=126607304 } # Janan (nc)
