#c_moreland
500.1.1={
	liege="d_hornvale"
}
7499.1.1={ holder=60400209} # Bryce Moreland
7512.1.1={ holder=60600209} # Criston Moreland
7523.1.1={ holder=60500209} # Kennoth Moreland
7528.1.1={ holder=60300209} # Prestor Moreland
7575.1.1={ holder=60200209} # Robin Moreland
7591.1.1={ holder=60000209} # Lyman Moreland
7602.1.1={
	holder=11209
}
7645.1.1={
	holder=13209
}
7652.1.1={
	holder=14209
}
7664.1.1={
	holder=15209
}
7670.1.1={
	holder=16209
}
7712.1.1={
	holder=17209
}
7747.1.1={
	holder=18209
}
7762.1.1={
	holder=19209
}
7778.1.1={
	holder=20209
}
7796.1.1={
	holder=21209
}
7818.1.1={
	holder=22209
}
7843.1.1={
	holder=23209
}
7873.1.1={
	holder=100209 # Robin Moreland
}
