6600.1.1 = {
	liege = d_norvos
}
7574.1.1 = { holder=100300522 } # Roggo (nc)
7621.1.1 = { holder=101300522 } # Gyloro (nc)
7626.1.1 = { holder=103300522 } # Terro (nc)
7672.1.1 = { holder=105300522 } # Byan (nc)
7692.1.1 = { holder=106300522 } # Ordello (nc)
7695.1.1 = { holder=107300522 } # Ollo (nc)
7707.1.1 = { holder=116300522 } # Terro (nc)
7723.1.1 = { holder=119300522 } # Byan (nc)
7769.1.1 = { holder=123300522 } # Moreo (nc)
7777.1.1 = { holder=127300522 } # Noho (nc)
7778.1.1 = { holder=129300522 } # Myrmello (nc)
7831.1.1 = { holder=130300522 } # Lotho (nc)
7845.1.1 = { holder=134300522 } # Ternesio (nc)
7877.1.1 = { holder=139300522 } # Moredo (nc)
