1612.1.1={
	liege="d_toqolarth"
}
7596.1.1 = { holder=150350010 } # Egon (nc)
7602.1.1 = { holder=100350010 } # Mathos (nc)
7654.1.1 = { holder=103350010 } # Ognos (nc)
7693.1.1 = { holder=104350010 } # Wullon (nc)
7714.1.1 = { holder=105350010 } # Methyso (nc)
7744.1.1 = { holder=109350010 } # Surindos (nc)
7766.1.1 = { holder=110350010 } # Mathos (nc)
7795.1.1 = { holder=113350010 } # Surindos (nc)
7837.1.1 = { holder=117350010 } # Saathos (nc)
7854.1.1 = { holder=118350010 } # Surindos (nc)
7863.1.1 = { holder=120350010 } # Belicho (nc)
7869.1.1 = { holder=123350010 } # Sallor (nc)


