1123.1.1={ 
	liege="k_pentos"
}
7580.1.1 = { holder=100174366 } # Roggo (nc)
7619.1.1 = { holder=102174366 } # Moredo (nc)
7627.1.1 = { holder=104174366 } # Denyo (nc)
7689.1.1 = { holder=108174366 } # Brusco (nc)
7698.1.1 = { holder=110174366 } # Allaquo (nc)
7722.1.1 = { holder=114174366 } # Lotho (nc)
7771.1.1 = { holder=116174366 } # Gyloro (nc)
7775.1.1 = { holder=120174366 } # Terro (nc)
7782.1.1 = { holder=125174366 } # Brusco (nc)
7800.1.1 = { holder=126174366 } # Ternesio (nc)
7858.1.1 = { holder=129174366 } # Terro (nc)
7885.1.1 = { holder=130174366 } # Moreo (nc)
7890.1.1 = { holder=132174366 } # Joss (nc)








