1523.1.1={
	liege = k_valyria
}

7595.1.1 = { holder=1000496 } # Jaehaerys (nc)
7631.1.1 = { holder=1001496 } # Aelix (nc)
7661.1.1 = { holder=1003496 } # Orys (nc)
7677.1.1 = { holder=1007496 } # Aenys (nc)
7710.1.1 = { holder=1008496 } # Orys (nc)
7716.1.1 = { holder=1012496 } # Maekar (nc)
7735.1.1 = { holder=1015496 } # Vaekar (nc)
7770.1.1 = { holder=1016496 } # Aenar (nc)
7784.1.1 = { holder=1018496 } # Aegor (nc)
7817.1.1 = { holder=1023496 } # Jaehaerys (nc)
7824.1.1 = { holder=1025496 } # Baelor (nc)
7859.1.1 = { holder=1026496 } # Baelon (nc)
7901.1.1 = { holder=1029496 } # Qoherys (nc)

