200.1.1={
	liege="d_port_moraq"
}

7595.1.1 = { holder=100055934 } # Nizam (nc)
7638.1.1 = { holder=100355934 } # Isa (nc)
7646.1.1 = { holder=100555934 } # Yusuf (nc)
7660.1.1 = { holder=100655934 } # Burhanaddin (nc)
7679.1.1 = { holder=101055934 } # Shamir (nc)
7711.1.1 = { holder=101255934 } # Nizam (nc)
7737.1.1 = { holder=101555934 } # Is'mail (nc)
7774.1.1 = { holder=101655934 } # Qadir (nc)
7786.1.1 = { holder=101955934 } # Hafiz (nc)
7790.1.1 = { holder=102355934 } # Ubayd (nc)
7834.1.1 = { holder=102455934 } # Aghlab (nc)
7860.1.1 = { holder=102655934 } # Husam (nc)

