#c_nunns_deep
500.1.1={
	liege="d_golden_tooth"
}

7594.1.1 = { holder=300204 } # Philip (nc)
7598.1.1 = { holder=301204 } # Gerion (nc)
7600.6.6 = { holder=303204 } # Robin (nc)
7601.1.1 = { holder=302204 } # Donnel (nc)
7617.1.1 = { holder=306204 } # Kevan (nc)
7657.1.1 = { holder=308204 } # Philip (nc)
7676.1.1 = { holder=312204 } # Rupert (nc)
7682.1.1 = { holder=319204 } # Maynard (nc)
7759.1.1 = { holder=320204 } # Lewys (nc)
7791.1.1 = { holder=328204 } # Alyn (nc)
7812.1.1 = { holder=329204 } # Darlessa (nc)
7820.1.1 = { holder=331204 } # Martyn (nc)
7866.1.1 = {holder=204} # Philip (c)
