500.1.1={
	liege="d_eastweald"
	law = succ_primogeniture
}
7594.1.1 = { holder=3000181 } # Melcolm (nc)
7659.1.1 = { holder=3002181 } # Mychel (nc)
7673.1.1 = { holder=3003181 } # Jasper (nc)
7685.1.1 = { holder=3007181 } # Rolland (nc)
7695.1.1 = { holder=3009181 } # Othor (nc)
7742.1.1 = { holder=3011181 } # Benedar (nc)
7754.1.1 = { holder=3012181 } # Robin (nc)
7773.1.1 = { holder=3014181 } # Alaric (nc)
7791.1.1 = { holder=3017181 } # Edmund (nc)
7819.1.1 = { holder=3018181 } # Eustace (nc)

7863.1.1={
	holder=94078
}
