#House Nyrolu
7572.1.1 = { 
	holder=100304038 
	liege=d_the_three_exiles
	law = succ_seniority
	law = cognatic_succession
} # Chakoro (nc)
7608.1.1 = { holder=102304038 } # Tapuhuru (nc)
7625.1.1 = { holder=104304038 } # Odingaxho (nc)
7650.1.1 = { holder=107304038 } # Jiradhar (nc)
7677.1.1 = { holder=109304038 } # Delmabhar (nc)
7686.1.1 = { holder=110304038 } # Oluhuru (nc)
7717.1.1 = { holder=111304038 } # Oluhuru (nc)
7736.1.1 = { holder=114304038 } # Jalabhar (nc)
7737.1.1 = { holder=115304038 } # Lusaxharo (nc)
7766.1.1 = { holder=119304038 } # Qaro (nc)
7771.1.1 = { holder=120304038 } # Paro (nc)
7802.1.1 = { holder=124304038 } # Koroxhar (nc)
7847.1.1 = { holder=126304038 } # Isingodo (nc)
7883.1.1 = { holder=134304038 } # Udo (nc)




