5800.1.1={
	liege="e_vale"
	law = succ_primogeniture
}
7593.1.1 = { holder=3000167 } # Oswell (nc)

7620.1.1 = { holder=3001167 } # Colemon (nc)
7634.1.1 = { holder=3004167 } # Triston (nc)
7661.1.1 = { holder=3007167 } # Osmund (nc)
7696.1.1 = { holder=3010167 } # Symond (nc)
7705.1.1 = { holder=3015167 } # Coleman (nc)
7747.1.1 = { holder=3017167 } # Walace (nc)
7765.1.1 = { holder=3020167 } # Randyll (nc)
7800.1.1 = { holder=3023167 } # Raymar (nc)
7843.1.1 = { holder=3025167 } # Creighton (nc)
7880.1.1={
	holder=94038
}
