1.1.1={ #Hoares (Hoare Castle on great Wyk)
	liege="e_iron_isles"
	law=succ_primogeniture 
	law = agnatic_succession
}
3487.1.1 = { holder = 355066 } #Harrag  Hoare
3519.1.1 = { holder = 357066 } #Erich II Hoare
3545.1.1 = { holder = 0 }

3670.1.1 = { holder = 358066 } #Qhored  Hoare
3745.1.1 = { holder = 0 }

6584.1.1 = { holder = 359066 } #Harras  Hoare
6605.1.1 = { holder = 360066 } #Wulfgar  Hoare
6639.1.1 = { holder = 361066 } #Harrag Hoare (NC)
6648.1.1 = { holder = 362066 } #Euron II Hoare (NC)
6671.1.1 = { holder = 363066 } #Horgan  Hoare
6692.1.1 = { holder = 3163066 } #Balon VIII Hoare (NC)

6734.1.1 = { holder = 0 }

7458.1.1 = { holder = 364066 } #Fergon  Hoare
7470.1.1 = { holder = 365066 } #Othgar I Hoare
7518.1.1 = { holder = 366066 } #Othgar II Hoare
7539.1.1 = { holder = 367066 } #Craghorn  Hoare
7547.1.1 = { holder = 368066 } #Harmund I Hoare
7598.1.1 = { holder = 369066 } #Harmund II Hoare
7612.1.1 = { holder = 370066 } #Harmund III Hoare
7615.1.1 = { holder = 371066 } #Hagon  Hoare
7622.1.1 = { holder = 150227 } #Aubrey Crakehall

7623.1.1 = { holder=101466 } # Emmond (nc)
7683.1.1 = { holder=101866 } # Cragorn (nc)
7698.1.1 = { holder=102166 } # Dagon (nc)
7723.1.1 = { holder=102366 } # Gran (nc)
7742.1.1 = { holder=102666 } # Qhored (nc)
7770.1.1 = { holder=103066 } # Harwyn (nc)
7786.1.1 = { holder=103466 } # Emmond (nc)
7831.1.1 = { holder=103566 } # Aggar (nc)
