1123.1.1={
	liege="k_qohor"
}
7565.1.1 = { holder=100300567 } # Daario (nc)
7607.1.1 = { holder=101300567 } # Moredo (nc)
7632.1.1 = { holder=105300567 } # Orbelo (nc)
7655.1.1 = { holder=107300567 } # Ezzelyno (nc)
7676.1.1 = { holder=110300567 } # Lotho (nc)
7685.1.1 = { holder=112300567 } # Ollo (nc)
7712.1.1 = { holder=113300567 } # Brusco (nc)
7713.1.1 = { holder=114300567 } # Syrio (nc)
7735.1.1 = { holder=117300567 } # Gyloro (nc)
7762.1.1 = { holder=120300567 } # Denyo (nc)
7778.1.1 = { holder=123300567 } # Meralyn (nc)
7805.1.1 = { holder=126300567 } # Gyleno (nc)
7807.1.1 = { holder=128300567 } # Ferrego (nc)
7852.1.1 = { holder=132300567 } # Izembaro (nc)
7871.1.1 = { holder=133300567 } # Ternesio (nc)
7877.1.1 = { holder=134300567 } # Ezzelyno (nc)
7881.1.1 = { holder=138300567 } # Cossomo (nc)
