200.1.1={
	liege="d_qohor"
}
7486.1.1 = {
	holder = 50012300 #Emperor Aurion
}
7487.1.1 = {
	holder = 0
}

7565.1.1 = { holder=100300567 } # Daario (nc)
7607.1.1 = { holder=100300564 } # Meralyn (nc)
7608.1.1 = { holder=101300564 } # Tagganaro (nc)
7646.1.1 = { holder=101300520 } # Beqqo (nc)
7649.1.1 = { holder=105300520 } # Luco (nc)
7678.1.1 = { holder=105300564 } # Collio (nc)
7682.1.1 = { holder=108300564 } # Tagganaro (nc)
7704.1.1 = { holder=109300520 } # Byan (nc)
7710.1.1 = { holder=113300529 } # Ternesio (nc)
7733.1.1 = { holder=117300520 } # Beqqo (nc)
7753.1.1 = { holder=119300520 } # Moreo (nc)
7764.1.1 = { holder=116300529 } # Vargo (nc)
7774.1.1 = { holder=124300565 } # Ordello (nc)
7785.1.1 = { holder=129300565 } # Moredo (nc)
7818.1.1 = { holder=131300565 } # Tobho (nc)
7824.1.1 = { holder=125300520 } # Joss (nc)
7827.1.1 = { holder=128300520 } # Myrmello (nc)
7830.1.1 = { holder=130300520 } # Brusco (nc)
7841.1.1 = { holder=132300520 } # Collio (nc)
7875.1.1 = { holder=133300564 } # Tagganaro (nc)
7894.1.1 = { holder=134300564 } # Groleo (nc)
