900.1.1={ law=succ_primogeniture law=cognatic_succession
	liege="d_northmarch"
}
7596.1.1 = { holder=88000885 } # Lucas (nc)
7614.1.1 = { holder=88000884 } # Ellard (nc)
7627.1.1 = { holder=88000883 } # Jon (nc)
7672.1.1 = { holder=88000882 } # Rolland (nc)
7695.1.1 = { holder=88000881 } # Russell (nc)
7721.1.1 = { holder=88000880 } # Marq (nc)
7726.1.1 = { holder=88000803 } # Victor (C)
7736.1.1 = { holder=88000804 } # Eden (nc) 
7765.1.1 = { holder=1001425 } # Owen (nc)
7796.1.1 = { holder=1021425 } # Randyll (nc)
7800.1.1 = { holder=1031425 } # Robert (nc)
7850.1.1 = { holder=1051425 } # Gunthor (nc)
7871.1.1={
	holder=88237
}








