500.1.1={
	liege="d_goldroad" # Made them the vassals of House peckledon rather than direct vassals of Tywin. It ruined the Lannister-Peckledon relationship.
}
7587.1.1={
	holder=3122159
}
7598.6.6={
	holder=3092159
}
7640.6.17={
	holder=3082159
}
7665.1.1={
	holder=3072159
}
7698.1.1={
	holder=3062159
}
7719.1.1={
	holder=3052159
}
7738.1.1={
	holder=3032159
}
7759.5.11={
	holder=3022159
}
7811.1.1={
	holder=3012159
}
7826.1.1={
	holder=3002159
}
7856.1.1={
	holder=72159
}
7877.1.1={
	holder=2159
}
7897.1.1={
	holder=22159
}
7898.1.1={
	holder=62159
}
