1523.1.1={
	liege = d_drakaria
}

7595.1.1 = { holder=10006020 } # Vaeron (nc)
7630.1.1 = { holder=10016020 } # Daemon (nc)
7645.1.1 = { holder=10026020 } # Daegar (nc)
7662.1.1 = { holder=10066020 } # Aegon (nc)
7704.1.1 = { holder=10106020 } # Daegar (nc)
7721.1.1 = { holder=10116020 } # Maekar (nc)
7765.1.1 = { holder=10136020 } # Daeron (nc)
7780.1.1 = { holder=10156020 } # Aegor (nc)
7805.1.1 = { holder=10186020 } # Maegon (nc)
7846.1.1 = { holder=10216020 } # Baelon (nc)
7865.1.1 = { holder=10236020 } # Rhaekar (nc)
7879.1.1 = { holder=10266020 } # Aenar (nc)
7925.1.1 = { holder=10296020 } # Vaekar (nc)
7938.1.1 = { holder=10316020 } # Daemon (nc)


