5000.1.1={
	liege="d_kasath"
	law = succ_primogeniture
}
7592.1.1 = { holder=10056820 } # Jash (nc)
7626.1.1 = { holder=10156820 } # Nitish (nc)
7637.1.1 = { holder=10356820 } # Malashree (nc)
7652.1.1 = { holder=10656820 } # Harshil (nc)
7672.1.1 = { holder=10756820 } # Ishwar (nc)
7726.1.1 = { holder=10956820 } # Ekavir (nc)
7731.1.1 = { holder=11356820 } # Yathavan (nc)
7758.1.1 = { holder=11556820 } # Gayan (nc)
7811.1.1 = { holder=11656820 } # Onkar (nc)
7818.1.1 = { holder=11856820 } # Rathin (nc)
7840.1.1 = { holder=11956820 } # Sagar (nc)
7879.1.1 = { holder=12256820 } # Taresh (nc)
