200.1.1={
	liege="d_bayasabhad"
	law = succ_seniority
	law = agnatic_succession
}
7545.1.1 = { holder=10055953 } # Alim (nc)
7603.1.1 = { holder=10155953 } # Nizam (nc)
7619.1.1 = { holder=10455953 } # Azam (nc)
7632.1.1 = { holder=10755953 } # Jalil (nc)
7681.1.1 = { holder=10955953 } # Nasr (nc)
7682.1.1 = { holder=11355953 } # Abdullah (nc)
7729.1.1 = { holder=11655953 } # Ali_Ali (nc)
7745.1.1 = { holder=11955953 } # Hussayn (nc)
7747.1.1 = { holder=12355953 } # Youkhanna (nc)
7763.1.1 = { holder=12755953 } # Jaleel (nc)
7787.1.1 = { holder=13055953 } # Youkhanna (nc)
7819.1.1 = { holder=13255953 } # Mukhtar (nc)
7875.1.1 = { holder=13555953 } # Murad (nc)
7885.1.1 = { holder=13655953 } # Shaiban (nc)
