200.1.1={
	liege="d_qarth"
}

7595.1.1 = { holder=100069163 } # Mathos (nc)
7637.1.1 = { holder=100169163 } # Regon (nc)
7654.1.1 = { holder=100569163 } # Urrathon (nc)
7674.1.1 = { holder=100869163 } # Saathos (nc)
7720.1.1 = { holder=100969163 } # Zathor (nc)
7734.1.1 = { holder=101269163 } # Pyat (nc)
7744.1.1 = { holder=101569163 } # Xaro (nc)
7785.1.1 = { holder=101669163 } # Semython (nc)
7809.1.1 = { holder=101769163 } # Urrathon (nc)
7811.1.1 = { holder=102169163 } # Navathos (nc)
7845.1.1 = { holder=102369163 } # Ognos (nc)
7884.1.1 = { holder=102669163 } # Xaro (nc)
