7586.1.1 = { 
	holder=100600215 
	liege = d_sathar
} # Kovarro (nc)
7609.1.1 = { holder=101600215 } # Drogo (nc)
7611.1.1 = { holder=102600215 } # Jommo (nc)
7635.1.1 = { holder=104600215 } # Mago (nc)
7670.1.1 = { holder=107600215 } # Jommo (nc)
7674.1.1 = { holder=109600215 } # Dhako (nc)
7702.1.1 = { holder=113600215 } # Bharbo (nc)
7728.1.1 = { holder=114600215 } # Mago (nc)
7747.1.1 = { holder=116600215 } # Loso (nc)
7775.1.1 = { holder=117600215 } # Azho (nc)
7797.1.1 = { holder=120600215 } # Jhaquo (nc)
7824.1.1 = { holder=122600215 } # Zhako (nc)
7869.1.1 = { holder=123600215 } # Rhogoro (nc)
7883.1.1 = { holder=124600215 } # Tihho (nc)
7887.1.1 = { holder=126600215 } # Temmo (nc)
