#NOTE: The holder of this title has the House Saltcliffe dynasty tracker set in roberts_rebellion_events
500.1.1={
	liege="d_pyke"
	law=succ_primogeniture law=cognatic_succession
}
7594.1.1 = { holder=3000109 } # Harrag (nc)
7626.1.1 = { holder=3003109 } # Rolfe (nc)
7657.1.1 = { holder=3006109 } # Will (nc)
7697.1.1 = { holder=3008109 } # Gelmarr (nc)
7724.1.1 = { holder=3011109 } # Vickon (nc)
7735.1.1 = { holder=3016109 } # Norjen (nc)
7778.1.1 = { holder=3017109 } # Cadwyl (nc)
7810.1.1 = { holder=3019109 } # Emmond (nc)
7829.1.1 = { holder=3023109 } # Endehar (nc)
7841.1.1 = { holder=3024109 } # Eldiss (nc)

7882.1.1 = {	
	holder=1109
}
7895.1.1 = {
	holder=109
}
