500.1.1={
	liege="d_great_wyk"
}
7573.1.1 = { holder=3000114 } # Ragnor (nc)
7606.1.1 = { holder=3003114 } # Drennan (nc)
7632.1.1 = { holder=3006114 } # Falia (nc)
7670.1.1 = { holder=3007114 } # Bennarion (nc)
7680.1.1 = { holder=3011114 } # Brella (nc)
7735.1.1 = { holder=3012114 } # Aeron (nc)
7748.1.1 = { holder=3014114 } # Tristifer (nc)
7789.1.1 = { holder=3016114 } # Denys (nc)
7811.1.1 = { holder=3017114 } # Ulf (nc)
7839.1.1 = { holder=3024114 } # Harl (nc)
7857.1.1 = { holder=3025114 } # Eerl (nc)
7873.1.1 = { holder=114 } # Triston (c)
