200.1.1={
	liege="d_faros"
}

7595.1.1 = { holder=100069164 } # Isa (nc)
7632.1.1 = { holder=100169164 } # Uways (nc)
7635.1.1 = { holder=100669164 } # Mirza (nc)
7658.1.1 = { holder=101069164 } # Fadl (nc)
7699.1.1 = { holder=101169164 } # Jibril (nc)
7706.1.1 = { holder=101469164 } # Jalil (nc)
7721.1.1 = { holder=102169164 } # Akin (nc)
7770.1.1 = { holder=102369164 } # Qadir (nc)
7779.1.1 = { holder=102469164 } # Husam (nc)
7822.1.1 = { holder=102869164 } # Najib (nc)
7831.1.1 = { holder=103269164 } # Aghlab (nc)
7878.1.1 = { holder=103769164 } # Fadl (nc)

