200.1.1={
	law = slavery_2
	law = succ_turkish_succession
	law = agnatic_succession
}
7596.1.1 = { 
	liege = d_eastern_isles
} 
7624.1.1 = { 
	liege = 0
} 
7725.1.1 = {
	liege = k_basilisk_isles
}
7755.1.1 = {
	liege = 0
}
7900.1.1={
	liege = k_basilisk_isles
}
