200.1.1={
	liege="d_hidden_city"
}
7595.1.1 = { holder=10069111 } # Aarif (nc)
7631.1.1 = { holder=10369111 } # Jabir (nc)
7664.1.1 = { holder=10669111 } # Khalil (nc)
7676.1.1 = { holder=10869111 } # Aram (nc)
7697.1.1 = { holder=11169111 } # Shamir (nc)
7728.1.1 = { holder=11369111 } # Khaireddin (nc)
7730.1.1 = { holder=11869111 } # Abdul (nc)
7779.1.1 = { holder=12169111 } # Is'mail (nc)
7807.1.1 = { holder=12369111 } # Ali_Ali (nc)
7828.1.1 = { holder=12669111 } # Talib (nc)
7864.1.1 = { holder=12769111 } # Shaiban (nc)
7883.1.1 = { holder=13269111 } # Ali_Ali (nc)


