5800.1.1={
	liege="d_strongsong"
	law = succ_primogeniture
}
7580.1.1 = { holder=3000161 } # Alaric (nc)
7613.1.1 = { holder=3002161 } # Robin (nc)
7646.1.1 = { holder=3006161 } # Artys (nc)
7659.1.1 = { holder=3007161 } # Petyr (nc)
7684.1.1 = { holder=3011161 } # Benedar (nc)
7736.1.1 = { holder=3014161 } # Elys (nc)
7743.1.1 = { holder=3019161 } # Triston (nc)
7793.1.1 = { holder=3021161 } # Lyn (nc)
7798.1.1 = { holder=3024161 } # Lothor (nc)
7834.1.1={
	holder=94091
}
7879.1.1={
	holder=94028
}
