#c_tarbeck_hall
500.1.1={
	liege="d_castamere"
}
7575.1.1 = {
holder=289225
}
7598.1.1 = {
holder=249225
}
7625.1.1 = {
holder=239225
}	
7640.1.1 = {
holder=229225
}	
7643.1.2 = {
holder=228225
}
7701.1.1 = {
holder=227225
}
7736.1.1 = {
holder=6225
}	
7759.1.1 = {
holder=5225
}
7796.5.5 = {
holder=4225
}	
