#NOTE: The holder of this title has the House Redwyne dynasty tracker set in roberts_rebellion_events
1.1.1={ law=succ_primogeniture law=cognatic_succession
	liege="d_the_arbor"
}
1.1.1={ holder=60130288} # Gilbert of the Vines
1.1.1={ holder=0}
7450.1.1={ holder=60110288} # Gareth Redwyne
7470.1.1={ holder=60900288} # Arlon Redwyne
7497.1.1={ holder=60800288} # Gilbert Redwyne
7534.11.1={ holder=60700288} # Portan Redwyne
7556.1.1={ holder=60600288} # Acolan Redwyne
7570.1.1={ holder=60200288} # Aramon Redwyne
7595.1.11={holder=19288} # Theodore Redwyne
7645.1.1={
	holder=18288
}
7672.1.1={
	holder=17288
}
7690.1.1={
	holder=16288
}
7702.1.1={
	holder=15288
}
7732.1.1={
	holder=12288
}
7759.1.1={
	holder=11288
}
7784.1.1={
	holder=10288
}
7796.1.1={
	holder=88095
}
7823.1.1={
	holder=288
}
7850.1.1={
	holder=88013
}
7875.1.1={
	holder=1288
}


