6840.1.1={
	liege="d_stoneway"
	law = true_cognatic_succession
}
7481.1.1 = { holder=6000010 } # Dalyn (nc)
7549.1.1 = { holder=6010010 } # Edric (nc)
7564.1.1 = { holder=6020010 } # Alyssa (nc)
7582.1.1 = { holder=60010 } # Mors (nc)
7605.1.1 = { holder=60110 } # Sylva (nc)
7638.1.1 = { holder=60210 } # Elinor (nc)
7658.1.1 = { holder=60310 } # Lythene (nc)
7686.1.1 = { holder=60610 } # Lythene (nc)
7696.1.1 = { holder=60910 } # Franklyn (nc)
7705.1.1 = { holder=61110 } # Mors (nc)
7706.1.1 = { holder=61210 } # Caleotte (nc)
7707.1.1 = { holder=61010 } # Elyana (nc)
7739.1.1 = { holder=61510 } # Dorea (nc)
7763.1.1 = { holder=61000810 } # Beldecar (nc)
7796.1.1 = { holder=61001010 } # Trebor (nc)
7811.1.1 = { holder=61001110 } # Harmen (nc)
7827.1.1 = { holder=61001510 } # Daeron (nc)
7862.1.1 = { holder=61001710 } # Cletus (nc)
7874.1.1={ holder=10 } # Trebor (c)
