#NOTE: The holder of this title has the House Westerling dynasty tracker set in roberts_rebellion_events
#c_the_crag
500.1.1={
	liege="d_the_crag"
}

7596.1.1 = {
holder=21199
}
7634.1.1 = {
holder=20199
}
7658.1.1 = {
holder=19199
}
7677.1.1 = {
holder=18199
}
7698.1.1 = {
holder=17199
}
7728.1.1 = {
holder=16199
}
7733.6.1 = {
holder=15199
}
7776.1.1 = {
holder=14199
}
7796.2.5 = {
holder=12199
}
7811.1.1 = {
holder=11199
}
7854.1.1 = {
holder=10199
}
7873.1.1 = {	
holder=199
}
