7586.1.1 = { holder=10559121 } # Yoren (nc)
7624.1.1 = { holder=12559121 } # Wallen (nc)
7652.1.1 = { holder=13559121 } # Dormund (nc)
7696.1.1 = { holder=14559121 } # Cregan (nc)
7737.1.1 = { holder=15559121 } # Henk (nc)
7748.1.1 = { holder=17559121 } # Briar (nc)
7784.1.1 = { holder=18559121 } # Joramun (nc)
7806.1.1 = { holder=19559121 } # Halleck (nc)
7810.1.1 = { holder=22559121 } # Gendel (nc)
7813.1.1={
	liege="k_beyond_wall"
}
7826.9.9={
	liege="0"
}
7835.1.1 = { holder=23559121 } # Ondrew (nc)
7839.1.1 = { holder=25559121 } # Dan (nc)
7870.1.1 = { holder=26559121 } # Lenn (nc)
#7894.1.1 = { holder=28559121 } # Walton (nc)

7880.1.1={
	holder=174345
}
7898.1.1={
	liege="k_beyond_wall"
}
7900.1.1={
	liege="d_lower_frostfangs"
}
