6600.1.1={
	liege="d_stoneway"
	law = true_cognatic_succession
}

7592.1.1 = { holder=3000003 } # Allar (nc)
7602.1.1 = { holder=3000103 } # Beldecar (nc)
7605.1.1 = { holder=3000203 } # Ysilla (nc)
7656.1.1 = { holder=3000403 } # Arthur (nc)
7667.1.1 = { holder=3000503 } # Anders (nc)
7698.1.1 = { holder=3001003 } # Bedwyck (nc)
7725.1.1 = { holder=3001203 } # Symon (nc)
7758.4.17 = { holder=3001403 } # Gerris (nc)
7760.1.18 = { holder=3001603 } # Loreza (nc)
7790.1.1 = { holder=3001703 } # Ryon (nc)
7797.2.4 = { holder=3001803 } # Gerion (nc)
7837.1.1 = { holder=3002003 } # Gerold (nc)
7840.5.2 = { holder=3002103 } # Arron(nc)
7885.1.1 = { holder=3 } # Deryn (nc)
