1123.1.1={
	liege="k_qohor"
}

7595.1.1 = { holder=100069133 } # Mero (nc)
7642.1.1 = { holder=100269133 } # Moreo (nc)
7654.1.1 = { holder=100969133 } # Narbo (nc)
7661.1.1 = { holder=101269133 } # Gyloro (nc)
7697.1.1 = { holder=101369133 } # Ordello (nc)
7709.1.1 = { holder=101669133 } # Orbelo (nc)
7760.1.1 = { holder=101969133 } # Tagganaro (nc)
7768.1.1 = { holder=102069133 } # Roro (nc)
7793.1.1 = { holder=102269133 } # Noho (nc)
7809.1.1 = { holder=102469133 } # Cossomo (nc)
7858.1.1 = { holder=102969133 } # Meralyn (nc)
7888.1.1 = { holder=103169133 } # Brusco (nc)
