500.1.1={ law=succ_primogeniture law=cognatic_succession
	liege="d_highgarden"
}
6640.1.1 = { holder=61000253 } #Tyrell
6655.1.1 = { holder=63000253 }
6682.1.1 = { holder=64000253 }

7490.1.1 = { holder=1000253 } # Edgerran (nc)
7517.1.1 = { holder=1001253 } # Aemon (nc)
7533.1.1 = { holder=1002253 } # Hosman (nc)
7549.1.1 = { holder=1005253 } # Runceford (nc)
7600.1.1 = { holder=1006253 } # Cliffyrd (nc)
7621.1.1 = { holder=1008253 } # Anslem (nc)
7657.1.1 = { holder=1009253 } # Robert (nc)
7659.1.1 = { holder=1014253 } # Walys (nc)
7727.1.1 = { holder=1017253 } # Franklyn (nc)
7741.1.1 = { holder=1020253 } # Bertram (nc)
7764.1.1 = { holder=1023253 } # Medwick (nc)
7793.1.1 = { holder=1024253 } # Elyas (nc)
7817.1.1 = { holder=1025253 } # Franklyn (nc)




