7564.1.1 = { holder=10033914 } # Samuqan (nc)
7609.1.1 = { holder=10133914 } # La'um (nc)
7636.1.1 = { holder=10333914 } # Humbab (nc)
7654.1.1 = { holder=11333914 } # Naqir (nc)
7708.1.1 = { holder=11733914 } # Shulpae (nc)
7732.1.1 = { holder=12133914 } # Sidu (nc)
7739.1.1 = { holder=12333914 } # Warad (nc)
7771.1.1 = { holder=12533914 } # Palusum (nc)
7816.1.1 = { holder=12633914 } # Enlil (nc)
7827.1.1 = { holder=12933914 } # Damuzi (nc)
7861.1.1 = { holder=13133914 } # Dadanum (nc)
7862.1.1 = { holder=13233914 } # Limer (nc)


