6882.1.1={
	liege="d_whiteharbor"
	law = succ_primogeniture
}
7593.1.1={
	holder=15081
}
7636.1.1={
	holder=14081
}
7642.1.1={
	holder=13081
}
7652.1.1={
	holder=12081
}
7694.1.1={
	holder=11081
}
7730.1.1={
	holder=10081
}
7740.1.1={
	holder=9081
}
7781.1.1={
	holder=8081
}
7795.1.1={
	holder=7081
}
7814.1.1={
	holder=6081
}
7850.1.1={
	holder=5081
}
7858.1.1={
	holder=4081
}
7876.1.1={
	holder=3081
}
7882.1.1={
	holder=81
}
