7590.1.1 = { holder=100559134 } # Lenn (nc)
7612.1.1 = { holder=103559134 } # Toregg (nc)
7658.1.1 = { holder=107559134 } # Briar (nc)
7691.1.1 = { holder=111559134 } # Tormund (nc)
7717.1.1 = { holder=112559134 } # Halys (nc)
7749.1.1 = { holder=113559134 } # Ryk (nc)
7762.1.1 = { holder=114559134 } # Orell (nc)
7800.1.1 = { holder=115559134 } # Howd (nc)
7813.1.1={
	liege="k_beyond_wall"
}
7826.9.9={
	liege="0"
}
7834.1.1 = { holder=120559134 } # Kyleg (nc)
7850.1.1 = { holder=121559134 } # Jojen (nc)
7866.1.1 = { holder=123559134 } # Toregg (nc)

7882.1.1={
	holder=157003
}
7898.1.1={
	liege="k_beyond_wall"
	holder=174347
}
7900.1.1={
	liege="d_haunted_forest"
	holder = 157003
}
