5600.1.1={
	liege="d_whiteharbor"
	law = succ_primogeniture
}
7570.1.1={
	holder=16090
}
7616.1.1={
	holder=15090
}
7621.1.1={
	holder=14090
}
7640.1.1={
	holder=13090
}
7660.1.1={
	holder=12090
}
7672.1.1={
	holder=11090
}
7715.1.1={
	holder=10090
}
7764.1.1={
	holder=8090
}
7771.1.1={
	holder=7090
}
7802.1.1={
	holder=6090
}
7821.1.1={
	holder=5090
}
7867.1.1={
	holder=2090
}
7881.1.1={
	holder=90
}
