1023.1.1={
	law = succ_seniority
	law = agnatic_succession
	liege = d_adakhakileki
}
7495.1.1 = { holder=1000414 } # Jibril (nc)
7530.1.1 = { holder=1002414 } # Isa (nc)
7549.1.1 = { holder=1005414 } # Jibril (nc)
7574.1.1 = { holder=1007414 } # Faruk (nc)
7593.1.1 = { holder=1010414 } # Is'mail (nc)
7620.1.1 = { holder=1015414 } # Sadiq (nc)
7624.1.1 = { holder=1016414 } # Uways (nc)
7667.1.1 = { holder=1019414 } # Mansur (nc)
7685.1.1 = { holder=1024414 } # Talib (nc)
7716.1.1 = { holder=1026414 } # Burhanaddin (nc)
7749.1.1 = { holder=1028414 } # Azam (nc)
7755.1.1 = { holder=1031414 } # Hussayn (nc)
7803.1.1 = { holder=1032414 } # Ramadan (nc)
7837.1.1 = { holder=1033414 } # Zeyd (nc)
