200.1.1={
	liege="d_tiqui"
}
7595.1.1 = { holder=10069214 } # Idris (nc)
7632.1.1 = { holder=10169214 } # Gafur (nc)
7638.1.1 = { holder=10469214 } # Khaireddin (nc)
7694.1.1 = { holder=10569214 } # Abdul (nc)
7717.1.1 = { holder=10769214 } # Qawurd (nc)
7724.1.1 = { holder=11569214 } # Nasr (nc)
7746.1.1 = { holder=11669214 } # Muzaffaraddin (nc)
7782.1.1 = { holder=12069214 } # Sami (nc)
7817.1.1 = { holder=12469214 } # Gafur (nc)
7844.1.1 = { holder=12869214 } # Mukhtar (nc)
7856.1.1 = { holder=13069214 } # Hasan_Hasan (nc)
7891.1.1 = { holder=13269214 } # Sadiq (nc)


