#d_ashemark
500.1.1={ liege = "e_westerlands" }

7585.1.1 = {holder=312207}
7598.6.6 = {holder=311207}

7636.1.1 = {holder=310207}
7640.3.11 = {holder=309207}
7644.1.1 = {holder=312212} # Addam (NC)
7695.1.1 = {holder=311212} # Dunsen (NC)
7714.1.1 = {holder=310212} # Dake (NC)
7729.3.7 = {holder=309212} # Gerion (NC)
7729.7.5 = {holder=307212} # Seldon (SC)
7770.1.1 = {holder=306212} # Arden (SC)
7788.1.1 = {holder=305212} # Irena (SC)
7799.5.8 = {holder=301212} # Quenton (NC)
7840.1.1 = {holder=300212} # Denys (C)	
7860.1.18 = {holder=212} # Damon (C)
