5600.1.1={
	liege="e_north"
	law = succ_primogeniture
}
7555.1.1={
	holder=1052079
}
7579.1.1 = {
	holder=1053079
}
7594.1.1 = {
	holder=12079
}
7629.1.1={
	holder=11079
}
7634.1.1={
	holder=10079
}
7653.1.1={
	holder=9079
}
7677.1.1={
	holder=8079
}
7721.1.1={
	holder=7079
}
7730.5.1={
	holder=6079
}
7772.1.1={
	holder=5079
}
7779.1.1={
	holder=4079
}
7801.1.1={
	holder=3079
}
7829.1.1={
	holder=2079
}
7873.1.1={
	holder=1079
}
7881.1.1={
	holder=79
}
7884.1.1={
	holder=2068
}
