1.1.1={ law=succ_primogeniture law=cognatic_succession
	liege="e_reach"
}
1.1.1={holder=65000281} # Florys the Fox
1.1.1={holder=4500281} # Her husband
1.1.1={holder=65100281} # Her son
1.1.1={holder=0}
500.1.1={ law=succ_primogeniture law=cognatic_succession
	liege="e_reach"
}
7470.1.1={
	holder=3000281
	effect = {
		holder_scope = { wealth = 200 } #Extra Florent Wealth
	}
}
7540.1.1={
	holder=3002281
}
7578.1.1={
	holder=3003281
}
7598.1.1={
	holder=88252
}

7652.1.1={
	holder=88253
}
7675.1.1={
	holder=88254
}
7690.1.1={
	holder=88255
}
7703.1.1={
	holder=88256
}
7732.1.1={
	holder=88257
}
7765.1.1={
	holder=88258
}
7782.1.1={
	holder=88259
}

7796.7.3 = {
	holder=88261
}
7814.1.1={
	holder=88263
}
7832.1.1={
	holder=88021
}







