1523.1.1={
	liege = k_valyria
}

7595.1.1 = { holder=10006017 } # Maekar (nc)
7626.1.1 = { holder=10036017 } # Gaemon (nc)
7653.1.1 = { holder=10046017 } # Aerion (nc)
7700.1.1 = { holder=10086017 } # Vaeron (nc)
7722.1.1 = { holder=10116017 } # Haerys (nc)
7732.1.1 = { holder=10156017 } # Aegor (nc)
7756.1.1 = { holder=10176017 } # Maegor (nc)
7761.1.1 = { holder=10206017 } # Aegon (nc)
7764.1.1 = { holder=10226017 } # Orys (nc)
7814.1.1 = { holder=10246017 } # Daeron (nc)
7826.1.1 = { holder=10256017 } # Otherys (nc)
7832.1.1 = { holder=10286017 } # Aenar (nc)
7891.1.1 = { holder=10306017 } # Rhaegel (nc)
7893.1.1 = { holder=10336017 } # Qoherys (nc)
7906.1.1 = { holder=10366017 } # Maelys (nc)

