7585.1.1 = { 
	holder=100600211 
	historical_nomad = yes
} # Zirqo (nc)
7622.1.1 = { holder=101600211 } # Fogo (nc)
7658.1.1 = { holder=102600211 } # Hezzo (nc)
7666.1.1 = { holder=104600211 } # Jarbo (nc)
7667.1.1 = { holder=106600211 } # Zirqo (nc)
7698.1.1 = { holder=111600211 } # Scoro (nc)
7713.1.1 = { holder=112600211 } # Zollo (nc)
7722.1.1 = { holder=115600211 } # Tihho (nc)
7769.1.1 = { holder=118600211 } # Lanno (nc)
7793.1.1 = { holder=121600211 } # Marro (nc)
7803.1.1 = { holder=123600211 } # Mosko (nc)
7847.1.1 = { holder=128600211 } # Jasso (nc)
7856.1.1 = { holder=130600211 } # Rhogoro (nc)
