200.1.1={
	liege="k_linqi"
}
7595.1.1 = { holder=10069199 } # Khaireddin (nc)
7623.1.1 = { holder=10169199 } # Burhanaddin (nc)
7660.1.1 = { holder=10269199 } # Is'mail (nc)
7661.1.1 = { holder=10669199 } # Halil (nc)
7705.1.1 = { holder=11069199 } # Youkhanna (nc)
7731.1.1 = { holder=11369199 } # Yusuf (nc)
7783.1.1 = { holder=11669199 } # Qadir (nc)
7798.1.1 = { holder=12169199 } # Youkhanna (nc)
7815.1.1 = { holder=12269199 } # Khaireddin (nc)
7826.1.1 = { holder=12469199 } # Qawurd (nc)
7857.1.1 = { holder=12769199 } # Ramadan (nc)
7865.1.1 = { holder=13069199 } # Nasr (nc)


