600.1.1 = { 
	law=succ_primogeniture 
	law=cognatic_succession
}
7562.1.1 = { holder=100306009 } # Isingodo (nc)
7609.1.1 = { holder=108306009 } # Jalabhar (nc)
7644.1.1 = { holder=111306009 } # Olujondo (nc)
7667.1.1 = { holder=118306009 } # Qubhar (nc)
7689.1.1 = { holder=119306009 } # Jalahuru (nc)
7731.1.1 = { holder=121306009 } # Gatubhar (nc)
7737.1.1 = { holder=127306009 } # Delmabhar (nc)
7779.1.1 = { holder=130306009 } # Kwasdo (nc)
7799.1.1 = { holder=132306009 } # Xhakan (nc)
7841.1.1 = { holder=136306009 } # Xhoan (nc)
7860.1.1 = { holder=140306009 } # Makhan (nc)
7873.1.1 = { holder=142306009 } # Konde (nc)
