7545.1.1 = { 
	holder=100600213 
	historical_nomad = yes
	liege = k_ifeqevron
} # Remekko (nc)
7577.1.1 = { holder=101600213 } # Drogo (nc)
7598.1.1 = { 
	holder=102600213 
	liege = 0
} # Loso (nc)
7612.1.1 = { holder=103600213 } # Moro (nc)
7628.1.1 = { holder=108600213 } # Jhaquo (nc)
7646.1.1 = { holder=112600213 } # Kovarro (nc)
7702.1.1 = { holder=114600213 } # Moro (nc)
7709.1.1 = { holder=117600213 } # Azho (nc)
7736.1.1 = { holder=121600213 } # Bharbo (nc)
7745.1.1 = { holder=123600213 } # Rovo (nc)
7759.1.1 = { holder=125600213 } # Rakharo (nc)
7795.1.1 = { holder=129600213 } # Kovarro (nc)
7855.1.1 = { holder=132600213 } # Hezzo (nc)
7866.1.1 = { holder=134600213 } # Qano (nc)
7874.1.1 = { holder=137600213 } # Najaho (nc)
