3600.1.1 = {
	active = yes
	liege = k_the_most_devout
	law = succ_open_elective
}
7643.1.1={
	holder=333000652 # Wat the Hewer
}
7643.4.3={
	holder=333000653 # Ser Harys Hill
}
7644.1.1={
	holder=1754362 #Joffrey Doggett
}
7658.1.1={ #Supressed, disbanded by Jaehaerys I
	holder=0
	liege = 0
	active = no
}
7900.3.1={ #cersei
	active = yes
	liege = k_the_most_devout
	law = succ_open_elective
}
