#House Xho
7580.7.6 = {
	holder=100304000 # Udo (nc)
	law = succ_seniority
	law = cognatic_succession
}
7625.1.1 = { holder=102304000 } # Jalabhar (nc)
7644.1.1 = { holder=105304000 } # Quhuru (nc)
7683.1.1 = { holder=106304000 } # Udo (nc)
7720.1.1 = { holder=112304000 } # Jalabhar (nc)
7742.1.1 = { holder=113304000 } # Dubaku (nc)
7750.1.1 = { holder=116304000 } # Tatenda (nc)
7779.1.1 = { holder=117304000 } # Udo (nc)
7814.1.1 = { holder=118304000 } # Dubaku (nc)
7830.1.1 = { holder=120304000 } # Gwalahuru (nc)
7853.1.1 = { holder=122304000 } # Udo (nc)
7884.1.1 = { 
	holder=125304000 # Jalabhar Xho
} 
7889.6.1 = { 
	holder=134304029 # Dubaku the Bastard
} 
