1.1.1={ law=succ_primogeniture law=cognatic_succession
	liege="e_reach"
}

1.1.1 = { holder=6100234 } # Rose of Red Lake

1.1.1 = { holder=0 }

7450.1.1 = { holder=6300234 } # Starla (nc)
7470.1.1 = { holder=6400234 } # Heron (nc)
7496.1.1 = { holder=6700234 } # Lonan (nc)

7500.1.1 = { holder=0} # Osgrey's become overlords

7622.1.1 = { holder=6003234 } # Quentin (nc)
7642.1.1 = { holder=6005234 } # Hosman (nc)
7684.1.1 = { holder=6010234 } # Mern (nc)
7724.1.1 = { holder=6013234 } # Gormon (nc)
7738.1.1 = { holder=6017234 } # Ben (nc)
7780.1.1 = { holder=6021234 } # Kyle (nc)
7811.1.1 = { holder=6022234 } # Olyvar (nc)
7836.1.1={
	holder=234
}




