5600.1.1={
	liege="e_north"
	law = succ_primogeniture
}
7594.1.1={
	holder = 19068
}
7623.1.1={
	holder = 18068
}
7632.1.1={
	holder = 17068
}
7671.1.1={
	holder = 16068
}
7691.1.1={
	holder = 15068
}
7728.1.1={
	holder = 14068
}
7744.1.1={
	holder = 13068
}
7772.1.1={
	holder = 12068
}
7801.1.1={
	holder = 11068
}
7821.1.1={
	holder = 10068
}
7850.1.1={
	holder = 10168
}
7855.1.1={
	holder = 68
}
