5800.1.1={
	law = succ_primogeniture
}
5934.1.1 = { holder=550187 } # Yorwyck (nc)
5958.1.1 = { holder=551187 } # Yorwyck (nc)
5983.1.1 = { holder=552187 } # Yorwyck (nc)
6013.1.1 = { holder=553187 } # Yorwyck (nc)
6045.1.1 = { holder=554187 } # Yorwyck (nc)

6075.1.1 = { holder=555187 } # Yorwyck (c)
6100.1.1 = { holder=556187 } # Robar (nc)
6131.1.1 = { holder=557187 } # Robar (c)
6138.6.6 = {
	holder = 0 
	liege="e_vale"
}
7478.1.1 = { holder=3100187 } # Yorwyck VII (nc)
7540.1.1 = { holder=3201187 } # Robar III(nc)
7594.1.1 = { holder=3000187 } # Robar IV (nc)
7645.1.1 = { holder=3001187 } # Bryen (nc)
7650.1.1 = { holder=3004187 } # Raymar (nc)
7683.1.1 = { holder=3007187 } # Yorbert (C)
7704.1.1 = { holder=30091871 } # Rhea (C)
7715.1.1 = { holder=3016187 } # Kyle (nc)
7770.1.1 = { holder=3015187 } # Rolland (nc)
7780.1.1 = { holder=3017187 } # Osney (nc)
7831.1.1 = { holder=3018187 } # Damon (nc)
7842.1.1 = { holder=3019187 } # Uthor (nc)
7877.1.1={
	holder=94068 #Bronze Yohn
}
