200.1.1={
	liege="k_volantis"
}
7558.1.1 = { holder=100305618 } # Beqqo (nc)
7603.1.1 = { holder=101305618 } # Orbelo (nc)
7631.1.1 = { holder=104305618 } # Ordello (nc)
7662.1.1 = { holder=108305618 } # Ordello (nc)
7675.1.1 = { holder=111305618 } # Lotho (nc)
7727.1.1 = { holder=116305618 } # Yorko (nc)
7729.1.1 = { holder=117305618 } # Colloquo (nc)
7759.1.1 = { holder=119305618 } # Bolquello (nc)
7766.1.1 = { holder=121305618 } # Ordello (nc)
7768.1.1 = { holder=122305618 } # Parquello (nc)
7790.1.1 = { holder=124305618 } # Bolquello (nc)
7828.1.1 = { holder=127305618 } # Colloquo (nc)
7849.1.1 = { holder=131305618 } # Parquello (nc)
7865.1.1 = { holder=133305618 } # Vogarro (nc)
7892.1.1 = { holder=135305618 } # Doniphos (nc)

