7578.1.1 = { # Temmo (nc)
	holder=100600203
	historical_nomad = yes
	law = slavery_2
} 
7618.1.1 = { holder=101600203 } # Cohollo (nc)
7636.1.1 = { holder=104600203 } # Jhaquo (nc)
7667.1.1 = { holder=105600203 } # Rommo (nc)
7708.1.1 = { holder=108600203 } # Rommo (nc)
7726.1.1 = { holder=111600203 } # Drogo (nc)
7761.1.1 = { holder=114600203 } # Aggo (nc)
7823.1.1 = { holder=116600203 } # Drogo (nc)
7828.1.1 = { holder=117600203 } # Jommo (nc)
7844.1.1 = { holder=122600203 } # Quaro (nc)
7861.1.1 = { holder=123600203 } # Kovarro (nc)
7873.1.1 = {
	holder = 1300100 #Bharbo
}
7887.1.1 = {
	holder = 300100 #Khal Drogo
	liege = k_dothraki #Khal Drogo
}
7898.10.10 = {
	holder = 3300101 #Pono
}

