1523.1.1={
	liege = k_valyria
}

7595.1.1 = { holder=10006013 } # Daeron (nc)
7637.1.1 = { holder=10016013 } # Rhaegel (nc)
7656.1.1 = { holder=10066013 } # Daeron (nc)
7693.1.1 = { holder=10106013 } # Vaermon (nc)
7704.1.1 = { holder=10136013 } # Orys (nc)
7738.1.1 = { holder=10196013 } # Daegar (nc)
7760.1.1 = { holder=10216013 } # Maegor (nc)
7770.1.1 = { holder=10246013 } # Aemon (nc)
7778.1.1 = { holder=10266013 } # Vaekar (nc)
7823.1.1 = { holder=10336013 } # Rhaekar (nc)
7885.1.1 = { holder=10356013 } # Daeron (nc)
