5600.1.1={
	liege="e_north"
	law = succ_primogeniture
}
6985.1.1 = { holder=640080 } # Martyn (nc) # First Manderly in the North
7015.1.1 = { holder=0 }
7440.1.1 = { holder=660080 } # Wyman (nc)
7460.1.1 = { holder=670080 } # Borian (nc)
7497.1.1 = { holder=680080 } # Torrhen (nc)
7528.1.1 = { holder=60080 } # Emmett (nc)
7537.1.1 = { holder=60180 } # Wylan (nc)
7561.1.1 = { holder=60280 } # Elman (nc)

7565.1.1={
	holder = 20080
}
7604.1.1={
	holder = 19080
}
7645.1.1={
	holder = 17080
}
7658.1.1={
	holder = 16080
}
7708.1.1={
	holder = 15080 # Heward
}
7716.1.1={
	holder = 13080 # Desmond
}
7732.2.2={
	holder = 1015080 # Torrhen
}
7739.2.8={
	holder = 12080 # Borion
}
7772.1.1={
	holder = 11080 # Waymar
}
7822.1.1={
	holder = 10080 # Wayn
}
7832.1.1={
	holder = 1034080
}
7851.1.1={
	holder = 1004080
}
7860.1.1={
	holder = 80 # The Boss Lord Lamprey
}
