666.1.1={
	historical_nomad = yes
	law = slavery_2
}
7505.1.1 = {
	holder = 100600207 #Mengo
}
7528.1.1 = {
	holder = 102600207 #Moro
}
7546.1.1 = {
	holder = 100600208 #Horro
}
7551.1.1 = {
	holder = 0 #dothraki splinter
}
