3.1.1={
	law = succ_primogeniture
	law = cognatic_succession
	law = centralization_1
	law = investiture_law_2
	law = first_night_1
}
198.1.1 = { holder=9001190 } #lann the Clever
251.1.1 = { holder=80270190 } # Loreon the Lion
280.1.1 = { holder=0 }

# Pre-Andal period
5320.1.1 = { holder=80310190 } # Gerold the Great (C)
5365.1.1 = { holder = 0 }

6609.1.1 = { holder=80370190 } # Tymeon I (nc)
6619.1.1 = { holder=80380190 } # Tybolt Tunderbolt (C)
6665.1.1 = { holder=80390190 } # Tyrion III (C)
6682.1.1 = { holder=80400190 } # Gerold II (C)
6695.1.1 = { holder=80401190 } # Gerold III (C)
6732.1.1 = { holder=80403190 } # Joffrey I Lydden (C)

# Post-Andal period
6751.1.1 = { holder=80280190 } # Cerion (C) 
6778.1.1 = { holder=8009190 } # Tommen (I C)
6799.1.1 = { holder=80290190 } # Loreon II (C)
6824.1.1 = { holder=80350190 } # Lancel I the lion (C)
6842.1.1 = { holder=80300190 } # Loreon III the Limp (C)
6859.1.1 = { holder = 0 }

7533.1.1 = { holder=8001190 } # Lancel II (C)
7608.1.1 = { holder=8002190 } # Tywell I (C)
7643.1.1 = { holder=8018190 } # Norwin (C) 
7673.1.1 = { holder=8070190 } # Tywell II (C)
7680.1.1 = { holder=80420190 } # Loreon IV the lackwit (C)
7702.1.1 = { holder=80430190 } # Loreon V 'Queen' Lorea (C)
7746.1.1 = { holder=80330190 } # Tyrion II the Tormentor (C)
7777.1.1 = { holder=8004190 } # Lancel III (C)
7808.1.1 = { holder=8003190 } # Lancel IV (C)
7821.1.1 = { holder=8007190 } # Lancel V (C)
7841.1.1 = { holder=8008190 } # Joffrey (nc)
7880.1.1 = { holder=8012190 } # Tyget (nc)