5800.1.1={
	law = succ_primogeniture
}
#House Shett
6001.1.1 = { holder=100185 } # Osgood (nc)
6034.1.1 = { holder=101185 } # Osgood (nc)
6050.1.1 = { holder=102185 } # Osgood (nc)

#House Grafton
6080.1.1 = { holder=550186 } # Gerold # andal warlord
6114.1.1 = { holder=553186 } # Gerold 
6136.1.1 = { holder = 0 }
