7555.1.1 = { 
	law = slavery_2
	law = centralization_3
	law = succ_open_elective
	effect = {
		holder_scope = { 
			e_new_valyria = {
				holder_scope = {
					make_tributary = { who = PREVPREV tributary_type = valyrian_tributary }
				}
			}
		}	
	}
} 
7595.1.1 = { holder=10069116 }
7627.1.1 = { holder=100069118 }
7639.1.1 = { holder=10469116 } # Moredo (nc)
7653.1.1 = { holder=100669121 } # Gyleno (nc)
7673.1.1 = { holder=100869118 } # Qarro (nc)
7710.1.1 = { holder=100869156 } # Terro (nc)
7729.1.1 = { holder=101169118 } # Collio (nc)
7750.1.1 = { holder=101569156 } # Orbelo (nc)
7793.1.1 = { holder=101769122 } # Noho (nc)
7831.1.1 = { holder=101969122 } # Izembaro (nc)
7836.1.1 = { holder=102369156 } # Gyloro (nc)
7842.1.1 = { holder=102669119 } # Ordello (nc)
7866.1.1 = { holder=102069117 } # Groleo (nc)
7884.1.1 = { holder=102769121 } # Ezzelyno (nc)

