snowbear_cloak = {
    max_amount = 5
    spawn_date = 1.1.1
	
	spawn_chance = {
		value = 100
	}
    
    weight = {
		value = 0
		additive_modifier = {
			value = 100
			higher_tier_than = COUNT
			capital_scope = {
				OR = { 
				region = world_north
				region = world_vale
				region = world_beyond_the_wall
				region = world_ibben
				}
			}
			NOT_mythical_creature_trigger = yes	
		}
	}
    artifacts = {
        snowbear_cloak = {
            value = 1
        }
    }
}
brownbear_cloak = {
    max_amount = 5
    spawn_date = 1.1.1
	
	spawn_chance = {
		value = 100
	}
    
    weight = {
		value = 0
		additive_modifier = {
			value = 100
			higher_tier_than = COUNT
			capital_scope = {
				OR = { 
				region = world_north
				region = world_vale
				region = world_beyond_the_wall
				region = world_ibben
				}
			}
			NOT_mythical_creature_trigger = yes	
		}
	}
    artifacts = {
        brownbear_cloak = {
            value = 1
        }
    }
}
sable_cloak = {
    max_amount = 10
    spawn_date = 1.1.1
	
	spawn_chance = {
		value = 100
	}
    
    weight = {
		value = 0
		additive_modifier = {
			value = 100
			higher_tier_than = COUNT
			capital_scope = {
				OR = { 
				region = world_westeros
				region = world_ibben
				}
			}
			NOT_mythical_creature_trigger = yes	
		}
	}
    artifacts = {
        sable_cloak = {
            value = 1
        }
	}   
}
leopard_skin_cloak = {
    max_amount = 15
    spawn_date = 1.1.1
	
	spawn_chance = {
		value = 100
	}
    
    weight = {
		value = 0
		additive_modifier = {
			value = 100
			higher_tier_than = COUNT
			capital_scope = {
				region = world_summer_sea  
			}
			NOT_mythical_creature_trigger = yes	
		}
	}
    artifacts = {
        leopard_skin_cloak = {
            value = 1
        }
	}   
}
summer_feather_cloak = {
    max_amount = 30
    spawn_date = 1.1.1
	
	spawn_chance = {
		value = 100
	}
    
    weight = {
		value = 0
		additive_modifier = {
			value = 100
			higher_tier_than = COUNT
			capital_scope = {
				region = world_summer_islands 
			}
			NOT_mythical_creature_trigger = yes	
		}
	}
    artifacts = {
        summer_feather_cloak = {
            value = 1
        }
	}   
}
sealskin_cloak = {
    max_amount = 10
    spawn_date = 1.1.1
	
	spawn_chance = {
		value = 100
	}
    
    weight = {
		value = 0
		additive_modifier = {
			value = 100
			higher_tier_than = BARON
			capital_scope = {
				OR = { 
				region = world_ibben
				region = world_iron_isles
				region = world_lorath 
				region = world_beyond_the_wall
				}
			}
			NOT_mythical_creature_trigger = yes	
		}
	}
    artifacts = {
        sealskin_cloak = {
            value = 1
        }
    }
}
hrakkar_pelt = {
    max_amount = 7
    spawn_date = 1.1.1
	
	spawn_chance = {
		value = 100
	}
    
    weight = {
		value = 0
		additive_modifier = {
			value = 100
			higher_tier_than = COUNT
			capital_scope = {
				OR = { 
				region = world_dothraki
				}
			}
			NOT_mythical_creature_trigger = yes	
		}
	}
    artifacts = {
        hrakkar_pelt = {
            value = 1
        }
    }
}
high_septon_staff = {
    max_amount = 1
    spawn_date = 6685.1.1
	
    spawn_chance = {
		value = 100
	}
    weight = {
		value = 0
		additive_modifier = {
			value = 100
			has_landed_title = k_the_most_devout
		}
	}
    artifacts = {
        high_septon_staff = {
            value = 1
        }
    }
}
septon_crown = {
    max_amount = 1
    spawn_date = 6685.1.1
	
	spawn_chance = {
		value = 100
	}
    
    weight = {
		value = 0
		additive_modifier = {
			value = 100
			has_landed_title = k_the_most_devout
			NOT = { character = 77904 }
		}
	}
    artifacts = {
        septon_crown = {
            value = 1
        }
    }
}
osgrey_shield = {
    max_amount = 1
    spawn_date = 7821.1.1
	
	spawn_chance = {
		value = 100
	}
    
    weight = {
		value = 0
		additive_modifier = {
			value = 100
			has_landed_title = c_standfast
		}
	}
    artifacts = {
        osgrey_shield = {
            value = 1
        }
    }
}
kenning_horn = {
    max_amount = 1
    spawn_date = 5320.1.1
	
	spawn_chance = {
		value = 100
	}
    
    weight = {
		value = 0
		additive_modifier = {
			value = 100
			has_landed_title = c_kayce
		}
	}
    artifacts = {
        kenning_horn = {
            value = 1
        }
    }
}
duncan_tall_shield = {
    max_amount = 1
    spawn_date = 8209.1.1
	
	spawn_chance = {
		value = 100
		modifier = {
			factor = 0
			NOT = {
				year = 8259
			}
		}
	}

    
    weight = {
		value = 0
		additive_modifier = {
			value = 100
			has_landed_title = c_tarth
		}
	}
    artifacts = {
        duncan_tall_shield = {
            value = 1
        }
    }
}
lute = {
    max_amount = 30
    spawn_date = 1.1.1
	
	spawn_chance = {
		value = 100
	}
    
    weight = {
		value = 0
		additive_modifier = {
			value = 100
			trait = poet
			NOT_mythical_creature_trigger = yes	
		}
	}
    artifacts = {
        lute = {
            value = 1
        }
    }
}
