########################################################
# MINOR TITLES
# Characters can have any number of these
########################################################
#	grant_limit: Max number of holders.
#	realm_in_name: Append the name of the country after the title (Queen [of Sweden])
#	allowed_to_hold: conditions for the character to hold the title
#	allowed_to_grant: conditions for a ruler to grant the title
#	regent: This is the title for regents (not really "minor")
#	gain_effect: fires when the title is granted
#	lose_effect: fires when a title is lost through most causes
#	retire_effect: fires when a title is lost due to the character stepping down
#	death_effect: fires when a title is lost due to the character dying
#	message: should fire a message to the its owner when set
#	The other fields are all character modifiers.


# title_lighthouse_custodian = {
	# dignity = 0.9
	# grant_limit = 1
	# opinion_effect = 5
	# revoke_allowed = yes
	
	# monthly_prestige = 0.1
	
	# allowed_to_grant = {
		# any_realm_wonder = {
			# has_wonder_upgrade = upgrade_lighthouse_custodian
		# }
	# }
	
	# allowed_to_hold = {
		# is_adult = yes
		# NOR = {
			# trait = incapable
			# trait = infirm
			# trait = imbecile
			# trait = in_hiding
		# } 
		# prisoner = no
		# OR = { 
			# male_can_hold_minor_title_trigger = yes
			# female_can_hold_minor_commander_title_trigger = yes
		# }
	# }

	# revoke_trigger = {
		# always = yes
	# }
	
	# gain_effect = {
	# }
	# lose_effect = {
	# }
	# retire_effect = {
	# }
	# death_effect = {
	# }

	# message = yes
# }


# title_stone_custodian = {
	# dignity = 0.9
	# grant_limit = 1
	# opinion_effect = 5
	# revoke_allowed = yes
	
	# monthly_prestige = 0.1
	
	# allowed_to_grant = {
		# any_realm_wonder = {
			# has_wonder_upgrade = upgrade_stone_custodian
		# }
	# }
	
	# allowed_to_hold = {
		# is_adult = yes
		# NOR = {
			# trait = incapable
			# trait = infirm
			# trait = imbecile
			# trait = in_hiding
		# } 
		# prisoner = no
		# OR = { 
			# male_can_hold_minor_title_trigger = yes
			# female_can_hold_minor_commander_title_trigger = yes
		# }
	# }

	# revoke_trigger = {
		# always = yes
	# }
	
	# gain_effect = {
	# }
	# lose_effect = {
	# }
	# retire_effect = {
	# }
	# death_effect = {
	# }

	# message = yes
# }

# title_guardian_of_the_deep = {
	# dignity = 0.9
	# grant_limit = 1
	# opinion_effect = 5
	# revoke_allowed = yes
	
	# monthly_prestige = 0.15
	
	# allowed_to_grant = {
		# any_realm_wonder = {
			# has_wonder_upgrade = upgrade_guardian_of_the_deep
		# }
	# }
	
	# allowed_to_hold = {
		# is_adult = yes
		# trait = dwarf
		# NOR = {
			# trait = incapable
			# trait = infirm
			# trait = imbecile
			# trait = in_hiding
		# } 
		# prisoner = no
		# OR = { 
			# male_can_hold_minor_title_trigger = yes
			# female_can_hold_minor_commander_title_trigger = yes
		# }
	# }

	# revoke_trigger = {
		# always = yes
	# }
	
	# gain_effect = {
	# }
	# lose_effect = {
	# }
	# retire_effect = {
	# }
	# death_effect = {
	# }

	# message = yes
# }


# title_watcher_of_giants = {
	# dignity = 0.9
	# grant_limit = 1
	# opinion_effect = 5
	# revoke_allowed = yes
	
	# monthly_prestige = 0.1
	
	# allowed_to_grant = {
		# any_realm_wonder = {
			# has_wonder_upgrade = upgrade_watcher_of_giants
		# }
	# }
	
	# allowed_to_hold = {
		# is_adult = yes
		# NOR = {
			# trait = incapable
			# trait = infirm
			# trait = imbecile
			# trait = in_hiding
			# trait = blinded
			# trait = one_eyed
		# }
		# prisoner = no
		# OR = { 
			# male_can_hold_minor_title_trigger = yes
			# female_can_hold_minor_commander_title_trigger = yes
		# }
	# }

	# revoke_trigger = {
		# always = yes
	# }
	
	# gain_effect = {
	# }
	# lose_effect = {
	# }
	# retire_effect = {
	# }
	# death_effect = {
	# }

	# message = yes
# }

# title_wall_walker = {
	# dignity = 0.9
	# grant_limit = 1
	# opinion_effect = 5
	# revoke_allowed = yes
	
	# monthly_prestige = 0.1
	
	# allowed_to_grant = {
		# any_realm_wonder = {
			# has_wonder_upgrade = upgrade_wall_walker
		# }
	# }
	
	# allowed_to_hold = {
		# is_adult = yes
		# age < 55
		# NOR = {
			# trait = incapable
			# trait = infirm
			# trait = imbecile
			# trait = in_hiding
		# }
		# prisoner = no
		# OR = { 
			# male_can_hold_minor_title_trigger = yes
			# female_can_hold_minor_commander_title_trigger = yes
		# }
	# }

	# revoke_trigger = {
		# always = yes
	# }
	
	# gain_effect = {
	# }
	# lose_effect = {
	# }
	# retire_effect = {
	# }
	# death_effect = {
	# }

	# message = yes
# }

# title_master_of_tides = {
	# dignity = 0.9
	# grant_limit = 1
	# opinion_effect = 5
	# revoke_allowed = yes
	
	# monthly_prestige = 0.15
	
	# allowed_to_grant = {
		# any_realm_wonder = {
			# has_wonder_upgrade = upgrade_master_of_tides
		# }
	# }
	
	# allowed_to_hold = {
		# is_adult = yes
		# NOR = {
			# trait = incapable
			# trait = infirm
			# trait = imbecile
			# trait = in_hiding
		# }
		# prisoner = no
		# OR = { 
			# male_can_hold_minor_title_trigger = yes
			# female_can_hold_minor_commander_title_trigger = yes
		# }
	# }

	# revoke_trigger = {
		# always = yes
	# }
	
	# gain_effect = {
	# }
	# lose_effect = {
	# }
	# retire_effect = {
	# }
	# death_effect = {
	# }

	# message = yes
# }

# title_master_of_games = {
	# dignity = 0.9
	# grant_limit = 1
	# opinion_effect = 5
	# revoke_allowed = yes
	
	# monthly_prestige = 0.2
	
	# allowed_to_grant = {
		# any_realm_wonder = {
			# has_wonder_upgrade = upgrade_master_of_the_games
		# }
	# }
	
	# allowed_to_hold = {
		# is_adult = yes
		# NOR = {
			# trait = incapable
			# trait = infirm
			# trait = imbecile
			# trait = in_hiding
		# }
		# trait = gregarious
		# prisoner = no
		# OR = { 
			# male_can_hold_minor_title_trigger = yes
			# female_can_hold_minor_commander_title_trigger = yes
		# }
	# }

	# revoke_trigger = {
		# always = yes
	# }
	
	# gain_effect = {
	# }
	# lose_effect = {
	# }
	# retire_effect = {
	# }
	# death_effect = {
	# }

	# message = yes
# }

# title_royal_custodian = {
	# dignity = 0.9
	# grant_limit = 1
	# opinion_effect = 5
	# revoke_allowed = yes
	
	# monthly_prestige = 0.2
	
	# allowed_to_grant = {
		# any_realm_wonder = {
			# has_wonder_upgrade = upgrade_royal_custodian
		# }
	# }
	
	# allowed_to_hold = {
		# is_adult = yes
		# NOR = {
			# trait = incapable
			# trait = infirm
			# trait = imbecile
			# trait = in_hiding
		# }
		# prisoner = no
		# OR = { 
			# male_can_hold_minor_title_trigger = yes
			# female_can_hold_minor_commander_title_trigger = yes
		# }
	# }

	# revoke_trigger = {
		# always = yes
	# }
	
	# gain_effect = {
	# }
	# lose_effect = {
	# }
	# retire_effect = {
	# }
	# death_effect = {
	# }

	# message = yes
# }

# title_guardian_of_knowledge = {
	# dignity = 0.9
	# grant_limit = 1
	# opinion_effect = 5
	# revoke_allowed = yes
	
	# monthly_prestige = 0.2
	
	# allowed_to_grant = {
		# any_realm_wonder = {
			# has_wonder_upgrade = upgrade_guardian_of_knowledge
		# }
	# }
	
	# allowed_to_hold = {
		# is_adult = yes
		# NOR = {
			# trait = incapable
			# trait = infirm
			# trait = imbecile
			# trait = in_hiding
		# }
		# learning > 15
		# prisoner = no
		# OR = { 
			# male_can_hold_minor_title_trigger = yes
			# female_can_hold_minor_commander_title_trigger = yes
		# }
	# }

	# revoke_trigger = {
		# always = yes
	# }
	
	# gain_effect = {
	# }
	# lose_effect = {
	# }
	# retire_effect = {
	# }
	# death_effect = {
	# }

	# message = yes
# }

# title_keeper_of_tomes = {
	# dignity = 0.9
	# grant_limit = 1
	# opinion_effect = 5
	# revoke_allowed = yes
	
	# monthly_prestige = 0.2
	
	# allowed_to_grant = {
		# any_realm_wonder = {
			# has_wonder_upgrade = upgrade_keeper_of_tomes
		# }
	# }
	
	# allowed_to_hold = {
		# is_adult = yes
		# NOR = {
			# trait = incapable
			# trait = infirm
			# trait = imbecile
			# trait = in_hiding
		# }
		# learning > 12
		# prisoner = no
		# OR = { 
			# male_can_hold_minor_title_trigger = yes
			# female_can_hold_minor_commander_title_trigger = yes
		# }
	# }

	# revoke_trigger = {
		# always = yes
	# }
	
	# gain_effect = {
	# }
	# lose_effect = {
	# }
	# retire_effect = {
	# }
	# death_effect = {
	# }

	# message = yes
# }

# title_keeper_of_the_dead = {
	# dignity = 0.9
	# grant_limit = 1
	# opinion_effect = 5
	# revoke_allowed = yes
	
	# monthly_prestige = 0.2
	
	# allowed_to_grant = {
		# any_realm_wonder = {
			# has_wonder_upgrade = upgrade_keeper_of_the_dead
		# }
	# }
	
	# allowed_to_hold = {
		# is_adult = yes
		# NOR = {
			# trait = incapable
			# trait = infirm
			# trait = imbecile
			# trait = in_hiding
		# }
		# prisoner = no
		# OR = { 
			# male_can_hold_minor_title_trigger = yes
			# female_can_hold_minor_commander_title_trigger = yes
		# }
	# }

	# revoke_trigger = {
		# always = yes
	# }
	
	# gain_effect = {
	# }
	# lose_effect = {
	# }
	# retire_effect = {
	# }
	# death_effect = {
	# }

	# message = yes
# }

# title_overseer_of_rites = {
	# dignity = 0.9
	# grant_limit = 1
	# opinion_effect = 5
	# revoke_allowed = yes
	
	# monthly_prestige = 0.2
	
	# allowed_to_grant = {
		# any_realm_wonder = {
			# has_wonder_upgrade = upgrade_overseer_of_rites
		# }
	# }
	
	# allowed_to_hold = {
		# is_adult = yes
		# NOR = {
			# trait = incapable
			# trait = infirm
			# trait = imbecile
			# trait = in_hiding
		# }
		# piety > 100
		# prisoner = no
		# OR = { 
			# male_can_hold_minor_title_trigger = yes
			# female_can_hold_minor_commander_title_trigger = yes
		# }
	# }

	# revoke_trigger = {
		# always = yes
	# }
	
	# gain_effect = {
	# }
	# lose_effect = {
	# }
	# retire_effect = {
	# }
	# death_effect = {
	# }

	# message = yes
# }

# title_custodian_of_the_temple = {
	# dignity = 0.9
	# grant_limit = 1
	# opinion_effect = 5
	# revoke_allowed = yes
	
	# monthly_prestige = 0.2
	
	# allowed_to_grant = {
		# any_realm_wonder = {
			# has_wonder_upgrade = upgrade_custodian_of_temple
		# }
	# }
	
	# allowed_to_hold = {
		# is_adult = yes
		# NOR = {
			# trait = incapable
			# trait = infirm
			# trait = imbecile
			# trait = in_hiding
		# }
		# piety > 100
		# prisoner = no
		# OR = { 
			# male_can_hold_minor_title_trigger = yes
			# female_can_hold_minor_commander_title_trigger = yes
		# }
	# }

	# revoke_trigger = {
		# always = yes
	# }
	
	# gain_effect = {
	# }
	# lose_effect = {
	# }
	# retire_effect = {
	# }
	# death_effect = {
	# }

	# message = yes
# }


