bear_blood = {
	general_opinion = -10
	icon = 125
}
bear_child = {
	general_opinion = -10
	icon = 125
}
grand_melee_1st_1 = {
	monthly_character_prestige = 0.1
	icon = 41
}
grand_melee_1st_2 = {
	monthly_character_prestige = 0.15
	icon = 42
}
grand_melee_1st_3 = {
	monthly_character_prestige = 0.20
	icon = 43
}
grand_melee_1st_4 = {
	monthly_character_prestige = 0.25
	icon = 44
}
grand_melee_1st_5 = {
	monthly_character_prestige = 0.30
	icon = 45
}
grand_melee_2nd_1 = {
	monthly_character_prestige = 0.05
	icon = 46
}
grand_melee_2nd_2 = {
	monthly_character_prestige = 0.09
	icon = 47
}
grand_melee_2nd_3 = {
	monthly_character_prestige = 0.13
	icon = 48
}
grand_melee_2nd_4 = {
	monthly_character_prestige = 0.17
	icon = 49
}
grand_melee_2nd_5 = {
	monthly_character_prestige = 0.21
	icon = 50
}
grand_melee_3rd_1 = {
	monthly_character_prestige = 0.02
	icon = 51
}
grand_melee_3rd_2 = {
	monthly_character_prestige = 0.05
	icon = 52
}
grand_melee_3rd_3 = {
	monthly_character_prestige = 0.08
	icon = 53
}
grand_melee_3rd_4 = {
	monthly_character_prestige = 0.11
	icon = 54
}
grand_melee_3rd_5 = {
	monthly_character_prestige = 0.14
	icon = 55
}
normal_melee_1st_1 = {
	monthly_character_prestige = 0.05
	icon = 56
}
normal_melee_1st_2 = {
	monthly_character_prestige = 0.09
	icon = 57
}
normal_melee_1st_3 = {
	monthly_character_prestige = 0.13
	icon = 58
}
normal_melee_1st_4 = {
	monthly_character_prestige = 0.17
	icon = 59
}
normal_melee_1st_5 = {
	monthly_character_prestige = 0.21
	icon = 60
}
normal_melee_2nd_1 = {
	monthly_character_prestige = 0.03
	icon = 61
}
normal_melee_2nd_2 = {
	monthly_character_prestige = 0.06
	icon = 62
}
normal_melee_2nd_3 = {
	monthly_character_prestige = 0.09
	icon = 63
}
normal_melee_2nd_4 = {
	monthly_character_prestige = 0.12
	icon = 64
}
normal_melee_2nd_5 = {
	monthly_character_prestige = 0.15
	icon = 65
}
normal_melee_3rd_1 = {
	monthly_character_prestige = 0.02
	icon = 66
}
normal_melee_3rd_2 = {
	monthly_character_prestige = 0.04
	icon = 67
}
normal_melee_3rd_3 = {
	monthly_character_prestige = 0.06
	icon = 68
}
normal_melee_3rd_4 = {
	monthly_character_prestige = 0.08
	icon = 69
}
normal_melee_3rd_5 = {
	monthly_character_prestige = 0.1
	icon = 70
}
small_melee_1st_1 = {
	monthly_character_prestige = 0.03
	icon = 71
}
small_melee_1st_2 = {
	monthly_character_prestige = 0.06
	icon = 72
}
small_melee_1st_3 = {
	monthly_character_prestige = 0.09
	icon = 73
}
small_melee_1st_4 = {
	monthly_character_prestige = 0.12
	icon = 74
}
small_melee_1st_5 = {
	monthly_character_prestige = 0.15
	icon = 75
}
small_melee_2nd_1 = {
	monthly_character_prestige = 0.02
	icon = 76
}
small_melee_2nd_2 = {
	monthly_character_prestige = 0.04
	icon = 77
}
small_melee_2nd_3 = {
	monthly_character_prestige = 0.06
	icon = 78
}
small_melee_2nd_4 = {
	monthly_character_prestige = 0.08
	icon = 79
}
small_melee_2nd_5 = {
	monthly_character_prestige = 0.1
	icon = 80
}
small_melee_3rd_1 = {
	monthly_character_prestige = 0.01
	icon = 81
}
small_melee_3rd_2 = {
	monthly_character_prestige = 0.02
	icon = 82
}
small_melee_3rd_3 = {
	monthly_character_prestige = 0.03
	icon = 83
}
small_melee_3rd_4 = {
	monthly_character_prestige = 0.04
	icon = 84
}
small_melee_3rd_5 = {
	monthly_character_prestige = 0.05
	icon = 85
}