1000.1.1={	
	law = succ_primogeniture
	de_jure_liege = d_masseys_hook
	liege = d_masseys_hook
}
#House Massey
6453.1.1 = {
	holder = 1052046 #Josua
}
6473.1.1 = {
	holder = 152046 #Justin Massey
}
6512.1.1 = {
	holder = 1153046 #Morden
}
6534.1.1 = {
	holder = 153046 #Josua Massey Softspear (C)
}
6544.1.1 = { holder = 154046 }

#House Bar Emmon
6546.1.1 = {
	holder = 150049 #Togarion Bar Emmon
	liege="d_sharp_point"
	de_jure_liege = d_sharp_point
}
6558.1.1 = { 
	holder = 0 
	# liege="e_stormlands" 
}
7841.1.1 = { holder = 344049 } # Loghain (nc)
7869.1.1 = { holder = 343049 } # Malliard (nc)
7908.1.1 = { holder = 342049 } # Gormon (nc)
7910.1.1 = { holder = 341049 } # Qarlton (nc)
7933.1.1 = { holder = 340049 } # Trebor (nc)

7950.1.1 = { holder = 152049 } # Justin (nc)
7988.1.1 = { holder = 153049 } # Togarion (nc)
7995.1.1 = { holder=3000049 } # Robin Bar Emmon (nc)
8031.1.1 = { holder=3002049 } # Rorge Bar Emmon (nc)
8049.1.1 = { holder=3007049 } # Alliser Bar Emmon (nc)
8059.2.1 = { holder=3006049 } # Lucifer Emmon (nc)
8081.1.1 = { holder=3005049 } # Gormon Bar Emmon (nc)
8092.1.1 = { holder=3009049 } # Enfren Bar Emmon (nc)
8119.1.1 = { holder=3012049 } # Duram Bar Emmon (nc)
8145.1.1 = { holder=3014049 } # Kaeron Bar Emmon (nc)
8188.1.1 = { holder=3016049 } # Enfren Bar Emmon (nc)
8200.1.1 = { holder=3019049 } # Robin Bar Emmon (nc)
8235.1.1 = { holder=3021049 } # Ardrian Bar Emmon (nc)
8269.1.1 = { holder=3027049 } # Devan Bar Emmon (nc)
8277.1.1 = { holder=3028049 } # Guncer Bar Emmon (nc)
8296.1.1 = { holder=3029049 } # Duram Bar Emmon (C)