1.1.1={
	law = succ_primogeniture
	law = cognatic_succession
	effect = {
		holder_scope = {
			set_special_character_title = shadowking_male
		}	
	}
}
2936.1.1={
	holder = 1030122 #
}	
2980.1.1 = {
	holder = 0
}