7600.1.1={ 
	liege="k_braavos"
	holding_dynasty = 300511 # Antaryon
}
7841.1.1 = { holder=345300511 } # Anterro (nc)
7871.1.1 = { holder=344300511 } # Arillos (nc)
7896.1.1 = { holder=343300511 } # Syrio (nc)
7899.1.1 = { holder=342300511 } # Tomarro (nc)
7929.1.1 = { holder=341300511 } # Ferro (nc)
7962.1.1 = { holder=340300511 } # Phario (nc)

7994.1.1 = { holder=1100511 } # Quollo (nc)
8012.1.1 = { holder=1000511 } # Tormo (nc)
8023.1.1 = { holder=900511 } # Myrmello (nc)
8058.1.1 = { holder=800511 } # Jaqen (nc) 
8091.1.1 = { holder=700511 } # Denyo (nc)
8114.1.1 = { holder=600511 } # Syrio (nc)
8115.1.1 = { holder=15030511 } # Orios (nc)
8156.1.1 = { holder=1300511 } # Ferro (sc)
8161.1.1 = { holder=500511 } # Lotho (nc)
8194.1.1 = { holder=400511 } # Qarro (nc)
8202.1.1 = { holder=300511 } # Tycho (nc)
8223.1.1 = { holder=200511 } # Cossomo (nc)
8255.1.1 = { holder=100511 } # Oro (nc)
8281.1.1 = {
	holder=600000041 # Ferrego (C)
}