600.1.1={
	liege="k_qohor"
	holding_dynasty = 300565 #Baroat
}
7860.1.1 = { holder=345300565 } # Qargo (nc)
7871.1.1 = { holder=344300565 } # Zyrio (nc)
7895.1.1 = { holder=343300565 } # Syran (nc)
7898.1.1 = { 
	liege="d_qohor"
}
7899.1.1 = {
	liege="k_qohor"
}
7915.1.1 = { holder=342300565 } # Cobho (nc)
7939.1.1 = { holder=341300565 } # Zoronno (nc)
7960.1.1 = { holder=340300565 } # Bargo (nc)

7982.1.1 = { holder=100300565 } # Mero (nc)
8025.1.1 = { holder=101300565 } # Tagganaro (nc)
8047.1.1 = { holder=103300565 } # Moreo (nc)
8055.1.1 = { holder=107300565 } # Ollo (nc)
8077.1.1 = { holder=105300565 } # Areo (nc)
8087.1.1 = { holder=114300565 } # Ezzelyno (nc)
8092.1.1 = { holder=117300565 } # Gyloro (nc)
8115.1.1 = { holder=121300565 } # Ezzelyno (nc)
8129.1.1 = { holder=122300565 } # Vargo (nc)
8151.1.1 = { holder=124300565 } # Ordello (nc)
8185.1.1 = { holder=129300565 } # Moredo (nc)
8218.1.1 = { holder=131300565 } # Tobho (nc)
8224.1.1 = { holder=134300565 } # Gyloro (nc)
8263.1.1 = { holder=135300565 } # Ferrego (nc)
8271.1.1 = { holder=140300565 } # Luco (nc)


