#House Manning
7845.1.1={holder=100043}
7895.1.1={holder=101043}
7920.1.1={holder=102043}
7945.1.1={holder=103043}
7970.1.1={holder=104043}
7995.1.1={holder=105043}
8020.1.1={holder=106043}
8045.1.1={holder=107043}
8070.1.1={holder=108043}
8095.1.1={holder=109043}
8120.1.1={holder=110043}
8145.1.1={holder=111043}
8170.1.1={holder=112043}
8195.1.1={holder=113043}
8220.1.1={holder=114043}
8245.1.1={holder=115043}
8270.1.1={holder=116043}
8290.1.1 = {
	holder = 300043
}







