#b_fair_keep
900.1.1={
	liege="c_fair_isle"
}
7840.1.1={holder=1154409}
7890.1.1={holder=1144409}
7915.1.1={holder=1134409}
7940.1.1={holder=1124409}
7965.1.1={
	holder=1004409
}
8002.1.1={
	holder=1014409
}
8021.1.1={
	holder=1024409
}
8050.1.1={
	holder=1034409
}
8071.1.1={
	holder=1044409
}
8117.1.1={
	holder=1054409
}
8137.1.1={
	holder=1064409
}
8156.1.1={
	holder=1074409
}
8168.1.1={
	holder=1084409
}
8192.1.1={
	holder=1094409
}
8225.1.1={
	holder=1104409
}
8241.1.1={
	holder=1114409
}
8277.1.1={
	holder=4409 # Gareth Clifton
}