7600.1.1={
	liege="c_great_fork"
	law = succ_primogeniture
}
#House Corne
7830.1.1={holder=341473}
7880.1.1={holder=331473}
7905.1.1={holder=321473}
7930.1.1={holder=311473}
7955.1.1={holder=301473}
7980.1.1 = { holder=291473 }	#Godry (nc)
8001.1.1 = { holder=281473 }	#Justin (nc)
8012.1.1 = { holder=271473 }	#Ulmer (nc)
8068.1.1 = { holder=261473 }	#Gerold (nc)
8070.1.1 = { holder=251473 }	#Florian (nc)
8096.1.1 = { holder=241473 }	#Boros (nc)
8113.1.1 = { holder=231473 }	#Roger (C)
8130.5.5 = { holder=221473 }	#Ormund (nc)
8151.1.1 = { holder=211473 }	#Hubard (nc)
8186.1.1 = { holder=191473 }	#Ormund (nc)
8203.1.1 = { holder=181473 }	#Ossifer (nc)
8253.1.1 = { holder=111473 }	#Lucos (nc)
8270.1.1 = { holder=101473 }	#Raynard (nc)
8296.1.1 = { holder=1473 }		#Adrian (nc)