900.1.1={ 
	liege="d_prince_lorath"
}
7870.1.1 = { holder=346300537 } # Jaqen Reltis (nc)
7890.1.1 = { holder=345300548 } # Gorys Oloryon (nc)
7933.1.1 = { holder=346300548 } # Tormo Oloryon (nc)
7941.1.1 = { holder=345300560 } # Aran Vazollen (nc)
7977.1.1 = { holder=34569135 } # Hasaro H'ghai (nc)

7990.1.1 = { holder=200300528 } # Navaho Naylan (nc)
8026.1.1 = { holder=102300549 } # Gyleno Lathtis (nc)
8053.1.1 = { holder=114300560 } # Ordello Vazollen (nc)
8070.1.1 = { holder=111300549 } # Denyo Lathtis (nc)
8114.1.1 = { holder=122300560 } # Pynto Vazollen (nc)
8125.1.1 = { holder=115300548 } # Meralyn Oloryon (nc)
8160.1.1 = { holder=127300549 } # Pynto Lathtis (nc)
8185.1.1 = { holder=129300537 } # Salladhor Reltis (nc)
8244.1.1 = { holder=133300528 } # Ollo Naylan (nc)
8270.1.1 = { holder=142300560 } # Salladhor Vazollen (nc)