#House Tumitis
900.1.1={ 
	liege="c_littletyrosh"
}
7858.1.1 = { holder=344300544 } # Pynto (nc)
7879.1.1 = { holder=343300544 } # Denzo (nc)
7909.1.1 = { holder=342300544 } # Collio (nc)
7930.1.1 = { holder=341300544 } # Ordello (nc)
7955.1.1 = { holder=340300544 } # Roro (nc)

7970.1.1 = { holder=155300544 } # Denzo (nc)
8024.1.1 = { holder=100300544 } # Doniphos (nc)
8046.1.1 = { holder=101300544 } # Jaqen (nc)
8079.1.1 = { holder=106300544 } # Ordello (nc)
8111.1.1 = { holder=110300544 } # Pynto (nc)
8134.1.1 = { holder=114300544 } # Tormo (nc)
8141.1.1 = { holder=117300544 } # Ferrego (nc)
8167.1.1 = { holder=118300544 } # Allaquo (nc)
8179.1.1 = { holder=121300544 } # Ordello (nc)
8234.1.1 = { holder=126300544 } # Ezzelyno (nc)
8250.1.1 = { holder=127300544 } # Pynto (nc)
8253.1.1 = { holder=129300544 } # Tagganaro (nc)

8259.1.1 = { holder=128300024 } # Tycho (nc) #Ninepenny kings temp Tyroshi capital
8259.12.31 = { holder=129300544 } # Tagganaro (nc)

8274.1.1 = { holder=131300544 } # Moreo (nc)


