900.1.1={ 
	liege="k_yunkai"
	holding_dynasty = 360023 # Qaggaz
}
7859.1.1 = { holder=345360023 } # Oznak (nc)
7878.1.1 = { holder=344360023 } # Reznak (nc)
7900.1.1 = { holder=343360023 } # Prendahl (nc)
7928.1.1 = { holder=342360023 } # Yezzan (nc)
7939.1.1 = { holder=341360023 } # Zarraq (nc)
7969.1.1 = { holder=340360023 } # Barkhaz (nc)

7995.1.1 = { holder=150360023 } # Grazdhan (nc)
8012.1.1 = { holder=100360023 } # Grazdan (nc)
8036.1.1 = { holder=102360023 } # Marghaz (nc)
8070.1.1 = { holder=106360023 } # Maezon (nc)
8113.1.1 = { holder=110360023 } # Gazdhor (nc)
8146.1.1 = { holder=112360023 } # Morghaz (nc)
8158.1.1 = { holder=116360023 } # Yurkhaz (nc)
8200.1.1 = { holder=121360023 } # Prendahl (nc)
8203.1.1 = { holder=122360023 } # Azzak (nc)
8221.1.1 = { holder=125360023 } # Kraznys (nc)
8264.1.1 = { holder=126360023 } # Grazdhar (nc)
8289.1.1={
	holder=6571004 # Yezzan
}
8300.7.14 = {
	holder=130360023 #Yezzan's nephew
}