7600.1.1 = { 
	liege=k_volantis
	holding_dynasty=174396
} 
7847.1.1 = { holder=344174396 } # Horio (nc)
7861.1.1 = { holder=343174396 } # Aryos (nc)
7890.1.1 = { holder=342174396 } # Rhogar (nc)
7915.1.1 = { holder=341174396 } # Vargello (nc)
7934.1.1 = { holder=340174396 } # Zyrio (nc)

7960.1.1 = { holder=100174396 } # Horonno (C)
7996.12.16 = { holder=103174396 } # Aenar (nc)
8043.1.1 = { holder=105174396 } # Belicho (nc)
8050.1.1 = { holder=108174396 } # Belicho (nc)
8068.1.1 = { holder=109174396 } # Alios (nc)
8083.1.1 = { holder=110174396 } # Aenar (nc)
8110.1.1 = { holder=113174396 } # Methyso (nc)
8148.1.1 = { holder=115174396 } # Gorys (nc)
8167.1.1 = { holder=120174396 } # Colloquo (nc)
8169.1.1 = { holder=122174396 } # Vaeron (nc)
8188.1.1 = { holder=127174396 } # Matarys (nc)
8250.1.1 = { holder=131174396 } # Benerro (nc)
8256.1.1 = { holder=135174396 } # Benerro (nc)
8261.1.1 = { holder=136174396 } # Colloquo (nc)
8295.1.1 = { holder=138174396 } # Vogarro (nc)
