7000.1.1={
	liege="c_summerhall"
	name = B_BLACKHEART_KEEP
}
#House Toyne
7854.1.1 = { holder=334307 } # Tancred (nc)
7856.1.1 = { holder=333307 } # Godry (nc)
7899.1.1 = { holder=332307 } # Daven (nc)
7931.1.1 = { holder=331307 } # Jared (nc)
7949.1.1 = { holder=330307 } # Lucas (nc)

7967.1.1 = { holder=10000307 } # Symeon (nc)
7988.1.1 = { holder=20000307 } # Clarence (nc)
8017.1.1 = { holder=40000307 } # Martyn (nc)
8065.1.1 = { holder=50000307 } # Robert (nc)
8080.1.1 = { holder=60000307 } # Tristan (nc)
8136.1.1 = { holder=80000307 } # Gyles (nc)
8170.1.1 = { holder=130000307 } # Beric (nc)
8174.1.1 = { holder=100000307 } # Myles (nc)

#House Targaryen
8178.6.1={
	holder = 77020		#Aegon IV the Unworthy
}
8184.1.1={
	holder = 77023		#Daeron II the Good
}
8196.6.1={
	holder = 77031		#Maekar I
}
8198.1.1={	
	reset_name = yes
}
8217.1.1={
	holder = 77032		# Daeron the Drunkard
}
8229.1.1={
	holder = 77031		#Maekar I
}
8233.6.1={
	holder = 77034		#Aegon V the Unlikley
}
8259.6.1={
	holder = 123458 #ruin
}
