#c_tarbeck_hall
900.1.1={
	liege="c_tarbeck_hall"
}
7834.1.1={
	holder=294225
}
7890.1.1={
	holder=293225
}
7908.1.1={
	holder=292225
}
7932.1.1={
	holder=291225
}
7950.1.1={
	holder=290225
}
7975.1.1={
	holder=289225
}
7998.1.1 = {
holder=249225
}
8025.1.1 = {
holder=239225
}	
8040.1.1 = {
holder=229225
}	
8043.1.2 = {
holder=228225
}
8059.2.1={
	holder=6020225
}
8068.1.1 = {
	holder=227225
}
8093.1.1={
	holder=6225
}
8133.1.1 = {
holder=88000478
}	
8159.1.1 = {
holder=5225
}
8196.5.5 = {
holder=4225
}	
8219.1.1 = {
holder=27225 # Walderran Tarbeck (C)
}	
8261.10.30 = {
holder=60000225} # Last Lord Tarbeck, a three year old (C)

#Tarbecks lose to Lannisters
8261.10.31 = {
	holder=1190	# Tytos Lannister
}
8267.1.1 = {	
	holder=190 # Tywin
}
#Hamell
8279.1.1 = {	
	holder=193
}