7850.1.1 = { 
	liege=k_volantis
	holding_dynasty=174397
} 
7866.1.1 = { holder=344174397 } # Loronno (nc)
7898.1.1 = { holder=343174397 } # Aryos (nc)
7926.1.1 = { holder=342174397 } # Salloros (nc)
7946.1.1 = { holder=341174397 } # Lysenno (nc)
7959.1.1 = { holder=340174397 } # Gasporio (nc)

7980.1.1 = { holder=100174397 } # Belicho (nc)
8022.1.1 = { holder=103174397 } # Aelix (nc)
8056.1.1 = { holder=104174397 } # Alios (nc)
8071.1.1 = { holder=108174397 } # Malaquo (nc)
8085.1.1 = { holder=110174397 } # Qavo (nc)
8112.1.1 = { holder=113174397 } # Aelix (nc)
8117.1.1 = { holder=119174397 } # Methyso (nc)
8170.1.1 = { holder=125174397 } # Parquello (nc)
8203.1.1 = { holder=131174397 } # Vaeron (nc)
8214.1.1 = { holder=133174397 } # Qavo (nc)
8260.1.1 = { holder=139174397 } # Vogarro (C)
8266.1.1 = { holder=141174397 } # Qavo (nc)
8272.1.1 = { holder=143174397 } # Parquello (nc)
8277.1.1 = { holder=144174397 } # Horonno (nc)
8285.1.1 = { holder=145174397 } # Parquello (C)
