#House Ahlaq
900.1.1={ 
	liege="c_yunkai"
}
7851.1.1 = { holder=357360019 } # Grazdan (nc)
7869.1.1 = { holder=356360019 } # Paezhar (nc)
7892.1.1 = { holder=355360019 } # Gazhaq (nc)
7917.1.1 = { holder=354360019 } # Azzhak (nc)
7934.1.1 = { holder=353360019 } # Gighak (nc)
7961.1.1 = { holder=352360019 } # Grazdan (nc)
7986.1.1 = { holder=351360019 } # Zhezzan (nc)
8013.1.1 = { holder=350360019 } # Kenahl (nc)
8026.1.1 = { holder=349360019 } # Grazdan (nc)
8048.1.1 = { holder=348360019 } # Zadrak (nc)
8073.1.1 = { holder=347360019 } # Yazzak (nc)
8099.1.1 = { holder=346360019 } # Maezon (nc)
8121.1.1 = { holder=345360019 } # Grazdan (nc)
8144.1.1 = { holder=344360019 } # Barghaz (nc)
8189.1.1 = { holder=343360019 } # Azzak (nc)
8211.1.1 = { holder=342360019 } # Hazrak (nc)
8224.1.1 = { holder=341360019 } # Grazhar (nc)
8240.1.1 = { holder=340360019 } # Grazdan (nc)
8258.1.1 = { holder=12360019 } #Grazdar (nc)
8290.1.1 = { holder=360019 } # Ghazdor (C)

