#House Wagstaff
202.1.1 = {liege="d_griffins_roost"}
7849.1.1 = { holder=354354 } # Hoster (nc)
7863.1.1 = { holder=353354 } # Ralph (nc)
7892.1.1 = { holder=352354 } # Richard (nc)
7933.1.1 = { holder=351354 } # Pearse (nc)
7955.1.1 = { holder=350354 } # Alan (nc)

7970.1.1 = { holder=302354 } # Gowen (nc)
8000.1.1 = { holder=300354 } # Beric (nc)
8010.1.1 = { holder=301354 } # Robert (nc)
8033.1.1 = { holder=305354 } # Harlan (nc)
8067.1.1 = { holder=307354 } # Beric (nc)
8095.1.1 = { holder=310354 } # Gowen (nc)
8103.1.1 = { holder=313354 } # Eldon (nc)
8105.1.1 = { holder=315354 } # Harlan (nc)
8159.1.1 = { holder=321354 } # Lester (nc)
8167.1.1 = { holder=322354 } # Pate (nc)
8184.1.1 = { holder=328354 } # Beric (nc)
8206.1.1 = { holder=331354 } # Joffrey (nc)
8243.1.1 = { holder=335354 } # Myrcella (nc)
8283.1.1 = { 
	liege="k_stormlands"
}
8290.1.1 = { holder=341354 } # Harlan Wagstaff (nc)