#House Buckwell
800.1.1 = {liege="d_duskendale"}
7868.1.1 = { holder=344034 } # Kiera (nc)
7884.1.1 = { holder=343034 } # Bernarr (nc)
7901.1.1 = { holder=342034 } # Rupert (nc)
7920.1.1 = { holder=341034 } # Perkin (nc)
7942.1.1 = { holder=340034 } # Ossifer (nc)

7966.1.1 = { holder=3003034 } # Jaremy (nc)
7990.1.1 = { holder=3000034 } # Anguy (nc)
8001.1.1 = { holder=3001034 } # Morros (nc)
8013.1.1 = { holder=3002034 } # Ferret (nc)
8057.1.1 = { holder=3004034 } # Cyrenna (nc)
8066.1.1 = { holder=3005034 } # Alliser (nc)
8100.1.1 = { holder=3006034 } # Aurane (nc)
8129.10.1 = { holder=3011034 } # Guncer  
8149.1.1 = { holder=3016034 } # Joyeuse (nc)
8177.1.1 = { holder=3019034 } # Hubard (nc)
8202.1.1 = { holder=3020034 } # Bryen (nc)
8244.1.1 = { holder=3025034 } # Eustace (nc)
8256.1.1 = { holder=3026034 } # Donnel (nc)
8296.1.1 = { holder=3030034 } # Morgan (nc)