#House Mazemagyr
600.1.1={
	liege="d_tolos"
}
7859.1.1 = { holder=345570117 } # Taegon (nc)
7886.1.1 = { holder=344570117 } # Matalor (nc)
7899.1.1 = { holder=343570117 } # Matarys (nc)
7920.1.1 = { holder=342570117 } # Laemond (nc)
7944.1.1 = { holder=341570117 } # Aegar (nc)
7965.1.1 = { holder=340570117 } # Laegon (nc)

7996.1.1 = { holder=10070117 } # Aenar (nc)
8030.1.1 = { holder=10170117 } # Belicho (nc)
8034.1.1 = { holder=10270117 } # Daegar (nc)
8052.1.1 = { holder=10370117 } # Benerro (nc)
8086.1.1 = { holder=10870117 } # Parquello (nc)
8121.1.1 = { holder=10970117 } # Vogarro (nc)
8133.1.1 = { holder=11270117 } # Vaekar (nc)
8168.1.1 = { holder=11370117 } # Doniphos (nc)
8206.1.1 = { holder=11570117 } # Aelix (nc)
8224.1.1 = { holder=11870117 } # Qavo (nc)
8230.1.1 = { holder=11970117 } # Aenar (nc)
8244.1.1 = { holder=12170117 } # Belicho (nc)
8293.1.1 = { holder=12370117 } # Vaeron (nc)
