6000.1.1={
	liege="e_north"
	law = succ_primogeniture
}
7849.1.1 = { holder=34592 } # Benjicot (nc)
7872.1.1 = { holder=34492 } # Morgan (nc)
7890.1.1 = { holder=34392 } # Mandon (nc)
7909.1.1 = { holder=34292 } # Barth (nc)
7943.1.1 = { holder=34192 } # Bodger (nc)
7960.1.1 = { holder=34092 } # Theodan (nc)
7986.1.1 = { holder=14092 } # Donnel (nc)
7999.1.1 = {
	liege="k_north"
}
8005.1.1={
	holder=13092
}
8048.1.1={
	holder=11092
}
8056.1.1={
	holder=10092
}
8101.1.1={
	holder=9092
}
8113.1.1={
	holder=8092
}
8157.1.1={
	holder=7092
}
8171.1.1={
	holder=6092
}
8197.1.1={
	holder=4092
}
8237.1.1={
	holder=3092
}
8250.1.1={
	holder=2092
}
8262.1.1={
	holder=92
}