#House Mallery
7600.1.1={
	liege="e_riverlands"
	law = succ_primogeniture
}
7850.1.1 = { holder=344026 } # Marance (nc)
7878.1.1 = { holder=343026 } # Eustace (nc)
7900.1.1 = { holder=342026 } # Wynton (nc)
7913.1.1 = { holder=341026 } # Norbert (nc)
7933.1.1 = { 
	liege="e_stormlands"
}
7939.1.1 = { holder=340026 } # Marq (nc)
7958.1.1 = {
	liege="e_westerlands"
}
7966.1.1 = { holder=6000726 } # Merrell (nc)
7998.2.1={
	liege="e_iron_throne"
}
7999.1.1 = { holder=6000026 } # Jothos (nc)
8010.1.1 = { holder=6000326 } # Lucos (nc)
8039.1.1 = { holder=6000926 } # Boros (nc)
8053.1.1 = { holder=6001326 } # Osmund (nc)
8107.1.1 = { holder=6001526 } # Ollidor (nc)
8123.1.1 = { holder=6002126 } # Allar (nc)
8133.1.1 = { holder=6002526 } # Mortimer (nc)
8184.1.1 = { holder=6002626 } # Anguy (nc)
8192.1.1 = { holder=6003426 } # Bryen (nc)
8222.1.1 = { holder=6004026 } # Ardrian (nc)
8227.1.1 = { holder=6004226 } # Robin (nc)
8268.1.1 = { holder=6004426 } # Justin (nc)
8284.1.1={
	holder = 1026 	#Lothar Mallery (C)
}
8298.1.1 = {
	holder = 10126 	#Tristifer Mallery
}