#House Bywater
7600.1.1={
	liege="e_stormlands"
	law = succ_primogeniture
}
7853.1.1 = { holder=344045 } # Jerome (nc)
7866.1.1 = { holder=343045 } # Gerold (nc)
7900.1.1 = { holder=342045 } # Ellery (nc)
7934.1.1 = { holder=341045 } # Jarman (nc)
7961.1.1 = { holder=340045 } # Lucos (nc)

7968.1.1 = { holder=3000045 } # Mortimer (nc)
7994.1.1 = { holder=3001045 } # Arianne (nc)
7998.2.27 = {
	liege="e_iron_throne"
}
8025.1.1 = { holder=3003045 } # Symon (nc)
8063.1.1 = { holder=3007045 } # Danos (nc)
8072.1.1 = { holder=3009045 } # Mortimer (nc)
8109.1.1 = { holder=3012045 } # Myrcella (nc)
8112.1.1 = { holder=3014045 } # Dale (nc)
8153.1.1 = { holder=3015045 } # Gyles (nc)
8160.1.1 = { holder=3019045 } # Byron
8190.1.1 = { holder=3017045 } # Pate (nc)
8213.1.1 = { holder=3018045 } # Clarence (nc)
8269.1.1 = { holder=3023045 } # Belis (nc)
8271.1.1 = { holder=3027045 } # Dontos (nc)
8295.1.1 = { holder=3029045 } # Gilbert (nc)