6000.1.1={
	liege="d_the_giants_lance"
}
7825.1.1={holder=60320157}
7878.1.1={holder=60310157}
7900.1.1={holder=60300157} # Jon Moore
7911.1.1={holder=60400157} # Ronnel Moore
7912.1.1={holder=60200157} # Kaven Moore
7950.1.1={holder=60100157} # Maron Moore
7989.1.1={holder=60000157} # Tomas Moore
8009.1.1={holder=195157} # Calon Moore
8029.1.1={
	holder=195057
}
8051.1.1={
	holder=194957
}
8072.1.1={
	holder=194857
}
8090.1.1={
	holder=194757
}
8131.1.1={
	holder=194657
}
8170.1.1={
	holder=194457
}
8196.5.5={
	holder=394357
}
8231.1.1={
	holder=194257
}
8249.1.1={
	holder=194157
}
8271.1.1={
	holder=194057
}