600.1.1={
	law = slavery_2
	law = succ_turkish_succession
	law = agnatic_succession
}
7600.1.1 = { 
	liege = d_gogossos
}
7880.1.1 = { holder=11000351 } # Qavo (nc)
7902.1.1 = { holder=11001351 } # Vogarro (nc)
7938.1.1 = { holder=11007351 } # Orys (nc)
7950.1.1 = {
	holder = 0 # Red Death
	liege = 0
}
8066.1.1 = { 
	liege = d_western_isles
} 
8095.1.1 = { 
	liege = 0
}
8125.1.1 = {
	liege = k_basilisk_isles
}
8155.1.1 = {
	liege = 0
}
8300.1.1={
	liege = k_basilisk_isles
}