600.1.1={
	liege="d_selhorys"
}
#House Nogarys
7870.1.1 = { holder=344174601 } # Aeryro (nc)
7881.1.1 = { holder=343174601 } # Coqorro (nc)
7921.1.1 = { holder=342174601 } # Lothorio (nc)
7944.1.1 = { holder=341174601 } # Rybero (nc)
7965.1.1 = { holder=340174601 } # Varan (nc)
7987.1.1 = { holder=100174601 } # Belicho (nc)

#Dothraki
7998.1.1 = { 
	holder=100600219  # Harro (nc)
	liege = d_painted_mountains
}
8023.1.1 = { holder=103600219 } # Harro (nc)
8045.1.1 = { holder=105600219 } # Mengo (nc)
8060.1.1 = { holder=108600219 } # Mosko (nc)
8112.1.1 = { holder=114600219 } # Zhako (nc)
8146.1.1 = { holder=116600219 } # Virsallo (nc)
8154.1.1 = { holder=119600219 } # Marro (nc)
8166.1.1 = { holder=124600219 } # Rogo (nc)
8194.1.1 = { holder=128600219 } # Najaho (nc)
8199.1.1 = { holder=131600219 } # Harro (nc)
8231.1.1 = { holder=133600219 } # Haggo (nc)
8262.1.1 = { holder=140600219 } # Motho (c)