4000.1.1={
	liege="d_dreadfort"
	law = succ_primogeniture
}

5364.1.1 = { holder=1050087 } # Royce 
5397.1.1 = { holder=1051087 } # Royce II
5425.1.1 = { holder=0 } 
5678.1.1 = { holder=1053087 } # Royce III
5726.1.1 = { holder=1054087} # Royce IV
5757.1.1 = { holder=0 } 

6456.1.1={
	holder = 1055087  #  Rogar the Huntsman
}
6486.1.1 = { holder = 0 }

6573.1.1 = { holder = 1057087 } #Belthesar (C)
6617.1.1 = { holder = 0 }
7814.1.1 = { holder=60887 }
7867.1.1 = { holder=60787 }
7882.1.1 = { holder=60687 }
7901.1.1 = { holder=60087 } # Rickard (nc)
7926.1.1 = { holder=60187 } # Rodrick (nc)
7938.1.1 = { holder=60287 } # Roose (nc)
7960.1.1 = { holder=60387 } # Beren (nc)
7962.1.1 = { holder=60487 } # Donnis (nc)
7969.1.1 = { holder=60587 } # Durin (nc)

7978.1.1={
	holder = 13087
}
8008.1.1={
	holder = 12087
}
8046.1.1={
	holder = 11087
}
8069.1.1={
	holder = 10087
}
8095.1.1={
	holder = 9087
}
8139.1.1={
	holder = 8087
}
8154.1.1={
	holder = 7087
}
8170.1.1={
	holder = 6087
}
8201.1.1={
	holder = 5087
}
8245.1.1={
	holder = 4087
}
8261.1.1={
	holder = 87
}

