#House Joth
600.1.1={
	liege="d_farib"
}
7870.1.1 = { holder=34455929 } # Karor (nc)
7886.1.1 = { holder=34355929 } # Usog (nc)
7925.1.1 = { holder=34255929 } # Arun (nc)
7957.1.1 = { holder=34155929 } # Fanog (nc)
7987.1.1 = { holder=34055929 } # Ziweg (nc)

7990.1.1 = { holder=1055929 } # Slugg (nc)
8036.1.1 = { holder=1255929 } # Bodger (nc)
8048.1.1 = { holder=1655929 } # Tugg (nc)
8085.1.1 = { holder=1855929 } # Jogg (nc)
8089.1.1 = { holder=2055929 } # Bodger (nc)
8121.1.1 = { holder=2455929 } # Quort (nc)
8149.1.1 = { holder=2955929 } # Draloth (nc)
8162.1.1 = { holder=3355929 } # Ygon (nc)
8206.1.1 = { holder=3455929 } # Cull (nc)
8214.1.1 = { holder=3855929 } # Brogg (nc)
8258.1.1 = { holder=3955929 } # Groo (nc)
8297.1.1 = { holder=40055929 } # Slugg (nc)