6000.1.1={
	liege="d_blackwood"
	law = succ_primogeniture
}
7830.1.1={
	holder=33134
}
7890.1.1={
	holder=32134
}
7900.1.1={
	holder=31134
}
7930.1.1={
	holder=30134
}
7945.1.1={
	holder=29134
}
7980.1.1={
	holder=24134
}
8009.1.1={
	holder=23134
}
8030.1.1={
	holder=22134
}
8037.1.1={
	holder=21134
}
8076.1.1={
	holder=19134
}
8095.1.1={
	holder=18134
}
8118.1.1={
	holder=17134
}
8137.1.1={
	holder=16134
}
8178.1.1={
	holder=15134
}
8183.1.1={
	holder=14134
}
8195.3.7={
	liege = 0
}
8196.6.1={
	liege = "d_blackwood"
}
8207.1.1={
	holder=13134
}
8237.1.1={
	holder=12134
}
8259.1.1={
	holder=134
}