#House Allyrion
6200.1.1={
	liege="e_dorne"
	law = succ_primogeniture
	law = true_cognatic_succession
}
7853.1.1 = { holder=60169 } # Ballard (nc)
7866.1.1 = { holder=60159 } # Utheryn (nc)
7903.1.1 = { holder=60109 } # Darcia (nc)
7922.1.1 = { holder=60079 } # Gwyneth (nc)
7943.1.1 = { holder=60069 } # Garibald (nc)
7958.1.1 = { holder=60059 } # Garin (nc)
8003.1.1 = { holder=60029 } # Perros (nc)
8015.1.1 = { holder=60009 } # Timeon (nc)
8028.1.1 = { holder=60019 } # Archibald (nc)
8059.1.1 = { holder=60049 } # Dagos (nc)
8091.1.1 = { holder=60099 } # Obara (nc)
8114.1.1 = { holder=60119 } # Orrell (nc)
8126.1.1 = { holder=60089 } # Nymeria (nc)
8127.1.1 = { holder=60129 } # Geleria (nc)
8171.1.1 = { holder=60139 } # Damarya (nc)
8187.6.1={
	liege="k_dorne"
}
8189.1.1 = { holder=60149 } # Lyron (nc)
8212.1.1 = { holder=60209 } # Allyria (nc)
8220.1.1 = { holder=60179 } # Daeron (nc)
8270.1.1 = { holder=60189 } # Cedra (nc)

8280.1.1={
	holder=9
}