#House Blount
7600.1.1={
	liege="e_stormlands"
	law = succ_primogeniture
}
7872.1.1 = { holder=344022 } # Gregor (nc)
7883.1.1 = { holder=343022 } # Tytos (nc)
7927.1.1 = { holder=342022 } # Donnel (nc)
7949.1.1 = { holder=341022 } # Simon (nc)
7975.1.1 = { holder=340022 } # Gilbert (nc)

7994.1.1 = { holder=3000022 } # Jaremy (nc)
7998.2.27 = {
	liege="e_iron_throne"
}
8001.1.1 = { holder=3002022 } # Barre (nc)
8041.1.1 = { holder=3003022 } # Oswell (nc)
8075.1.1 = { holder=3008022 } # Ollidor (nc)
8107.1.1 = { holder=3010022 } # Bennard (nc)
8138.1.1 = { holder=3012022 } # Boros (nc)
8167.1.1 = { holder=3014022 } # Balman (nc)
8216.1.1 = { holder=3015022 } # Duram (nc)
8229.1.1 = { holder=3020022 } # Arianne (nc)
8263.1.1 = { holder=3023022 } # Gyles (nc)
8288.1.1 = { holder=2025022 } # Clayton (nc)