#House Grandison
7000.1.1 = {liege="d_summerhall"}

7869.1.1 = { holder=344308 } # Luthor (nc)
7881.1.1 = { holder=343308 } # Hugh (nc)
7926.1.1 = { holder=342308 } # Herbert (nc)
7948.1.1 = { holder=341308 } # Beren (nc)
7977.1.1 = { holder=340308 } # Glendon (nc)

7994.1.1 = { holder=300308 } # Willem (nc)
8001.1.1 = { holder=301308 } # Meryn (nc)
8039.1.1 = { holder=302308 } # Myles (nc)
8042.1.1 = { holder=303308 } # Galladon (nc)
8077.1.1 = { holder=305308 } # Beric (nc)
8102.1.1 = { holder=306308 } # Byron (nc)
8125.1.1 = { holder=307308 } # Lorent (C)
8158.1.1 = { holder=313308 } # Arthur (SC)
8175.1.1 = { holder=308308 } # Silas (SC)
8178.6.1 = {liege="k_stormlands"}
8180.1.1 = { holder=309308 } # Eldon (nc)
8201.1.1 = { holder=311308 } # Sebastion (nc)
8239.1.1 = { holder=108308 } # Michael (nc)
8262.12.12 = { holder=100308 } # Hendrick (C)
8282.9.15 = { liege=0 } # RR
8282.12.15 = { liege="k_stormlands" }
8283.6.1={
	holder=308  # Hugh (C)
}