600.1.1 = {	liege = "d_linhan" }
7853.1.1 = { holder=34569192 }
7877.1.1 = { holder=34469192 }
7894.1.1 = { holder=34369192 }
7918.1.1 = { holder=34269192 }
7946.1.1 = { holder=34169192 }
7966.1.1 = { holder=34069192 }
7995.1.1 = { holder=10069192 }
8034.1.1 = { holder=10169192 }
8051.1.1 = { holder=10569192 }
8054.1.1 = { holder=10869192 }
8128.1.1 = { holder=10969192 }
8142.1.1 = { holder=11169192 }
8158.1.1 = { holder=11369192 }
8176.1.1 = { holder=11769192 }
8207.1.1 = { holder=12069192 }
8228.1.1 = { holder=12469192 }
8235.1.1 = { holder=12769192 }
8292.1.1 = { holder=13569192 }