#House Cordwayner
900.1.1={ law=succ_primogeniture law=cognatic_succession
	liege="d_tumbleton"
}
7845.1.1 = { holder=6044294 } # Lucas (nc)
7874.1.1 = { holder=6043294 } # Unwin (nc)
7912.1.1 = { holder=6042294 } # Hectyr (nc)
7949.1.1 = { holder=6041294 } # Luthor (nc)
7968.1.1 = { holder=6040294 } # Hernarr (nc)

7991.1.1 = { holder=6000294 } # Branston (nc)
8006.1.1 = { holder=6001294 } # Lucas (nc)
8050.1.1 = { holder=6005294 } # Samwell (nc)
8066.1.1 = { holder=6007294 } # Anslem (nc)
8117.1.1 = { holder=6008294 } # Hosman (nc)
8120.1.1 = { holder=6009294 } # Tomas (nc)
8142.1.1 = { holder=6012294 } # Edryk (nc)
8148.1.1 = { holder=6015294 } # Damer (nc)
8157.7.8 = { holder=6017294 } # Guy (nc)
8200.1.1 = { holder=6023294 } # Mathis (nc)
8218.1.1 = { holder=6025294 } # Tommen (nc)
8258.1.1 = { holder=6028294 } # Leo (nc)

8272.1.1={
	holder=294
}





