#NOTE: The holder of this title has the House Tarly dynasty tracker set in roberts_rebellion_events
1.1.1={ law=succ_primogeniture law=cognatic_succession
	liege="d_west_marches"
}

50.1.1 = { holder=6100296 } # Herndon of the Horn
155.1.1 = { holder=0 }

7830.1.1 = { holder=6300296 } # Holter (nc)
7868.1.1 = { holder=6400296 } # Kacela (nc)
7899.1.1 = { holder=6500296 } # Chayse (nc)
7925.1.1 = { holder=6600296 } # Samwell (nc)
7944.1.1 = { holder=6800296 } # Acton (nc)
7979.1.1 = { holder=60100296 } #
7980.5.8={
	holder=32296
}
7998.6.6={
	holder=31296
}
8064.1.1={
	holder=30296
}
8095.1.1={
	holder=29296
}
8100.1.1={
	holder=27296
}
8110.1.1={
	holder=26296
}
8128.1.1={
	holder=25296
}
8159.10.10={
	holder=24296
}
8197.1.1={
	holder=23296
}
8221.1.1={
	holder=22296
}
8233.1.1={
	holder=21296
}
8260.1.1={
	holder=20296
}
8278.1.1={
	holder=296
}



