#House Olivirana
600.1.1={
	liege="k_volantis"
}
7862.1.1 = { holder=34469144 } # Qarro (nc)
7875.1.1 = { holder=34369144 } # Voronno (nc)
7903.1.1 = { holder=34269144 } # Vogorno (nc)
7935.1.1 = { holder=34169144 } # Tario (nc)
7979.1.1 = { holder=34069144 } # Phalaso (nc)

7995.1.1 = { holder=100069144 } # Navaphos (nc)
8033.1.1 = { holder=100169144 } # Vogarro (nc)
8048.1.1 = { holder=100569144 } # Alios (nc)
8070.1.1 = { holder=100669144 } # Gorys (nc)
8078.1.1 = { holder=100869144 } # Rolloquo (nc)
8118.1.1 = { holder=101169144 } # Lotho (nc)
8126.1.1 = { holder=101569144 } # Nyessos (nc)
8157.1.1 = { holder=101669144 } # Nyessos (nc)
8187.1.1 = { holder=102169144 } # Qavo (nc)
8201.1.1 = { holder=102369144 } # Parquello (nc)
8220.1.1 = { holder=102569144 } # Rolloquo (nc)
8268.1.1 = { holder=102769144 } # Allaquo (nc)
8285.1.1 = { holder=102969144 } # Ordello (nc)
