600.1.1={
	liege="k_volantis"
}
7873.1.1 = { holder=344174371 } # Matarys (nc)
7883.1.1 = { holder=343174371 } # Qavo (nc)
7910.1.1 = { holder=342174371 } # Vogarro (nc)
7933.1.1 = { holder=341174371 } # Benerro (nc)
7956.1.1 = { holder=340174371 } # Orios (nc)

7975.1.1 = { holder=100174371 } # Qoherys (nc)
7996.12.12 = { holder=101174371 } # Matarys (nc)
8011.1.1 = { holder=103174371 } # Vogarro (nc)
8036.1.1 = { holder=104174371 } # Matarys (nc)
8052.1.1 = { holder=106174371 } # Parquello (nc)
8065.1.1 = { holder=111174371 } # Belicho (nc)
8086.1.1 = { holder=115174371 } # Benerro (nc)
8109.1.1 = { holder=116174371 } # Aenar (nc)
8123.1.1 = { holder=119174371 } # Moqorro (nc)
8130.1.1 = { holder=120174371 } # Jaekar (nc)
8148.1.1 = { holder=122174371 } # Doniphos (nc)
8170.1.1 = { holder=130174371 } # Horonno (nc)
8187.1.1 = { holder=134174371 } # Qava (nc)
8203.1.1 = { holder=136174371 } # Benerro (nc)
8221.1.1 = { holder=139174371 } # Orys (nc)
8237.1.1 = { holder=146174371 } # Qoherys (nc)
8267.1.1 = { holder=147174371 } # Malaquo Maegyr (C)