#House Jast
900.1.1={
	liege="d_cornfield"
}
6770.1.1 = { holder = 77320031 }
6805.1.1 = { holder = 0 }
7844.1.1 = { holder=344223 } # Lucas (nc)
7860.1.1 = { holder=343223 } # Androw (nc)
7899.1.1 = { holder=342223 } # Antario (nc)
7924.1.1 = { holder=341223 } # Renford (nc)
7950.1.1 = { holder=340223 } # Jason (nc)

7966.1.1 = { holder=301223 } # Jaime (nc)
8016.1.1 = { holder=300223 } # Lambert (nc)
8026.1.1 = { holder=302223 } # Dunaver (nc)
8045.1.1 = { holder=304223 } # Forley (nc)
8072.1.1 = { holder=311223 } # Willit (nc)
8096.1.1 = { holder=312223 } # Josmyn (nc)
8136.1.1 = { holder=316223 } # Harrold (nc)
8166.1.1 = { holder=320223 } # Daven (nc)
8190.1.1 = { holder=323223 } # Quenton (nc)
8196.1.1 = { holder=324223 } # Kennos (nc)
#Swyfts lose lordship after blackfyre rebellion (assumption)
8196.1.1={
	liege="k_westerlands"
}
8233.1.1 = { holder=326223 } # Leo (nc)
8272.1.1 = { holder=330223 } # Denys (nc)
8274.1.1 = {holder=223} # Sanchor (nc)
8295.1.1 = {holder=1223} # Antario (c)