#House Kamdar
800.1.1={
	liege="d_saath"
	law = succ_primogeniture
}
7849.1.1 = { holder=34556807 } # Shyam (nc)
7870.1.1 = { holder=34456807 } # Vyomesh (nc)
7894.1.1 = { holder=34356807 } # Fanish (nc)
7913.1.1 = { holder=34256807 } # Darshan (nc)
7940.1.1 = { holder=34156807 } # Nishad (nc)
7951.1.1 = { holder=34056807 } # Gayan (nc)

7993.1.1 = { holder=100056807 } # Manaar (nc)
8024.1.1 = { holder=100156807 } # Harith (nc)
8037.1.1 = { holder=100556807 } # Kushal (nc)
8045.1.1 = { holder=100656807 } # Jaafar (nc)
8064.1.1 = { holder=100956807 } # Darshan (nc)
8104.1.1 = { holder=101256807 } # Etash (nc)
8124.1.1 = { holder=101556807 } # Ekavir (nc)
8145.1.1 = { holder=101656807 } # Kedaar (nc)
8176.1.1 = { holder=101956807 } # Uttamesh (nc)
8193.1.1 = { holder=102456807 } # Uttamesh (nc)
8257.1.1 = { holder=102656807 } # Balavant (nc)
8279.1.1 = { holder=103056807 } # Ritesh (nc)
8281.1.1 = { holder=103556807 } # Tarakesh (nc)
8285.1.1 = { holder=103956807 } # Mukesh (nc)
