600.1.1 = { liege = "d_minlong" }
7858.1.1 = { holder=34569167 }
7881.1.1 = { holder=34469167 }
7911.1.1 = { holder=34369167 }
7935.1.1 = { holder=34269167 }
7966.1.1 = { holder=34169167 }
7977.1.1 = { holder=34069167 }
7995.1.1 = { holder=10069167 }
8026.1.1 = { holder=10369167 }
8046.1.1 = { holder=10469167 }
8076.1.1 = { holder=10769167 }
8113.1.1 = { holder=11169167 }
8163.1.1 = { holder=11469167 }
8173.1.1 = { holder=11569167 }
8201.1.1 = { holder=11769167 }
8241.1.1 = { holder=12069167 }
8250.1.1 = { holder=12169167 }
8276.1.1 = { holder=12369167 }