#House Myatt
900.1.1={
	liege="d_silverhill"
}
7878.1.1 = { holder=344215 } # Lorent (nc)
7886.1.1 = { holder=343215 } # Morgon (nc)
7911.1.1 = { holder=342215 } # Rafford (nc)
7931.1.1 = { holder=341215 } # Ilyn (nc)
7954.1.1 = { holder=340215 } # Uthor (nc)

7976.1.1 = { holder=301215 } # Marq (nc)
8018.1.1 = { holder=300215 } # Robert (nc)
8028.1.1 = { holder=302215 } # Garrison (nc)
8066.1.1 = { holder=307215 } # Lyle (nc)
8087.1.1 = { holder=309215 } # Jon (nc)
8116.1.1 = { holder=310215 } # Polliver (nc)
8122.1.1 = { holder=313215 } # Damion (nc)
8141.1.1 = { holder=320215 } # Antario (nc)
8182.1.1 = { holder=323215 } # Dennis (nc)
8211.1.1 = { holder=324215 } # Terrence (nc)
8244.1.1 = { holder=327215 } # Antario (nc)
8259.1.1 = { holder=329215 } # Gawen (nc)
8270.1.1 = {holder=215}