600.1.1 = { liege = "d_tanqu" }
7849.1.1 = { holder=34569108 }
7869.1.1 = { holder=34469108 }
7891.1.1 = { holder=34369108 }
7909.1.1 = { holder=34269108 }
7940.1.1 = { holder=34169108 }
7959.1.1 = { holder=34069108 }
7995.1.1 = { holder=10069108 }
8028.1.1 = { holder=10469108 }
8040.1.1 = { holder=10569108 }
8083.1.1 = { holder=10869108 }
8147.1.1 = { holder=10969108 }
8158.1.1 = { holder=11369108 }
8188.1.1 = { holder=11769108 }
8197.1.1 = { holder=11969108 }
8254.1.1 = { holder=12469108 }
8284.1.1 = { holder=12769108 }
8292.1.1 = { holder=13269108 }