#House Boggs
7600.1.1={
	#liege="e_stormlands"
	law = succ_primogeniture
}
7862.1.1 = { holder=344174410 } # Lorent (nc)
7871.1.1 = { holder=343174410 } # Devan (nc)
7887.1.1 = { 
	liege="d_crackclaw_point"
}
7898.1.1 = { holder=342174410 } # Mortimer (nc)
7902.1.1 = { 
	liege = 0
}
7922.1.1 = { holder=341174410 } # Hareth (nc)
7956.1.1 = { holder=340174410 } # Desmond (nc)

7968.1.1 = { holder=312174410 } # Davos (nc)
7998.2.1={
	liege="e_iron_throne"
}
8011.1.1 = { holder=313174410 } # Guncer (nc)
8027.1.1 = { holder=311174410 } # Humfrey (nc)
8052.1.1 = { holder=310174410 } # Osmund (nc)
8076.1.1 = { holder=308174410 } # Dale (nc)
8097.1.1 = { holder=307174410 } # Triston (nc)
8123.1.1 = { holder=306174410 } # Perkin (nc)
8152.1.1 = { holder=305174410 } # Symon (nc)
8176.1.1 = { holder=304174410 } # Florian (nc)
8196.1.1 = { holder=303174410 } # Mortimer  (Whitewalls Tourney in 212)
8215.1.1 = { holder=302174410 } # Denys (nc)
8220.1.1 = { holder=302174410 } # Denys (nc)
8254.1.1 = { holder=300174410 } # Eustace (nc)
8260.1.1 = { holder=301174410 } # Perkin (nc)
