#House Bettley
900.1.1={
	liege="d_golden_tooth"
}
7862.1.1 = { holder=344206 } # Ben (nc)
7880.1.1 = { holder=343206 } # Humfrey (nc)
7901.1.1 = { holder=342206 } # Halbert (nc)
7923.1.1 = { holder=341206 } # Polliver (nc)
7951.1.1 = { holder=340206 } # Benedict (nc)

7970.1.1 = { holder=600206 } # Burton (nc)
7988.1.1 = { holder=29206 } # Cedric (nc)
7998.6.6 = { holder=27206 } # Gareth (nc)
8063.1.1 = { holder=23206 } # Oswell (nc)
8082.1.1 = { holder=21206 } # Benedict (nc)
8111.1.1 = { holder=19206 } # Osmyn (nc)
8157.7.14 = { holder=15206 } # Jon (nc)
8175.1.1 = { holder=13206 } # Ossifer (nc)
8178.1.1 = { holder=11206 } # Lorent (nc)
8200.1.1 = { holder=8206 } # Roland (nc)
8210.2.11 = { holder=6206 } # Osbert (nc)
8250.1.1 = { holder=206 }