600.1.1={
	liege="d_pentos"
}
7880.1.1 = { holder=344174356 } # Gyllo D'han (nc)
7899.1.1 = { holder=343174366 } # Myrmello Myrakis (nc)
7910.1.1 = { holder=343300012 } # Caezar Narratys (nc)
7911.1.1 = { holder=343174360 } # Syran Estatis (nc)
7915.1.1 = { holder=343174356 } # Nakaro D'han (nc)
7924.1.1 = { holder=342174360 } # Luco Estatis (nc)
7949.1.1 = { holder=341300012 } # Cyrio Narratys (nc)
7951.1.1 = { holder=341300526 } # Gyloro Thelis (nc)

7966.1.1 = { holder=100300012 } # Yorko Narratys (nc)
8006.1.1 = { holder=100300526 } # Gyleno Thelis (nc)
8015.1.1 = { holder=101300526 } # Jaqen Thelis (nc)
8054.1.1 = { holder=102174360 } # Narbo Estatis (nc)
8057.1.1 = { holder=104174366 } # Denyo Myrakis (nc)
8089.1.1 = { holder=109174360 } # Izembaro Estatis (nc)
8094.1.1 = { holder=110174360 } # Ezzelyno Estatis (nc)
8109.1.1 = { holder=112300012 } # Izembaro Narratys (nc)
8128.1.1 = { holder=114300012 } # Denyo Narratys (nc)
8130.1.1 = { holder=119300526 } # Izembaro Thelis (nc)
8143.1.1 = { holder=114174366 } # Lotho Myrakis (nc)
8171.1.1 = { holder=116174366 } # Gyloro Myrakis (nc)
8175.1.1 = { holder=121174360 } # Izembaro Estatis (nc)
8198.1.1 = { holder=125174366 } # Brusco Myrakis (nc)
8200.1.1 = { holder=126174356 } # Daario D'han (nc)

8212.1.1 = { holder=128174356 } # Noho D'han (nc)
8217.1.1 = { holder=130300012 } # Ordello Narratys (nc)
8231.1.1 = { holder=132300012 } # Meralyn Narratys (nc)
8240.1.1 = { holder=126174366 } # Ternesio Myrakis (nc)
8258.1.1 = { holder=129174366 } # Terro Myrakis (nc)
8285.1.1 = { holder=134174356 } # Ternesio D'han (nc)
8290.1.1 = { holder=600000040 } # Illyrio Mopatis (C)