623.1.1={
	liege="d_pyke"
}
3578.1.1 = {
	holder=500107 #Loron the Old Kraken	
}
3632.1.1 = {
	holder=501107
}
3638.1.1 = {
	holder=502107
}
3670.1.1 = { holder=0 }

4230.1.1 = {
	holder = 503107
}
4238.1.1 = { holder = 0 }

4287.1.1 = {
	holder = 504107
}
4303.1.1 = {
	holder = 505107
}
4337.1.1 = { holder = 0 }

4978.1.1 = {
	holder = 506107
}
5014.1.1 = { holder = 0 }

7853.1.1 = { holder=343107 } # Quellon (nc)
7875.1.1 = { holder=342107 } # Qhored (nc)
7914.1.1 = { holder=341107 } # Robin (nc)
7932.1.1 = { holder=340107 } # Rodrik (nc)

7944.1.1={holder=66000107} # Donel (nc) 
7988.9.1={holder=66100107} # Maron (nc)

7993.9.1={holder=26107} # Vickon (C)

8033.1.1 = {
	holder=25107 #Goren
}
8052.1.1={
	holder=24107 #Maron
}
8070.1.1={
	holder=23107 #Balon
}
8102.1.1={
	holder=22107 #Aeron
}
8124.3.7={
	holder=21107 #Vickon
}
8128.8.2={
	holder=20107 #Dalton, the Red Kraken
}
8133.12.1 = {
	holder=36107 #Toron
}
8172.1.1 = {
	holder=19107 #Alton
}
8206.1.1={
	holder=18107 #Dagon
}
8216.1.1={
	holder=299107 #Loron
}
8225.1.1 = {
	holder=17107 #Torwyn
}
8250.1.1 = {
	holder=107 #Quellon
}	
8283.1.1 = {
	holder=1107 #Balon
}

8299.10.3 = {
	holder=2107 #Euron
}