#House Turnberry
900.1.1={
	liege="d_silverhill"
}
7863.1.1 = { holder=344231 } # Richard (nc)
7880.1.1 = { holder=343231 } # Terrence (nc)
7895.1.1 = { holder=342231 } # Tion (nc)
7921.1.1 = { holder=341231 } # Podrick (nc)
7956.1.1 = { holder=340231 } # Tytos (nc)

7970.1.1 = { holder=300231 } # Lambert (nc)
8000.6.6 = { holder=303231 } # Tion (nc)
8022.1.1 = { holder=304231 } # Harwyn (nc)
8060.1.1 = { holder=305231 } # Tobbot (nc)
8070.1.1 = { holder=306231 } # Addam (nc)
#8129.1.1 = { holder=307231 } # Leonella (nc)
8129.1.1 = { holder=310231 } # Leo (nc)
8132.1.1 = { holder=313231 } # Theomore (nc)
8150.1.1 = { holder=318231 } # Cedric (nc)
8201.1.1 = { holder=320231 } # Rafford (nc)
8213.1.1 = { holder=323231 } # Jaime (nc)
8241.1.1 = { holder=325231 } # Tyrek (nc)
8259.1.1 = { holder=328231 } # Kevan (nc)
8267.1.1 = {holder=231} 