#House Visaraia
5214.1.1={
	liege = d_sathar
	law = succ_primogeniture
}
7809.1.1 = { holder=10056817 } # Jash (nc)
7833.1.1 = { holder=10156817 } # Chanak (nc)
7875.1.1 = { holder=10656817 } # Shyam (nc)
7879.1.1 = { holder=10856817 } # Kedaar (nc)
7914.1.1 = { holder=10956817 } # Harith (nc)

#Dothraki
#Fall of Sathar (burned by Moro, son of Mengo)
#Great Khals
7930.1.1 = { 
	holder=102600207 #Moro (C)
	liege = d_vaes_dothrak
}
7946.1.1 = { holder=100600208 } #Horro (C)

#Field of Crows Khal
7951.1.1 = { 
	holder=600221  #Loso the Lame (C)
}
7975.1.1 = {
	holder=340600215 # Mosko (nc)
	liege = d_sathar
}
7986.1.1 = { holder=100600215 } # Kovarro (nc)
8009.1.1 = { holder=101600215 } # Drogo (nc)
8011.1.1 = { holder=102600215 } # Jommo (nc)
8035.1.1 = { holder=104600215 } # Mago (nc)
8070.1.1 = { holder=107600215 } # Jommo (nc)
8074.1.1 = { holder=109600215 } # Dhako (nc)
8102.1.1 = { holder=113600215 } # Bharbo (nc)
8128.1.1 = { holder=114600215 } # Mago (nc)
8147.1.1 = { holder=116600215 } # Loso (nc)
8175.1.1 = { holder=117600215 } # Azho (nc)
8197.1.1 = { holder=120600215 } # Jhaquo (nc)
8224.1.1 = { holder=122600215 } # Zhako (nc)
8269.1.1 = { holder=123600215 } # Rhogoro (nc)
8283.1.1 = { holder=124600215 } # Tihho (nc)
8287.1.1 = { holder=126600215 } # Jommo (c)