#Great Khals
7886.1.1 = {
	holder=100600207 #Mengo (C)
	liege = d_vaes_dothrak
}
7928.1.1 = { holder=102600207 } #Moro (C)
7946.1.1 = { holder=100600208 } #Horro (C)

#Field of Crows Khal
7951.1.1 = { 
	holder=600221  #Loso the Lame (C)
}

#NC Fillers
7978.1.1 = { holder=100600203 } # Temmo (nc)
8018.1.1 = { holder=101600203 } # Cohollo (nc)
8036.1.1 = { holder=104600203 } # Jhaquo (nc)
8067.1.1 = { holder=105600203 } # Rommo (nc)
8108.1.1 = { holder=108600203 } # Rommo (nc)
8126.1.1 = { holder=111600203 } # Drogo (nc)
8161.1.1 = { holder=114600203 } # Aggo (nc)
8223.1.1 = { holder=116600203 } # Drogo (nc)
8228.1.1 = { holder=117600203 } # Jommo (nc)
8244.1.1 = { holder=122600203 } # Quaro (nc)
8261.1.1 = { holder=123600203 } # Kovarro (nc)
8273.1.1 = {
	holder = 1300100 #Bharbo
}
8287.1.1 = { 
	holder=3300100 #Cohollo
	liege = d_southern_steppe
}
8298.10.10 = {
	holder = 3300101 #Pono
	liege = d_vaes_dothrak
}
