#House Sarwyck
900.1.1={
	liege="d_goldroad"
}
7875.1.1 = { holder=3442159 } # Sheldon (nc)
7883.1.1 = { holder=3432159 } # Alester (nc)
7904.1.1 = { holder=3422159 } # Addison (nc)
7924.1.1 = { holder=3412159 } # Morgon (nc)
7962.1.1 = { holder=3402159 } # Emmon (nc)

7987.1.1 = { holder=3122159 } # Raynard (nc)
7998.6.6 = { holder=3092159 } # Cadwyn (nc)
8040.6.17 = { holder=3082159 } # Alester (nc)
8065.1.1 = { holder=3072159 } # Godwyn (nc)
8098.1.1 = { holder=3062159 } # Ryland (nc)
8119.1.1 = { holder=3052159 } # Ryman (nc)
8138.1.1 = { holder=3032159 } # Raynard (nc)
8159.5.11 = { holder=3022159 } # Gareth (nc)
8211.1.1 = { holder=3012159 } # Alyn (nc)
8226.1.1 = { holder=3002159 } # Reginald (nc)
8256.1.1 = { holder=72159 }
8277.1.1 = { holder=2159 }
8297.1.1 = { holder=22159 }
8298.11.1 = { holder=62159 }
