800.1.1={
	liege="d_saath"
	law = succ_primogeniture
}
7844.1.1 = { holder=34356802 } # Utkarsh (nc)
7869.1.1 = { holder=34256802 } # Sahasrad (nc)
7890.1.1 = { holder=34156802 } # Dahak (nc)
7910.1.1 = { holder=34056802 } # Ekavir (nc)
7935.1.1 = { holder=10056802 } # Vishruth (nc)
7975.1.1 = { holder=10256802 } # Nayan (nc)
8008.1.1 = { holder=10456802 } # Uttamesh (nc)
8034.1.1 = { holder=10956802 } # Vishruth (nc)
8042.1.1 = { holder=11356802 } # Jaafar (nc)
8075.1.1 = { holder=11556802 } # Kedaar (nc)
8083.1.1 = { holder=11956802 } # Onkar (nc)
8121.1.1 = { holder=12156802 } # Manaar (nc)
8159.1.1 = { holder=12356802 } # Paarth (nc)
8169.1.1 = { holder=12756802 } # Harshil (nc)
8188.1.1 = { holder=12856802 } # Balavant (nc)
8205.1.1 = { holder=13456802 } # Nayan (nc)
8228.1.1 = { holder=14056802 } # Dahak (nc)
8266.1.1 = { holder=14356802 } # Dinesh (nc)
8281.1.1 = { holder=14456802 } # Rathin (nc)
