7862.1.1 = { holder=340559161 } # Dormund (nc)
7884.1.1 = { holder=342559161 } # Errok (nc)
7896.1.1 = { holder=345559161 } # Torwynd (nc)
7928.1.1 = { holder=346559161 } # Walton (nc)
7987.1.1 = { holder=347559161 } # Soren (nc)
8010.1.1 = { holder=10559161 } # Toregg (nc)
8015.1.1 = { holder=11559161 } # Torwynd (nc)
8038.1.1 = { holder=13559161 } # Joramun (nc)
8068.1.1 = { holder=19559161 } # Jarl (nc)
8081.1.1 = { holder=20559161 } # Quent (nc)
8115.1.1 = { holder=23559161 } # Owen (nc)
8170.1.1 = { holder=24559161 } # Lenyl (nc)
8183.1.1 = { holder=26559161 } # Doss (nc)
8192.1.1 = { holder=31559161 } # Mors (nc)
8213.1.1={
	liege="k_beyond_wall"
}
8226.9.9={
	liege="0"
}
8228.1.1 = { holder=32559161 } # Ryk (nc)
8266.1.1 = { holder=33559161 } # Soren (nc)
8273.1.1 = { holder=36559161 } # Eyron (nc)
#8288.1.1 = { holder=38559161 } # Mors (nc)

8282.1.1={
	holder=157009
}
8298.1.1={
	liege="k_beyond_wall"
}
8300.2.10 = {
	holder=999000666
}