600.1.1 = { liege = "d_wusu" }
7848.1.1 = { holder=34569109 }
7869.1.1 = { holder=34469109 }
7892.1.1 = { holder=34369109 }
7910.1.1 = { holder=34269109 }
7949.1.1 = { holder=34169109 }
7971.1.1 = { holder=34069109 }
7995.1.1 = { holder=10069109 }
8026.1.1 = { holder=10169109 }
8059.1.1 = { holder=10569109 }
8093.1.1 = { holder=10769109 }
8103.1.1 = { holder=11369109 }
8139.1.1 = { holder=11669109 }
8156.1.1 = { holder=12169109 }
8209.1.1 = { holder=12569109 }
8239.1.1 = { holder=12869109 }
8258.1.1 = { holder=13169109 }
8270.1.1 = { holder=13669109 }