#House Agbelu
7800.1.1 = {
	liege=d_omburu
	law = succ_seniority
	law = cognatic_succession
}
7871.1.1 = { holder=340304011 } # Kwasdo (nc)
7885.1.1 = { holder=341304011 } # Qubya (nc)
7899.1.1 = { holder=342304011 } # Oluhura (nc)
7911.1.1 = { holder=343304011 } # Dumisa (nc)
7953.1.1 = { holder=344304011 } # Bapato (nc)
7984.1.1 = { holder=345304011 } # Punuxharo (nc)
7991.1.1 = { holder=100304011 } # Ratemo (nc)
8040.1.1 = { holder=101304011 } # Isingodo (nc)
8045.1.1 = { holder=103304011 } # Lusaxharo (nc)
8058.1.1 = { holder=105304011 } # Gwalahuru (nc)
8072.1.1 = { holder=110304011 } # Nyadundo (nc)
8114.1.1 = { holder=113304011 } # Eskender (nc)
8119.1.1 = { holder=116304011 } # Jarado (nc)
8125.1.1 = { holder=117304011 } # Simbhar (nc)
8185.1.1 = { holder=122304011 } # Gatubhar (nc)
8203.1.1 = { holder=125304011 } # Jalahuru (nc)
8239.1.1 = { holder=130304011 } # Chakoro (nc)
8246.1.1 = { holder=131304011 } # Thabo (nc)
8282.1.1 = { holder=133304011 } # Chibundo (nc)
8295.1.1 = { holder=134304011 } # Tapuhuru (nc)



