900.1.1={ 
	law=succ_primogeniture 
}
7854.1.1 = { holder=11847 } # Lucifer Hardy (C)
7887.1.1 = { 
	liege="d_crackclaw_point"
}
7902.1.1 = { 
	holder=341047  # Gormon (nc)
	liege = 0
}
7903.1.1 = { holder=340047 } # Fredder (nc)

7921.1.1 = { holder=12047 } # Rennifer (nc)
7990.1.1 = { holder=12247 } # Rupert (nc)
7998.2.1 = { 
	liege="e_iron_throne" 
}
8011.1.1 = { holder=10047 } # Clarence (nc)
8030.1.1 = { holder=101047 } # Benjen (nc)
8042.1.1 = { holder=10247 } # Alan (nc)
8052.1.1 = { holder=10347 } # Eustace (nc)
8076.1.1 = { holder=10547 } # Jothos (nc)
8097.1.1 = { holder=10647 } # Lothar (nc)
8123.1.1 = { holder=10747 } # Rupert (nc)
8152.1.1 = { holder=10847 } # Robert (nc)
8176.1.1 = { holder=10947 } # Roger (nc)
8196.1.1 = { holder=11047 } # Barth (nc)
8215.1.1 = { holder=111047 } # Triston (nc)
8254.1.1 = { holder=11247 }
8263.1.1 = { holder=11347 }