6200.1.1={
	liege="e_vale"
	law = succ_primogeniture
}
7830.1.1 = { holder=3030168 }
7889.1.1 = { holder=3029168 }
7921.1.1 = { holder=3028168 }
7942.1.1 = { holder=3027168 }
7968.1.1 = { holder=3026168 }
7990.1.1 = { holder=3003168 }
7999.1.1={ 
	liege="k_vale"
} 
8021.1.1 = { holder=3001168 }
8038.1.1 = { holder=3000168 } # Royce (nc)
8053.1.1 = { holder=3002168 } # Bryen (nc)
8055.1.1 = { holder=3006168 } # Jasper (nc)
8087.1.1 = { holder=3008168 } # Royce (nc)
8121.1.1 = { holder=3009168 } # Denys (nc)
8128.1.1 = { holder=3011168 } # Byron (nc)
8153.1.1 = { holder=3013168 } # Damon (nc)
8179.1.1 = { holder=3016168 } # Royce (nc)
8210.1.1 = { holder=3019168 } # Symond (nc)
8233.1.1 = { holder=3023168 } # Robert (nc)
8246.1.1 = { holder=3025168 } # Nestor (nc)
8277.1.1={
	holder=94039
}