#House Ferren
900.1.1={
	liege="d_ashemark"
}
7859.1.1 = { holder=344218 } # Elmer (nc)
7881.1.1 = { holder=343218 } # Morwyn (nc)
7888.1.1 = { holder=342218 } # Reginald (nc)
7919.1.1 = { holder=341218 } # Franklyn (nc)
7952.1.1 = { holder=340218 } # Farin (nc)

7969.1.1 = { holder=603218 } # Flement (nc)
8015.1.1 = { holder=300218 } # Sebaston (nc)
8030.6.6 = { holder=301218 } # Tyrion (nc)
8043.1.1 = { holder=303218 } # Roland (nc)
8062.1.1 = { holder=304218 } # Martyn (nc)
8076.1.1 = { holder=305218 } # Dunaver (nc)
8080.1.1 = { holder=306218 } # Daven (nc)
8115.1.1 = { holder=310218 } # Mendel (nc)
#8158.1.1 = { holder=312218 } # Humfrey (nc)
8158.1.1 = { holder=315218 } # Roland (nc)
8214.1.1 = { holder=320218 } # Harwyn (nc)
8215.1.1 = { holder=321218 } # Damon (nc)
8233.1.1 = { holder=323218 } # Raynald (nc)
8259.2.8 = { holder=218 }
