#House Tudbury
202.1.1 = {liege="d_cape_wrath"}
7839.1.1 = { holder=344325 } # Endrew (nc)
7866.1.1 = { holder=343325 } # Lucos (nc)
7896.1.1 = { holder=342325 } # Orson (nc)
7898.1.1 = { holder=341325 } # Willis (nc)
7952.1.1 = { holder=340325 } # Bonifer (nc)

7962.1.1 = { holder=304325 } # George (nc)
7994.1.1 = { holder=302325 } # Terrence (nc)
8010.1.1 = { holder=300325 } # Narbert (nc)
8031.1.1 = { holder=301325 } # Criston (nc)
8062.1.1 = { holder=303325 } # Bryce (nc)
8091.1.1 = { holder=306325 } # Grance (nc)
8127.1.1 = { holder=309325 } # Simon (nc)
8144.1.1 = { holder=313325 } # Cedrik (nc)
8147.1.1 = { holder=314325 } # Gowen (nc)
8202.1.1 = { holder=318325 } # Galladon (nc)
8209.1.1 = { holder=319325 } # Brus (nc)
8247.1.1 = { holder=323325 } # Myles (nc)
8271.1.1 = { holder=324325 } # Thurgood (nc)
8294.1.1 = { holder=327325 } # Michael (nc)