#House Nefatis
600.1.1={
	liege="k_volantis"
}
7860.1.1 = { holder=34469117 } # Trego (nc)
7898.1.1 = { holder=34369117 } # Horio (nc)
7922.1.1 = { holder=34269117 } # Cavo (nc)
7949.1.1 = { holder=34169117 } # Harlaro (nc)
7973.1.1 = { holder=34069117 } # Donano (nc)

7995.1.1 = { holder=10069117 } # Gorys (nc)
8026.1.1 = { holder=10269117 } # Doniphos (nc)
8048.1.1 = { holder=10869117 } # Navaphos (nc)
8071.1.1 = { holder=10969117 } # Colloquo (nc)
8093.1.1 = { holder=11369117 } # Horonno (nc)
8112.1.1 = { holder=11669117 } # Belicho (nc)
8173.1.1 = { holder=11869117 } # Methyso (nc)
8190.1.1 = { holder=11969117 } # Malaquo (nc)
8199.1.1 = { holder=12269117 } # Yorko (nc)
8241.1.1 = { holder=12569117 } # Nyessos (nc)
8285.1.1 = { holder=13169117 } # Allaquo (nc)
