#House Drinkwater
7000.1.1={
	liege="d_stoneway"
	law = true_cognatic_succession
}
7849.1.1 = { holder=3002403 } # Symon (nc)
7860.1.1 = { holder=3000903 } # Samwell (nc)
7888.1.1 = { holder=3000803 } # Gerris (nc)
7900.1.1 = { holder=3000703 } # Garyn (nc)
7941.1.1 = { holder=3000603 } # Gerold (nc)
7958.1.1 = { holder=3000103 }
7995.1.1 = { holder=3000303 }
8023.1.1 = { holder=3000203 } # Ysilla (nc)
8056.1.1 = { holder=3000403 } # Arthur (nc)
8067.1.1 = { holder=3000503 } # Anders (nc)
8098.1.1 = { holder=3001003 } # Bedwyck (nc)
8125.1.1 = { holder=3001203 } # Symon (nc)
8158.4.17 = { holder=3001403 } # Gerris (nc)
8160.1.18 = { holder=3001603 } # Loreza (nc)
8190.1.1 = { holder=3001703 } # Ryon (nc)
8197.2.4 = { holder=3001803 } # Gerion (nc)
8237.1.1 = { holder=3002003 } # Gerold (nc)
8240.5.2 = { holder=3002103 } # Arron(nc)
8285.1.1 = { holder=3 } # Deryn (nc)