#House Holt
6000.1.1={
	liege="d_whiteharbor"
	law = succ_primogeniture
}
7832.1.1 = { holder=135800840 }
7890.1.1 = { holder=134800840 }
7900.1.1 = { holder=133800840 }
7930.1.1 = { holder=132800840 }
7960.1.1 = { holder=131800840 }
7988.1.1 = { holder=100800840 } # Robb (nc)
8013.1.1 = { holder=101800840 } # Wynton (nc)
8056.1.1 = { holder=104800840 } # Harwin (nc)
8064.1.1 = { holder=105800840 } # Larence (nc)
8090.1.1 = { holder=107800840 } # Barth (nc)
8113.1.1 = { holder=108800840 } # Ned (nc)
8130.1.1 = { holder=109800840 } # Cregan (nc)
8180.1.1 = { holder=112800840 } # Quent (nc)
8185.1.1 = { holder=115800840 } # Jojen (nc)
8201.1.1 = { holder=117800840 } # Danny (nc)
8250.1.1 = { holder=120800840 } # Cley (nc)
8275.1.1 = { holder=121800840 } # Desmond (nc)
8293.1.1 = { holder=125800840 } # Walton (nc)

