#House Dalthor
600.1.1={
	liege="k_lorath"
}
7872.1.1 = { holder=34469139 } # Thorio (nc)
7880.1.1 = { holder=34369139 } # Nereo (nc)
7912.1.1 = { holder=34269139 } # Roggo (nc)
7935.1.1 = { holder=34169139 } # Yonos (nc)
7969.1.1 = { holder=34069139 } # Syrio (nc)

7996.1.1 = { holder=100069139 } # Noho (nc)
8028.1.1 = { holder=100469139 } # Narbo (nc)
8050.1.1 = { holder=100569139 } # Beqqo (nc)
8078.1.1 = { holder=100769139 } # Roggo (nc)
8130.1.1 = { holder=101069139 } # Moredo (nc)
8153.1.1 = { holder=101269139 } # Tormo (nc)
8169.1.1 = { holder=101469139 } # Moredo (nc)
8196.1.1 = { holder=101869139 } # Ollo (nc)
8221.1.1 = { holder=102069139 } # Roggo (nc)
8242.1.1 = { holder=102169139 } # Denyo (nc)
8278.1.1 = { holder=102569139 } # Moredo (nc)
