600.1.1 = { liege = "d_yuantong" }
7849.1.1 = { holder=34569102 }
7871.1.1 = { holder=34469102 }
7892.1.1 = { holder=34369102 }
7921.1.1 = { holder=34269102 }
7945.1.1 = { holder=34169102 }
7966.1.1 = { holder=34069102 }
7995.1.1 = { holder=10069102 }
8022.1.1 = { holder=10169102 }
8030.1.1 = { holder=10469102 }
8052.1.1 = { holder=10569102 }
8099.1.1 = { holder=11369102 }
8148.1.1 = { holder=11669102 }
8160.1.1 = { holder=11969102 }
8174.1.1 = { holder=12369102 }
8192.1.1 = { holder=12769102 }
8224.1.1 = { holder=13069102 }
8251.1.1 = { holder=13169102 }
8275.1.1 = { holder=13769102 }
8286.1.1 = { holder=13969102 }