1.1.2={
	holder=1993001
	effect = {
	holder_scope = {
		join_society = skinchanger_brotherhood
		society_rank_up = 3
		set_society_grandmaster = yes
		}
	}
}
8252.6.1={
	holder=1993002
	effect = {
	holder_scope = {
		join_society = skinchanger_brotherhood
		society_rank_up = 3
		set_society_grandmaster = yes
		}
	}
}