8044.6.1={
	holder=23143
	liege="k_riverlands"
	law = succ_primogeniture
}
8082.1.1={
	holder=22143
}
8098.1.1={
	holder=21143
}
8107.1.1={
	holder=20143
}
8132.1.1={
	holder=19143
}
8154.1.1={
	holder=17143
}
8180.1.1={
	holder=13143
}
8182.1.1={
	holder=3143
}
8195.3.7={
	liege = 0
}
8196.6.1 = {
	liege = "k_riverlands"
}
8212.1.1={
	liege = 0
	holder = 0
}