1.1.1={
	liege="k_godseyeTK"
	law = succ_primogeniture
}
4219.1.1 = { holder=5521905 } # The Green King
4301.1.1 = { holder=0 }
7600.1.1={
	liege="e_riverlands"
	name = d_gods_eye
}

#House Nutt
7875.1.1 = { holder=341178456 } # Jon (nc)
7886.1.1 = { holder=340178456 } # Jeyne Nutt (C)

#House Durrandon
7901.1.1 = { holder = 3011544 } #Baldric
7921.1.1 = { holder = 3001544 } #Durran
7925.1.1 = { holder = 3002544 } #Angron
7932.1.1 = { holder = 31544 } #Arrec (C)

#House Hoare
7933.1.1 = { holder=11366 } # Harwyn (C)
7956.1.1 = { holder=11466 } # Harrock (nc)
7960.1.1 = { holder=11566 } # Harren (C)
7982.1.1={ #Acquires current name after Harren builded his castle
	reset_name = yes 
}

#House Qoherys
7998.2.1={
	liege="k_riverlands"
	holder=359 #Quenton
}
8009.1.1 = {
	holder=2359 #Gorgon the Guest
}

#House Harroway
8037.9.9 = {
	holder=3357 #Lucas
}
8042.1.1={ #Lucas became a Hand
	liege="e_iron_throne"
}

#House Towers
8044.6.1 = {
	holder=1358 #Walton Towers, won in a melee
	liege="k_riverlands"
}
8044.6.15 = {
	holder=2358 #Jordan
}
8052.1.1 = {
	holder=3358 #Maegor
}
#Princess Rhaena
8061.1.1={
	holder=60540496 #Rhaena
}

#House Strong
8073.7.1={
	holder=6356
}
8076.1.1 = {
	holder=157356
}
8086.1.1 = {
	holder=4356 #Lyonel
}
8103.1.1={
	liege = e_iron_throne
}
8120.6.1 = {
	holder=300356 #Larys
}
#Alys Rivers took Harrenhal after death of Larys
8131.1.8={
	holder = 30509015		#Alys Rivers
	liege = k_riverlands
}

#House Lothston
8151.1.1 = {
	holder=5355 #Ser Lucas
}
8183.1.1 = {
	holder=3355 #Lucas the Pander
}
8195.3.7={
	liege = 0
}
8196.1.1={
	liege = "k_riverlands"
}
8198.1.1 = {
	holder=2355
}
8200.1.1 = {
	holder=1355
}

#House Whent
8229.1.1 = {
	holder=6146
}
8233.1.1 = {
	holder=4146
}
8265.1.1={
	holder=5056 #Walter Whent 
}
8296.1.1={
	holder=15056 #Shella Whent
}
8298.11.2={
	holder=200353 #Janos Slynt
	liege="e_iron_throne"
}
8299.1.4={
	holder=0 #stripped
}
#House Baelish
8299.11.5 = {
	holder=94043 #Littlefinger
	liege=k_vale
}
