6502.1.1={
	holder=3003182
	law = succ_primogeniture
}
6538.1.1={
	holder=0
	liege="e_vale"
}
7830.1.1 = {
	holder=3033182
}
7885.1.1 = {
	holder=3032182
}
7906.1.1 = {
	holder=3031182
}
7931.1.1 = {
	holder=3030182
}
7956.1.1 = {
	holder=3029182
}
7990.1.1={ 
	holder=3002182 
}
7999.1.1={ 
	liege="k_vale"
}
8021.1.1 = { holder=3000182 } # Robar (nc)
8032.1.1 = { holder=3001182 } # Osgood (nc)
8043.1.1 = { holder=3006182 } # Hugh (nc)
8086.1.1 = { holder=3008182 } # Ronnel (nc)
8125.1.1 = { holder=3010182 }
8129.1.1 = { holder=3012182 } # Jasper (nc)
8175.1.1 = { holder=3013182 } # Lyonel (nc)
8179.1.1 = { holder=3015182 } # Gwayne (nc)
# 8195.3.7={
	# liege = 0
# }
# 8196.1.1={
	# liege = "k_vale"
# }

8204.1.1 = { 
	holder=94019
}
8256.1.1={
	holder=94020
}
8257.1.1={
	holder=94021
}