4000.1.1 = {
	active = yes
	liege = k_the_most_devout
	law = succ_open_elective
}
8042.1.1={
	holder=333000652 # Wat the Hewer
}
8042.9.1={
	holder=333000653 # Ser Horys Hill
}
8045.6.1={
	holder=88000242 #Septon Moon
}
8048.6.1={
	holder=88000342 #Lorcas the Learned
}
8048.6.2={ #Supressed, disbanded by Jaehaerys I
	holder=0
	liege = 0
	active = no
}
8165.1.1={ #given great sept of baelor
	capital = 226
}
8300.3.1={ #cersei
	active = yes
	liege = k_the_most_devout
	law = succ_open_elective
}
