#House Jaffaralla
600.1.1={
	law = succ_primogeniture
	law = agnatic_succession
}
7851.1.1 = { holder=34555933 } # Ekram (nc)
7886.1.1 = { holder=34455933 } # Chasat (nc)
7895.1.1 = { holder=34355933 } # Darfeen (nc)
7923.1.1 = { holder=34255933 } # Qamar (nc)
7946.1.1 = { holder=34155933 } # Shakur (nc)
7983.1.1 = { holder=34055933 } # Ussam (nc)

7996.1.1 = { holder=1055933 } # Aram (nc)
8022.1.1 = { holder=1155933 } # Azam (nc)
8048.1.1 = { holder=1455933 } # Fadil (nc)
8076.1.1 = { holder=1655933 } # Is'mail (nc)
8098.1.1 = { holder=1955933 } # Husam (nc)
8101.1.1 = { holder=2355933 } # Aarif (nc)
8148.1.1 = { holder=2455933 } # Mahdi (nc)
8160.1.1 = { holder=2855933 } # Mubarak (nc)
8194.1.1 = { holder=3255933 } # Qadir (nc)
8229.1.1 = { holder=3355933 } # Isa (nc)
8275.1.1 = { holder=3655933 } # Mukhtar (nc)
8299.1.1 = { holder=4055933 } # Sadiq (nc)


