#House Swann
900.1.1 = {liege="e_stormlands"}

1963.1.1 = { holder = 1666010 }
2010.1.1 = {
	holder = 0
}

7852.1.1 = { holder=344306 } # Rolland (nc)
7883.1.1 = { holder=343306 } # Benedict (nc)
7901.1.1 = { holder=342306 } # Ormund (nc)
7926.1.1 = { holder=341306 } # Lucamore (nc)
7949.1.1 = { holder=340306 } # Triston (nc)

7968.1.1 = { holder=304306 } # Steffon (nc)
7998.2.27={
	liege = k_stormlands
}
8004.1.1 = { holder=300306 } # Simon (nc)
8042.1.1 = { holder=302306 } # Myrcella (nc)
8068.1.1 = { holder=303306 } # Johanna (nc)
8094.1.1 = { holder=308306 } # Denys (C)
8106.1.1 = { holder=318306 } # Galbert (nc)
8135.1.1 = { holder=309306 } # Clifford (nc)
8145.1.1 = { holder=312306 } # Allos (nc)
8175.1.1 = { holder=201306 } # Gawen (C)
8195.3.7={
	liege = 0
}
8196.6.1={
	liege = "k_stormlands"
}
8212.1.1 = { holder=313306 } # Rickard (nc)
8231.1.1 = { holder=320306 } # Bryen (nc)
8240.1.1 = { holder=202306 } # Balon (nc)
8263.1.1 = { holder=204306 } # Gulian (C)
8299.1.1 = { liege=0 } # ACOK