600.1.1 = { liege = "k_linhan" }
7860.1.1 = { holder=34569103 }
7878.1.1 = { holder=34469103 }
7898.1.1 = { holder=34369103 }
7915.1.1 = { holder=34269103 }
7940.1.1 = { holder=34169103 }
7966.1.1 = { holder=34069103 }
7995.1.1 = { holder=10069103 }
8034.1.1 = { holder=10169103 }
8039.1.1 = { holder=10369103 }
8075.1.1 = { holder=10769103 }
8109.1.1 = { holder=10869103 }
8115.1.1 = { holder=11169103 }
8124.1.1 = { holder=11269103 }
8140.1.1 = { holder=11669103 }
8182.1.1 = { holder=12269103 }
8199.1.1 = { holder=12669103 }
8208.1.1 = { holder=13069103 }
8250.1.1 = { holder=13169103 }
8291.1.1 = { holder=13369103 }