#House Azantone
600.1.1={
	law = succ_primogeniture
	law = agnatic_succession
}
7866.1.1 = { holder=343570101 } # Balaemor (nc)
7886.1.1 = { holder=342570101 } # Gaelyx (nc)
7909.1.1 = { holder=341570101 } # Aedor (nc)
7925.1.1 = { holder=340570101 } # Gaelar (nc)

7949.1.1 = { holder=100570101 } # Jaekar (nc)
7982.1.1 = { holder=102570101 } # Horonno (nc)
8004.1.1 = { holder=104570101 } # Aenar (nc)
8022.1.1 = { holder=111570101 } # Vaeron (nc)
8090.1.1 = { holder=112570101 } # Parquello (nc)
8123.1.1 = { holder=116570101 } # Belicho (nc)
8144.1.1 = { holder=119570101 } # Horonno (nc)
8190.1.1 = { holder=121570101 } # Orys (nc)
8245.1.1 = { holder=125570101 } # Colloquo (nc)
8253.1.1 = { holder=128570101 } # Orys (nc)
8270.1.1 = { holder=131570101 } # Benerro (nc)
8295.1.1 = { holder=132570101 } # Methyso (nc)
