600.1.1 = { liege="k_yin" }
7839.1.1 = { holder=34569111 }
7851.1.1 = { holder=34469111 }
7888.1.1 = { holder=34369111 }
7922.1.1 = { holder=34269111 }
7940.1.1 = { holder=34169111 }
7965.1.1 = { holder=34069111 }
7995.1.1 = { holder=10069111 }
8031.1.1 = { holder=10369111 }
8064.1.1 = { holder=10669111 }
8076.1.1 = { holder=10869111 }
8097.1.1 = { holder=11169111 }
8128.1.1 = { holder=11369111 }
8130.1.1 = { holder=11869111 }
8179.1.1 = { holder=12169111 }
8207.1.1 = { holder=12369111 }
8228.1.1 = { holder=12669111 }
8264.1.1 = { holder=12769111 }
8283.1.1 = { holder=13269111 }