900.1.1={
	law = succ_primogeniture
	law = cognatic_succession
	law = investiture_law_2
	law = first_night_1
	law = slavery_0
}

###House Fisher
3306.1.1 = { holder=600174430 } # Ryman (nc) # House Fisher
3323.1.1 = { holder=601174430 } # Patrek (nc)
3331.1.1 = { holder=605174430 } # Addan (nc)
3390.1.1 = { holder=612174430 } # Tristan (nc)
3408.1.1 = { holder=613174430 } # Eyman (nc)
3442.1.1 = { holder=614174430 } # Edmure (nc)
3456.1.1 = { holder=0 } 

###House Mudd
5917.1.1 = { holder=600174399 } # Tristan (nc) # House Mudd
5981.1.1 = { holder=601174399 } # Addam (nc)
6000.1.1 = { holder=604174399 } # Tristifer (C)
6034.1.1 = { holder=605174399 } # Tristan (nc)
6072.1.1 = { holder=610174399 } # Tristifer (C)
6122.1.1 = { holder=611174399 } # Roslin (nc)
6141.1.1 = { holder=613174399 } # Tristan (nc)
6150.1.1 = { holder=614174399 } # Jon (nc)
6165.1.1 = { holder=617174399 } # Hosteen (nc)
6226.1.1 = { holder=618174399 } # Addan (nc)
6261.1.1 = { holder=619174399 } # Tristan (nc)
6266.1.1 = { holder=621174399 } # Addan (nc)
6291.1.1 = { holder=622174399 } # Marq (nc)
6318.1.1 = { holder=624174399 } # Tristifer (C)
6344.1.1 = { holder=625174399 } # Tyston (nc)
6349.1.1 = { holder=628174399 } # Brynden (nc)
6390.1.1 = { holder=629174399 } # Tristan (nc)
6402.1.1 = { holder=630174399 } # Roslin (nc)
6453.1.1 = { holder=631174399 } # Brynden (nc)
6475.1.1 = { holder=633174399 } # Addan (nc)
6497.1.1 = { holder=634174399 } # Tristan (nc)
6535.1.1 = { holder=635174399 } # Arson (nc)
6558.1.1 = { holder=637174399 } # Brynden (nc)
6572.1.1 = { holder=640174399 } # Tristan (nc)
6620.1.1 = { holder=642174399 } # Elmar (nc)
6642.1.1 = { holder=643174399 } # Tristifer (C)
6651.1.1 = { holder=644174399 } # Tristifer (C)

6670.1.1 = { holder=0} # Mudd royal line extinct

###House Justman
6939.1.1 = { holder=600174432 } # Benedict (C) # House Jusman
6962.1.1 = { holder=602174432 } # Benedict (C) 
7022.1.1 = { holder=606174432 } # Bernarr (C)
7029.1.1 = { holder=607174432 } # Edwyn (nc)
7038.1.1 = { holder=609174432 } # Brynden (nc)
7086.1.1 = { holder=615174432 } # Bernarr (C)

7092.1.1 = { holder=0 } # Justman royal line extinct

###House Teague
7200.1.1 = { holder=600174435 } # Torrence (C) # House Teague
7250.1.1 = { holder=601174435 } # Brynden (nc)
7251.1.1 = { holder=602174435 } # Petyr (nc)
7275.1.1 = { holder=604174435 } # Theo (C)
7290.1.1 = { holder=0 }
7653.1.1 = { holder=607174435 } # Humfrey (C)
7680.1.1 = { holder=608174435 } # Humfrey  II( C)
7680.1.2 = { holder=609174435 } # Hollis  ( C)
7680.1.3 = { holder=611174435 } # Tyler C)
7680.1.4 = { holder=612174435 } # Damon( C)

#Durrandons of the Stormlands
7680.1.5 = {
     holder = 3501544 #Arlan III
}
7701.1.1={
     holder = 3511544 #Arlan IV
}
7719.1.1={
     holder = 3061544 #Anrec
}	 
7757.1.1 = {
     holder = 3051544 #Arcon
}	
7760.1.1 = {
     holder = 3041544 #Durran
}	
7803.1.1 = {
     holder = 3031544 #Alrec
}	
7840.1.1 = {
     holder = 3021544 #Durran
}	
7867.1.1 = {
     holder = 3011544 #Angron
}	 
7921.1.1 = { 
     holder = 3001544 #Durran
}
7925.1.1={
	holder = 3002544 #Angron
}
7932.1.1={
	holder = 31544 #Arrec (C)
}
#Hoares of the iron islands conquer Riverlands
7933.1.1 = { 
	holder=11366 # Harwyn (C)
	law = agnatic_succession
} 
7956.1.1 = { holder=11466 } # Harrock (nc)
7960.1.1 = { 
	holder=11566 # Harren (C)
} 
7998.2.1={ 
	holder=0 
	law = cognatic_succession
}
8048.6.2 = {
	law = investiture_law_1 
}
8060.1.1={ law = first_night_0 } #First Night abolished
