7000.1.1 = { 
	effect = { 
		set_variable = { which = "lord_paramount_status" value = 1 }
		holder_scope = { set_government_type = feudal_government_LP }
		any_previous_holder = {
			limit = { NOT = { tier = EMPEROR } }
			set_government_type = feudal_government_LP
		}
	}
	law = succ_primogeniture
	law = agnatic_succession
	law = centralization_2
	law = slavery_3
	law = first_night_1
	law = investiture_law_2
}
7998.2.1={
	liege="e_iron_throne"	
	holder=77000
	law = slavery_0
}
8001.1.1={
	holder=26107 #Vickon
}
8033.1.1 = {
	holder=25107 #Goren
}
8043.1.1={
	liege = 0
}
8044.1.1={
	liege = "e_iron_throne"
}
8048.6.2 = {
	law = investiture_law_1 
}
8052.1.1={
	holder=24107 #Maron
}
8060.1.1={ law = first_night_0 } #First Night abolished
8070.1.1={
	holder=23107 #Balon
}
8102.1.1={
	holder=22107 #Aeron
}
8124.3.7={
	holder=21107 #Vickon
}
8128.8.2={
	holder=20107 #Dalton, the Red Kraken
}
8129.4.1={
	liege = 0
}
8131.1.8={
	liege = "e_iron_throne"
}
8133.12.1 = {
	holder=36107 #Toron
}
8172.1.1 = {
	holder=19107 #Alton
}
8195.3.7={
	liege = 0
}
8196.6.1={
	liege = "e_iron_throne"
}
8206.1.1={
	holder=18107 #Dagon
	liege = 0
}
8216.1.1={
	holder=299107 #Loron
	liege = "e_iron_throne"
}
8225.1.1 = {
	holder=17107 #Torwyn
}
8250.1.1 = {
	holder=107 #Quellon
}
8259.11.1={
	liege=0
}
8260.12.31={
	liege="e_iron_throne"
}	
8282.9.15={
	liege=0
}
8282.12.31={
	liege="e_iron_throne"
}
8283.1.1 = {
	holder=1107 #Balon
}
8289.1.1={
	holder=0
	liege="e_iron_isles"
	de_jure_liege = e_iron_isles
}
8289.6.1={
	holder = 1107 #Balon
	liege="e_iron_throne"
	de_jure_liege = e_iron_throne
}
8299.2.10={
	liege=0
}
8299.3.4={
	liege="e_iron_isles"
	law=feudal_contract_2
}
8299.11.3 = {
	holder=2107 #Euron
}