7855.1.1 = { 
	law = slavery_2
	law = centralization_3
	law = succ_open_elective
} 
7886.1.1 = { holder=34369119 } # Gyllo (nc)
7900.1.1 = { holder=344300897 } # Vyrenhor (nc)
7910.1.1 = { holder=35369117 } # Paryos (nc)
7921.1.1 = { holder=35269117 } # Syan (nc)
7943.1.1 = { holder=34169156 } # Pydos (nc)
7949.1.1 = { holder=34169118 } # Lyan (nc)
7960.1.1 = { holder=34069118 } # Daarius (nc)
7992.1.1 = { holder=35069117 } # Soro (nc)

7995.1.1 = { holder=10069116 } # Moreo (nc)
8027.1.1 = { holder=100069118 } # Illyrio (nc)
8039.1.1 = { holder=10469116 } # Moredo (nc)
8053.1.1 = { holder=100669121 } # Gyleno (nc)
8073.1.1 = { holder=100869118 } # Qarro (nc)
8110.1.1 = { holder=100869156 } # Terro (nc)
8129.1.1 = { holder=101169118 } # Collio (nc)
8150.1.1 = { holder=101569156 } # Orbelo (nc)
8193.1.1 = { holder=101769122 } # Noho (nc)
8231.1.1 = { holder=101969122 } # Izembaro (nc)
8236.1.1 = { holder=102369156 } # Gyloro (nc)
8242.1.1 = { holder=102669119 } # Ordello (nc)
8266.1.1 = { holder=102069117 } # Groleo (nc)
8284.1.1 = { holder=102769121 } # Ezzelyno (nc)

