1.1.1={
	liege="e_yi_ti"
	law = succ_primogeniture
	law = true_cognatic_succession
	law = slavery_0
	law = privilege_vassal_king
	effect = {
		add_law = privilege_vassal_king
	}
}
7865.1.1 = { holder = 34455959 }
7878.1.1 = { holder = 34355959 }
7906.1.1 = { holder = 34255959 }
7935.1.1 = { holder = 34155959 }
7953.1.1 = { holder = 34055959 }
7996.1.1 = { holder = 10055959 }
8029.1.1 = { holder = 10355959 }
8040.1.1 = { holder = 10655959 }
8079.1.1 = { holder = 10755959 }
8091.1.1 = { holder = 10855959 }
8107.1.1 = { holder = 11355959 }
8166.1.1 = { holder = 11655959 }
8207.1.1 = { holder = 11855959 }
8216.1.1 = { holder = 11955959 }
8237.1.1 = { holder = 12255959 }
8289.1.1 = { holder = 13255959 }